<?xml version='1.0' encoding='utf-8'?>
<gpx xmlns="http://www.topografix.com/GPX/1/1" xmlns:xsi="http://www.w3.org/2001/XMLSchema-instance" creator="Astro Gemini" version="1.0" xsi:schemaLocation="http://www.topografix.com/GPX/1/0 http://www.topografix.com/GPX/1/0/gpx.xsd">
	<trk>
		<name>FRON0654</name>
		<trkseg>
			<trkpt lat="24.3453735" lon="120.6223470">
				<ele>101.200000</ele>
				<time>2019-06-08T07:39:36Z</time>
				<speed>2.524675</speed>
			</trkpt>
			<trkpt lat="24.3453613" lon="120.6223796">
				<ele>101.200000</ele>
				<time>2019-06-08T07:39:37Z</time>
				<speed>1.937745</speed>
			</trkpt>
			<trkpt lat="24.3453613" lon="120.6223796">
				<ele>101.000000</ele>
				<time>2019-06-08T07:39:37Z</time>
				<speed>1.937745</speed>
			</trkpt>
			<trkpt lat="24.3453532" lon="120.6224121">
				<ele>101.000000</ele>
				<time>2019-06-08T07:39:39Z</time>
				<speed>0.953183</speed>
			</trkpt>
			<trkpt lat="24.3453451" lon="120.6224284">
				<ele>100.200000</ele>
				<time>2019-06-08T07:39:40Z</time>
				<speed>0.488680</speed>
			</trkpt>
			<trkpt lat="24.3453451" lon="120.6224447">
				<ele>99.200000</ele>
				<time>2019-06-08T07:39:41Z</time>
				<speed>0.369339</speed>
			</trkpt>
			<trkpt lat="24.3453369" lon="120.6224772">
				<ele>98.100000</ele>
				<time>2019-06-08T07:39:42Z</time>
				<speed>0.573556</speed>
			</trkpt>
			<trkpt lat="24.3453410" lon="120.6224935">
				<ele>96.800000</ele>
				<time>2019-06-08T07:39:43Z</time>
				<speed>0.775715</speed>
			</trkpt>
			<trkpt lat="24.3453898" lon="120.6225260">
				<ele>96.100000</ele>
				<time>2019-06-08T07:39:44Z</time>
				<speed>1.945461</speed>
			</trkpt>
			<trkpt lat="24.3454061" lon="120.6225586">
				<ele>96.000000</ele>
				<time>2019-06-08T07:39:45Z</time>
				<speed>1.884762</speed>
			</trkpt>
			<trkpt lat="24.3454305" lon="120.6225586">
				<ele>95.900000</ele>
				<time>2019-06-08T07:39:46Z</time>
				<speed>1.844638</speed>
			</trkpt>
			<trkpt lat="24.3454793" lon="120.6225749">
				<ele>94.900000</ele>
				<time>2019-06-08T07:39:48Z</time>
				<speed>2.690826</speed>
			</trkpt>
			<trkpt lat="24.3454834" lon="120.6225911">
				<ele>94.900000</ele>
				<time>2019-06-08T07:39:49Z</time>
				<speed>1.885276</speed>
			</trkpt>
			<trkpt lat="24.3455078" lon="120.6226074">
				<ele>94.800000</ele>
				<time>2019-06-08T07:39:50Z</time>
				<speed>2.308627</speed>
			</trkpt>
			<trkpt lat="24.3455648" lon="120.6226725">
				<ele>95.000000</ele>
				<time>2019-06-08T07:39:51Z</time>
				<speed>4.060674</speed>
			</trkpt>
			<trkpt lat="24.3456055" lon="120.6227051">
				<ele>95.500000</ele>
				<time>2019-06-08T07:39:52Z</time>
				<speed>4.237113</speed>
			</trkpt>
			<trkpt lat="24.3456258" lon="120.6227214">
				<ele>96.400000</ele>
				<time>2019-06-08T07:39:53Z</time>
				<speed>3.378065</speed>
			</trkpt>
			<trkpt lat="24.3456421" lon="120.6227376">
				<ele>97.500000</ele>
				<time>2019-06-08T07:39:54Z</time>
				<speed>3.156873</speed>
			</trkpt>
			<trkpt lat="24.3456828" lon="120.6227539">
				<ele>98.700000</ele>
				<time>2019-06-08T07:39:55Z</time>
				<speed>3.937732</speed>
			</trkpt>
			<trkpt lat="24.3457235" lon="120.6227539">
				<ele>100.800000</ele>
				<time>2019-06-08T07:39:56Z</time>
				<speed>4.240199</speed>
			</trkpt>
			<trkpt lat="24.3457479" lon="120.6227702">
				<ele>102.100000</ele>
				<time>2019-06-08T07:39:57Z</time>
				<speed>3.672302</speed>
			</trkpt>
			<trkpt lat="24.3457642" lon="120.6227702">
				<ele>103.700000</ele>
				<time>2019-06-08T07:39:58Z</time>
				<speed>3.028787</speed>
			</trkpt>
			<trkpt lat="24.3457601" lon="120.6227702">
				<ele>105.400000</ele>
				<time>2019-06-08T07:39:59Z</time>
				<speed>1.769536</speed>
			</trkpt>
			<trkpt lat="24.3457642" lon="120.6227702">
				<ele>106.800000</ele>
				<time>2019-06-08T07:40:00Z</time>
				<speed>1.205239</speed>
			</trkpt>
			<trkpt lat="24.3457682" lon="120.6227865">
				<ele>108.400000</ele>
				<time>2019-06-08T07:40:01Z</time>
				<speed>0.865735</speed>
			</trkpt>
			<trkpt lat="24.3457764" lon="120.6227865">
				<ele>109.800000</ele>
				<time>2019-06-08T07:40:02Z</time>
				<speed>0.801950</speed>
			</trkpt>
			<trkpt lat="24.3457845" lon="120.6227865">
				<ele>110.500000</ele>
				<time>2019-06-08T07:40:03Z</time>
				<speed>0.711415</speed>
			</trkpt>
			<trkpt lat="24.3457886" lon="120.6227865">
				<ele>111.800000</ele>
				<time>2019-06-08T07:40:04Z</time>
				<speed>0.544235</speed>
			</trkpt>
			<trkpt lat="24.3457926" lon="120.6228027">
				<ele>113.000000</ele>
				<time>2019-06-08T07:40:05Z</time>
				<speed>0.307611</speed>
			</trkpt>
			<trkpt lat="24.3457967" lon="120.6228027">
				<ele>114.100000</ele>
				<time>2019-06-08T07:40:06Z</time>
				<speed>0.457816</speed>
			</trkpt>
			<trkpt lat="24.3458130" lon="120.6228190">
				<ele>115.500000</ele>
				<time>2019-06-08T07:40:07Z</time>
				<speed>0.729419</speed>
			</trkpt>
			<trkpt lat="24.3458211" lon="120.6228353">
				<ele>117.200000</ele>
				<time>2019-06-08T07:40:08Z</time>
				<speed>1.026742</speed>
			</trkpt>
			<trkpt lat="24.3458374" lon="120.6228516">
				<ele>117.800000</ele>
				<time>2019-06-08T07:40:09Z</time>
				<speed>1.223758</speed>
			</trkpt>
			<trkpt lat="24.3458455" lon="120.6228516">
				<ele>118.600000</ele>
				<time>2019-06-08T07:40:10Z</time>
				<speed>1.066866</speed>
			</trkpt>
			<trkpt lat="24.3458415" lon="120.6228678">
				<ele>119.700000</ele>
				<time>2019-06-08T07:40:11Z</time>
				<speed>0.848760</speed>
			</trkpt>
			<trkpt lat="24.3458537" lon="120.6228841">
				<ele>120.500000</ele>
				<time>2019-06-08T07:40:12Z</time>
				<speed>1.061722</speed>
			</trkpt>
			<trkpt lat="24.3458740" lon="120.6228841">
				<ele>121.500000</ele>
				<time>2019-06-08T07:40:13Z</time>
				<speed>1.480443</speed>
			</trkpt>
			<trkpt lat="24.3458984" lon="120.6229329">
				<ele>122.500000</ele>
				<time>2019-06-08T07:40:14Z</time>
				<speed>2.590004</speed>
			</trkpt>
			<trkpt lat="24.3459269" lon="120.6229655">
				<ele>122.200000</ele>
				<time>2019-06-08T07:40:15Z</time>
				<speed>2.853377</speed>
			</trkpt>
			<trkpt lat="24.3459595" lon="120.6229980">
				<ele>123.200000</ele>
				<time>2019-06-08T07:40:16Z</time>
				<speed>3.016956</speed>
			</trkpt>
			<trkpt lat="24.3459920" lon="120.6230143">
				<ele>124.200000</ele>
				<time>2019-06-08T07:40:17Z</time>
				<speed>3.049878</speed>
			</trkpt>
			<trkpt lat="24.3460286" lon="120.6230306">
				<ele>125.400000</ele>
				<time>2019-06-08T07:40:18Z</time>
				<speed>3.132696</speed>
			</trkpt>
			<trkpt lat="24.3460653" lon="120.6230469">
				<ele>126.600000</ele>
				<time>2019-06-08T07:40:19Z</time>
				<speed>3.378579</speed>
			</trkpt>
			<trkpt lat="24.3460978" lon="120.6230469">
				<ele>128.200000</ele>
				<time>2019-06-08T07:40:20Z</time>
				<speed>3.189795</speed>
			</trkpt>
			<trkpt lat="24.3461385" lon="120.6230794">
				<ele>129.500000</ele>
				<time>2019-06-08T07:40:21Z</time>
				<speed>3.319938</speed>
			</trkpt>
			<trkpt lat="24.3461507" lon="120.6231120">
				<ele>130.500000</ele>
				<time>2019-06-08T07:40:22Z</time>
				<speed>2.955742</speed>
			</trkpt>
			<trkpt lat="24.3461426" lon="120.6231283">
				<ele>131.400000</ele>
				<time>2019-06-08T07:40:23Z</time>
				<speed>2.117270</speed>
			</trkpt>
			<trkpt lat="24.3461466" lon="120.6231608">
				<ele>132.100000</ele>
				<time>2019-06-08T07:40:24Z</time>
				<speed>1.395053</speed>
			</trkpt>
			<trkpt lat="24.3461548" lon="120.6231934">
				<ele>131.700000</ele>
				<time>2019-06-08T07:40:25Z</time>
				<speed>1.145054</speed>
			</trkpt>
			<trkpt lat="24.3461629" lon="120.6232585">
				<ele>129.600000</ele>
				<time>2019-06-08T07:40:26Z</time>
				<speed>0.880653</speed>
			</trkpt>
			<trkpt lat="24.3461670" lon="120.6233073">
				<ele>125.800000</ele>
				<time>2019-06-08T07:40:27Z</time>
				<speed>0.791147</speed>
			</trkpt>
			<trkpt lat="24.3461711" lon="120.6233561">
				<ele>121.500000</ele>
				<time>2019-06-08T07:40:28Z</time>
				<speed>0.684152</speed>
			</trkpt>
			<trkpt lat="24.3461873" lon="120.6233887">
				<ele>118.500000</ele>
				<time>2019-06-08T07:40:29Z</time>
				<speed>0.584873</speed>
			</trkpt>
			<trkpt lat="24.3461995" lon="120.6234049">
				<ele>116.300000</ele>
				<time>2019-06-08T07:40:30Z</time>
				<speed>0.136316</speed>
			</trkpt>
			<trkpt lat="24.3462118" lon="120.6234375">
				<ele>114.500000</ele>
				<time>2019-06-08T07:40:31Z</time>
				<speed>0.324586</speed>
			</trkpt>
			<trkpt lat="24.3462199" lon="120.6234701">
				<ele>112.400000</ele>
				<time>2019-06-08T07:40:32Z</time>
				<speed>0.318414</speed>
			</trkpt>
			<trkpt lat="24.3462240" lon="120.6235026">
				<ele>111.200000</ele>
				<time>2019-06-08T07:40:33Z</time>
				<speed>0.292694</speed>
			</trkpt>
			<trkpt lat="24.3462321" lon="120.6235189">
				<ele>108.700000</ele>
				<time>2019-06-08T07:40:34Z</time>
				<speed>0.230966</speed>
			</trkpt>
			<trkpt lat="24.3462728" lon="120.6235189">
				<ele>107.200000</ele>
				<time>2019-06-08T07:40:35Z</time>
				<speed>0.672321</speed>
			</trkpt>
			<trkpt lat="24.3462728" lon="120.6235352">
				<ele>106.200000</ele>
				<time>2019-06-08T07:40:36Z</time>
				<speed>0.620881</speed>
			</trkpt>
			<trkpt lat="24.3462728" lon="120.6235514">
				<ele>104.200000</ele>
				<time>2019-06-08T07:40:37Z</time>
				<speed>0.618309</speed>
			</trkpt>
			<trkpt lat="24.3462687" lon="120.6235677">
				<ele>102.300000</ele>
				<time>2019-06-08T07:40:38Z</time>
				<speed>0.321500</speed>
			</trkpt>
			<trkpt lat="24.3462850" lon="120.6235514">
				<ele>101.000000</ele>
				<time>2019-06-08T07:40:39Z</time>
				<speed>1.052977</speed>
			</trkpt>
			<trkpt lat="24.3462931" lon="120.6235514">
				<ele>99.900000</ele>
				<time>2019-06-08T07:40:40Z</time>
				<speed>1.127565</speed>
			</trkpt>
			<trkpt lat="24.3462972" lon="120.6235677">
				<ele>99.000000</ele>
				<time>2019-06-08T07:40:41Z</time>
				<speed>0.956784</speed>
			</trkpt>
			<trkpt lat="24.3463013" lon="120.6235840">
				<ele>98.400000</ele>
				<time>2019-06-08T07:40:42Z</time>
				<speed>0.831785</speed>
			</trkpt>
			<trkpt lat="24.3463053" lon="120.6235840">
				<ele>97.300000</ele>
				<time>2019-06-08T07:40:43Z</time>
				<speed>0.902772</speed>
			</trkpt>
			<trkpt lat="24.3463175" lon="120.6235840">
				<ele>96.400000</ele>
				<time>2019-06-08T07:40:44Z</time>
				<speed>1.105446</speed>
			</trkpt>
			<trkpt lat="24.3463257" lon="120.6235840">
				<ele>95.900000</ele>
				<time>2019-06-08T07:40:45Z</time>
				<speed>0.968101</speed>
			</trkpt>
			<trkpt lat="24.3463257" lon="120.6235840">
				<ele>95.000000</ele>
				<time>2019-06-08T07:40:46Z</time>
				<speed>0.990220</speed>
			</trkpt>
			<trkpt lat="24.3463338" lon="120.6235677">
				<ele>94.400000</ele>
				<time>2019-06-08T07:40:47Z</time>
				<speed>1.055549</speed>
			</trkpt>
			<trkpt lat="24.3463379" lon="120.6235677">
				<ele>93.800000</ele>
				<time>2019-06-08T07:40:48Z</time>
				<speed>1.055549</speed>
			</trkpt>
			<trkpt lat="24.3463460" lon="120.6235677">
				<ele>93.200000</ele>
				<time>2019-06-08T07:40:49Z</time>
				<speed>1.083841</speed>
			</trkpt>
			<trkpt lat="24.3463175" lon="120.6235840">
				<ele>92.500000</ele>
				<time>2019-06-08T07:40:50Z</time>
				<speed>0.359051</speed>
			</trkpt>
			<trkpt lat="24.3463175" lon="120.6236003">
				<ele>91.200000</ele>
				<time>2019-06-08T07:40:51Z</time>
				<speed>0.257200</speed>
			</trkpt>
			<trkpt lat="24.3463175" lon="120.6236003">
				<ele>90.800000</ele>
				<time>2019-06-08T07:40:52Z</time>
				<speed>0.227365</speed>
			</trkpt>
			<trkpt lat="24.3463013" lon="120.6236165">
				<ele>90.400000</ele>
				<time>2019-06-08T07:40:53Z</time>
				<speed>0.116769</speed>
			</trkpt>
			<trkpt lat="24.3463013" lon="120.6236165">
				<ele>89.500000</ele>
				<time>2019-06-08T07:40:54Z</time>
				<speed>0.088477</speed>
			</trkpt>
			<trkpt lat="24.3462769" lon="120.6236165">
				<ele>89.200000</ele>
				<time>2019-06-08T07:40:55Z</time>
				<speed>0.485594</speed>
			</trkpt>
			<trkpt lat="24.3462891" lon="120.6236165">
				<ele>89.000000</ele>
				<time>2019-06-08T07:40:56Z</time>
				<speed>0.311726</speed>
			</trkpt>
			<trkpt lat="24.3462850" lon="120.6236165">
				<ele>88.700000</ele>
				<time>2019-06-08T07:40:57Z</time>
				<speed>0.274175</speed>
			</trkpt>
			<trkpt lat="24.3462809" lon="120.6236165">
				<ele>88.600000</ele>
				<time>2019-06-08T07:40:58Z</time>
				<speed>0.436726</speed>
			</trkpt>
			<trkpt lat="24.3462728" lon="120.6236165">
				<ele>88.400000</ele>
				<time>2019-06-08T07:40:59Z</time>
				<speed>0.992278</speed>
			</trkpt>
			<trkpt lat="24.3462606" lon="120.6236003">
				<ele>88.000000</ele>
				<time>2019-06-08T07:41:00Z</time>
				<speed>1.644537</speed>
			</trkpt>
			<trkpt lat="24.3462443" lon="120.6235840">
				<ele>87.400000</ele>
				<time>2019-06-08T07:41:01Z</time>
				<speed>2.290623</speed>
			</trkpt>
			<trkpt lat="24.3462484" lon="120.6235352">
				<ele>86.900000</ele>
				<time>2019-06-08T07:41:02Z</time>
				<speed>2.785476</speed>
			</trkpt>
			<trkpt lat="24.3462443" lon="120.6235189">
				<ele>86.200000</ele>
				<time>2019-06-08T07:41:03Z</time>
				<speed>2.655333</speed>
			</trkpt>
			<trkpt lat="24.3462362" lon="120.6234863">
				<ele>86.000000</ele>
				<time>2019-06-08T07:41:04Z</time>
				<speed>2.586917</speed>
			</trkpt>
			<trkpt lat="24.3462240" lon="120.6234701">
				<ele>85.900000</ele>
				<time>2019-06-08T07:41:05Z</time>
				<speed>2.523646</speed>
			</trkpt>
			<trkpt lat="24.3462036" lon="120.6234863">
				<ele>85.200000</ele>
				<time>2019-06-08T07:41:06Z</time>
				<speed>2.241755</speed>
			</trkpt>
			<trkpt lat="24.3461833" lon="120.6235026">
				<ele>85.000000</ele>
				<time>2019-06-08T07:41:07Z</time>
				<speed>2.170768</speed>
			</trkpt>
			<trkpt lat="24.3461385" lon="120.6235352">
				<ele>85.500000</ele>
				<time>2019-06-08T07:41:08Z</time>
				<speed>2.479922</speed>
			</trkpt>
			<trkpt lat="24.3461019" lon="120.6235352">
				<ele>85.200000</ele>
				<time>2019-06-08T07:41:09Z</time>
				<speed>2.538564</speed>
			</trkpt>
			<trkpt lat="24.3460612" lon="120.6235514">
				<ele>84.500000</ele>
				<time>2019-06-08T07:41:10Z</time>
				<speed>2.286508</speed>
			</trkpt>
			<trkpt lat="24.3460246" lon="120.6235677">
				<ele>83.300000</ele>
				<time>2019-06-08T07:41:11Z</time>
				<speed>2.109554</speed>
			</trkpt>
			<trkpt lat="24.3459961" lon="120.6235840">
				<ele>83.100000</ele>
				<time>2019-06-08T07:41:12Z</time>
				<speed>2.026222</speed>
			</trkpt>
			<trkpt lat="24.3459757" lon="120.6235840">
				<ele>82.700000</ele>
				<time>2019-06-08T07:41:13Z</time>
				<speed>1.791141</speed>
			</trkpt>
			<trkpt lat="24.3459351" lon="120.6236003">
				<ele>82.300000</ele>
				<time>2019-06-08T07:41:14Z</time>
				<speed>1.915626</speed>
			</trkpt>
			<trkpt lat="24.3459188" lon="120.6236003">
				<ele>80.800000</ele>
				<time>2019-06-08T07:41:15Z</time>
				<speed>1.844638</speed>
			</trkpt>
			<trkpt lat="24.3459025" lon="120.6236003">
				<ele>80.600000</ele>
				<time>2019-06-08T07:41:16Z</time>
				<speed>2.016448</speed>
			</trkpt>
			<trkpt lat="24.3458944" lon="120.6235840">
				<ele>80.300000</ele>
				<time>2019-06-08T07:41:17Z</time>
				<speed>1.922827</speed>
			</trkpt>
			<trkpt lat="24.3458862" lon="120.6235840">
				<ele>81.200000</ele>
				<time>2019-06-08T07:41:18Z</time>
				<speed>1.730442</speed>
			</trkpt>
			<trkpt lat="24.3458781" lon="120.6235677">
				<ele>81.400000</ele>
				<time>2019-06-08T07:41:19Z</time>
				<speed>1.724783</speed>
			</trkpt>
			<trkpt lat="24.3458618" lon="120.6235677">
				<ele>81.200000</ele>
				<time>2019-06-08T07:41:20Z</time>
				<speed>2.019534</speed>
			</trkpt>
			<trkpt lat="24.3458455" lon="120.6235514">
				<ele>81.000000</ele>
				<time>2019-06-08T07:41:21Z</time>
				<speed>2.721690</speed>
			</trkpt>
			<trkpt lat="24.3458293" lon="120.6235352">
				<ele>81.100000</ele>
				<time>2019-06-08T07:41:22Z</time>
				<speed>2.532905</speed>
			</trkpt>
			<trkpt lat="24.3458130" lon="120.6235189">
				<ele>81.100000</ele>
				<time>2019-06-08T07:41:23Z</time>
				<speed>2.066345</speed>
			</trkpt>
			<trkpt lat="24.3458049" lon="120.6235189">
				<ele>81.300000</ele>
				<time>2019-06-08T07:41:24Z</time>
				<speed>1.501019</speed>
			</trkpt>
			<trkpt lat="24.3458008" lon="120.6235189">
				<ele>81.700000</ele>
				<time>2019-06-08T07:41:25Z</time>
				<speed>1.132194</speed>
			</trkpt>
			<trkpt lat="24.3457967" lon="120.6235026">
				<ele>82.100000</ele>
				<time>2019-06-08T07:41:26Z</time>
				<speed>0.741765</speed>
			</trkpt>
			<trkpt lat="24.3457926" lon="120.6235189">
				<ele>82.200000</ele>
				<time>2019-06-08T07:41:27Z</time>
				<speed>0.178497</speed>
			</trkpt>
			<trkpt lat="24.3457926" lon="120.6235189">
				<ele>82.100000</ele>
				<time>2019-06-08T07:41:28Z</time>
				<speed>0.119341</speed>
			</trkpt>
			<trkpt lat="24.3457967" lon="120.6235189">
				<ele>81.800000</ele>
				<time>2019-06-08T07:41:29Z</time>
				<speed>0.300410</speed>
			</trkpt>
			<trkpt lat="24.3458008" lon="120.6235189">
				<ele>81.800000</ele>
				<time>2019-06-08T07:41:30Z</time>
				<speed>0.237653</speed>
			</trkpt>
			<trkpt lat="24.3457967" lon="120.6235189">
				<ele>81.900000</ele>
				<time>2019-06-08T07:41:31Z</time>
				<speed>0.071502</speed>
			</trkpt>
			<trkpt lat="24.3457967" lon="120.6235189">
				<ele>81.700000</ele>
				<time>2019-06-08T07:41:32Z</time>
				<speed>0.253085</speed>
			</trkpt>
			<trkpt lat="24.3457926" lon="120.6235189">
				<ele>81.600000</ele>
				<time>2019-06-08T07:41:33Z</time>
				<speed>0.389401</speed>
			</trkpt>
			<trkpt lat="24.3457886" lon="120.6235189">
				<ele>81.400000</ele>
				<time>2019-06-08T07:41:34Z</time>
				<speed>0.181069</speed>
			</trkpt>
			<trkpt lat="24.3457886" lon="120.6235189">
				<ele>81.100000</ele>
				<time>2019-06-08T07:41:35Z</time>
				<speed>0.297323</speed>
			</trkpt>
			<trkpt lat="24.3457926" lon="120.6235026">
				<ele>80.700000</ele>
				<time>2019-06-08T07:41:36Z</time>
				<speed>0.440326</speed>
			</trkpt>
			<trkpt lat="24.3457926" lon="120.6235026">
				<ele>80.400000</ele>
				<time>2019-06-08T07:41:37Z</time>
				<speed>0.856990</speed>
			</trkpt>
			<trkpt lat="24.3457723" lon="120.6235189">
				<ele>80.000000</ele>
				<time>2019-06-08T07:41:38Z</time>
				<speed>0.759769</speed>
			</trkpt>
			<trkpt lat="24.3457560" lon="120.6235352">
				<ele>79.700000</ele>
				<time>2019-06-08T07:41:39Z</time>
				<speed>0.860591</speed>
			</trkpt>
			<trkpt lat="24.3457560" lon="120.6235352">
				<ele>79.800000</ele>
				<time>2019-06-08T07:41:40Z</time>
				<speed>0.479421</speed>
			</trkpt>
			<trkpt lat="24.3457520" lon="120.6235352">
				<ele>80.000000</ele>
				<time>2019-06-08T07:41:41Z</time>
				<speed>0.408948</speed>
			</trkpt>
			<trkpt lat="24.3457642" lon="120.6235189">
				<ele>80.700000</ele>
				<time>2019-06-08T07:41:42Z</time>
				<speed>0.427466</speed>
			</trkpt>
		</trkseg>
	</trk>
</gpx>