<?xml version='1.0' encoding='utf-8'?>
<gpx xmlns="http://www.topografix.com/GPX/1/1" xmlns:xsi="http://www.w3.org/2001/XMLSchema-instance" creator="Astro Gemini" version="1.0" xsi:schemaLocation="http://www.topografix.com/GPX/1/0 http://www.topografix.com/GPX/1/0/gpx.xsd">
	<trk>
		<name>FRON0619</name>
		<trkseg>
			<trkpt lat="24.0955811" lon="120.6863118">
				<ele>50.800000</ele>
				<time>2019-06-08T03:43:34Z</time>
				<speed>3.187737</speed>
			</trkpt>
			<trkpt lat="24.0955648" lon="120.6863118">
				<ele>51.200000</ele>
				<time>2019-06-08T03:43:35Z</time>
				<speed>2.544737</speed>
			</trkpt>
			<trkpt lat="24.0955566" lon="120.6863118">
				<ele>49.800000</ele>
				<time>2019-06-08T03:43:36Z</time>
				<speed>1.113162</speed>
			</trkpt>
			<trkpt lat="24.0955200" lon="120.6863118">
				<ele>75.800000</ele>
				<time>2019-06-08T03:43:57Z</time>
				<speed>1.060693</speed>
			</trkpt>
			<trkpt lat="24.0955241" lon="120.6863118">
				<ele>75.100000</ele>
				<time>2019-06-08T03:43:58Z</time>
				<speed>0.173867</speed>
			</trkpt>
			<trkpt lat="24.0955363" lon="120.6863281">
				<ele>74.600000</ele>
				<time>2019-06-08T03:43:59Z</time>
				<speed>0.670778</speed>
			</trkpt>
			<trkpt lat="24.0955363" lon="120.6863281">
				<ele>74.100000</ele>
				<time>2019-06-08T03:44:00Z</time>
				<speed>0.269031</speed>
			</trkpt>
			<trkpt lat="24.0955404" lon="120.6863118">
				<ele>73.600000</ele>
				<time>2019-06-08T03:44:01Z</time>
				<speed>0.536519</speed>
			</trkpt>
			<trkpt lat="24.0955444" lon="120.6862793">
				<ele>70.100000</ele>
				<time>2019-06-08T03:44:02Z</time>
				<speed>0.317385</speed>
			</trkpt>
			<trkpt lat="24.0955485" lon="120.6862630">
				<ele>68.500000</ele>
				<time>2019-06-08T03:44:03Z</time>
				<speed>0.126028</speed>
			</trkpt>
			<trkpt lat="24.0955526" lon="120.6862630">
				<ele>67.600000</ele>
				<time>2019-06-08T03:44:04Z</time>
				<speed>0.178497</speed>
			</trkpt>
			<trkpt lat="24.0955607" lon="120.6862630">
				<ele>67.200000</ele>
				<time>2019-06-08T03:44:05Z</time>
				<speed>0.191357</speed>
			</trkpt>
			<trkpt lat="24.0955688" lon="120.6862630">
				<ele>67.000000</ele>
				<time>2019-06-08T03:44:06Z</time>
				<speed>0.153291</speed>
			</trkpt>
			<trkpt lat="24.0955770" lon="120.6862630">
				<ele>67.100000</ele>
				<time>2019-06-08T03:44:07Z</time>
				<speed>0.275204</speed>
			</trkpt>
			<trkpt lat="24.0955851" lon="120.6862630">
				<ele>67.000000</ele>
				<time>2019-06-08T03:44:08Z</time>
				<speed>0.610078</speed>
			</trkpt>
			<trkpt lat="24.0955933" lon="120.6862630">
				<ele>65.900000</ele>
				<time>2019-06-08T03:44:09Z</time>
				<speed>0.149176</speed>
			</trkpt>
			<trkpt lat="24.0955973" lon="120.6862630">
				<ele>65.100000</ele>
				<time>2019-06-08T03:44:10Z</time>
				<speed>0.350306</speed>
			</trkpt>
			<trkpt lat="24.0955973" lon="120.6862467">
				<ele>64.100000</ele>
				<time>2019-06-08T03:44:11Z</time>
				<speed>0.382714</speed>
			</trkpt>
			<trkpt lat="24.0955973" lon="120.6862467">
				<ele>63.000000</ele>
				<time>2019-06-08T03:44:12Z</time>
				<speed>0.753082</speed>
			</trkpt>
			<trkpt lat="24.0956014" lon="120.6862467">
				<ele>62.100000</ele>
				<time>2019-06-08T03:44:13Z</time>
				<speed>0.422837</speed>
			</trkpt>
			<trkpt lat="24.0956055" lon="120.6862467">
				<ele>60.900000</ele>
				<time>2019-06-08T03:44:14Z</time>
				<speed>0.182612</speed>
			</trkpt>
			<trkpt lat="24.0956055" lon="120.6862630">
				<ele>59.700000</ele>
				<time>2019-06-08T03:44:15Z</time>
				<speed>0.718102</speed>
			</trkpt>
			<trkpt lat="24.0956055" lon="120.6862630">
				<ele>58.500000</ele>
				<time>2019-06-08T03:44:16Z</time>
				<speed>0.269546</speed>
			</trkpt>
			<trkpt lat="24.0956055" lon="120.6862630">
				<ele>58.000000</ele>
				<time>2019-06-08T03:44:17Z</time>
				<speed>0.435697</speed>
			</trkpt>
			<trkpt lat="24.0956055" lon="120.6862630">
				<ele>57.300000</ele>
				<time>2019-06-08T03:44:18Z</time>
				<speed>0.352364</speed>
			</trkpt>
			<trkpt lat="24.0956095" lon="120.6862630">
				<ele>57.300000</ele>
				<time>2019-06-08T03:44:19Z</time>
				<speed>0.444956</speed>
			</trkpt>
			<trkpt lat="24.0956136" lon="120.6862467">
				<ele>57.000000</ele>
				<time>2019-06-08T03:44:20Z</time>
				<speed>0.471190</speed>
			</trkpt>
			<trkpt lat="24.0956095" lon="120.6862467">
				<ele>56.300000</ele>
				<time>2019-06-08T03:44:21Z</time>
				<speed>0.159978</speed>
			</trkpt>
			<trkpt lat="24.0956136" lon="120.6862467">
				<ele>56.500000</ele>
				<time>2019-06-08T03:44:22Z</time>
				<speed>0.476849</speed>
			</trkpt>
			<trkpt lat="24.0956177" lon="120.6862630">
				<ele>56.200000</ele>
				<time>2019-06-08T03:44:23Z</time>
				<speed>0.301438</speed>
			</trkpt>
			<trkpt lat="24.0956217" lon="120.6862630">
				<ele>56.400000</ele>
				<time>2019-06-08T03:44:24Z</time>
				<speed>0.343619</speed>
			</trkpt>
			<trkpt lat="24.0956217" lon="120.6862630">
				<ele>56.000000</ele>
				<time>2019-06-08T03:44:25Z</time>
				<speed>0.218620</speed>
			</trkpt>
			<trkpt lat="24.0956177" lon="120.6862630">
				<ele>56.000000</ele>
				<time>2019-06-08T03:44:26Z</time>
				<speed>0.113682</speed>
			</trkpt>
			<trkpt lat="24.0956177" lon="120.6862630">
				<ele>56.100000</ele>
				<time>2019-06-08T03:44:27Z</time>
				<speed>0.137859</speed>
			</trkpt>
			<trkpt lat="24.0956217" lon="120.6862630">
				<ele>56.000000</ele>
				<time>2019-06-08T03:44:28Z</time>
				<speed>0.304525</speed>
			</trkpt>
			<trkpt lat="24.0956177" lon="120.6862630">
				<ele>55.400000</ele>
				<time>2019-06-08T03:44:29Z</time>
				<speed>0.279834</speed>
			</trkpt>
			<trkpt lat="24.0956177" lon="120.6862630">
				<ele>54.800000</ele>
				<time>2019-06-08T03:44:30Z</time>
				<speed>0.190328</speed>
			</trkpt>
			<trkpt lat="24.0956177" lon="120.6862630">
				<ele>55.000000</ele>
				<time>2019-06-08T03:44:31Z</time>
				<speed>0.141974</speed>
			</trkpt>
			<trkpt lat="24.0956177" lon="120.6862630">
				<ele>54.700000</ele>
				<time>2019-06-08T03:44:32Z</time>
				<speed>0.158950</speed>
			</trkpt>
			<trkpt lat="24.0956177" lon="120.6862630">
				<ele>54.400000</ele>
				<time>2019-06-08T03:44:33Z</time>
				<speed>0.219649</speed>
			</trkpt>
			<trkpt lat="24.0956136" lon="120.6862793">
				<ele>53.700000</ele>
				<time>2019-06-08T03:44:34Z</time>
				<speed>0.097736</speed>
			</trkpt>
			<trkpt lat="24.0956177" lon="120.6862793">
				<ele>53.300000</ele>
				<time>2019-06-08T03:44:35Z</time>
				<speed>0.219649</speed>
			</trkpt>
			<trkpt lat="24.0956177" lon="120.6862793">
				<ele>53.400000</ele>
				<time>2019-06-08T03:44:36Z</time>
				<speed>0.345677</speed>
			</trkpt>
			<trkpt lat="24.0956177" lon="120.6862793">
				<ele>53.000000</ele>
				<time>2019-06-08T03:44:37Z</time>
				<speed>0.280862</speed>
			</trkpt>
			<trkpt lat="24.0956177" lon="120.6862956">
				<ele>52.600000</ele>
				<time>2019-06-08T03:44:38Z</time>
				<speed>0.394545</speed>
			</trkpt>
			<trkpt lat="24.0956177" lon="120.6862793">
				<ele>52.200000</ele>
				<time>2019-06-08T03:44:39Z</time>
				<speed>0.197015</speed>
			</trkpt>
			<trkpt lat="24.0956136" lon="120.6862793">
				<ele>51.900000</ele>
				<time>2019-06-08T03:44:40Z</time>
				<speed>0.165122</speed>
			</trkpt>
			<trkpt lat="24.0956177" lon="120.6862793">
				<ele>52.600000</ele>
				<time>2019-06-08T03:44:41Z</time>
				<speed>0.192900</speed>
			</trkpt>
			<trkpt lat="24.0956217" lon="120.6862956">
				<ele>52.900000</ele>
				<time>2019-06-08T03:44:42Z</time>
				<speed>0.120370</speed>
			</trkpt>
			<trkpt lat="24.0956258" lon="120.6862956">
				<ele>52.900000</ele>
				<time>2019-06-08T03:44:43Z</time>
				<speed>0.255657</speed>
			</trkpt>
			<trkpt lat="24.0956258" lon="120.6862956">
				<ele>52.700000</ele>
				<time>2019-06-08T03:44:44Z</time>
				<speed>0.370882</speed>
			</trkpt>
			<trkpt lat="24.0956299" lon="120.6863118">
				<ele>52.800000</ele>
				<time>2019-06-08T03:44:45Z</time>
				<speed>0.299895</speed>
			</trkpt>
			<trkpt lat="24.0956299" lon="120.6862956">
				<ele>52.600000</ele>
				<time>2019-06-08T03:44:46Z</time>
				<speed>0.085905</speed>
			</trkpt>
			<trkpt lat="24.0956340" lon="120.6863118">
				<ele>52.700000</ele>
				<time>2019-06-08T03:44:47Z</time>
				<speed>0.069958</speed>
			</trkpt>
			<trkpt lat="24.0956340" lon="120.6862956">
				<ele>53.100000</ele>
				<time>2019-06-08T03:44:48Z</time>
				<speed>0.212447</speed>
			</trkpt>
			<trkpt lat="24.0956340" lon="120.6862956">
				<ele>53.100000</ele>
				<time>2019-06-08T03:44:49Z</time>
				<speed>0.172838</speed>
			</trkpt>
			<trkpt lat="24.0956340" lon="120.6862956">
				<ele>53.200000</ele>
				<time>2019-06-08T03:44:50Z</time>
				<speed>0.153806</speed>
			</trkpt>
			<trkpt lat="24.0956340" lon="120.6862956">
				<ele>53.500000</ele>
				<time>2019-06-08T03:44:51Z</time>
				<speed>0.311212</speed>
			</trkpt>
			<trkpt lat="24.0956340" lon="120.6862956">
				<ele>54.300000</ele>
				<time>2019-06-08T03:44:52Z</time>
				<speed>0.225307</speed>
			</trkpt>
			<trkpt lat="24.0956380" lon="120.6862956">
				<ele>55.100000</ele>
				<time>2019-06-08T03:44:53Z</time>
				<speed>0.098765</speed>
			</trkpt>
			<trkpt lat="24.0956421" lon="120.6862956">
				<ele>56.000000</ele>
				<time>2019-06-08T03:44:54Z</time>
				<speed>0.114197</speed>
			</trkpt>
			<trkpt lat="24.0956421" lon="120.6863118">
				<ele>56.400000</ele>
				<time>2019-06-08T03:44:55Z</time>
				<speed>0.103394</speed>
			</trkpt>
			<trkpt lat="24.0956421" lon="120.6863118">
				<ele>56.600000</ele>
				<time>2019-06-08T03:44:56Z</time>
				<speed>0.222735</speed>
			</trkpt>
			<trkpt lat="24.0956421" lon="120.6863118">
				<ele>57.400000</ele>
				<time>2019-06-08T03:44:57Z</time>
				<speed>0.336932</speed>
			</trkpt>
			<trkpt lat="24.0956421" lon="120.6863118">
				<ele>57.800000</ele>
				<time>2019-06-08T03:44:58Z</time>
				<speed>0.040638</speed>
			</trkpt>
			<trkpt lat="24.0956421" lon="120.6863118">
				<ele>58.100000</ele>
				<time>2019-06-08T03:44:59Z</time>
				<speed>0.107510</speed>
			</trkpt>
			<trkpt lat="24.0956462" lon="120.6863281">
				<ele>59.200000</ele>
				<time>2019-06-08T03:45:00Z</time>
				<speed>0.185698</speed>
			</trkpt>
			<trkpt lat="24.0956462" lon="120.6863281">
				<ele>60.200000</ele>
				<time>2019-06-08T03:45:01Z</time>
				<speed>0.102366</speed>
			</trkpt>
			<trkpt lat="24.0956421" lon="120.6863281">
				<ele>59.800000</ele>
				<time>2019-06-08T03:45:02Z</time>
				<speed>0.488166</speed>
			</trkpt>
			<trkpt lat="24.0956217" lon="120.6863444">
				<ele>56.400000</ele>
				<time>2019-06-08T03:45:03Z</time>
				<speed>1.582294</speed>
			</trkpt>
			<trkpt lat="24.0955973" lon="120.6863770">
				<ele>52.800000</ele>
				<time>2019-06-08T03:45:04Z</time>
				<speed>3.082799</speed>
			</trkpt>
			<trkpt lat="24.0955648" lon="120.6864258">
				<ele>51.700000</ele>
				<time>2019-06-08T03:45:05Z</time>
				<speed>4.390404</speed>
			</trkpt>
			<trkpt lat="24.0955160" lon="120.6864746">
				<ele>49.800000</ele>
				<time>2019-06-08T03:45:06Z</time>
				<speed>6.061690</speed>
			</trkpt>
			<trkpt lat="24.0954631" lon="120.6865397">
				<ele>49.400000</ele>
				<time>2019-06-08T03:45:07Z</time>
				<speed>7.481948</speed>
			</trkpt>
			<trkpt lat="24.0954020" lon="120.6866048">
				<ele>49.400000</ele>
				<time>2019-06-08T03:45:08Z</time>
				<speed>8.296757</speed>
			</trkpt>
			<trkpt lat="24.0953328" lon="120.6866862">
				<ele>49.400000</ele>
				<time>2019-06-08T03:45:09Z</time>
				<speed>8.958791</speed>
			</trkpt>
			<trkpt lat="24.0952718" lon="120.6867676">
				<ele>49.800000</ele>
				<time>2019-06-08T03:45:10Z</time>
				<speed>9.418150</speed>
			</trkpt>
			<trkpt lat="24.0952067" lon="120.6868490">
				<ele>50.100000</ele>
				<time>2019-06-08T03:45:11Z</time>
				<speed>10.122878</speed>
			</trkpt>
			<trkpt lat="24.0951375" lon="120.6869466">
				<ele>49.500000</ele>
				<time>2019-06-08T03:45:12Z</time>
				<speed>10.736043</speed>
			</trkpt>
			<trkpt lat="24.0950643" lon="120.6870280">
				<ele>48.700000</ele>
				<time>2019-06-08T03:45:13Z</time>
				<speed>11.193344</speed>
			</trkpt>
			<trkpt lat="24.0949829" lon="120.6871094">
				<ele>48.100000</ele>
				<time>2019-06-08T03:45:14Z</time>
				<speed>11.421738</speed>
			</trkpt>
			<trkpt lat="24.0949015" lon="120.6872070">
				<ele>48.100000</ele>
				<time>2019-06-08T03:45:15Z</time>
				<speed>11.962372</speed>
			</trkpt>
			<trkpt lat="24.0948161" lon="120.6873047">
				<ele>48.400000</ele>
				<time>2019-06-08T03:45:16Z</time>
				<speed>12.362576</speed>
			</trkpt>
			<trkpt lat="24.0947225" lon="120.6874023">
				<ele>49.000000</ele>
				<time>2019-06-08T03:45:17Z</time>
				<speed>12.975226</speed>
			</trkpt>
			<trkpt lat="24.0946289" lon="120.6875000">
				<ele>48.700000</ele>
				<time>2019-06-08T03:45:18Z</time>
				<speed>13.330676</speed>
			</trkpt>
			<trkpt lat="24.0945394" lon="120.6876139">
				<ele>48.900000</ele>
				<time>2019-06-08T03:45:19Z</time>
				<speed>13.829644</speed>
			</trkpt>
			<trkpt lat="24.0944377" lon="120.6876628">
				<ele>48.900000</ele>
				<time>2019-06-08T03:45:20Z</time>
				<speed>0.000000</speed>
			</trkpt>
			<trkpt lat="24.0943359" lon="120.6877930">
				<ele>49.400000</ele>
				<time>2019-06-08T03:45:21Z</time>
				<speed>14.150630</speed>
			</trkpt>
			<trkpt lat="24.0942342" lon="120.6879069">
				<ele>50.000000</ele>
				<time>2019-06-08T03:45:22Z</time>
				<speed>14.645997</speed>
			</trkpt>
			<trkpt lat="24.0941406" lon="120.6880046">
				<ele>50.300000</ele>
				<time>2019-06-08T03:45:23Z</time>
				<speed>14.611017</speed>
			</trkpt>
			<trkpt lat="24.0940430" lon="120.6881185">
				<ele>50.900000</ele>
				<time>2019-06-08T03:45:24Z</time>
				<speed>14.908341</speed>
			</trkpt>
			<trkpt lat="24.0939535" lon="120.6882650">
				<ele>51.100000</ele>
				<time>2019-06-08T03:45:25Z</time>
				<speed>15.380046</speed>
			</trkpt>
			<trkpt lat="24.0938599" lon="120.6883789">
				<ele>52.000000</ele>
				<time>2019-06-08T03:45:26Z</time>
				<speed>15.633131</speed>
			</trkpt>
			<trkpt lat="24.0937581" lon="120.6885091">
				<ele>52.600000</ele>
				<time>2019-06-08T03:45:27Z</time>
				<speed>16.033334</speed>
			</trkpt>
			<trkpt lat="24.0936564" lon="120.6886393">
				<ele>53.300000</ele>
				<time>2019-06-08T03:45:28Z</time>
				<speed>16.360492</speed>
			</trkpt>
			<trkpt lat="24.0935547" lon="120.6887695">
				<ele>53.500000</ele>
				<time>2019-06-08T03:45:29Z</time>
				<speed>16.434051</speed>
			</trkpt>
			<trkpt lat="24.0934489" lon="120.6888997">
				<ele>53.700000</ele>
				<time>2019-06-08T03:45:30Z</time>
				<speed>16.656273</speed>
			</trkpt>
			<trkpt lat="24.0933512" lon="120.6890299">
				<ele>54.200000</ele>
				<time>2019-06-08T03:45:31Z</time>
				<speed>16.620779</speed>
			</trkpt>
			<trkpt lat="24.0932495" lon="120.6891602">
				<ele>54.700000</ele>
				<time>2019-06-08T03:45:32Z</time>
				<speed>16.726230</speed>
			</trkpt>
			<trkpt lat="24.0931519" lon="120.6892741">
				<ele>55.600000</ele>
				<time>2019-06-08T03:45:33Z</time>
				<speed>16.443824</speed>
			</trkpt>
			<trkpt lat="24.0930623" lon="120.6894043">
				<ele>55.100000</ele>
				<time>2019-06-08T03:45:34Z</time>
				<speed>15.825002</speed>
			</trkpt>
			<trkpt lat="24.0929769" lon="120.6895020">
				<ele>55.000000</ele>
				<time>2019-06-08T03:45:35Z</time>
				<speed>15.143936</speed>
			</trkpt>
			<trkpt lat="24.0928955" lon="120.6895996">
				<ele>55.100000</ele>
				<time>2019-06-08T03:45:36Z</time>
				<speed>13.673266</speed>
			</trkpt>
			<trkpt lat="24.0928182" lon="120.6896973">
				<ele>55.600000</ele>
				<time>2019-06-08T03:45:37Z</time>
				<speed>13.206191</speed>
			</trkpt>
			<trkpt lat="24.0927531" lon="120.6897949">
				<ele>56.200000</ele>
				<time>2019-06-08T03:45:38Z</time>
				<speed>12.522039</speed>
			</trkpt>
			<trkpt lat="24.0926921" lon="120.6899089">
				<ele>55.800000</ele>
				<time>2019-06-08T03:45:39Z</time>
				<speed>12.177905</speed>
			</trkpt>
			<trkpt lat="24.0926351" lon="120.6900065">
				<ele>55.700000</ele>
				<time>2019-06-08T03:45:40Z</time>
				<speed>11.916076</speed>
			</trkpt>
			<trkpt lat="24.0925741" lon="120.6901042">
				<ele>55.400000</ele>
				<time>2019-06-08T03:45:41Z</time>
				<speed>11.853834</speed>
			</trkpt>
			<trkpt lat="24.0925090" lon="120.6902018">
				<ele>55.000000</ele>
				<time>2019-06-08T03:45:42Z</time>
				<speed>11.851776</speed>
			</trkpt>
			<trkpt lat="24.0924438" lon="120.6902995">
				<ele>54.900000</ele>
				<time>2019-06-08T03:45:43Z</time>
				<speed>11.842516</speed>
			</trkpt>
			<trkpt lat="24.0923747" lon="120.6903809">
				<ele>54.900000</ele>
				<time>2019-06-08T03:45:44Z</time>
				<speed>11.898072</speed>
			</trkpt>
			<trkpt lat="24.0923014" lon="120.6904785">
				<ele>54.900000</ele>
				<time>2019-06-08T03:45:45Z</time>
				<speed>11.974203</speed>
			</trkpt>
			<trkpt lat="24.0922241" lon="120.6905599">
				<ele>54.600000</ele>
				<time>2019-06-08T03:45:46Z</time>
				<speed>11.782846</speed>
			</trkpt>
			<trkpt lat="24.0921509" lon="120.6906413">
				<ele>54.700000</ele>
				<time>2019-06-08T03:45:47Z</time>
				<speed>11.659391</speed>
			</trkpt>
			<trkpt lat="24.0920776" lon="120.6907227">
				<ele>54.800000</ele>
				<time>2019-06-08T03:45:48Z</time>
				<speed>11.635728</speed>
			</trkpt>
			<trkpt lat="24.0920003" lon="120.6908040">
				<ele>54.800000</ele>
				<time>2019-06-08T03:45:49Z</time>
				<speed>11.812682</speed>
			</trkpt>
			<trkpt lat="24.0919312" lon="120.6909017">
				<ele>54.700000</ele>
				<time>2019-06-08T03:45:50Z</time>
				<speed>11.769472</speed>
			</trkpt>
			<trkpt lat="24.0918660" lon="120.6909831">
				<ele>55.300000</ele>
				<time>2019-06-08T03:45:51Z</time>
				<speed>11.741180</speed>
			</trkpt>
			<trkpt lat="24.0918050" lon="120.6910645">
				<ele>55.500000</ele>
				<time>2019-06-08T03:45:52Z</time>
				<speed>11.013304</speed>
			</trkpt>
			<trkpt lat="24.0917440" lon="120.6911458">
				<ele>55.600000</ele>
				<time>2019-06-08T03:45:53Z</time>
				<speed>11.047254</speed>
			</trkpt>
			<trkpt lat="24.0916911" lon="120.6912272">
				<ele>57.000000</ele>
				<time>2019-06-08T03:45:54Z</time>
				<speed>10.626476</speed>
			</trkpt>
			<trkpt lat="24.0916300" lon="120.6913086">
				<ele>57.100000</ele>
				<time>2019-06-08T03:45:55Z</time>
				<speed>10.438205</speed>
			</trkpt>
			<trkpt lat="24.0915568" lon="120.6914063">
				<ele>55.700000</ele>
				<time>2019-06-08T03:45:56Z</time>
				<speed>10.895506</speed>
			</trkpt>
			<trkpt lat="24.0914876" lon="120.6914714">
				<ele>54.300000</ele>
				<time>2019-06-08T03:45:57Z</time>
				<speed>10.619273</speed>
			</trkpt>
			<trkpt lat="24.0914185" lon="120.6915527">
				<ele>54.500000</ele>
				<time>2019-06-08T03:45:58Z</time>
				<speed>10.798285</speed>
			</trkpt>
			<trkpt lat="24.0913452" lon="120.6916341">
				<ele>54.600000</ele>
				<time>2019-06-08T03:45:59Z</time>
				<speed>10.964436</speed>
			</trkpt>
			<trkpt lat="24.0912720" lon="120.6916992">
				<ele>54.500000</ele>
				<time>2019-06-08T03:46:00Z</time>
				<speed>11.053428</speed>
			</trkpt>
			<trkpt lat="24.0911947" lon="120.6917969">
				<ele>54.700000</ele>
				<time>2019-06-08T03:46:01Z</time>
				<speed>11.365154</speed>
			</trkpt>
			<trkpt lat="24.0911255" lon="120.6918783">
				<ele>54.900000</ele>
				<time>2019-06-08T03:46:02Z</time>
				<speed>11.382129</speed>
			</trkpt>
			<trkpt lat="24.0910767" lon="120.6919596">
				<ele>54.800000</ele>
				<time>2019-06-08T03:46:03Z</time>
				<speed>10.809602</speed>
			</trkpt>
			<trkpt lat="24.0910197" lon="120.6920410">
				<ele>53.900000</ele>
				<time>2019-06-08T03:46:04Z</time>
				<speed>10.248391</speed>
			</trkpt>
			<trkpt lat="24.0909587" lon="120.6921224">
				<ele>52.800000</ele>
				<time>2019-06-08T03:46:05Z</time>
				<speed>9.746337</speed>
			</trkpt>
			<trkpt lat="24.0909017" lon="120.6921875">
				<ele>51.900000</ele>
				<time>2019-06-08T03:46:06Z</time>
				<speed>9.563724</speed>
			</trkpt>
			<trkpt lat="24.0908488" lon="120.6922689">
				<ele>53.000000</ele>
				<time>2019-06-08T03:46:07Z</time>
				<speed>9.484507</speed>
			</trkpt>
			<trkpt lat="24.0907959" lon="120.6923340">
				<ele>52.400000</ele>
				<time>2019-06-08T03:46:08Z</time>
				<speed>9.235538</speed>
			</trkpt>
			<trkpt lat="24.0907471" lon="120.6924154">
				<ele>51.800000</ele>
				<time>2019-06-08T03:46:09Z</time>
				<speed>9.114654</speed>
			</trkpt>
			<trkpt lat="24.0906942" lon="120.6924805">
				<ele>51.100000</ele>
				<time>2019-06-08T03:46:10Z</time>
				<speed>8.887803</speed>
			</trkpt>
			<trkpt lat="24.0906494" lon="120.6925618">
				<ele>50.400000</ele>
				<time>2019-06-08T03:46:11Z</time>
				<speed>8.871857</speed>
			</trkpt>
			<trkpt lat="24.0906006" lon="120.6926270">
				<ele>49.800000</ele>
				<time>2019-06-08T03:46:12Z</time>
				<speed>8.799841</speed>
			</trkpt>
			<trkpt lat="24.0905477" lon="120.6926921">
				<ele>49.200000</ele>
				<time>2019-06-08T03:46:13Z</time>
				<speed>8.801898</speed>
			</trkpt>
			<trkpt lat="24.0904989" lon="120.6927734">
				<ele>48.400000</ele>
				<time>2019-06-08T03:46:14Z</time>
				<speed>8.915066</speed>
			</trkpt>
			<trkpt lat="24.0904500" lon="120.6928385">
				<ele>48.100000</ele>
				<time>2019-06-08T03:46:15Z</time>
				<speed>8.895005</speed>
			</trkpt>
			<trkpt lat="24.0903971" lon="120.6929199">
				<ele>47.800000</ele>
				<time>2019-06-08T03:46:16Z</time>
				<speed>8.940272</speed>
			</trkpt>
			<trkpt lat="24.0903483" lon="120.6930013">
				<ele>47.200000</ele>
				<time>2019-06-08T03:46:17Z</time>
				<speed>9.160950</speed>
			</trkpt>
			<trkpt lat="24.0902954" lon="120.6930664">
				<ele>46.700000</ele>
				<time>2019-06-08T03:46:18Z</time>
				<speed>9.171238</speed>
			</trkpt>
			<trkpt lat="24.0902547" lon="120.6931315">
				<ele>46.200000</ele>
				<time>2019-06-08T03:46:19Z</time>
				<speed>8.726282</speed>
			</trkpt>
			<trkpt lat="24.0902100" lon="120.6931966">
				<ele>45.700000</ele>
				<time>2019-06-08T03:46:20Z</time>
				<speed>8.382662</speed>
			</trkpt>
			<trkpt lat="24.0901652" lon="120.6932454">
				<ele>45.100000</ele>
				<time>2019-06-08T03:46:21Z</time>
				<speed>7.858489</speed>
			</trkpt>
			<trkpt lat="24.0901326" lon="120.6932943">
				<ele>44.700000</ele>
				<time>2019-06-08T03:46:22Z</time>
				<speed>7.026704</speed>
			</trkpt>
			<trkpt lat="24.0901001" lon="120.6933268">
				<ele>44.500000</ele>
				<time>2019-06-08T03:46:23Z</time>
				<speed>6.245330</speed>
			</trkpt>
			<trkpt lat="24.0900675" lon="120.6933594">
				<ele>44.500000</ele>
				<time>2019-06-08T03:46:24Z</time>
				<speed>5.707268</speed>
			</trkpt>
			<trkpt lat="24.0900431" lon="120.6933919">
				<ele>45.000000</ele>
				<time>2019-06-08T03:46:25Z</time>
				<speed>5.186181</speed>
			</trkpt>
			<trkpt lat="24.0900228" lon="120.6934245">
				<ele>45.400000</ele>
				<time>2019-06-08T03:46:26Z</time>
				<speed>4.573016</speed>
			</trkpt>
			<trkpt lat="24.0899984" lon="120.6934733">
				<ele>45.800000</ele>
				<time>2019-06-08T03:46:27Z</time>
				<speed>4.681040</speed>
			</trkpt>
			<trkpt lat="24.0899780" lon="120.6935059">
				<ele>46.400000</ele>
				<time>2019-06-08T03:46:28Z</time>
				<speed>4.726307</speed>
			</trkpt>
			<trkpt lat="24.0899495" lon="120.6935547">
				<ele>47.300000</ele>
				<time>2019-06-08T03:46:29Z</time>
				<speed>4.916635</speed>
			</trkpt>
			<trkpt lat="24.0899129" lon="120.6935710">
				<ele>48.200000</ele>
				<time>2019-06-08T03:46:30Z</time>
				<speed>4.889372</speed>
			</trkpt>
			<trkpt lat="24.0898763" lon="120.6936198">
				<ele>49.200000</ele>
				<time>2019-06-08T03:46:31Z</time>
				<speed>5.296777</speed>
			</trkpt>
			<trkpt lat="24.0898519" lon="120.6936361">
				<ele>51.200000</ele>
				<time>2019-06-08T03:46:32Z</time>
				<speed>4.826101</speed>
			</trkpt>
			<trkpt lat="24.0898356" lon="120.6936523">
				<ele>53.400000</ele>
				<time>2019-06-08T03:46:33Z</time>
				<speed>3.992258</speed>
			</trkpt>
			<trkpt lat="24.0898234" lon="120.6936849">
				<ele>54.900000</ele>
				<time>2019-06-08T03:46:34Z</time>
				<speed>3.337427</speed>
			</trkpt>
			<trkpt lat="24.0898234" lon="120.6936849">
				<ele>54.900000</ele>
				<time>2019-06-08T03:46:34Z</time>
				<speed>3.337427</speed>
			</trkpt>
		</trkseg>
	</trk>
</gpx>