<?xml version='1.0' encoding='utf-8'?>
<gpx xmlns="http://www.topografix.com/GPX/1/1" xmlns:xsi="http://www.w3.org/2001/XMLSchema-instance" creator="Astro Gemini" version="1.0" xsi:schemaLocation="http://www.topografix.com/GPX/1/0 http://www.topografix.com/GPX/1/0/gpx.xsd">
	<trk>
		<name>FRON0668</name>
		<trkseg>
			<trkpt lat="24.2504842" lon="120.5976888">
				<ele>209.100000</ele>
				<time>2019-06-08T09:23:41Z</time>
				<speed>0.066358</speed>
			</trkpt>
			<trkpt lat="24.2504842" lon="120.5976888">
				<ele>209.300000</ele>
				<time>2019-06-08T09:23:42Z</time>
				<speed>0.050411</speed>
			</trkpt>
			<trkpt lat="24.2504842" lon="120.5976888">
				<ele>209.400000</ele>
				<time>2019-06-08T09:23:42Z</time>
				<speed>0.050411</speed>
			</trkpt>
			<trkpt lat="24.2504842" lon="120.5976888">
				<ele>209.700000</ele>
				<time>2019-06-08T09:23:44Z</time>
				<speed>0.082304</speed>
			</trkpt>
			<trkpt lat="24.2504801" lon="120.5976888">
				<ele>209.800000</ele>
				<time>2019-06-08T09:23:45Z</time>
				<speed>0.079732</speed>
			</trkpt>
			<trkpt lat="24.2504801" lon="120.5976888">
				<ele>210.200000</ele>
				<time>2019-06-08T09:23:46Z</time>
				<speed>0.174382</speed>
			</trkpt>
			<trkpt lat="24.2504842" lon="120.5976888">
				<ele>210.800000</ele>
				<time>2019-06-08T09:23:47Z</time>
				<speed>0.146090</speed>
			</trkpt>
			<trkpt lat="24.2504801" lon="120.5976888">
				<ele>211.100000</ele>
				<time>2019-06-08T09:23:48Z</time>
				<speed>0.105966</speed>
			</trkpt>
			<trkpt lat="24.2504801" lon="120.5977051">
				<ele>211.500000</ele>
				<time>2019-06-08T09:23:49Z</time>
				<speed>0.088477</speed>
			</trkpt>
			<trkpt lat="24.2504842" lon="120.5977051">
				<ele>211.600000</ele>
				<time>2019-06-08T09:23:50Z</time>
				<speed>0.187242</speed>
			</trkpt>
			<trkpt lat="24.2504842" lon="120.5977051">
				<ele>-211.900000</ele>
				<time>2019-06-08T09:23:51Z</time>
				<speed>0.077160</speed>
			</trkpt>
			<trkpt lat="24.2504842" lon="120.5977051">
				<ele>211.900000</ele>
				<time>2019-06-08T09:23:52Z</time>
				<speed>0.050926</speed>
			</trkpt>
			<trkpt lat="24.2504842" lon="120.5977051">
				<ele>211.900000</ele>
				<time>2019-06-08T09:23:53Z</time>
				<speed>0.013889</speed>
			</trkpt>
			<trkpt lat="24.2504842" lon="120.5976888">
				<ele>211.900000</ele>
				<time>2019-06-08T09:23:54Z</time>
				<speed>0.080761</speed>
			</trkpt>
			<trkpt lat="24.2504842" lon="120.5976888">
				<ele>212.000000</ele>
				<time>2019-06-08T09:23:55Z</time>
				<speed>0.094650</speed>
			</trkpt>
			<trkpt lat="24.2504842" lon="120.5976888">
				<ele>212.000000</ele>
				<time>2019-06-08T09:23:56Z</time>
				<speed>0.044753</speed>
			</trkpt>
			<trkpt lat="24.2504842" lon="120.5976888">
				<ele>211.900000</ele>
				<time>2019-06-08T09:23:57Z</time>
				<speed>0.142489</speed>
			</trkpt>
			<trkpt lat="24.2504842" lon="120.5976888">
				<ele>211.700000</ele>
				<time>2019-06-08T09:23:58Z</time>
				<speed>0.288064</speed>
			</trkpt>
			<trkpt lat="24.2504842" lon="120.5976888">
				<ele>211.400000</ele>
				<time>2019-06-08T09:23:59Z</time>
				<speed>0.081275</speed>
			</trkpt>
			<trkpt lat="24.2504883" lon="120.5976888">
				<ele>211.100000</ele>
				<time>2019-06-08T09:24:00Z</time>
				<speed>0.138888</speed>
			</trkpt>
			<trkpt lat="24.2504842" lon="120.5976888">
				<ele>211.100000</ele>
				<time>2019-06-08T09:24:01Z</time>
				<speed>0.043724</speed>
			</trkpt>
			<trkpt lat="24.2504883" lon="120.5976888">
				<ele>211.100000</ele>
				<time>2019-06-08T09:24:02Z</time>
				<speed>0.123456</speed>
			</trkpt>
			<trkpt lat="24.2504883" lon="120.5976888">
				<ele>211.200000</ele>
				<time>2019-06-08T09:24:03Z</time>
				<speed>0.060185</speed>
			</trkpt>
			<trkpt lat="24.2504842" lon="120.5976888">
				<ele>211.200000</ele>
				<time>2019-06-08T09:24:04Z</time>
				<speed>0.068415</speed>
			</trkpt>
			<trkpt lat="24.2504842" lon="120.5976888">
				<ele>211.000000</ele>
				<time>2019-06-08T09:24:05Z</time>
				<speed>0.028806</speed>
			</trkpt>
			<trkpt lat="24.2504842" lon="120.5976888">
				<ele>210.900000</ele>
				<time>2019-06-08T09:24:06Z</time>
				<speed>0.079218</speed>
			</trkpt>
			<trkpt lat="24.2504842" lon="120.5976888">
				<ele>210.700000</ele>
				<time>2019-06-08T09:24:07Z</time>
				<speed>0.118826</speed>
			</trkpt>
			<trkpt lat="24.2504842" lon="120.5976888">
				<ele>211.300000</ele>
				<time>2019-06-08T09:24:08Z</time>
				<speed>0.386829</speed>
			</trkpt>
			<trkpt lat="24.2504842" lon="120.5976888">
				<ele>211.500000</ele>
				<time>2019-06-08T09:24:09Z</time>
				<speed>0.140946</speed>
			</trkpt>
			<trkpt lat="24.2504842" lon="120.5976888">
				<ele>211.300000</ele>
				<time>2019-06-08T09:24:10Z</time>
				<speed>0.099794</speed>
			</trkpt>
			<trkpt lat="24.2504842" lon="120.5976888">
				<ele>211.300000</ele>
				<time>2019-06-08T09:24:11Z</time>
				<speed>0.071502</speed>
			</trkpt>
			<trkpt lat="24.2504883" lon="120.5976888">
				<ele>211.100000</ele>
				<time>2019-06-08T09:24:12Z</time>
				<speed>0.270060</speed>
			</trkpt>
			<trkpt lat="24.2504842" lon="120.5976888">
				<ele>211.100000</ele>
				<time>2019-06-08T09:24:13Z</time>
				<speed>0.088991</speed>
			</trkpt>
			<trkpt lat="24.2504883" lon="120.5976888">
				<ele>211.400000</ele>
				<time>2019-06-08T09:24:14Z</time>
				<speed>0.101851</speed>
			</trkpt>
			<trkpt lat="24.2504883" lon="120.5976725">
				<ele>210.800000</ele>
				<time>2019-06-08T09:24:15Z</time>
				<speed>0.328702</speed>
			</trkpt>
			<trkpt lat="24.2504883" lon="120.5976725">
				<ele>210.700000</ele>
				<time>2019-06-08T09:24:16Z</time>
				<speed>0.489194</speed>
			</trkpt>
			<trkpt lat="24.2504924" lon="120.5976725">
				<ele>210.900000</ele>
				<time>2019-06-08T09:24:17Z</time>
				<speed>0.214505</speed>
			</trkpt>
			<trkpt lat="24.2504924" lon="120.5976725">
				<ele>210.900000</ele>
				<time>2019-06-08T09:24:18Z</time>
				<speed>0.114711</speed>
			</trkpt>
			<trkpt lat="24.2504964" lon="120.5976725">
				<ele>211.300000</ele>
				<time>2019-06-08T09:24:19Z</time>
				<speed>0.114711</speed>
			</trkpt>
			<trkpt lat="24.2504964" lon="120.5976725">
				<ele>211.400000</ele>
				<time>2019-06-08T09:24:20Z</time>
				<speed>0.022119</speed>
			</trkpt>
			<trkpt lat="24.2504964" lon="120.5976725">
				<ele>211.400000</ele>
				<time>2019-06-08T09:24:21Z</time>
				<speed>0.078703</speed>
			</trkpt>
			<trkpt lat="24.2504964" lon="120.5976725">
				<ele>211.500000</ele>
				<time>2019-06-08T09:24:22Z</time>
				<speed>0.188270</speed>
			</trkpt>
			<trkpt lat="24.2504964" lon="120.5976725">
				<ele>211.200000</ele>
				<time>2019-06-08T09:24:23Z</time>
				<speed>0.112139</speed>
			</trkpt>
			<trkpt lat="24.2504842" lon="120.5976725">
				<ele>210.600000</ele>
				<time>2019-06-08T09:24:24Z</time>
				<speed>1.156886</speed>
			</trkpt>
			<trkpt lat="24.2504639" lon="120.5976725">
				<ele>210.800000</ele>
				<time>2019-06-08T09:24:25Z</time>
				<speed>2.583317</speed>
			</trkpt>
			<trkpt lat="24.2504313" lon="120.5976725">
				<ele>211.200000</ele>
				<time>2019-06-08T09:24:26Z</time>
				<speed>3.847198</speed>
			</trkpt>
			<trkpt lat="24.2503906" lon="120.5976563">
				<ele>211.400000</ele>
				<time>2019-06-08T09:24:27Z</time>
				<speed>4.825586</speed>
			</trkpt>
			<trkpt lat="24.2503418" lon="120.5976563">
				<ele>211.400000</ele>
				<time>2019-06-08T09:24:28Z</time>
				<speed>5.514368</speed>
			</trkpt>
			<trkpt lat="24.2502889" lon="120.5976563">
				<ele>211.600000</ele>
				<time>2019-06-08T09:24:29Z</time>
				<speed>6.297799</speed>
			</trkpt>
			<trkpt lat="24.2502360" lon="120.5976563">
				<ele>211.500000</ele>
				<time>2019-06-08T09:24:30Z</time>
				<speed>5.949036</speed>
			</trkpt>
			<trkpt lat="24.2501790" lon="120.5976563">
				<ele>210.900000</ele>
				<time>2019-06-08T09:24:31Z</time>
				<speed>6.128561</speed>
			</trkpt>
			<trkpt lat="24.2501180" lon="120.5976563">
				<ele>210.700000</ele>
				<time>2019-06-08T09:24:32Z</time>
				<speed>6.586378</speed>
			</trkpt>
			<trkpt lat="24.2500610" lon="120.5976563">
				<ele>210.000000</ele>
				<time>2019-06-08T09:24:33Z</time>
				<speed>6.182059</speed>
			</trkpt>
			<trkpt lat="24.2500122" lon="120.5976563">
				<ele>209.500000</ele>
				<time>2019-06-08T09:24:34Z</time>
				<speed>5.497393</speed>
			</trkpt>
			<trkpt lat="24.2499674" lon="120.5976725">
				<ele>209.200000</ele>
				<time>2019-06-08T09:24:35Z</time>
				<speed>4.931039</speed>
			</trkpt>
			<trkpt lat="24.2499227" lon="120.5976563">
				<ele>208.000000</ele>
				<time>2019-06-08T09:24:36Z</time>
				<speed>4.374457</speed>
			</trkpt>
			<trkpt lat="24.2498820" lon="120.5976563">
				<ele>207.100000</ele>
				<time>2019-06-08T09:24:37Z</time>
				<speed>4.168183</speed>
			</trkpt>
			<trkpt lat="24.2498454" lon="120.5976400">
				<ele>206.100000</ele>
				<time>2019-06-08T09:24:38Z</time>
				<speed>4.200591</speed>
			</trkpt>
			<trkpt lat="24.2498128" lon="120.5976237">
				<ele>205.300000</ele>
				<time>2019-06-08T09:24:39Z</time>
				<speed>4.093595</speed>
			</trkpt>
			<trkpt lat="24.2497965" lon="120.5976074">
				<ele>205.000000</ele>
				<time>2019-06-08T09:24:40Z</time>
				<speed>2.953685</speed>
			</trkpt>
			<trkpt lat="24.2497843" lon="120.5975911">
				<ele>204.100000</ele>
				<time>2019-06-08T09:24:41Z</time>
				<speed>1.606986</speed>
			</trkpt>
			<trkpt lat="24.2497843" lon="120.5975911">
				<ele>204.600000</ele>
				<time>2019-06-08T09:24:42Z</time>
				<speed>0.062242</speed>
			</trkpt>
			<trkpt lat="24.2497803" lon="120.5975911">
				<ele>204.300000</ele>
				<time>2019-06-08T09:24:43Z</time>
				<speed>0.143518</speed>
			</trkpt>
			<trkpt lat="24.2497762" lon="120.5975911">
				<ele>203.600000</ele>
				<time>2019-06-08T09:24:44Z</time>
				<speed>0.118312</speed>
			</trkpt>
			<trkpt lat="24.2497721" lon="120.5975911">
				<ele>202.500000</ele>
				<time>2019-06-08T09:24:45Z</time>
				<speed>0.124999</speed>
			</trkpt>
			<trkpt lat="24.2497681" lon="120.5975911">
				<ele>202.700000</ele>
				<time>2019-06-08T09:24:46Z</time>
				<speed>0.262344</speed>
			</trkpt>
			<trkpt lat="24.2497721" lon="120.5975911">
				<ele>202.700000</ele>
				<time>2019-06-08T09:24:47Z</time>
				<speed>0.248970</speed>
			</trkpt>
			<trkpt lat="24.2497843" lon="120.5976074">
				<ele>204.000000</ele>
				<time>2019-06-08T09:24:48Z</time>
				<speed>0.158435</speed>
			</trkpt>
			<trkpt lat="24.2497843" lon="120.5976074">
				<ele>203.800000</ele>
				<time>2019-06-08T09:24:49Z</time>
				<speed>0.158435</speed>
			</trkpt>
			<trkpt lat="24.2497762" lon="120.5976074">
				<ele>203.500000</ele>
				<time>2019-06-08T09:24:50Z</time>
				<speed>0.240225</speed>
			</trkpt>
			<trkpt lat="24.2497803" lon="120.5976237">
				<ele>203.700000</ele>
				<time>2019-06-08T09:24:51Z</time>
				<speed>0.033436</speed>
			</trkpt>
			<trkpt lat="24.2497884" lon="120.5976237">
				<ele>204.100000</ele>
				<time>2019-06-08T09:24:52Z</time>
				<speed>0.100822</speed>
			</trkpt>
			<trkpt lat="24.2497884" lon="120.5976400">
				<ele>204.500000</ele>
				<time>2019-06-08T09:24:53Z</time>
				<speed>0.049897</speed>
			</trkpt>
			<trkpt lat="24.2497965" lon="120.5976400">
				<ele>204.900000</ele>
				<time>2019-06-08T09:24:54Z</time>
				<speed>0.113168</speed>
			</trkpt>
			<trkpt lat="24.2498006" lon="120.5976563">
				<ele>205.200000</ele>
				<time>2019-06-08T09:24:55Z</time>
				<speed>0.087448</speed>
			</trkpt>
			<trkpt lat="24.2498006" lon="120.5976563">
				<ele>205.700000</ele>
				<time>2019-06-08T09:24:56Z</time>
				<speed>0.096193</speed>
			</trkpt>
			<trkpt lat="24.2498047" lon="120.5976563">
				<ele>206.400000</ele>
				<time>2019-06-08T09:24:57Z</time>
				<speed>0.054526</speed>
			</trkpt>
			<trkpt lat="24.2498088" lon="120.5976563">
				<ele>207.000000</ele>
				<time>2019-06-08T09:24:58Z</time>
				<speed>0.154834</speed>
			</trkpt>
			<trkpt lat="24.2498128" lon="120.5976725">
				<ele>207.800000</ele>
				<time>2019-06-08T09:24:59Z</time>
				<speed>0.133744</speed>
			</trkpt>
			<trkpt lat="24.2498047" lon="120.5976563">
				<ele>208.100000</ele>
				<time>2019-06-08T09:25:00Z</time>
				<speed>1.291144</speed>
			</trkpt>
			<trkpt lat="24.2497884" lon="120.5976725">
				<ele>208.800000</ele>
				<time>2019-06-08T09:25:01Z</time>
				<speed>1.700606</speed>
			</trkpt>
			<trkpt lat="24.2497681" lon="120.5976563">
				<ele>207.700000</ele>
				<time>2019-06-08T09:25:02Z</time>
				<speed>2.272619</speed>
			</trkpt>
			<trkpt lat="24.2497477" lon="120.5976563">
				<ele>205.700000</ele>
				<time>2019-06-08T09:25:03Z</time>
				<speed>2.346693</speed>
			</trkpt>
			<trkpt lat="24.2497477" lon="120.5976725">
				<ele>205.100000</ele>
				<time>2019-06-08T09:25:04Z</time>
				<speed>2.461918</speed>
			</trkpt>
			<trkpt lat="24.2497477" lon="120.5976725">
				<ele>205.000000</ele>
				<time>2019-06-08T09:25:05Z</time>
				<speed>1.491760</speed>
			</trkpt>
			<trkpt lat="24.2497599" lon="120.5976725">
				<ele>203.300000</ele>
				<time>2019-06-08T09:25:06Z</time>
				<speed>2.627555</speed>
			</trkpt>
			<trkpt lat="24.2497843" lon="120.5976888">
				<ele>205.800000</ele>
				<time>2019-06-08T09:25:07Z</time>
				<speed>3.528270</speed>
			</trkpt>
			<trkpt lat="24.2498006" lon="120.5977051">
				<ele>207.600000</ele>
				<time>2019-06-08T09:25:08Z</time>
				<speed>2.903274</speed>
			</trkpt>
			<trkpt lat="24.2498128" lon="120.5977214">
				<ele>208.900000</ele>
				<time>2019-06-08T09:25:09Z</time>
				<speed>3.207284</speed>
			</trkpt>
			<trkpt lat="24.2498332" lon="120.5977539">
				<ele>211.200000</ele>
				<time>2019-06-08T09:25:10Z</time>
				<speed>4.409437</speed>
			</trkpt>
			<trkpt lat="24.2498535" lon="120.5978027">
				<ele>211.600000</ele>
				<time>2019-06-08T09:25:11Z</time>
				<speed>5.896567</speed>
			</trkpt>
			<trkpt lat="24.2498861" lon="120.5978190">
				<ele>213.800000</ele>
				<time>2019-06-08T09:25:12Z</time>
				<speed>4.753570</speed>
			</trkpt>
			<trkpt lat="24.2499146" lon="120.5978516">
				<ele>215.700000</ele>
				<time>2019-06-08T09:25:13Z</time>
				<speed>5.549861</speed>
			</trkpt>
			<trkpt lat="24.2499390" lon="120.5979004">
				<ele>219.600000</ele>
				<time>2019-06-08T09:25:14Z</time>
				<speed>6.561686</speed>
			</trkpt>
			<trkpt lat="24.2499512" lon="120.5979655">
				<ele>221.200000</ele>
				<time>2019-06-08T09:25:15Z</time>
				<speed>7.125983</speed>
			</trkpt>
			<trkpt lat="24.2499674" lon="120.5980306">
				<ele>223.700000</ele>
				<time>2019-06-08T09:25:16Z</time>
				<speed>6.252532</speed>
			</trkpt>
			<trkpt lat="24.2499715" lon="120.5980957">
				<ele>225.600000</ele>
				<time>2019-06-08T09:25:17Z</time>
				<speed>6.594094</speed>
			</trkpt>
			<trkpt lat="24.2499797" lon="120.5981608">
				<ele>0.000000</ele>
				<time>2019-06-08T09:25:18Z</time>
				<speed>7.056539</speed>
			</trkpt>
			<trkpt lat="24.2499837" lon="120.5982422">
				<ele>229.500000</ele>
				<time>2019-06-08T09:25:19Z</time>
				<speed>7.747893</speed>
			</trkpt>
			<trkpt lat="24.2499959" lon="120.5983398">
				<ele>230.200000</ele>
				<time>2019-06-08T09:25:20Z</time>
				<speed>9.891398</speed>
			</trkpt>
			<trkpt lat="24.2500081" lon="120.5984375">
				<ele>230.400000</ele>
				<time>2019-06-08T09:25:21Z</time>
				<speed>10.368761</speed>
			</trkpt>
			<trkpt lat="24.2500203" lon="120.5985677">
				<ele>227.400000</ele>
				<time>2019-06-08T09:25:22Z</time>
				<speed>10.952091</speed>
			</trkpt>
			<trkpt lat="24.2500244" lon="120.5986979">
				<ele>225.000000</ele>
				<time>2019-06-08T09:25:23Z</time>
				<speed>11.266903</speed>
			</trkpt>
			<trkpt lat="24.2500326" lon="120.5988281">
				<ele>222.500000</ele>
				<time>2019-06-08T09:25:24Z</time>
				<speed>11.514844</speed>
			</trkpt>
			<trkpt lat="24.2500407" lon="120.5989746">
				<ele>219.500000</ele>
				<time>2019-06-08T09:25:25Z</time>
				<speed>11.757127</speed>
			</trkpt>
			<trkpt lat="24.2500488" lon="120.5991048">
				<ele>217.600000</ele>
				<time>2019-06-08T09:25:26Z</time>
				<speed>11.892413</speed>
			</trkpt>
			<trkpt lat="24.2500488" lon="120.5992188">
				<ele>216.900000</ele>
				<time>2019-06-08T09:25:27Z</time>
				<speed>12.008154</speed>
			</trkpt>
			<trkpt lat="24.2500448" lon="120.5993652">
				<ele>215.500000</ele>
				<time>2019-06-08T09:25:28Z</time>
				<speed>12.271527</speed>
			</trkpt>
			<trkpt lat="24.2500529" lon="120.5994792">
				<ele>214.700000</ele>
				<time>2019-06-08T09:25:29Z</time>
				<speed>12.547759</speed>
			</trkpt>
			<trkpt lat="24.2500529" lon="120.5996094">
				<ele>215.100000</ele>
				<time>2019-06-08T09:25:30Z</time>
				<speed>12.673787</speed>
			</trkpt>
			<trkpt lat="24.2500448" lon="120.5997559">
				<ele>213.400000</ele>
				<time>2019-06-08T09:25:31Z</time>
				<speed>12.798787</speed>
			</trkpt>
			<trkpt lat="24.2500244" lon="120.5998861">
				<ele>212.800000</ele>
				<time>2019-06-08T09:25:32Z</time>
				<speed>12.504550</speed>
			</trkpt>
			<trkpt lat="24.2500041" lon="120.6000163">
				<ele>212.800000</ele>
				<time>2019-06-08T09:25:33Z</time>
				<speed>12.837881</speed>
			</trkpt>
			<trkpt lat="24.2499837" lon="120.6001302">
				<ele>212.700000</ele>
				<time>2019-06-08T09:25:34Z</time>
				<speed>12.896008</speed>
			</trkpt>
			<trkpt lat="24.2499471" lon="120.6002604">
				<ele>213.600000</ele>
				<time>2019-06-08T09:25:35Z</time>
				<speed>12.781811</speed>
			</trkpt>
			<trkpt lat="24.2499105" lon="120.6003906">
				<ele>213.000000</ele>
				<time>2019-06-08T09:25:36Z</time>
				<speed>12.944876</speed>
			</trkpt>
			<trkpt lat="24.2498739" lon="120.6005046">
				<ele>212.700000</ele>
				<time>2019-06-08T09:25:37Z</time>
				<speed>12.944876</speed>
			</trkpt>
			<trkpt lat="24.2498250" lon="120.6006348">
				<ele>213.300000</ele>
				<time>2019-06-08T09:25:38Z</time>
				<speed>12.976768</speed>
			</trkpt>
			<trkpt lat="24.2497803" lon="120.6007487">
				<ele>213.500000</ele>
				<time>2019-06-08T09:25:39Z</time>
				<speed>12.811132</speed>
			</trkpt>
			<trkpt lat="24.2497518" lon="120.6008626">
				<ele>213.600000</ele>
				<time>2019-06-08T09:25:40Z</time>
				<speed>12.861543</speed>
			</trkpt>
			<trkpt lat="24.2497111" lon="120.6009928">
				<ele>214.100000</ele>
				<time>2019-06-08T09:25:41Z</time>
				<speed>12.893436</speed>
			</trkpt>
			<trkpt lat="24.2496623" lon="120.6011068">
				<ele>214.000000</ele>
				<time>2019-06-08T09:25:42Z</time>
				<speed>13.040554</speed>
			</trkpt>
			<trkpt lat="24.2496053" lon="120.6012207">
				<ele>214.900000</ele>
				<time>2019-06-08T09:25:43Z</time>
				<speed>13.203105</speed>
			</trkpt>
			<trkpt lat="24.2495321" lon="120.6013509">
				<ele>215.500000</ele>
				<time>2019-06-08T09:25:44Z</time>
				<speed>13.506087</speed>
			</trkpt>
			<trkpt lat="24.2494670" lon="120.6014811">
				<ele>215.800000</ele>
				<time>2019-06-08T09:25:45Z</time>
				<speed>13.964932</speed>
			</trkpt>
			<trkpt lat="24.2494100" lon="120.6015951">
				<ele>216.600000</ele>
				<time>2019-06-08T09:25:46Z</time>
				<speed>14.209786</speed>
			</trkpt>
			<trkpt lat="24.2493571" lon="120.6017253">
				<ele>216.700000</ele>
				<time>2019-06-08T09:25:47Z</time>
				<speed>13.894458</speed>
			</trkpt>
			<trkpt lat="24.2493083" lon="120.6018392">
				<ele>217.500000</ele>
				<time>2019-06-08T09:25:48Z</time>
				<speed>12.909897</speed>
			</trkpt>
			<trkpt lat="24.2492513" lon="120.6019368">
				<ele>217.900000</ele>
				<time>2019-06-08T09:25:49Z</time>
				<speed>12.110519</speed>
			</trkpt>
			<trkpt lat="24.2492147" lon="120.6020345">
				<ele>217.900000</ele>
				<time>2019-06-08T09:25:50Z</time>
				<speed>10.798285</speed>
			</trkpt>
			<trkpt lat="24.2491862" lon="120.6021159">
				<ele>218.100000</ele>
				<time>2019-06-08T09:25:51Z</time>
				<speed>8.684101</speed>
			</trkpt>
			<trkpt lat="24.2491618" lon="120.6021810">
				<ele>216.100000</ele>
				<time>2019-06-08T09:25:52Z</time>
				<speed>6.653250</speed>
			</trkpt>
			<trkpt lat="24.2491170" lon="120.6022135">
				<ele>219.900000</ele>
				<time>2019-06-08T09:25:53Z</time>
				<speed>5.012828</speed>
			</trkpt>
			<trkpt lat="24.2490845" lon="120.6022298">
				<ele>220.100000</ele>
				<time>2019-06-08T09:25:54Z</time>
				<speed>3.537529</speed>
			</trkpt>
			<trkpt lat="24.2490845" lon="120.6022298">
				<ele>221.000000</ele>
				<time>2019-06-08T09:25:55Z</time>
				<speed>6191.387221</speed>
			</trkpt>
			<trkpt lat="24.2490275" lon="120.6022298">
				<ele>222.400000</ele>
				<time>2019-06-08T09:25:56Z</time>
				<speed>3.066338</speed>
			</trkpt>
			<trkpt lat="24.2490031" lon="120.6022298">
				<ele>223.700000</ele>
				<time>2019-06-08T09:25:57Z</time>
				<speed>3.044219</speed>
			</trkpt>
			<trkpt lat="24.2489827" lon="120.6022461">
				<ele>225.100000</ele>
				<time>2019-06-08T09:25:58Z</time>
				<speed>2.976833</speed>
			</trkpt>
			<trkpt lat="24.2489665" lon="120.6022461">
				<ele>226.400000</ele>
				<time>2019-06-08T09:25:59Z</time>
				<speed>2.463976</speed>
			</trkpt>
			<trkpt lat="24.2489583" lon="120.6022461">
				<ele>227.400000</ele>
				<time>2019-06-08T09:26:00Z</time>
				<speed>1.849268</speed>
			</trkpt>
			<trkpt lat="24.2489746" lon="120.6022298">
				<ele>228.400000</ele>
				<time>2019-06-08T09:26:01Z</time>
				<speed>0.436211</speed>
			</trkpt>
			<trkpt lat="24.2489746" lon="120.6022461">
				<ele>229.300000</ele>
				<time>2019-06-08T09:26:02Z</time>
				<speed>0.225307</speed>
			</trkpt>
		</trkseg>
	</trk>
</gpx>