<?xml version='1.0' encoding='utf-8'?>
<gpx xmlns="http://www.topografix.com/GPX/1/1" xmlns:xsi="http://www.w3.org/2001/XMLSchema-instance" creator="Astro Gemini" version="1.0" xsi:schemaLocation="http://www.topografix.com/GPX/1/0 http://www.topografix.com/GPX/1/0/gpx.xsd">
	<trk>
		<name>FRON0680</name>
		<trkseg>
			<trkpt lat="24.1653768" lon="120.6787435">
				<ele>102.600000</ele>
				<time>2019-06-08T09:59:39Z</time>
				<speed>12.617203</speed>
			</trkpt>
			<trkpt lat="24.1653768" lon="120.6787435">
				<ele>103.000000</ele>
				<time>2019-06-08T09:59:39Z</time>
				<speed>12.617203</speed>
			</trkpt>
			<trkpt lat="24.1653564" lon="120.6787435">
				<ele>103.000000</ele>
				<time>2003-01-00T09:59:40Z</time>
				<speed>2.572000</speed>
			</trkpt>
			<trkpt lat="24.1653442" lon="120.6790039">
				<ele>103.200000</ele>
				<time>2019-06-08T09:59:41Z</time>
				<speed>12.840453</speed>
			</trkpt>
			<trkpt lat="24.1653239" lon="120.6791341">
				<ele>103.100000</ele>
				<time>2019-06-08T09:59:42Z</time>
				<speed>12.659384</speed>
			</trkpt>
			<trkpt lat="24.1653117" lon="120.6792643">
				<ele>103.200000</ele>
				<time>2019-06-08T09:59:43Z</time>
				<speed>12.880576</speed>
			</trkpt>
			<trkpt lat="24.1653035" lon="120.6793945">
				<ele>103.100000</ele>
				<time>2019-06-08T09:59:44Z</time>
				<speed>12.719568</speed>
			</trkpt>
			<trkpt lat="24.1653035" lon="120.6795247">
				<ele>103.100000</ele>
				<time>2019-06-08T09:59:45Z</time>
				<speed>12.427390</speed>
			</trkpt>
			<trkpt lat="24.1652913" lon="120.6796549">
				<ele>103.000000</ele>
				<time>2019-06-08T09:59:46Z</time>
				<speed>12.924814</speed>
			</trkpt>
			<trkpt lat="24.1652669" lon="120.6798014">
				<ele>102.700000</ele>
				<time>2019-06-08T09:59:47Z</time>
				<speed>13.148579</speed>
			</trkpt>
			<trkpt lat="24.1652629" lon="120.6799479">
				<ele>103.100000</ele>
				<time>2019-06-08T09:59:48Z</time>
				<speed>13.482424</speed>
			</trkpt>
			<trkpt lat="24.1652629" lon="120.6800944">
				<ele>103.400000</ele>
				<time>2019-06-08T09:59:49Z</time>
				<speed>13.724192</speed>
			</trkpt>
			<trkpt lat="24.1652588" lon="120.6802246">
				<ele>103.400000</ele>
				<time>2019-06-08T09:59:50Z</time>
				<speed>13.662464</speed>
			</trkpt>
			<trkpt lat="24.1652751" lon="120.6803548">
				<ele>103.500000</ele>
				<time>2019-06-08T09:59:51Z</time>
				<speed>13.373371</speed>
			</trkpt>
			<trkpt lat="24.1653361" lon="120.6804850">
				<ele>103.300000</ele>
				<time>2019-06-08T09:59:52Z</time>
				<speed>13.637258</speed>
			</trkpt>
			<trkpt lat="24.1654012" lon="120.6806152">
				<ele>103.200000</ele>
				<time>2019-06-08T09:59:53Z</time>
				<speed>13.275635</speed>
			</trkpt>
			<trkpt lat="24.1653727" lon="120.6807454">
				<ele>103.100000</ele>
				<time>2019-06-08T09:59:54Z</time>
				<speed>13.095595</speed>
			</trkpt>
			<trkpt lat="24.1653768" lon="120.6808757">
				<ele>102.900000</ele>
				<time>2019-06-08T09:59:55Z</time>
				<speed>13.121830</speed>
			</trkpt>
			<trkpt lat="24.1653849" lon="120.6810221">
				<ele>102.800000</ele>
				<time>2019-06-08T09:59:56Z</time>
				<speed>13.107941</speed>
			</trkpt>
			<trkpt lat="24.1653768" lon="120.6811361">
				<ele>102.700000</ele>
				<time>2019-06-08T09:59:57Z</time>
				<speed>12.552389</speed>
			</trkpt>
			<trkpt lat="24.1653727" lon="120.6812663">
				<ele>102.700000</ele>
				<time>2019-06-08T09:59:58Z</time>
				<speed>12.406299</speed>
			</trkpt>
			<trkpt lat="24.1653605" lon="120.6813802">
				<ele>102.600000</ele>
				<time>2019-06-08T09:59:59Z</time>
				<speed>11.870295</speed>
			</trkpt>
			<trkpt lat="24.1653442" lon="120.6814941">
				<ele>102.400000</ele>
				<time>2019-06-08T10:00:00Z</time>
				<speed>11.429454</speed>
			</trkpt>
			<trkpt lat="24.1653239" lon="120.6816081">
				<ele>102.200000</ele>
				<time>2019-06-08T10:00:01Z</time>
				<speed>11.446943</speed>
			</trkpt>
			<trkpt lat="24.1653117" lon="120.6817220">
				<ele>102.200000</ele>
				<time>2019-06-08T10:00:02Z</time>
				<speed>11.328116</speed>
			</trkpt>
			<trkpt lat="24.1652954" lon="120.6818359">
				<ele>102.300000</ele>
				<time>2019-06-08T10:00:03Z</time>
				<speed>10.879560</speed>
			</trkpt>
			<trkpt lat="24.1652710" lon="120.6819336">
				<ele>101.500000</ele>
				<time>2019-06-08T10:00:04Z</time>
				<speed>9.721132</speed>
			</trkpt>
			<trkpt lat="24.1652751" lon="120.6819824">
				<ele>101.300000</ele>
				<time>2019-06-08T10:00:05Z</time>
				<speed>8.410954</speed>
			</trkpt>
			<trkpt lat="24.1652791" lon="120.6820312">
				<ele>101.100000</ele>
				<time>2019-06-08T10:00:06Z</time>
				<speed>6.733496</speed>
			</trkpt>
			<trkpt lat="24.1652547" lon="120.6820475">
				<ele>100.900000</ele>
				<time>2019-06-08T10:00:07Z</time>
				<speed>5.055523</speed>
			</trkpt>
			<trkpt lat="24.1652588" lon="120.6820475">
				<ele>108.200000</ele>
				<time>2019-06-08T10:00:08Z</time>
				<speed>4.137833</speed>
			</trkpt>
			<trkpt lat="24.1652303" lon="120.6820312">
				<ele>114.400000</ele>
				<time>2019-06-08T10:00:09Z</time>
				<speed>2.251014</speed>
			</trkpt>
			<trkpt lat="24.1652222" lon="120.6820150">
				<ele>119.400000</ele>
				<time>2019-06-08T10:00:10Z</time>
				<speed>1.264910</speed>
			</trkpt>
			<trkpt lat="24.1652507" lon="120.6819824">
				<ele>126.700000</ele>
				<time>2019-06-08T10:00:11Z</time>
				<speed>0.514914</speed>
			</trkpt>
			<trkpt lat="24.1652466" lon="120.6819824">
				<ele>129.000000</ele>
				<time>2019-06-08T10:00:12Z</time>
				<speed>0.447528</speed>
			</trkpt>
			<trkpt lat="24.1652425" lon="120.6819824">
				<ele>131.100000</ele>
				<time>2019-06-08T10:00:13Z</time>
				<speed>0.262344</speed>
			</trkpt>
			<trkpt lat="24.1652384" lon="120.6819824">
				<ele>133.400000</ele>
				<time>2019-06-08T10:00:14Z</time>
				<speed>0.255142</speed>
			</trkpt>
			<trkpt lat="24.1652344" lon="120.6819824">
				<ele>135.100000</ele>
				<time>2019-06-08T10:00:15Z</time>
				<speed>0.085905</speed>
			</trkpt>
			<trkpt lat="24.1652262" lon="120.6819987">
				<ele>136.800000</ele>
				<time>2019-06-08T10:00:16Z</time>
				<speed>0.391973</speed>
			</trkpt>
			<trkpt lat="24.1652222" lon="120.6819987">
				<ele>138.000000</ele>
				<time>2019-06-08T10:00:17Z</time>
				<speed>0.207818</speed>
			</trkpt>
			<trkpt lat="24.1652140" lon="120.6819987">
				<ele>139.000000</ele>
				<time>2019-06-08T10:00:18Z</time>
				<speed>0.338990</speed>
			</trkpt>
			<trkpt lat="24.1652140" lon="120.6819987">
				<ele>140.200000</ele>
				<time>2019-06-08T10:00:19Z</time>
				<speed>0.234566</speed>
			</trkpt>
			<trkpt lat="24.1652100" lon="120.6820150">
				<ele>141.100000</ele>
				<time>2019-06-08T10:00:20Z</time>
				<speed>0.205246</speed>
			</trkpt>
			<trkpt lat="24.1652059" lon="120.6820150">
				<ele>142.600000</ele>
				<time>2019-06-08T10:00:21Z</time>
				<speed>0.200102</speed>
			</trkpt>
			<trkpt lat="24.1652059" lon="120.6820150">
				<ele>143.300000</ele>
				<time>2019-06-08T10:00:22Z</time>
				<speed>0.008230</speed>
			</trkpt>
			<trkpt lat="24.1652018" lon="120.6820150">
				<ele>143.500000</ele>
				<time>2019-06-08T10:00:23Z</time>
				<speed>0.207818</speed>
			</trkpt>
			<trkpt lat="24.1651937" lon="120.6820312">
				<ele>143.900000</ele>
				<time>2019-06-08T10:00:24Z</time>
				<speed>0.405862</speed>
			</trkpt>
			<trkpt lat="24.1651937" lon="120.6820312">
				<ele>143.900000</ele>
				<time>2019-06-08T10:00:25Z</time>
				<speed>0.168723</speed>
			</trkpt>
			<trkpt lat="24.1651896" lon="120.6820312">
				<ele>143.900000</ele>
				<time>2019-06-08T10:00:26Z</time>
				<speed>0.189814</speed>
			</trkpt>
			<trkpt lat="24.1651937" lon="120.6820312">
				<ele>144.800000</ele>
				<time>2019-06-08T10:00:27Z</time>
				<speed>0.122942</speed>
			</trkpt>
			<trkpt lat="24.1651896" lon="120.6820312">
				<ele>145.600000</ele>
				<time>2019-06-08T10:00:28Z</time>
				<speed>0.157921</speed>
			</trkpt>
			<trkpt lat="24.1651896" lon="120.6820312">
				<ele>145.600000</ele>
				<time>2019-06-08T10:00:29Z</time>
				<speed>0.141974</speed>
			</trkpt>
			<trkpt lat="24.1651937" lon="120.6820475">
				<ele>145.600000</ele>
				<time>2019-06-08T10:00:30Z</time>
				<speed>0.810694</speed>
			</trkpt>
			<trkpt lat="24.1651978" lon="120.6820638">
				<ele>145.800000</ele>
				<time>2019-06-08T10:00:31Z</time>
				<speed>2.104925</speed>
			</trkpt>
			<trkpt lat="24.1652181" lon="120.6820964">
				<ele>145.900000</ele>
				<time>2019-06-08T10:00:32Z</time>
				<speed>3.325082</speed>
			</trkpt>
			<trkpt lat="24.1652344" lon="120.6821289">
				<ele>146.100000</ele>
				<time>2019-06-08T10:00:33Z</time>
				<speed>3.442879</speed>
			</trkpt>
			<trkpt lat="24.1652669" lon="120.6821289">
				<ele>146.500000</ele>
				<time>2019-06-08T10:00:34Z</time>
				<speed>3.228889</speed>
			</trkpt>
			<trkpt lat="24.1652913" lon="120.6821452">
				<ele>146.700000</ele>
				<time>2019-06-08T10:00:35Z</time>
				<speed>3.108519</speed>
			</trkpt>
			<trkpt lat="24.1653076" lon="120.6821452">
				<ele>147.200000</ele>
				<time>2019-06-08T10:00:36Z</time>
				<speed>2.742266</speed>
			</trkpt>
			<trkpt lat="24.1653198" lon="120.6821615">
				<ele>147.700000</ele>
				<time>2019-06-08T10:00:37Z</time>
				<speed>2.105954</speed>
			</trkpt>
			<trkpt lat="24.1653320" lon="120.6821615">
				<ele>148.400000</ele>
				<time>2019-06-08T10:00:38Z</time>
				<speed>2.014390</speed>
			</trkpt>
			<trkpt lat="24.1653239" lon="120.6821615">
				<ele>148.900000</ele>
				<time>2019-06-08T10:00:39Z</time>
				<speed>0.706786</speed>
			</trkpt>
			<trkpt lat="24.1653117" lon="120.6821615">
				<ele>149.100000</ele>
				<time>2019-06-08T10:00:40Z</time>
				<speed>0.229937</speed>
			</trkpt>
			<trkpt lat="24.1653076" lon="120.6821615">
				<ele>149.300000</ele>
				<time>2019-06-08T10:00:41Z</time>
				<speed>0.110596</speed>
			</trkpt>
			<trkpt lat="24.1652954" lon="120.6821777">
				<ele>149.800000</ele>
				<time>2019-06-08T10:00:42Z</time>
				<speed>0.454730</speed>
			</trkpt>
			<trkpt lat="24.1652913" lon="120.6821777">
				<ele>149.800000</ele>
				<time>2019-06-08T10:00:43Z</time>
				<speed>0.380656</speed>
			</trkpt>
			<trkpt lat="24.1652873" lon="120.6821777">
				<ele>149.700000</ele>
				<time>2019-06-08T10:00:44Z</time>
				<speed>0.418722</speed>
			</trkpt>
			<trkpt lat="24.1652995" lon="120.6821940">
				<ele>150.900000</ele>
				<time>2019-06-08T10:00:45Z</time>
				<speed>0.356479</speed>
			</trkpt>
			<trkpt lat="24.1652954" lon="120.6821940">
				<ele>151.000000</ele>
				<time>2019-06-08T10:00:46Z</time>
				<speed>0.108024</speed>
			</trkpt>
			<trkpt lat="24.1653076" lon="120.6821940">
				<ele>151.200000</ele>
				<time>2019-06-08T10:00:47Z</time>
				<speed>0.504626</speed>
			</trkpt>
			<trkpt lat="24.1653076" lon="120.6821940">
				<ele>151.700000</ele>
				<time>2019-06-08T10:00:48Z</time>
				<speed>0.510285</speed>
			</trkpt>
			<trkpt lat="24.1653076" lon="120.6821940">
				<ele>151.800000</ele>
				<time>2019-06-08T10:00:49Z</time>
				<speed>0.402261</speed>
			</trkpt>
			<trkpt lat="24.1653076" lon="120.6821940">
				<ele>151.800000</ele>
				<time>2019-06-08T10:00:50Z</time>
				<speed>0.408434</speed>
			</trkpt>
			<trkpt lat="24.1653076" lon="120.6822103">
				<ele>151.800000</ele>
				<time>2019-06-08T10:00:51Z</time>
				<speed>0.331274</speed>
			</trkpt>
			<trkpt lat="24.1653117" lon="120.6822103">
				<ele>151.900000</ele>
				<time>2019-06-08T10:00:52Z</time>
				<speed>0.456787</speed>
			</trkpt>
			<trkpt lat="24.1653076" lon="120.6822103">
				<ele>151.800000</ele>
				<time>2019-06-08T10:00:53Z</time>
				<speed>0.331788</speed>
			</trkpt>
			<trkpt lat="24.1652954" lon="120.6822266">
				<ele>151.300000</ele>
				<time>2019-06-08T10:00:54Z</time>
				<speed>0.061728</speed>
			</trkpt>
			<trkpt lat="24.1652832" lon="120.6822266">
				<ele>151.400000</ele>
				<time>2019-06-08T10:00:55Z</time>
				<speed>0.078189</speed>
			</trkpt>
			<trkpt lat="24.1652710" lon="120.6822266">
				<ele>151.300000</ele>
				<time>2019-06-08T10:00:56Z</time>
				<speed>0.337446</speed>
			</trkpt>
			<trkpt lat="24.1652547" lon="120.6822428">
				<ele>151.000000</ele>
				<time>2019-06-08T10:00:57Z</time>
				<speed>0.508742</speed>
			</trkpt>
			<trkpt lat="24.1652466" lon="120.6822428">
				<ele>150.800000</ele>
				<time>2019-06-08T10:00:58Z</time>
				<speed>0.527260</speed>
			</trkpt>
			<trkpt lat="24.1652507" lon="120.6822428">
				<ele>150.600000</ele>
				<time>2019-06-08T10:00:59Z</time>
				<speed>0.299381</speed>
			</trkpt>
			<trkpt lat="24.1652425" lon="120.6822591">
				<ele>150.200000</ele>
				<time>2019-06-08T10:01:00Z</time>
				<speed>0.306582</speed>
			</trkpt>
			<trkpt lat="24.1652222" lon="120.6822591">
				<ele>150.000000</ele>
				<time>2019-06-08T10:01:01Z</time>
				<speed>0.585902</speed>
			</trkpt>
			<trkpt lat="24.1652140" lon="120.6822591">
				<ele>149.700000</ele>
				<time>2019-06-08T10:01:02Z</time>
				<speed>0.639914</speed>
			</trkpt>
			<trkpt lat="24.1652100" lon="120.6822754">
				<ele>149.400000</ele>
				<time>2019-06-08T10:01:03Z</time>
				<speed>0.658946</speed>
			</trkpt>
			<trkpt lat="24.1652059" lon="120.6822754">
				<ele>149.100000</ele>
				<time>2019-06-08T10:01:04Z</time>
				<speed>0.498454</speed>
			</trkpt>
			<trkpt lat="24.1652059" lon="120.6822917">
				<ele>148.700000</ele>
				<time>2019-06-08T10:01:05Z</time>
				<speed>0.458845</speed>
			</trkpt>
			<trkpt lat="24.1651978" lon="120.6822917">
				<ele>148.400000</ele>
				<time>2019-06-08T10:01:06Z</time>
				<speed>0.642486</speed>
			</trkpt>
			<trkpt lat="24.1651978" lon="120.6822917">
				<ele>148.100000</ele>
				<time>2019-06-08T10:01:07Z</time>
				<speed>0.447014</speed>
			</trkpt>
			<trkpt lat="24.1651978" lon="120.6823079">
				<ele>147.600000</ele>
				<time>2019-06-08T10:01:08Z</time>
				<speed>0.426438</speed>
			</trkpt>
			<trkpt lat="24.1651978" lon="120.6823079">
				<ele>147.000000</ele>
				<time>2019-06-08T10:01:09Z</time>
				<speed>0.348249</speed>
			</trkpt>
			<trkpt lat="24.1652059" lon="120.6823079">
				<ele>146.800000</ele>
				<time>2019-06-08T10:01:10Z</time>
				<speed>0.273661</speed>
			</trkpt>
			<trkpt lat="24.1652100" lon="120.6823242">
				<ele>146.600000</ele>
				<time>2019-06-08T10:01:11Z</time>
				<speed>0.083847</speed>
			</trkpt>
			<trkpt lat="24.1652018" lon="120.6823079">
				<ele>146.500000</ele>
				<time>2019-06-08T10:01:12Z</time>
				<speed>0.204217</speed>
			</trkpt>
			<trkpt lat="24.1652140" lon="120.6823242">
				<ele>146.600000</ele>
				<time>2019-06-08T10:01:13Z</time>
				<speed>0.014918</speed>
			</trkpt>
			<trkpt lat="24.1652018" lon="120.6823242">
				<ele>146.700000</ele>
				<time>2019-06-08T10:01:14Z</time>
				<speed>0.255657</speed>
			</trkpt>
			<trkpt lat="24.1652018" lon="120.6823242">
				<ele>146.700000</ele>
				<time>2019-06-08T10:01:15Z</time>
				<speed>0.252056</speed>
			</trkpt>
			<trkpt lat="24.1652222" lon="120.6823242">
				<ele>146.700000</ele>
				<time>2019-06-08T10:01:16Z</time>
				<speed>0.297838</speed>
			</trkpt>
			<trkpt lat="24.1652222" lon="120.6823242">
				<ele>146.500000</ele>
				<time>2019-06-08T10:01:17Z</time>
				<speed>0.384771</speed>
			</trkpt>
			<trkpt lat="24.1652100" lon="120.6823405">
				<ele>146.100000</ele>
				<time>2019-06-08T10:01:18Z</time>
				<speed>0.407405</speed>
			</trkpt>
			<trkpt lat="24.1651937" lon="120.6823405">
				<ele>146.100000</ele>
				<time>2019-06-08T10:01:19Z</time>
				<speed>0.425923</speed>
			</trkpt>
			<trkpt lat="24.1651815" lon="120.6823568">
				<ele>145.900000</ele>
				<time>2019-06-08T10:01:20Z</time>
				<speed>0.916661</speed>
			</trkpt>
			<trkpt lat="24.1651733" lon="120.6823730">
				<ele>145.500000</ele>
				<time>2019-06-08T10:01:21Z</time>
				<speed>1.206268</speed>
			</trkpt>
			<trkpt lat="24.1651571" lon="120.6823730">
				<ele>145.100000</ele>
				<time>2019-06-08T10:01:22Z</time>
				<speed>1.559146</speed>
			</trkpt>
			<trkpt lat="24.1651652" lon="120.6823893">
				<ele>145.200000</ele>
				<time>2019-06-08T10:01:23Z</time>
				<speed>1.655854</speed>
			</trkpt>
			<trkpt lat="24.1651733" lon="120.6824056">
				<ele>145.100000</ele>
				<time>2019-06-08T10:01:24Z</time>
				<speed>1.836922</speed>
			</trkpt>
			<trkpt lat="24.1651855" lon="120.6824219">
				<ele>145.100000</ele>
				<time>2019-06-08T10:01:25Z</time>
				<speed>1.806058</speed>
			</trkpt>
			<trkpt lat="24.1652018" lon="120.6824219">
				<ele>144.900000</ele>
				<time>2019-06-08T10:01:26Z</time>
				<speed>1.368304</speed>
			</trkpt>
			<trkpt lat="24.1651733" lon="120.6824219">
				<ele>143.900000</ele>
				<time>2019-06-08T10:01:27Z</time>
				<speed>0.756168</speed>
			</trkpt>
			<trkpt lat="24.1651367" lon="120.6824382">
				<ele>143.100000</ele>
				<time>2019-06-08T10:01:28Z</time>
				<speed>0.209361</speed>
			</trkpt>
			<trkpt lat="24.1651530" lon="120.6824219">
				<ele>143.400000</ele>
				<time>2019-06-08T10:01:29Z</time>
				<speed>0.278290</speed>
			</trkpt>
			<trkpt lat="24.1651693" lon="120.6824219">
				<ele>143.600000</ele>
				<time>2019-06-08T10:01:30Z</time>
				<speed>0.407919</speed>
			</trkpt>
			<trkpt lat="24.1651693" lon="120.6824219">
				<ele>146.100000</ele>
				<time>2019-06-08T10:01:31Z</time>
				<speed>0.087448</speed>
			</trkpt>
			<trkpt lat="24.1651896" lon="120.6824219">
				<ele>147.200000</ele>
				<time>2019-06-08T10:01:32Z</time>
				<speed>0.158435</speed>
			</trkpt>
			<trkpt lat="24.1652059" lon="120.6824056">
				<ele>148.000000</ele>
				<time>2019-06-08T10:01:33Z</time>
				<speed>0.559667</speed>
			</trkpt>
			<trkpt lat="24.1652303" lon="120.6823893">
				<ele>150.000000</ele>
				<time>2019-06-08T10:01:34Z</time>
				<speed>0.253599</speed>
			</trkpt>
			<trkpt lat="24.1652384" lon="120.6824056">
				<ele>150.000000</ele>
				<time>2019-06-08T10:01:35Z</time>
				<speed>0.159978</speed>
			</trkpt>
			<trkpt lat="24.1652629" lon="120.6824056">
				<ele>150.700000</ele>
				<time>2019-06-08T10:01:36Z</time>
				<speed>0.676436</speed>
			</trkpt>
			<trkpt lat="24.1652791" lon="120.6824219">
				<ele>150.700000</ele>
				<time>2019-06-08T10:01:37Z</time>
				<speed>0.715530</speed>
			</trkpt>
			<trkpt lat="24.1652873" lon="120.6824219">
				<ele>150.800000</ele>
				<time>2019-06-08T10:01:38Z</time>
				<speed>0.652774</speed>
			</trkpt>
			<trkpt lat="24.1652913" lon="120.6824382">
				<ele>151.000000</ele>
				<time>2019-06-08T10:01:39Z</time>
				<speed>0.722218</speed>
			</trkpt>
			<trkpt lat="24.1653035" lon="120.6824382">
				<ele>151.200000</ele>
				<time>2019-06-08T10:01:40Z</time>
				<speed>0.942381</speed>
			</trkpt>
			<trkpt lat="24.1653117" lon="120.6824544">
				<ele>151.400000</ele>
				<time>2019-06-08T10:01:41Z</time>
				<speed>1.009253</speed>
			</trkpt>
			<trkpt lat="24.1653076" lon="120.6824707">
				<ele>151.600000</ele>
				<time>2019-06-08T10:01:42Z</time>
				<speed>0.770571</speed>
			</trkpt>
			<trkpt lat="24.1653076" lon="120.6824544">
				<ele>151.800000</ele>
				<time>2019-06-08T10:01:43Z</time>
				<speed>0.317385</speed>
			</trkpt>
			<trkpt lat="24.1653035" lon="120.6824544">
				<ele>151.200000</ele>
				<time>2019-06-08T10:01:44Z</time>
				<speed>0.173867</speed>
			</trkpt>
			<trkpt lat="24.1652913" lon="120.6824544">
				<ele>151.300000</ele>
				<time>2019-06-08T10:01:45Z</time>
				<speed>0.705757</speed>
			</trkpt>
			<trkpt lat="24.1652873" lon="120.6824382">
				<ele>151.000000</ele>
				<time>2019-06-08T10:01:46Z</time>
				<speed>0.771086</speed>
			</trkpt>
			<trkpt lat="24.1652954" lon="120.6824544">
				<ele>150.600000</ele>
				<time>2019-06-08T10:01:47Z</time>
				<speed>0.152777</speed>
			</trkpt>
			<trkpt lat="24.1652995" lon="120.6824707">
				<ele>150.300000</ele>
				<time>2019-06-08T10:01:48Z</time>
				<speed>0.073559</speed>
			</trkpt>
			<trkpt lat="24.1653076" lon="120.6824544">
				<ele>149.800000</ele>
				<time>2019-06-08T10:01:49Z</time>
				<speed>0.253085</speed>
			</trkpt>
			<trkpt lat="24.1653117" lon="120.6824544">
				<ele>149.300000</ele>
				<time>2019-06-08T10:01:50Z</time>
				<speed>0.401746</speed>
			</trkpt>
			<trkpt lat="24.1653239" lon="120.6824544">
				<ele>148.700000</ele>
				<time>2019-06-08T10:01:51Z</time>
				<speed>0.709358</speed>
			</trkpt>
			<trkpt lat="24.1653198" lon="120.6824544">
				<ele>148.500000</ele>
				<time>2019-06-08T10:01:52Z</time>
				<speed>0.310183</speed>
			</trkpt>
			<trkpt lat="24.1653361" lon="120.6824544">
				<ele>147.700000</ele>
				<time>2019-06-08T10:01:53Z</time>
				<speed>0.707814</speed>
			</trkpt>
			<trkpt lat="24.1653483" lon="120.6824707">
				<ele>147.200000</ele>
				<time>2019-06-08T10:01:54Z</time>
				<speed>0.897628</speed>
			</trkpt>
			<trkpt lat="24.1653483" lon="120.6824707">
				<ele>146.700000</ele>
				<time>2019-06-08T10:01:55Z</time>
				<speed>0.648658</speed>
			</trkpt>
			<trkpt lat="24.1653605" lon="120.6824707">
				<ele>146.400000</ele>
				<time>2019-06-08T10:01:56Z</time>
				<speed>0.848246</speed>
			</trkpt>
			<trkpt lat="24.1653646" lon="120.6824707">
				<ele>146.100000</ele>
				<time>2019-06-08T10:01:57Z</time>
				<speed>0.734049</speed>
			</trkpt>
			<trkpt lat="24.1653687" lon="120.6824707">
				<ele>145.900000</ele>
				<time>2019-06-08T10:01:58Z</time>
				<speed>0.736621</speed>
			</trkpt>
			<trkpt lat="24.1653727" lon="120.6824707">
				<ele>146.100000</ele>
				<time>2019-06-08T10:01:59Z</time>
				<speed>0.664605</speed>
			</trkpt>
		</trkseg>
	</trk>
</gpx>