<?xml version='1.0' encoding='utf-8'?>
<gpx xmlns="http://www.topografix.com/GPX/1/1" xmlns:xsi="http://www.w3.org/2001/XMLSchema-instance" creator="Astro Gemini" version="1.0" xsi:schemaLocation="http://www.topografix.com/GPX/1/0 http://www.topografix.com/GPX/1/0/gpx.xsd">
	<trk>
		<name>FRON0630</name>
		<trkseg>
			<trkpt lat="24.0795654" lon="120.6678060">
				<ele>67.000000</ele>
				<time>2019-06-08T06:28:18Z</time>
				<speed>11.596119</speed>
			</trkpt>
			<trkpt lat="24.0795695" lon="120.6676921">
				<ele>66.400000</ele>
				<time>2099-06-08T06:28:19Z</time>
				<speed>12.246835</speed>
			</trkpt>
			<trkpt lat="24.0795817" lon="120.6675781">
				<ele>65.400000</ele>
				<time>2019-06-08T06:28:20Z</time>
				<speed>12.241691</speed>
			</trkpt>
			<trkpt lat="24.0795898" lon="120.6674479">
				<ele>64.600000</ele>
				<time>2019-06-08T06:28:21Z</time>
				<speed>12.250436</speed>
			</trkpt>
			<trkpt lat="24.0795614" lon="120.6670247">
				<ele>71.000000</ele>
				<time>2019-06-08T06:28:25Z</time>
				<speed>11.235010</speed>
			</trkpt>
			<trkpt lat="24.0796224" lon="120.6669271">
				<ele>66.900000</ele>
				<time>2019-06-08T06:28:26Z</time>
				<speed>10.864128</speed>
			</trkpt>
			<trkpt lat="24.0796509" lon="120.6668294">
				<ele>63.200000</ele>
				<time>2019-06-08T06:28:27Z</time>
				<speed>10.771536</speed>
			</trkpt>
			<trkpt lat="24.0796631" lon="120.6667155">
				<ele>60.400000</ele>
				<time>2019-06-08T06:28:28Z</time>
				<speed>11.450544</speed>
			</trkpt>
			<trkpt lat="24.0796672" lon="120.6666016">
				<ele>60.100000</ele>
				<time>2019-06-08T06:28:29Z</time>
				<speed>12.108976</speed>
			</trkpt>
			<trkpt lat="24.0796631" lon="120.6664876">
				<ele>60.400000</ele>
				<time>2019-06-08T06:28:30Z</time>
				<speed>11.473178</speed>
			</trkpt>
			<trkpt lat="24.0796631" lon="120.6663737">
				<ele>60.200000</ele>
				<time>2019-06-08T06:28:31Z</time>
				<speed>11.670707</speed>
			</trkpt>
			<trkpt lat="24.0796631" lon="120.6662598">
				<ele>60.700000</ele>
				<time>2019-06-08T06:28:32Z</time>
				<speed>11.490153</speed>
			</trkpt>
			<trkpt lat="24.0796549" lon="120.6661458">
				<ele>61.500000</ele>
				<time>2019-06-08T06:28:33Z</time>
				<speed>11.951569</speed>
			</trkpt>
			<trkpt lat="24.0796590" lon="120.6660319">
				<ele>61.100000</ele>
				<time>2019-06-08T06:28:34Z</time>
				<speed>11.751983</speed>
			</trkpt>
			<trkpt lat="24.0796509" lon="120.6659180">
				<ele>60.800000</ele>
				<time>2019-06-08T06:28:35Z</time>
				<speed>11.688197</speed>
			</trkpt>
			<trkpt lat="24.0796468" lon="120.6658203">
				<ele>60.700000</ele>
				<time>2019-06-08T06:28:36Z</time>
				<speed>11.285936</speed>
			</trkpt>
			<trkpt lat="24.0796549" lon="120.6656901">
				<ele>60.200000</ele>
				<time>2019-06-08T06:28:37Z</time>
				<speed>11.884184</speed>
			</trkpt>
			<trkpt lat="24.0796590" lon="120.6655762">
				<ele>59.300000</ele>
				<time>2019-06-08T06:28:38Z</time>
				<speed>12.032845</speed>
			</trkpt>
			<trkpt lat="24.0796590" lon="120.6654622">
				<ele>58.600000</ele>
				<time>2019-06-08T06:28:39Z</time>
				<speed>11.682024</speed>
			</trkpt>
			<trkpt lat="24.0796753" lon="120.6653483">
				<ele>55.800000</ele>
				<time>2019-06-08T06:28:40Z</time>
				<speed>11.432026</speed>
			</trkpt>
			<trkpt lat="24.0796916" lon="120.6652344">
				<ele>53.300000</ele>
				<time>2019-06-08T06:28:41Z</time>
				<speed>10.807030</speed>
			</trkpt>
			<trkpt lat="24.0796956" lon="120.6651367">
				<ele>53.300000</ele>
				<time>2019-06-08T06:28:42Z</time>
				<speed>10.267939</speed>
			</trkpt>
			<trkpt lat="24.0796956" lon="120.6650391">
				<ele>52.800000</ele>
				<time>2019-06-08T06:28:43Z</time>
				<speed>9.865163</speed>
			</trkpt>
			<trkpt lat="24.0796997" lon="120.6649414">
				<ele>52.000000</ele>
				<time>2019-06-08T06:28:44Z</time>
				<speed>9.997879</speed>
			</trkpt>
			<trkpt lat="24.0796997" lon="120.6648600">
				<ele>51.000000</ele>
				<time>2019-06-08T06:28:45Z</time>
				<speed>9.668662</speed>
			</trkpt>
			<trkpt lat="24.0797078" lon="120.6647624">
				<ele>49.600000</ele>
				<time>2019-06-08T06:28:46Z</time>
				<speed>9.426895</speed>
			</trkpt>
			<trkpt lat="24.0797201" lon="120.6646647">
				<ele>47.500000</ele>
				<time>2019-06-08T06:28:47Z</time>
				<speed>9.333788</speed>
			</trkpt>
			<trkpt lat="24.0797404" lon="120.6643555">
				<ele>45.700000</ele>
				<time>2019-06-08T06:28:50Z</time>
				<speed>10.255079</speed>
			</trkpt>
			<trkpt lat="24.0797526" lon="120.6641439">
				<ele>45.500000</ele>
				<time>2019-06-08T06:28:52Z</time>
				<speed>10.423287</speed>
			</trkpt>
			<trkpt lat="24.0797445" lon="120.6639486">
				<ele>47.900000</ele>
				<time>2019-06-08T06:28:54Z</time>
				<speed>10.310634</speed>
			</trkpt>
			<trkpt lat="24.0797933" lon="120.6638021">
				<ele>49.100000</ele>
				<time>2019-06-08T06:28:55Z</time>
				<speed>11.099723</speed>
			</trkpt>
			<trkpt lat="24.0798584" lon="120.6632161">
				<ele>48.600000</ele>
				<time>2019-06-08T06:29:00Z</time>
				<speed>11.400133</speed>
			</trkpt>
			<trkpt lat="24.0798950" lon="120.6630697">
				<ele>49.100000</ele>
				<time>2019-06-08T06:29:01Z</time>
				<speed>11.807538</speed>
			</trkpt>
			<trkpt lat="24.0799438" lon="120.6629395">
				<ele>49.300000</ele>
				<time>2019-06-08T06:29:02Z</time>
				<speed>12.073483</speed>
			</trkpt>
			<trkpt lat="24.0799601" lon="120.6628255">
				<ele>49.500000</ele>
				<time>2019-06-08T06:29:03Z</time>
				<speed>11.995294</speed>
			</trkpt>
			<trkpt lat="24.0799764" lon="120.6627116">
				<ele>49.000000</ele>
				<time>2019-06-08T06:29:04Z</time>
				<speed>12.005067</speed>
			</trkpt>
			<trkpt lat="24.0800008" lon="120.6625977">
				<ele>0.000000</ele>
				<time>2019-06-08T06:29:05Z</time>
				<speed>12.294160</speed>
			</trkpt>
			<trkpt lat="24.0800130" lon="120.6624837">
				<ele>49.400000</ele>
				<time>2019-06-08T06:29:06Z</time>
				<speed>12.115149</speed>
			</trkpt>
			<trkpt lat="24.0800293" lon="120.6623698">
				<ele>49.800000</ele>
				<time>2019-06-08T06:29:07Z</time>
				<speed>11.992207</speed>
			</trkpt>
			<trkpt lat="24.0800618" lon="120.6622396">
				<ele>50.000000</ele>
				<time>2019-06-08T06:29:08Z</time>
				<speed>12.140868</speed>
			</trkpt>
			<trkpt lat="24.0800822" lon="120.6621257">
				<ele>50.000000</ele>
				<time>2019-06-08T06:29:09Z</time>
				<speed>12.215971</speed>
			</trkpt>
			<trkpt lat="24.0801188" lon="120.6619954">
				<ele>50.100000</ele>
				<time>2019-06-08T06:29:10Z</time>
				<speed>12.365661</speed>
			</trkpt>
			<trkpt lat="24.0801473" lon="120.6618652">
				<ele>50.200000</ele>
				<time>2019-06-08T06:29:11Z</time>
				<speed>12.398584</speed>
			</trkpt>
			<trkpt lat="24.0801717" lon="120.6617513">
				<ele>50.300000</ele>
				<time>2019-06-08T06:29:12Z</time>
				<speed>12.464941</speed>
			</trkpt>
			<trkpt lat="24.0802002" lon="120.6616374">
				<ele>50.700000</ele>
				<time>2019-06-08T06:29:13Z</time>
				<speed>12.505064</speed>
			</trkpt>
			<trkpt lat="24.0802287" lon="120.6615072">
				<ele>51.400000</ele>
				<time>2019-06-08T06:29:14Z</time>
				<speed>12.677902</speed>
			</trkpt>
			<trkpt lat="24.0802572" lon="120.6613932">
				<ele>51.700000</ele>
				<time>2019-06-08T06:29:15Z</time>
				<speed>12.550332</speed>
			</trkpt>
			<trkpt lat="24.0802938" lon="120.6612630">
				<ele>52.300000</ele>
				<time>2019-06-08T06:29:16Z</time>
				<speed>12.598170</speed>
			</trkpt>
			<trkpt lat="24.0803345" lon="120.6611491">
				<ele>52.900000</ele>
				<time>2019-06-08T06:29:17Z</time>
				<speed>12.643438</speed>
			</trkpt>
			<trkpt lat="24.0803752" lon="120.6610352">
				<ele>53.400000</ele>
				<time>2019-06-08T06:29:18Z</time>
				<speed>12.580166</speed>
			</trkpt>
			<trkpt lat="24.0804159" lon="120.6609049">
				<ele>53.700000</ele>
				<time>2019-06-08T06:29:19Z</time>
				<speed>12.664528</speed>
			</trkpt>
			<trkpt lat="24.0804769" lon="120.6607747">
				<ele>54.000000</ele>
				<time>2019-06-08T06:29:20Z</time>
				<speed>13.047756</speed>
			</trkpt>
			<trkpt lat="24.0805176" lon="120.6606608">
				<ele>53.900000</ele>
				<time>2019-06-08T06:29:21Z</time>
				<speed>13.095081</speed>
			</trkpt>
			<trkpt lat="24.0805664" lon="120.6605306">
				<ele>54.100000</ele>
				<time>2019-06-08T06:29:22Z</time>
				<speed>13.331191</speed>
			</trkpt>
			<trkpt lat="24.0806112" lon="120.6604329">
				<ele>55.000000</ele>
				<time>2019-06-08T06:29:23Z</time>
				<speed>13.186644</speed>
			</trkpt>
			<trkpt lat="24.0806519" lon="120.6603190">
				<ele>54.600000</ele>
				<time>2019-06-08T06:29:24Z</time>
				<speed>12.926357</speed>
			</trkpt>
			<trkpt lat="24.0806966" lon="120.6602051">
				<ele>54.000000</ele>
				<time>2019-06-08T06:29:25Z</time>
				<speed>12.910926</speed>
			</trkpt>
			<trkpt lat="24.0807373" lon="120.6601074">
				<ele>55.500000</ele>
				<time>2019-06-08T06:29:26Z</time>
				<speed>12.459283</speed>
			</trkpt>
			<trkpt lat="24.0807739" lon="120.6599935">
				<ele>56.100000</ele>
				<time>2019-06-08T06:29:27Z</time>
				<speed>12.400127</speed>
			</trkpt>
			<trkpt lat="24.0808105" lon="120.6598958">
				<ele>56.400000</ele>
				<time>2019-06-08T06:29:28Z</time>
				<speed>12.237576</speed>
			</trkpt>
			<trkpt lat="24.0808431" lon="120.6597982">
				<ele>58.200000</ele>
				<time>2019-06-08T06:29:29Z</time>
				<speed>12.049820</speed>
			</trkpt>
			<trkpt lat="24.0808919" lon="120.6597005">
				<ele>58.000000</ele>
				<time>2019-06-08T06:29:30Z</time>
				<speed>12.050849</speed>
			</trkpt>
			<trkpt lat="24.0809408" lon="120.6596029">
				<ele>58.400000</ele>
				<time>2019-06-08T06:29:31Z</time>
				<speed>11.953113</speed>
			</trkpt>
			<trkpt lat="24.0810059" lon="120.6594727">
				<ele>59.400000</ele>
				<time>2019-06-08T06:29:32Z</time>
				<speed>12.493747</speed>
			</trkpt>
			<trkpt lat="24.0810791" lon="120.6593750">
				<ele>60.200000</ele>
				<time>2019-06-08T06:29:33Z</time>
				<speed>12.767922</speed>
			</trkpt>
			<trkpt lat="24.0811157" lon="120.6592773">
				<ele>62.200000</ele>
				<time>2019-06-08T06:29:34Z</time>
				<speed>12.390867</speed>
			</trkpt>
			<trkpt lat="24.0811605" lon="120.6591797">
				<ele>63.500000</ele>
				<time>2019-06-08T06:29:35Z</time>
				<speed>12.362576</speed>
			</trkpt>
			<trkpt lat="24.0812215" lon="120.6590658">
				<ele>64.000000</ele>
				<time>2019-06-08T06:29:36Z</time>
				<speed>12.186650</speed>
			</trkpt>
			<trkpt lat="24.0812826" lon="120.6589681">
				<ele>64.700000</ele>
				<time>2019-06-08T06:29:37Z</time>
				<speed>12.013812</speed>
			</trkpt>
			<trkpt lat="24.0813314" lon="120.6588867">
				<ele>65.100000</ele>
				<time>2019-06-08T06:29:38Z</time>
				<speed>11.511243</speed>
			</trkpt>
			<trkpt lat="24.0813639" lon="120.6588053">
				<ele>63.100000</ele>
				<time>2019-06-08T06:29:39Z</time>
				<speed>10.964950</speed>
			</trkpt>
			<trkpt lat="24.0814128" lon="120.6587240">
				<ele>62.400000</ele>
				<time>2019-06-08T06:29:40Z</time>
				<speed>11.094065</speed>
			</trkpt>
			<trkpt lat="24.0814535" lon="120.6586263">
				<ele>61.000000</ele>
				<time>2019-06-08T06:29:41Z</time>
				<speed>11.110526</speed>
			</trkpt>
			<trkpt lat="24.0815063" lon="120.6585286">
				<ele>61.100000</ele>
				<time>2019-06-08T06:29:42Z</time>
				<speed>11.092007</speed>
			</trkpt>
			<trkpt lat="24.0815592" lon="120.6584473">
				<ele>60.900000</ele>
				<time>2019-06-08T06:29:43Z</time>
				<speed>11.107954</speed>
			</trkpt>
			<trkpt lat="24.0816162" lon="120.6583496">
				<ele>60.700000</ele>
				<time>2019-06-08T06:29:44Z</time>
				<speed>11.134702</speed>
			</trkpt>
			<trkpt lat="24.0816691" lon="120.6582520">
				<ele>60.700000</ele>
				<time>2019-06-08T06:29:45Z</time>
				<speed>11.214435</speed>
			</trkpt>
			<trkpt lat="24.0817261" lon="120.6581706">
				<ele>60.300000</ele>
				<time>2019-06-08T06:29:46Z</time>
				<speed>11.005073</speed>
			</trkpt>
			<trkpt lat="24.0817871" lon="120.6580892">
				<ele>61.100000</ele>
				<time>2019-06-08T06:29:47Z</time>
				<speed>11.027193</speed>
			</trkpt>
			<trkpt lat="24.0818441" lon="120.6579915">
				<ele>60.600000</ele>
				<time>2019-06-08T06:29:48Z</time>
				<speed>10.934087</speed>
			</trkpt>
			<trkpt lat="24.0818970" lon="120.6579102">
				<ele>60.800000</ele>
				<time>2019-06-08T06:29:49Z</time>
				<speed>10.946946</speed>
			</trkpt>
			<trkpt lat="24.0819580" lon="120.6578125">
				<ele>60.700000</ele>
				<time>2019-06-08T06:29:50Z</time>
				<speed>11.070402</speed>
			</trkpt>
			<trkpt lat="24.0820190" lon="120.6577311">
				<ele>60.600000</ele>
				<time>2019-06-08T06:29:51Z</time>
				<speed>11.064230</speed>
			</trkpt>
			<trkpt lat="24.0820801" lon="120.6576497">
				<ele>59.800000</ele>
				<time>2019-06-08T06:29:52Z</time>
				<speed>10.904765</speed>
			</trkpt>
			<trkpt lat="24.0821493" lon="120.6575521">
				<ele>60.000000</ele>
				<time>2019-06-08T06:29:53Z</time>
				<speed>11.256615</speed>
			</trkpt>
			<trkpt lat="24.0822225" lon="120.6574544">
				<ele>59.900000</ele>
				<time>2019-06-08T06:29:54Z</time>
				<speed>11.650132</speed>
			</trkpt>
			<trkpt lat="24.0823079" lon="120.6573568">
				<ele>59.800000</ele>
				<time>2019-06-08T06:29:55Z</time>
				<speed>12.015869</speed>
			</trkpt>
			<trkpt lat="24.0823853" lon="120.6572591">
				<ele>59.800000</ele>
				<time>2019-06-08T06:29:56Z</time>
				<speed>12.250950</speed>
			</trkpt>
			<trkpt lat="24.0824626" lon="120.6571615">
				<ele>58.400000</ele>
				<time>2019-06-08T06:29:57Z</time>
				<speed>12.368234</speed>
			</trkpt>
			<trkpt lat="24.0825358" lon="120.6570801">
				<ele>57.900000</ele>
				<time>2019-06-08T06:29:58Z</time>
				<speed>12.380065</speed>
			</trkpt>
			<trkpt lat="24.0826050" lon="120.6569824">
				<ele>56.800000</ele>
				<time>2019-06-08T06:29:59Z</time>
				<speed>12.475229</speed>
			</trkpt>
			<trkpt lat="24.0826823" lon="120.6569010">
				<ele>55.400000</ele>
				<time>2019-06-08T06:30:00Z</time>
				<speed>12.219572</speed>
			</trkpt>
			<trkpt lat="24.0827596" lon="120.6568034">
				<ele>54.600000</ele>
				<time>2019-06-08T06:30:01Z</time>
				<speed>12.537986</speed>
			</trkpt>
			<trkpt lat="24.0828410" lon="120.6567220">
				<ele>53.600000</ele>
				<time>2019-06-08T06:30:02Z</time>
				<speed>12.522039</speed>
			</trkpt>
			<trkpt lat="24.0829224" lon="120.6566406">
				<ele>52.500000</ele>
				<time>2019-06-08T06:30:03Z</time>
				<speed>12.392924</speed>
			</trkpt>
			<trkpt lat="24.0829997" lon="120.6565592">
				<ele>51.700000</ele>
				<time>2019-06-08T06:30:04Z</time>
				<speed>12.229860</speed>
			</trkpt>
			<trkpt lat="24.0830811" lon="120.6564616">
				<ele>50.800000</ele>
				<time>2019-06-08T06:30:05Z</time>
				<speed>12.378521</speed>
			</trkpt>
			<trkpt lat="24.0831624" lon="120.6563802">
				<ele>49.900000</ele>
				<time>2019-06-08T06:30:06Z</time>
				<speed>12.597656</speed>
			</trkpt>
			<trkpt lat="24.0832397" lon="120.6562988">
				<ele>48.600000</ele>
				<time>2019-06-08T06:30:07Z</time>
				<speed>12.462884</speed>
			</trkpt>
			<trkpt lat="24.0833211" lon="120.6562174">
				<ele>48.000000</ele>
				<time>2019-06-08T06:30:08Z</time>
				<speed>12.626462</speed>
			</trkpt>
			<trkpt lat="24.0834066" lon="120.6561198">
				<ele>47.700000</ele>
				<time>2019-06-08T06:30:09Z</time>
				<speed>12.873374</speed>
			</trkpt>
			<trkpt lat="24.0834880" lon="120.6560384">
				<ele>47.200000</ele>
				<time>2019-06-08T06:30:10Z</time>
				<speed>12.837881</speed>
			</trkpt>
			<trkpt lat="24.0835734" lon="120.6559408">
				<ele>46.900000</ele>
				<time>2019-06-08T06:30:11Z</time>
				<speed>13.013291</speed>
			</trkpt>
			<trkpt lat="24.0836507" lon="120.6558594">
				<ele>46.200000</ele>
				<time>2019-06-08T06:30:12Z</time>
				<speed>12.828621</speed>
			</trkpt>
			<trkpt lat="24.0837321" lon="120.6557617">
				<ele>45.400000</ele>
				<time>2019-06-08T06:30:13Z</time>
				<speed>12.882119</speed>
			</trkpt>
			<trkpt lat="24.0838094" lon="120.6556803">
				<ele>44.800000</ele>
				<time>2019-06-08T06:30:14Z</time>
				<speed>13.018950</speed>
			</trkpt>
			<trkpt lat="24.0838826" lon="120.6555827">
				<ele>44.900000</ele>
				<time>2019-06-08T06:30:15Z</time>
				<speed>13.065246</speed>
			</trkpt>
			<trkpt lat="24.0839600" lon="120.6554850">
				<ele>44.800000</ele>
				<time>2019-06-08T06:30:16Z</time>
				<speed>13.123887</speed>
			</trkpt>
			<trkpt lat="24.0840373" lon="120.6553874">
				<ele>45.000000</ele>
				<time>2019-06-08T06:30:17Z</time>
				<speed>13.195903</speed>
			</trkpt>
			<trkpt lat="24.0841105" lon="120.6552897">
				<ele>44.800000</ele>
				<time>2019-06-08T06:30:18Z</time>
				<speed>13.193846</speed>
			</trkpt>
			<trkpt lat="24.0841878" lon="120.6551921">
				<ele>44.300000</ele>
				<time>2019-06-08T06:30:19Z</time>
				<speed>13.167611</speed>
			</trkpt>
			<trkpt lat="24.0842611" lon="120.6550944">
				<ele>44.300000</ele>
				<time>2019-06-08T06:30:20Z</time>
				<speed>12.718540</speed>
			</trkpt>
			<trkpt lat="24.0843262" lon="120.6550130">
				<ele>44.000000</ele>
				<time>2019-06-08T06:30:21Z</time>
				<speed>12.138811</speed>
			</trkpt>
			<trkpt lat="24.0843953" lon="120.6549154">
				<ele>44.600000</ele>
				<time>2019-06-08T06:30:22Z</time>
				<speed>11.926364</speed>
			</trkpt>
			<trkpt lat="24.0844645" lon="120.6548340">
				<ele>44.700000</ele>
				<time>2019-06-08T06:30:23Z</time>
				<speed>11.554453</speed>
			</trkpt>
			<trkpt lat="24.0845052" lon="120.6547689">
				<ele>45.300000</ele>
				<time>2019-06-08T06:30:24Z</time>
				<speed>9.442841</speed>
			</trkpt>
			<trkpt lat="24.0845500" lon="120.6547201">
				<ele>44.800000</ele>
				<time>2019-06-08T06:30:25Z</time>
				<speed>8.240688</speed>
			</trkpt>
			<trkpt lat="24.0845866" lon="120.6546712">
				<ele>43.700000</ele>
				<time>2019-06-08T06:30:26Z</time>
				<speed>7.174851</speed>
			</trkpt>
			<trkpt lat="24.0846232" lon="120.6546224">
				<ele>43.700000</ele>
				<time>2019-06-08T06:30:27Z</time>
				<speed>6.907363</speed>
			</trkpt>
			<trkpt lat="24.0846639" lon="120.6545573">
				<ele>44.000000</ele>
				<time>2019-06-08T06:30:28Z</time>
				<speed>7.143473</speed>
			</trkpt>
			<trkpt lat="24.0847046" lon="120.6545085">
				<ele>44.200000</ele>
				<time>2019-06-08T06:30:29Z</time>
				<speed>7.288019</speed>
			</trkpt>
			<trkpt lat="24.0847575" lon="120.6544434">
				<ele>44.200000</ele>
				<time>2019-06-08T06:30:30Z</time>
				<speed>8.013838</speed>
			</trkpt>
			<trkpt lat="24.0848104" lon="120.6543783">
				<ele>44.100000</ele>
				<time>2019-06-08T06:30:31Z</time>
				<speed>8.609513</speed>
			</trkpt>
			<trkpt lat="24.0848633" lon="120.6543132">
				<ele>43.700000</ele>
				<time>2019-06-08T06:30:32Z</time>
				<speed>9.230908</speed>
			</trkpt>
			<trkpt lat="24.0849202" lon="120.6542318">
				<ele>42.800000</ele>
				<time>2019-06-08T06:30:33Z</time>
				<speed>9.845102</speed>
			</trkpt>
			<trkpt lat="24.0849854" lon="120.6541504">
				<ele>42.500000</ele>
				<time>2019-06-08T06:30:34Z</time>
				<speed>10.495303</speed>
			</trkpt>
			<trkpt lat="24.0850505" lon="120.6540690">
				<ele>42.100000</ele>
				<time>2019-06-08T06:30:35Z</time>
				<speed>10.997872</speed>
			</trkpt>
			<trkpt lat="24.0851156" lon="120.6539714">
				<ele>41.600000</ele>
				<time>2019-06-08T06:30:36Z</time>
				<speed>11.605893</speed>
			</trkpt>
			<trkpt lat="24.0851807" lon="120.6538900">
				<ele>40.900000</ele>
				<time>2019-06-08T06:30:37Z</time>
				<speed>11.692312</speed>
			</trkpt>
			<trkpt lat="24.0851807" lon="120.6538900">
				<ele>40.900000</ele>
				<time>2019-06-08T06:30:37Z</time>
				<speed>11.692312</speed>
			</trkpt>
		</trkseg>
	</trk>
</gpx>