<?xml version='1.0' encoding='utf-8'?>
<gpx xmlns="http://www.topografix.com/GPX/1/1" xmlns:xsi="http://www.w3.org/2001/XMLSchema-instance" creator="Astro Gemini" version="1.0" xsi:schemaLocation="http://www.topografix.com/GPX/1/0 http://www.topografix.com/GPX/1/0/gpx.xsd">
	<trk>
		<name>FRON0631</name>
		<trkseg>
			<trkpt lat="24.0851807" lon="120.6538900">
				<ele>40.900000</ele>
				<time>2019-06-08T06:30:37Z</time>
				<speed>11.692312</speed>
			</trkpt>
			<trkpt lat="24.0852498" lon="120.6537923">
				<ele>40.600000</ele>
				<time>2019-06-08T06:30:38Z</time>
				<speed>11.946940</speed>
			</trkpt>
			<trkpt lat="24.0852498" lon="120.6537923">
				<ele>39.800000</ele>
				<time>2019-06-08T06:30:38Z</time>
				<speed>11.946940</speed>
			</trkpt>
			<trkpt lat="24.0853882" lon="120.6535970">
				<ele>39.400000</ele>
				<time>2019-06-08T06:30:40Z</time>
				<speed>12.512265</speed>
			</trkpt>
			<trkpt lat="24.0854614" lon="120.6534831">
				<ele>39.300000</ele>
				<time>2019-06-08T06:30:41Z</time>
				<speed>12.965452</speed>
			</trkpt>
			<trkpt lat="24.0855306" lon="120.6533691">
				<ele>39.300000</ele>
				<time>2019-06-08T06:30:42Z</time>
				<speed>13.189731</speed>
			</trkpt>
			<trkpt lat="24.0856201" lon="120.6532552">
				<ele>38.800000</ele>
				<time>2019-06-08T06:30:43Z</time>
				<speed>13.898573</speed>
			</trkpt>
			<trkpt lat="24.0857137" lon="120.6531413">
				<ele>39.100000</ele>
				<time>2019-06-08T06:30:44Z</time>
				<speed>14.558035</speed>
			</trkpt>
			<trkpt lat="24.0858073" lon="120.6530111">
				<ele>39.500000</ele>
				<time>2019-06-08T06:30:45Z</time>
				<speed>15.195376</speed>
			</trkpt>
			<trkpt lat="24.0858927" lon="120.6528971">
				<ele>39.200000</ele>
				<time>2019-06-08T06:30:46Z</time>
				<speed>15.269964</speed>
			</trkpt>
			<trkpt lat="24.0859863" lon="120.6527832">
				<ele>38.700000</ele>
				<time>2019-06-08T06:30:47Z</time>
				<speed>15.201549</speed>
			</trkpt>
			<trkpt lat="24.0860799" lon="120.6526693">
				<ele>38.500000</ele>
				<time>2019-06-08T06:30:48Z</time>
				<speed>15.426342</speed>
			</trkpt>
			<trkpt lat="24.0861654" lon="120.6525553">
				<ele>38.600000</ele>
				<time>2019-06-08T06:30:49Z</time>
				<speed>15.497843</speed>
			</trkpt>
			<trkpt lat="24.0862671" lon="120.6524251">
				<ele>38.400000</ele>
				<time>2019-06-08T06:30:50Z</time>
				<speed>16.120267</speed>
			</trkpt>
			<trkpt lat="24.0863770" lon="120.6522949">
				<ele>38.200000</ele>
				<time>2019-06-08T06:30:51Z</time>
				<speed>16.522013</speed>
			</trkpt>
			<trkpt lat="24.0864868" lon="120.6521647">
				<ele>38.100000</ele>
				<time>2019-06-08T06:30:52Z</time>
				<speed>16.680964</speed>
			</trkpt>
			<trkpt lat="24.0865926" lon="120.6520508">
				<ele>37.700000</ele>
				<time>2019-06-08T06:30:53Z</time>
				<speed>16.806477</speed>
			</trkpt>
			<trkpt lat="24.0866984" lon="120.6519368">
				<ele>36.500000</ele>
				<time>2019-06-08T06:30:54Z</time>
				<speed>16.679934</speed>
			</trkpt>
			<trkpt lat="24.0868083" lon="120.6518066">
				<ele>35.200000</ele>
				<time>2019-06-08T06:30:55Z</time>
				<speed>16.737546</speed>
			</trkpt>
			<trkpt lat="24.0869181" lon="120.6516927">
				<ele>34.400000</ele>
				<time>2019-06-08T06:30:56Z</time>
				<speed>16.639811</speed>
			</trkpt>
			<trkpt lat="24.0870239" lon="120.6515788">
				<ele>33.700000</ele>
				<time>2019-06-08T06:30:57Z</time>
				<speed>16.625922</speed>
			</trkpt>
			<trkpt lat="24.0871297" lon="120.6514648">
				<ele>32.800000</ele>
				<time>2019-06-08T06:30:58Z</time>
				<speed>16.523042</speed>
			</trkpt>
			<trkpt lat="24.0872355" lon="120.6513346">
				<ele>32.100000</ele>
				<time>2019-06-08T06:30:59Z</time>
				<speed>16.530759</speed>
			</trkpt>
			<trkpt lat="24.0873169" lon="120.6512207">
				<ele>31.200000</ele>
				<time>2019-06-08T06:31:00Z</time>
				<speed>15.950515</speed>
			</trkpt>
			<trkpt lat="24.0874064" lon="120.6511068">
				<ele>29.800000</ele>
				<time>2019-06-08T06:31:01Z</time>
				<speed>15.810084</speed>
			</trkpt>
			<trkpt lat="24.0874919" lon="120.6509766">
				<ele>28.600000</ele>
				<time>2019-06-08T06:31:02Z</time>
				<speed>15.820372</speed>
			</trkpt>
			<trkpt lat="24.0875732" lon="120.6508626">
				<ele>27.700000</ele>
				<time>2019-06-08T06:31:03Z</time>
				<speed>15.632102</speed>
			</trkpt>
			<trkpt lat="24.0876587" lon="120.6507324">
				<ele>27.000000</ele>
				<time>2019-06-08T06:31:04Z</time>
				<speed>15.384676</speed>
			</trkpt>
			<trkpt lat="24.0877360" lon="120.6506022">
				<ele>26.000000</ele>
				<time>2019-06-08T06:31:05Z</time>
				<speed>15.316774</speed>
			</trkpt>
			<trkpt lat="24.0878133" lon="120.6504883">
				<ele>24.900000</ele>
				<time>2019-06-08T06:31:06Z</time>
				<speed>15.243730</speed>
			</trkpt>
			<trkpt lat="24.0878906" lon="120.6503581">
				<ele>24.000000</ele>
				<time>2019-06-08T06:31:07Z</time>
				<speed>15.133648</speed>
			</trkpt>
			<trkpt lat="24.0879639" lon="120.6502279">
				<ele>23.200000</ele>
				<time>2019-06-08T06:31:08Z</time>
				<speed>15.024081</speed>
			</trkpt>
			<trkpt lat="24.0880371" lon="120.6501139">
				<ele>22.600000</ele>
				<time>2019-06-08T06:31:09Z</time>
				<speed>14.978813</speed>
			</trkpt>
			<trkpt lat="24.0884196" lon="120.6491862">
				<ele>22.500000</ele>
				<time>2019-06-08T06:31:16Z</time>
				<speed>14.634165</speed>
			</trkpt>
			<trkpt lat="24.0884644" lon="120.6490560">
				<ele>22.200000</ele>
				<time>2019-06-08T06:31:17Z</time>
				<speed>14.675832</speed>
			</trkpt>
			<trkpt lat="24.0885254" lon="120.6489095">
				<ele>22.200000</ele>
				<time>2019-06-08T06:31:18Z</time>
				<speed>15.087352</speed>
			</trkpt>
			<trkpt lat="24.0885620" lon="120.6487630">
				<ele>22.200000</ele>
				<time>2019-06-08T06:31:19Z</time>
				<speed>14.821407</speed>
			</trkpt>
			<trkpt lat="24.0885864" lon="120.6486491">
				<ele>21.800000</ele>
				<time>2019-06-08T06:31:20Z</time>
				<speed>14.160403</speed>
			</trkpt>
			<trkpt lat="24.0886027" lon="120.6486003">
				<ele>21.100000</ele>
				<time>2019-06-08T06:31:21Z</time>
				<speed>12.260209</speed>
			</trkpt>
			<trkpt lat="24.0886230" lon="120.6485189">
				<ele>20.700000</ele>
				<time>2019-06-08T06:31:22Z</time>
				<speed>11.138303</speed>
			</trkpt>
			<trkpt lat="24.0886393" lon="120.6484538">
				<ele>20.100000</ele>
				<time>2019-06-08T06:31:23Z</time>
				<speed>9.936665</speed>
			</trkpt>
			<trkpt lat="24.0886271" lon="120.6484375">
				<ele>19.000000</ele>
				<time>2019-06-08T06:31:24Z</time>
				<speed>8.454679</speed>
			</trkpt>
			<trkpt lat="24.0886393" lon="120.6483724">
				<ele>18.400000</ele>
				<time>2019-06-08T06:31:25Z</time>
				<speed>7.833798</speed>
			</trkpt>
			<trkpt lat="24.0889079" lon="120.6476400">
				<ele>16.600000</ele>
				<time>2019-06-08T06:31:37Z</time>
				<speed>6.953659</speed>
			</trkpt>
			<trkpt lat="24.0888835" lon="120.6475911">
				<ele>16.100000</ele>
				<time>2019-06-08T06:31:38Z</time>
				<speed>7.254069</speed>
			</trkpt>
			<trkpt lat="24.0888835" lon="120.6475098">
				<ele>15.100000</ele>
				<time>2019-06-08T06:31:39Z</time>
				<speed>8.116203</speed>
			</trkpt>
			<trkpt lat="24.0888957" lon="120.6474284">
				<ele>14.400000</ele>
				<time>2019-06-08T06:31:40Z</time>
				<speed>8.930498</speed>
			</trkpt>
			<trkpt lat="24.0889160" lon="120.6473470">
				<ele>14.300000</ele>
				<time>2019-06-08T06:31:41Z</time>
				<speed>9.376998</speed>
			</trkpt>
			<trkpt lat="24.0889364" lon="120.6472982">
				<ele>14.000000</ele>
				<time>2019-06-08T06:31:42Z</time>
				<speed>9.788517</speed>
			</trkpt>
			<trkpt lat="24.0889526" lon="120.6472168">
				<ele>14.100000</ele>
				<time>2019-06-08T06:31:43Z</time>
				<speed>10.360531</speed>
			</trkpt>
			<trkpt lat="24.0889852" lon="120.6471354">
				<ele>14.200000</ele>
				<time>2019-06-08T06:31:44Z</time>
				<speed>10.696434</speed>
			</trkpt>
			<trkpt lat="24.0890177" lon="120.6470378">
				<ele>14.100000</ele>
				<time>2019-06-08T06:31:45Z</time>
				<speed>11.228323</speed>
			</trkpt>
			<trkpt lat="24.0890544" lon="120.6469401">
				<ele>13.700000</ele>
				<time>2019-06-08T06:31:46Z</time>
				<speed>11.665563</speed>
			</trkpt>
			<trkpt lat="24.0890869" lon="120.6468424">
				<ele>13.700000</ele>
				<time>2019-06-08T06:31:47Z</time>
				<speed>12.021013</speed>
			</trkpt>
			<trkpt lat="24.0891195" lon="120.6467448">
				<ele>15.000000</ele>
				<time>2019-06-08T06:31:48Z</time>
				<speed>12.462368</speed>
			</trkpt>
			<trkpt lat="24.0891561" lon="120.6466309">
				<ele>14.700000</ele>
				<time>2019-06-08T06:31:49Z</time>
				<speed>12.765865</speed>
			</trkpt>
			<trkpt lat="24.0891927" lon="120.6465169">
				<ele>14.600000</ele>
				<time>2019-06-08T06:31:50Z</time>
				<speed>13.036954</speed>
			</trkpt>
			<trkpt lat="24.0892293" lon="120.6464030">
				<ele>15.300000</ele>
				<time>2019-06-08T06:31:51Z</time>
				<speed>13.226253</speed>
			</trkpt>
			<trkpt lat="24.0892619" lon="120.6462891">
				<ele>15.900000</ele>
				<time>2019-06-08T06:31:52Z</time>
				<speed>13.224709</speed>
			</trkpt>
			<trkpt lat="24.0892985" lon="120.6461589">
				<ele>16.200000</ele>
				<time>2019-06-08T06:31:53Z</time>
				<speed>13.630057</speed>
			</trkpt>
			<trkpt lat="24.0893392" lon="120.6460449">
				<ele>16.100000</ele>
				<time>2019-06-08T06:31:54Z</time>
				<speed>13.803924</speed>
			</trkpt>
			<trkpt lat="24.0893799" lon="120.6459147">
				<ele>16.200000</ele>
				<time>2019-06-08T06:31:55Z</time>
				<speed>14.057009</speed>
			</trkpt>
			<trkpt lat="24.0894206" lon="120.6457845">
				<ele>16.200000</ele>
				<time>2019-06-08T06:31:56Z</time>
				<speed>14.094560</speed>
			</trkpt>
			<trkpt lat="24.0894613" lon="120.6456543">
				<ele>16.400000</ele>
				<time>2019-06-08T06:31:57Z</time>
				<speed>14.285916</speed>
			</trkpt>
			<trkpt lat="24.0895060" lon="120.6455241">
				<ele>16.500000</ele>
				<time>2019-06-08T06:31:58Z</time>
				<speed>14.386739</speed>
			</trkpt>
			<trkpt lat="24.0895426" lon="120.6453939">
				<ele>16.500000</ele>
				<time>2019-06-08T06:31:59Z</time>
				<speed>14.376965</speed>
			</trkpt>
			<trkpt lat="24.0895874" lon="120.6452637">
				<ele>16.800000</ele>
				<time>2019-06-08T06:32:00Z</time>
				<speed>14.553405</speed>
			</trkpt>
			<trkpt lat="24.0896362" lon="120.6451335">
				<ele>17.100000</ele>
				<time>2019-06-08T06:32:01Z</time>
				<speed>14.403714</speed>
			</trkpt>
			<trkpt lat="24.0896851" lon="120.6450033">
				<ele>17.700000</ele>
				<time>2019-06-08T06:32:02Z</time>
				<speed>14.599187</speed>
			</trkpt>
			<trkpt lat="24.0897298" lon="120.6448730">
				<ele>18.300000</ele>
				<time>2019-06-08T06:32:03Z</time>
				<speed>14.293633</speed>
			</trkpt>
			<trkpt lat="24.0897705" lon="120.6447754">
				<ele>19.200000</ele>
				<time>2019-06-08T06:32:04Z</time>
				<speed>13.768431</speed>
			</trkpt>
			<trkpt lat="24.0897990" lon="120.6446777">
				<ele>19.800000</ele>
				<time>2019-06-08T06:32:05Z</time>
				<speed>12.392924</speed>
			</trkpt>
			<trkpt lat="24.0897990" lon="120.6445964">
				<ele>19.500000</ele>
				<time>2019-06-08T06:32:06Z</time>
				<speed>11.251986</speed>
			</trkpt>
			<trkpt lat="24.0898031" lon="120.6445313">
				<ele>19.700000</ele>
				<time>2019-06-08T06:32:07Z</time>
				<speed>10.046746</speed>
			</trkpt>
			<trkpt lat="24.0898193" lon="120.6444499">
				<ele>19.700000</ele>
				<time>2019-06-08T06:32:08Z</time>
				<speed>9.539034</speed>
			</trkpt>
			<trkpt lat="24.0898397" lon="120.6443685">
				<ele>19.300000</ele>
				<time>2019-06-08T06:32:09Z</time>
				<speed>9.227821</speed>
			</trkpt>
			<trkpt lat="24.0898560" lon="120.6443034">
				<ele>19.000000</ele>
				<time>2019-06-08T06:32:10Z</time>
				<speed>8.949532</speed>
			</trkpt>
			<trkpt lat="24.0898804" lon="120.6442220">
				<ele>18.900000</ele>
				<time>2019-06-08T06:32:11Z</time>
				<speed>8.874429</speed>
			</trkpt>
			<trkpt lat="24.0898966" lon="120.6441243">
				<ele>18.200000</ele>
				<time>2019-06-08T06:32:12Z</time>
				<speed>9.164550</speed>
			</trkpt>
			<trkpt lat="24.0899129" lon="120.6440430">
				<ele>17.800000</ele>
				<time>2019-06-08T06:32:13Z</time>
				<speed>9.471647</speed>
			</trkpt>
			<trkpt lat="24.0899251" lon="120.6439453">
				<ele>17.500000</ele>
				<time>2019-06-08T06:32:14Z</time>
				<speed>9.544692</speed>
			</trkpt>
			<trkpt lat="24.0899333" lon="120.6438639">
				<ele>17.400000</ele>
				<time>2019-06-08T06:32:15Z</time>
				<speed>9.615165</speed>
			</trkpt>
			<trkpt lat="24.0899455" lon="120.6437663">
				<ele>17.100000</ele>
				<time>2019-06-08T06:32:16Z</time>
				<speed>9.816809</speed>
			</trkpt>
			<trkpt lat="24.0899699" lon="120.6435710">
				<ele>17.400000</ele>
				<time>2019-06-08T06:32:18Z</time>
				<speed>10.027713</speed>
			</trkpt>
			<trkpt lat="24.0899902" lon="120.6434570">
				<ele>17.200000</ele>
				<time>2019-06-08T06:32:19Z</time>
				<speed>10.308576</speed>
			</trkpt>
			<trkpt lat="24.0900024" lon="120.6433757">
				<ele>17.200000</ele>
				<time>2019-06-08T06:32:20Z</time>
				<speed>10.003022</speed>
			</trkpt>
			<trkpt lat="24.0900024" lon="120.6432780">
				<ele>17.300000</ele>
				<time>2019-06-08T06:32:21Z</time>
				<speed>9.745308</speed>
			</trkpt>
			<trkpt lat="24.0900146" lon="120.6431966">
				<ele>17.100000</ele>
				<time>2019-06-08T06:32:22Z</time>
				<speed>9.612079</speed>
			</trkpt>
			<trkpt lat="24.0900269" lon="120.6430990">
				<ele>16.700000</ele>
				<time>2019-06-08T06:32:23Z</time>
				<speed>9.836357</speed>
			</trkpt>
			<trkpt lat="24.0900431" lon="120.6429850">
				<ele>16.400000</ele>
				<time>2019-06-08T06:32:24Z</time>
				<speed>10.328638</speed>
			</trkpt>
			<trkpt lat="24.0900594" lon="120.6428874">
				<ele>16.400000</ele>
				<time>2019-06-08T06:32:25Z</time>
				<speed>10.419172</speed>
			</trkpt>
			<trkpt lat="24.0900838" lon="120.6427572">
				<ele>16.200000</ele>
				<time>2019-06-08T06:32:26Z</time>
				<speed>10.753532</speed>
			</trkpt>
			<trkpt lat="24.0901164" lon="120.6426270">
				<ele>16.400000</ele>
				<time>2019-06-08T06:32:27Z</time>
				<speed>11.460832</speed>
			</trkpt>
			<trkpt lat="24.0901449" lon="120.6424967">
				<ele>16.500000</ele>
				<time>2019-06-08T06:32:28Z</time>
				<speed>11.987063</speed>
			</trkpt>
			<trkpt lat="24.0901571" lon="120.6423828">
				<ele>16.500000</ele>
				<time>2019-06-08T06:32:29Z</time>
				<speed>11.844574</speed>
			</trkpt>
			<trkpt lat="24.0901693" lon="120.6422689">
				<ele>16.700000</ele>
				<time>2019-06-08T06:32:30Z</time>
				<speed>11.402705</speed>
			</trkpt>
			<trkpt lat="24.0901733" lon="120.6421875">
				<ele>17.100000</ele>
				<time>2019-06-08T06:32:31Z</time>
				<speed>10.614644</speed>
			</trkpt>
			<trkpt lat="24.0901855" lon="120.6420898">
				<ele>17.100000</ele>
				<time>2019-06-08T06:32:32Z</time>
				<speed>9.795205</speed>
			</trkpt>
			<trkpt lat="24.0901815" lon="120.6420247">
				<ele>17.200000</ele>
				<time>2019-06-08T06:32:33Z</time>
				<speed>8.334309</speed>
			</trkpt>
			<trkpt lat="24.0901774" lon="120.6419759">
				<ele>18.300000</ele>
				<time>2019-06-08T06:32:34Z</time>
				<speed>7.326085</speed>
			</trkpt>
			<trkpt lat="24.0901774" lon="120.6419108">
				<ele>19.700000</ele>
				<time>2019-06-08T06:32:35Z</time>
				<speed>6.375474</speed>
			</trkpt>
			<trkpt lat="24.0901896" lon="120.6418945">
				<ele>22.200000</ele>
				<time>2019-06-08T06:32:36Z</time>
				<speed>4.319417</speed>
			</trkpt>
			<trkpt lat="24.0901937" lon="120.6418457">
				<ele>22.500000</ele>
				<time>2019-06-08T06:32:38Z</time>
				<speed>2.683625</speed>
			</trkpt>
			<trkpt lat="24.0901855" lon="120.6418132">
				<ele>23.100000</ele>
				<time>2019-06-08T06:32:44Z</time>
				<speed>0.969130</speed>
			</trkpt>
			<trkpt lat="24.0901855" lon="120.6417969">
				<ele>23.000000</ele>
				<time>2019-06-08T06:32:45Z</time>
				<speed>1.008738</speed>
			</trkpt>
			<trkpt lat="24.0901855" lon="120.6418132">
				<ele>23.300000</ele>
				<time>2019-06-08T06:32:46Z</time>
				<speed>0.617794</speed>
			</trkpt>
			<trkpt lat="24.0901896" lon="120.6418132">
				<ele>23.800000</ele>
				<time>2019-06-08T06:32:47Z</time>
				<speed>0.771600</speed>
			</trkpt>
			<trkpt lat="24.0901937" lon="120.6417969">
				<ele>24.000000</ele>
				<time>2019-06-08T06:32:48Z</time>
				<speed>0.676950</speed>
			</trkpt>
			<trkpt lat="24.0902018" lon="120.6418132">
				<ele>24.300000</ele>
				<time>2019-06-08T06:32:49Z</time>
				<speed>0.550922</speed>
			</trkpt>
			<trkpt lat="24.0902222" lon="120.6417969">
				<ele>24.800000</ele>
				<time>2019-06-08T06:32:50Z</time>
				<speed>1.015940</speed>
			</trkpt>
			<trkpt lat="24.0902181" lon="120.6418132">
				<ele>25.000000</ele>
				<time>2019-06-08T06:32:51Z</time>
				<speed>0.609050</speed>
			</trkpt>
			<trkpt lat="24.0902181" lon="120.6418294">
				<ele>25.400000</ele>
				<time>2019-06-08T06:32:52Z</time>
				<speed>0.479421</speed>
			</trkpt>
			<trkpt lat="24.0902222" lon="120.6418294">
				<ele>25.600000</ele>
				<time>2019-06-08T06:32:53Z</time>
				<speed>0.400718</speed>
			</trkpt>
			<trkpt lat="24.0902262" lon="120.6418294">
				<ele>25.700000</ele>
				<time>2019-06-08T06:32:54Z</time>
				<speed>0.409977</speed>
			</trkpt>
			<trkpt lat="24.0902344" lon="120.6417969">
				<ele>26.000000</ele>
				<time>2019-06-08T06:32:55Z</time>
				<speed>0.374998</speed>
			</trkpt>
			<trkpt lat="24.0902384" lon="120.6418132">
				<ele>26.300000</ele>
				<time>2019-06-08T06:32:56Z</time>
				<speed>0.476334</speed>
			</trkpt>
			<trkpt lat="24.0902507" lon="120.6418132">
				<ele>26.300000</ele>
				<time>2019-06-08T06:32:57Z</time>
				<speed>0.749995</speed>
			</trkpt>
			<trkpt lat="24.0902710" lon="120.6418294">
				<ele>26.500000</ele>
				<time>2019-06-08T06:32:58Z</time>
				<speed>1.722211</speed>
			</trkpt>
			<trkpt lat="24.0902832" lon="120.6418620">
				<ele>26.500000</ele>
				<time>2019-06-08T06:32:59Z</time>
				<speed>2.417166</speed>
			</trkpt>
			<trkpt lat="24.0902832" lon="120.6419271">
				<ele>26.400000</ele>
				<time>2019-06-08T06:33:00Z</time>
				<speed>3.427962</speed>
			</trkpt>
			<trkpt lat="24.0902751" lon="120.6419759">
				<ele>26.300000</ele>
				<time>2019-06-08T06:33:01Z</time>
				<speed>4.203677</speed>
			</trkpt>
			<trkpt lat="24.0902669" lon="120.6420410">
				<ele>26.300000</ele>
				<time>2019-06-08T06:33:02Z</time>
				<speed>5.097190</speed>
			</trkpt>
			<trkpt lat="24.0902547" lon="120.6421224">
				<ele>26.300000</ele>
				<time>2019-06-08T06:33:03Z</time>
				<speed>6.333807</speed>
			</trkpt>
			<trkpt lat="24.0902425" lon="120.6422038">
				<ele>26.300000</ele>
				<time>2019-06-08T06:33:04Z</time>
				<speed>7.159419</speed>
			</trkpt>
			<trkpt lat="24.0902344" lon="120.6422689">
				<ele>26.200000</ele>
				<time>2019-06-08T86:33:05Z</time>
				<speed>7.160962</speed>
			</trkpt>
			<trkpt lat="24.0902222" lon="120.6423503">
				<ele>26.200000</ele>
				<time>2019-06-08T06:33:06Z</time>
				<speed>7.773098</speed>
			</trkpt>
			<trkpt lat="24.0902059" lon="120.6424316">
				<ele>26.200000</ele>
				<time>2019-06-08T06:33:07Z</time>
				<speed>8.311161</speed>
			</trkpt>
			<trkpt lat="24.0901896" lon="120.6425293">
				<ele>26.200000</ele>
				<time>2019-06-08T06:33:08Z</time>
				<speed>8.978338</speed>
			</trkpt>
			<trkpt lat="24.0901733" lon="120.6426270">
				<ele>26.400000</ele>
				<time>2019-06-08T06:33:09Z</time>
				<speed>9.171238</speed>
			</trkpt>
			<trkpt lat="24.0901571" lon="120.6427246">
				<ele>26.500000</ele>
				<time>2019-06-08T06:33:10Z</time>
				<speed>9.463932</speed>
			</trkpt>
			<trkpt lat="24.0901408" lon="120.6428223">
				<ele>26.500000</ele>
				<time>2019-06-08T06:33:11Z</time>
				<speed>9.862077</speed>
			</trkpt>
			<trkpt lat="24.0901164" lon="120.6429362">
				<ele>26.700000</ele>
				<time>2019-06-08T06:33:12Z</time>
				<speed>10.209297</speed>
			</trkpt>
			<trkpt lat="24.0901001" lon="120.6430339">
				<ele>26.800000</ele>
				<time>2019-06-08T06:33:13Z</time>
				<speed>10.434604</speed>
			</trkpt>
			<trkpt lat="24.0900838" lon="120.6431478">
				<ele>26.800000</ele>
				<time>2019-06-08T06:33:14Z</time>
				<speed>10.624417</speed>
			</trkpt>
			<trkpt lat="24.0900635" lon="120.6432454">
				<ele>26.800000</ele>
				<time>2019-06-08T06:33:15Z</time>
				<speed>10.733470</speed>
			</trkpt>
			<trkpt lat="24.0900513" lon="120.6433594">
				<ele>26.800000</ele>
				<time>2019-06-08T06:33:16Z</time>
				<speed>10.819376</speed>
			</trkpt>
			<trkpt lat="24.0900350" lon="120.6434570">
				<ele>26.800000</ele>
				<time>2019-06-08T06:33:17Z</time>
				<speed>10.615158</speed>
			</trkpt>
			<trkpt lat="24.0900269" lon="120.6435547">
				<ele>26.600000</ele>
				<time>2019-06-08T06:33:18Z</time>
				<speed>10.541085</speed>
			</trkpt>
			<trkpt lat="24.0900391" lon="120.6436523">
				<ele>26.700000</ele>
				<time>2019-06-08T06:33:19Z</time>
				<speed>10.407855</speed>
			</trkpt>
			<trkpt lat="24.0900309" lon="120.6438314">
				<ele>27.000000</ele>
				<time>2019-06-08T06:33:21Z</time>
				<speed>9.494281</speed>
			</trkpt>
			<trkpt lat="24.0899129" lon="120.6444173">
				<ele>27.600000</ele>
				<time>2019-06-08T06:33:31Z</time>
				<speed>3.951621</speed>
			</trkpt>
			<trkpt lat="24.0894206" lon="120.6445964">
				<ele>28.500000</ele>
				<time>2019-06-08T06:33:35Z</time>
				<speed>7.691309</speed>
			</trkpt>
			<trkpt lat="24.0893311" lon="120.6446126">
				<ele>27.700000</ele>
				<time>2019-06-08T06:33:36Z</time>
				<speed>8.280811</speed>
			</trkpt>
			<trkpt lat="24.0892415" lon="120.6446126">
				<ele>27.100000</ele>
				<time>2019-06-08T06:33:37Z</time>
				<speed>8.801384</speed>
			</trkpt>
			<trkpt lat="24.0892415" lon="120.6446126">
				<ele>27.100000</ele>
				<time>2019-06-08T06:33:37Z</time>
				<speed>8.801384</speed>
			</trkpt>
		</trkseg>
	</trk>
</gpx>