<?xml version='1.0' encoding='utf-8'?>
<gpx xmlns="http://www.topografix.com/GPX/1/1" xmlns:xsi="http://www.w3.org/2001/XMLSchema-instance" creator="Astro Gemini" version="1.0" xsi:schemaLocation="http://www.topografix.com/GPX/1/0 http://www.topografix.com/GPX/1/0/gpx.xsd">
	<trk>
		<name>FRON0650</name>
		<trkseg>
			<trkpt lat="24.2875977" lon="120.5855632">
				<ele>66.500000</ele>
				<time>2019-06-08T07:27:36Z</time>
				<speed>3.607487</speed>
			</trkpt>
			<trkpt lat="24.2876383" lon="120.5855957">
				<ele>66.500000</ele>
				<time>2019-06-08T07:27:37Z</time>
				<speed>4.937211</speed>
			</trkpt>
			<trkpt lat="24.2876383" lon="120.5855957">
				<ele>66.400000</ele>
				<time>2019-06-08T07:27:37Z</time>
				<speed>4.937211</speed>
			</trkpt>
			<trkpt lat="24.2877401" lon="120.5856608">
				<ele>66.300000</ele>
				<time>2019-06-08T07:27:39Z</time>
				<speed>6.475781</speed>
			</trkpt>
			<trkpt lat="24.2878011" lon="120.5856934">
				<ele>66.400000</ele>
				<time>2019-06-08T07:27:40Z</time>
				<speed>7.110551</speed>
			</trkpt>
			<trkpt lat="24.2878662" lon="120.5857096">
				<ele>66.300000</ele>
				<time>2019-06-08T07:27:41Z</time>
				<speed>7.671247</speed>
			</trkpt>
			<trkpt lat="24.2879354" lon="120.5857422">
				<ele>66.300000</ele>
				<time>2019-06-08T07:27:42Z</time>
				<speed>8.148096</speed>
			</trkpt>
			<trkpt lat="24.2880046" lon="120.5857747">
				<ele>66.200000</ele>
				<time>2019-06-08T07:27:43Z</time>
				<speed>8.749944</speed>
			</trkpt>
			<trkpt lat="24.2880778" lon="120.5858073">
				<ele>66.400000</ele>
				<time>2019-06-08T07:27:44Z</time>
				<speed>8.932042</speed>
			</trkpt>
			<trkpt lat="24.2881632" lon="120.5858398">
				<ele>66.400000</ele>
				<time>2019-06-08T07:27:45Z</time>
				<speed>9.617222</speed>
			</trkpt>
			<trkpt lat="24.2882528" lon="120.5858887">
				<ele>65.900000</ele>
				<time>2019-06-08T07:27:46Z</time>
				<speed>10.372361</speed>
			</trkpt>
			<trkpt lat="24.2883423" lon="120.5859212">
				<ele>66.300000</ele>
				<time>2019-06-08T07:27:47Z</time>
				<speed>10.673800</speed>
			</trkpt>
			<trkpt lat="24.2884318" lon="120.5859701">
				<ele>65.500000</ele>
				<time>2019-06-08T07:27:48Z</time>
				<speed>10.969065</speed>
			</trkpt>
			<trkpt lat="24.2885335" lon="120.5860189">
				<ele>65.500000</ele>
				<time>2019-06-08T07:27:49Z</time>
				<speed>11.495297</speed>
			</trkpt>
			<trkpt lat="24.2886312" lon="120.5860677">
				<ele>65.300000</ele>
				<time>2019-06-08T07:27:50Z</time>
				<speed>11.987578</speed>
			</trkpt>
			<trkpt lat="24.2887288" lon="120.5861165">
				<ele>65.000000</ele>
				<time>2019-06-08T07:27:51Z</time>
				<speed>12.284387</speed>
			</trkpt>
			<trkpt lat="24.2888346" lon="120.5861654">
				<ele>65.100000</ele>
				<time>2019-06-08T07:27:52Z</time>
				<speed>12.738602</speed>
			</trkpt>
			<trkpt lat="24.2889404" lon="120.5862305">
				<ele>64.900000</ele>
				<time>2019-06-08T07:27:53Z</time>
				<speed>12.885720</speed>
			</trkpt>
			<trkpt lat="24.2890503" lon="120.5862793">
				<ele>65.000000</ele>
				<time>2019-06-08T07:27:54Z</time>
				<speed>13.275120</speed>
			</trkpt>
			<trkpt lat="24.2891602" lon="120.5863444">
				<ele>65.200000</ele>
				<time>2019-06-08T07:27:55Z</time>
				<speed>13.568843</speed>
			</trkpt>
			<trkpt lat="24.2892741" lon="120.5863932">
				<ele>64.900000</ele>
				<time>2019-06-08T07:27:56Z</time>
				<speed>13.750941</speed>
			</trkpt>
			<trkpt lat="24.2893880" lon="120.5864583">
				<ele>64.800000</ele>
				<time>2019-06-08T07:27:57Z</time>
				<speed>13.999910</speed>
			</trkpt>
			<trkpt lat="24.2895020" lon="120.5865234">
				<ele>64.500000</ele>
				<time>2019-06-08T07:27:58Z</time>
				<speed>14.184580</speed>
			</trkpt>
			<trkpt lat="24.2896159" lon="120.5865723">
				<ele>64.200000</ele>
				<time>2019-06-08T07:27:59Z</time>
				<speed>14.238592</speed>
			</trkpt>
			<trkpt lat="24.2897339" lon="120.5866374">
				<ele>64.200000</ele>
				<time>2019-06-08T07:28:00Z</time>
				<speed>14.482417</speed>
			</trkpt>
			<trkpt lat="24.2898519" lon="120.5867025">
				<ele>64.300000</ele>
				<time>2019-06-08T07:28:01Z</time>
				<speed>14.529743</speed>
			</trkpt>
			<trkpt lat="24.2899699" lon="120.5867676">
				<ele>64.200000</ele>
				<time>2019-06-08T07:28:02Z</time>
				<speed>14.672232</speed>
			</trkpt>
			<trkpt lat="24.2900920" lon="120.5868327">
				<ele>64.200000</ele>
				<time>2019-06-08T07:28:03Z</time>
				<speed>14.756593</speed>
			</trkpt>
			<trkpt lat="24.2902140" lon="120.5868978">
				<ele>64.300000</ele>
				<time>2019-06-08T07:28:04Z</time>
				<speed>14.923258</speed>
			</trkpt>
			<trkpt lat="24.2903320" lon="120.5869629">
				<ele>64.400000</ele>
				<time>2019-06-08T07:28:05Z</time>
				<speed>15.012764</speed>
			</trkpt>
			<trkpt lat="24.2904541" lon="120.5870280">
				<ele>64.400000</ele>
				<time>2019-06-08T07:28:06Z</time>
				<speed>15.075006</speed>
			</trkpt>
			<trkpt lat="24.2905762" lon="120.5871094">
				<ele>64.300000</ele>
				<time>2019-06-08T07:28:07Z</time>
				<speed>15.241672</speed>
			</trkpt>
			<trkpt lat="24.2906982" lon="120.5871745">
				<ele>64.300000</ele>
				<time>2019-06-08T07:28:08Z</time>
				<speed>15.288997</speed>
			</trkpt>
			<trkpt lat="24.2908203" lon="120.5872559">
				<ele>64.100000</ele>
				<time>2019-06-08T07:28:09Z</time>
				<speed>15.435087</speed>
			</trkpt>
			<trkpt lat="24.2909465" lon="120.5873210">
				<ele>63.900000</ele>
				<time>2019-06-08T07:28:10Z</time>
				<speed>15.609983</speed>
			</trkpt>
			<trkpt lat="24.2910726" lon="120.5873861">
				<ele>63.700000</ele>
				<time>2019-06-08T07:28:11Z</time>
				<speed>15.732924</speed>
			</trkpt>
			<trkpt lat="24.2912028" lon="120.5874674">
				<ele>63.700000</ele>
				<time>2019-06-08T07:28:12Z</time>
				<speed>15.816771</speed>
			</trkpt>
			<trkpt lat="24.2913289" lon="120.5875326">
				<ele>63.700000</ele>
				<time>2019-06-08T07:28:13Z</time>
				<speed>15.980350</speed>
			</trkpt>
			<trkpt lat="24.2914591" lon="120.5876139">
				<ele>64.100000</ele>
				<time>2019-06-08T07:28:14Z</time>
				<speed>16.123354</speed>
			</trkpt>
			<trkpt lat="24.2915894" lon="120.5876790">
				<ele>64.100000</ele>
				<time>2019-06-08T07:28:15Z</time>
				<speed>16.237550</speed>
			</trkpt>
			<trkpt lat="24.2917196" lon="120.5877604">
				<ele>64.100000</ele>
				<time>2019-06-08T07:28:16Z</time>
				<speed>16.341973</speed>
			</trkpt>
			<trkpt lat="24.2918457" lon="120.5878418">
				<ele>64.000000</ele>
				<time>2019-06-08T07:28:17Z</time>
				<speed>16.265843</speed>
			</trkpt>
			<trkpt lat="24.2919718" lon="120.5879232">
				<ele>63.900000</ele>
				<time>2019-06-08T07:28:18Z</time>
				<speed>16.230863</speed>
			</trkpt>
			<trkpt lat="24.2921061" lon="120.5879883">
				<ele>63.900000</ele>
				<time>2019-06-08T07:28:19Z</time>
				<speed>16.239094</speed>
			</trkpt>
			<trkpt lat="24.2922404" lon="120.5880534">
				<ele>63.800000</ele>
				<time>2019-06-08T07:28:20Z</time>
				<speed>16.303908</speed>
			</trkpt>
			<trkpt lat="24.2923706" lon="120.5881185">
				<ele>63.500000</ele>
				<time>2019-06-08T07:28:21Z</time>
				<speed>16.225719</speed>
			</trkpt>
			<trkpt lat="24.2925008" lon="120.5881999">
				<ele>63.400000</ele>
				<time>2019-06-08T07:28:22Z</time>
				<speed>16.343002</speed>
			</trkpt>
			<trkpt lat="24.2926310" lon="120.5882812">
				<ele>62.900000</ele>
				<time>2019-06-08T07:28:23Z</time>
				<speed>16.289505</speed>
			</trkpt>
			<trkpt lat="24.2927612" lon="120.5883464">
				<ele>62.700000</ele>
				<time>2019-06-08T07:28:24Z</time>
				<speed>16.430450</speed>
			</trkpt>
			<trkpt lat="24.2928914" lon="120.5884277">
				<ele>62.700000</ele>
				<time>2019-06-08T07:28:25Z</time>
				<speed>16.599688</speed>
			</trkpt>
			<trkpt lat="24.2930257" lon="120.5885091">
				<ele>62.500000</ele>
				<time>2019-06-08T07:28:26Z</time>
				<speed>16.649585</speed>
			</trkpt>
			<trkpt lat="24.2930257" lon="120.5885091">
				<ele>62.500000</ele>
				<time>2019-06-08T07:28:26Z</time>
				<speed>16.649585</speed>
			</trkpt>
			<trkpt lat="24.2932902" lon="120.5886719">
				<ele>62.100000</ele>
				<time>2019-06-08T07:28:28Z</time>
				<speed>16.750921</speed>
			</trkpt>
			<trkpt lat="24.2934285" lon="120.5887533">
				<ele>62.100000</ele>
				<time>2019-06-08T07:28:29Z</time>
				<speed>16.923245</speed>
			</trkpt>
			<trkpt lat="24.2935628" lon="120.5888346">
				<ele>62.700000</ele>
				<time>2019-06-08T07:28:30Z</time>
				<speed>16.935077</speed>
			</trkpt>
			<trkpt lat="24.2936930" lon="120.5889160">
				<ele>62.700000</ele>
				<time>2019-06-08T07:28:31Z</time>
				<speed>17.025611</speed>
			</trkpt>
			<trkpt lat="24.2938232" lon="120.5890137">
				<ele>62.600000</ele>
				<time>2019-06-08T07:28:32Z</time>
				<speed>17.187132</speed>
			</trkpt>
			<trkpt lat="24.2939575" lon="120.5890951">
				<ele>62.600000</ele>
				<time>2019-06-08T07:28:33Z</time>
				<speed>17.267894</speed>
			</trkpt>
			<trkpt lat="24.2940877" lon="120.5891927">
				<ele>62.400000</ele>
				<time>2019-06-08T07:28:34Z</time>
				<speed>17.242174</speed>
			</trkpt>
			<trkpt lat="24.2942139" lon="120.5892904">
				<ele>62.400000</ele>
				<time>2019-06-08T07:28:35Z</time>
				<speed>17.149582</speed>
			</trkpt>
			<trkpt lat="24.2943359" lon="120.5894043">
				<ele>62.400000</ele>
				<time>2019-06-08T07:28:36Z</time>
				<speed>17.063677</speed>
			</trkpt>
			<trkpt lat="24.2944539" lon="120.5895182">
				<ele>61.600000</ele>
				<time>2019-06-08T07:28:37Z</time>
				<speed>17.040528</speed>
			</trkpt>
			<trkpt lat="24.2945760" lon="120.5896322">
				<ele>61.200000</ele>
				<time>2019-06-08T07:28:38Z</time>
				<speed>17.005035</speed>
			</trkpt>
			<trkpt lat="24.2946940" lon="120.5897298">
				<ele>60.500000</ele>
				<time>2019-06-08T07:28:39Z</time>
				<speed>17.083224</speed>
			</trkpt>
			<trkpt lat="24.2948120" lon="120.5898438">
				<ele>60.500000</ele>
				<time>2019-06-08T07:28:40Z</time>
				<speed>17.042073</speed>
			</trkpt>
			<trkpt lat="24.2949300" lon="120.5899577">
				<ele>60.400000</ele>
				<time>2019-06-08T07:28:41Z</time>
				<speed>16.882094</speed>
			</trkpt>
			<trkpt lat="24.2950480" lon="120.5900553">
				<ele>60.300000</ele>
				<time>2019-06-08T07:28:42Z</time>
				<speed>16.920674</speed>
			</trkpt>
			<trkpt lat="24.2951660" lon="120.5901693">
				<ele>60.400000</ele>
				<time>2019-06-08T07:28:43Z</time>
				<speed>16.887753</speed>
			</trkpt>
			<trkpt lat="24.2952799" lon="120.5902832">
				<ele>60.400000</ele>
				<time>2019-06-08T07:28:44Z</time>
				<speed>16.886723</speed>
			</trkpt>
			<trkpt lat="24.2953939" lon="120.5903971">
				<ele>60.100000</ele>
				<time>2019-06-08T07:28:45Z</time>
				<speed>16.777671</speed>
			</trkpt>
			<trkpt lat="24.2955078" lon="120.5905111">
				<ele>60.000000</ele>
				<time>2019-06-08T07:28:46Z</time>
				<speed>16.735490</speed>
			</trkpt>
			<trkpt lat="24.2956258" lon="120.5906087">
				<ele>59.900000</ele>
				<time>2019-06-08T07:28:47Z</time>
				<speed>16.704111</speed>
			</trkpt>
			<trkpt lat="24.2957397" lon="120.5907227">
				<ele>59.900000</ele>
				<time>2019-06-08T07:28:48Z</time>
				<speed>16.635696</speed>
			</trkpt>
			<trkpt lat="24.2958496" lon="120.5908366">
				<ele>59.700000</ele>
				<time>2019-06-08T07:28:49Z</time>
				<speed>16.496294</speed>
			</trkpt>
			<trkpt lat="24.2959595" lon="120.5909505">
				<ele>59.400000</ele>
				<time>2019-06-08T07:28:50Z</time>
				<speed>16.426850</speed>
			</trkpt>
			<trkpt lat="24.2960653" lon="120.5910482">
				<ele>59.400000</ele>
				<time>2019-06-08T07:28:51Z</time>
				<speed>16.296192</speed>
			</trkpt>
			<trkpt lat="24.2961751" lon="120.5911621">
				<ele>59.800000</ele>
				<time>2019-06-08T07:28:52Z</time>
				<speed>16.260698</speed>
			</trkpt>
			<trkpt lat="24.2962850" lon="120.5912760">
				<ele>60.000000</ele>
				<time>2019-06-08T07:28:53Z</time>
				<speed>16.408332</speed>
			</trkpt>
			<trkpt lat="24.2963949" lon="120.5913900">
				<ele>60.100000</ele>
				<time>2019-06-08T07:28:54Z</time>
				<speed>16.409360</speed>
			</trkpt>
			<trkpt lat="24.2965047" lon="120.5915039">
				<ele>60.200000</ele>
				<time>2019-06-08T07:28:55Z</time>
				<speed>16.538475</speed>
			</trkpt>
			<trkpt lat="24.2966146" lon="120.5916016">
				<ele>60.400000</ele>
				<time>2019-06-08T07:28:56Z</time>
				<speed>16.585285</speed>
			</trkpt>
			<trkpt lat="24.2967244" lon="120.5917155">
				<ele>60.400000</ele>
				<time>2019-06-08T07:28:57Z</time>
				<speed>16.619749</speed>
			</trkpt>
			<trkpt lat="24.2968384" lon="120.5918294">
				<ele>60.200000</ele>
				<time>2019-06-08T07:28:58Z</time>
				<speed>16.723143</speed>
			</trkpt>
			<trkpt lat="24.2969482" lon="120.5919434">
				<ele>60.300000</ele>
				<time>2019-06-08T07:28:59Z</time>
				<speed>16.702569</speed>
			</trkpt>
			<trkpt lat="24.2970581" lon="120.5920736">
				<ele>59.900000</ele>
				<time>2019-06-08T07:29:00Z</time>
				<speed>16.769439</speed>
			</trkpt>
			<trkpt lat="24.2971639" lon="120.5921875">
				<ele>59.900000</ele>
				<time>2019-06-08T07:29:01Z</time>
				<speed>16.849687</speed>
			</trkpt>
			<trkpt lat="24.2972778" lon="120.5923014">
				<ele>59.700000</ele>
				<time>2019-06-08T07:29:02Z</time>
				<speed>16.873864</speed>
			</trkpt>
			<trkpt lat="24.2973877" lon="120.5924316">
				<ele>59.300000</ele>
				<time>2019-06-08T07:29:03Z</time>
				<speed>16.923245</speed>
			</trkpt>
			<trkpt lat="24.2974935" lon="120.5925456">
				<ele>58.700000</ele>
				<time>2019-06-08T07:29:04Z</time>
				<speed>16.552364</speed>
			</trkpt>
			<trkpt lat="24.2975993" lon="120.5926595">
				<ele>58.600000</ele>
				<time>2019-06-08T07:29:05Z</time>
				<speed>16.238065</speed>
			</trkpt>
			<trkpt lat="24.2977091" lon="120.5927734">
				<ele>58.400000</ele>
				<time>2019-06-08T07:29:06Z</time>
				<speed>16.042079</speed>
			</trkpt>
			<trkpt lat="24.2978149" lon="120.5928711">
				<ele>58.200000</ele>
				<time>2019-06-08T07:29:07Z</time>
				<speed>15.764816</speed>
			</trkpt>
			<trkpt lat="24.2979167" lon="120.5929850">
				<ele>57.800000</ele>
				<time>2019-06-08T07:29:08Z</time>
				<speed>15.672739</speed>
			</trkpt>
			<trkpt lat="24.2980265" lon="120.5930827">
				<ele>57.700000</ele>
				<time>2019-06-08T07:29:09Z</time>
				<speed>15.765332</speed>
			</trkpt>
			<trkpt lat="24.2981283" lon="120.5931966">
				<ele>57.500000</ele>
				<time>2019-06-08T07:29:10Z</time>
				<speed>15.832717</speed>
			</trkpt>
			<trkpt lat="24.2982340" lon="120.5932943">
				<ele>57.500000</ele>
				<time>2019-06-08T07:29:11Z</time>
				<speed>15.932511</speed>
			</trkpt>
			<trkpt lat="24.2983439" lon="120.5934082">
				<ele>57.400000</ele>
				<time>2019-06-08T07:29:12Z</time>
				<speed>15.992182</speed>
			</trkpt>
			<trkpt lat="24.2984538" lon="120.5935059">
				<ele>57.500000</ele>
				<time>2019-06-08T07:29:13Z</time>
				<speed>16.146502</speed>
			</trkpt>
			<trkpt lat="24.2985636" lon="120.5936198">
				<ele>57.500000</ele>
				<time>2019-06-08T07:29:14Z</time>
				<speed>16.268929</speed>
			</trkpt>
			<trkpt lat="24.2985636" lon="120.5936198">
				<ele>57.600000</ele>
				<time>2019-06-08T07:29:15Z</time>
				<speed>6191.124998</speed>
			</trkpt>
			<trkpt lat="24.2987834" lon="120.5938314">
				<ele>57.600000</ele>
				<time>2019-06-08T07:29:16Z</time>
				<speed>16.288476</speed>
			</trkpt>
			<trkpt lat="24.2988932" lon="120.5939453">
				<ele>57.800000</ele>
				<time>2019-06-08T07:29:17Z</time>
				<speed>16.453084</speed>
			</trkpt>
			<trkpt lat="24.2988932" lon="120.5939453">
				<ele>57.800000</ele>
				<time>2019-06-08T07:29:17Z</time>
				<speed>16.453084</speed>
			</trkpt>
			<trkpt lat="24.2991170" lon="120.5941569">
				<ele>57.800000</ele>
				<time>2019-06-08T07:29:19Z</time>
				<speed>16.314710</speed>
			</trkpt>
			<trkpt lat="24.2992228" lon="120.5942546">
				<ele>58.200000</ele>
				<time>2019-06-08T07:29:20Z</time>
				<speed>15.490642</speed>
			</trkpt>
			<trkpt lat="24.2993245" lon="120.5943522">
				<ele>58.200000</ele>
				<time>2019-06-08T07:29:21Z</time>
				<speed>14.586841</speed>
			</trkpt>
			<trkpt lat="24.2994222" lon="120.5944499">
				<ele>58.400000</ele>
				<time>2019-06-08T07:29:22Z</time>
				<speed>13.779747</speed>
			</trkpt>
			<trkpt lat="24.2995158" lon="120.5945313">
				<ele>58.300000</ele>
				<time>2019-06-08T07:29:23Z</time>
				<speed>13.053929</speed>
			</trkpt>
			<trkpt lat="24.2996012" lon="120.5946126">
				<ele>58.300000</ele>
				<time>2019-06-08T07:29:24Z</time>
				<speed>12.173791</speed>
			</trkpt>
			<trkpt lat="24.2996867" lon="120.5946940">
				<ele>58.100000</ele>
				<time>2019-06-08T07:29:25Z</time>
				<speed>11.388302</speed>
			</trkpt>
			<trkpt lat="24.2997599" lon="120.5947591">
				<ele>57.900000</ele>
				<time>2019-06-08T07:29:26Z</time>
				<speed>10.508678</speed>
			</trkpt>
			<trkpt lat="24.2998210" lon="120.5948405">
				<ele>57.200000</ele>
				<time>2019-06-08T07:29:27Z</time>
				<speed>9.585844</speed>
			</trkpt>
			<trkpt lat="24.2998861" lon="120.5948893">
				<ele>56.200000</ele>
				<time>2019-06-08T07:29:28Z</time>
				<speed>8.244289</speed>
			</trkpt>
			<trkpt lat="24.2999390" lon="120.5949219">
				<ele>56.100000</ele>
				<time>2019-06-08T07:29:29Z</time>
				<speed>6.237615</speed>
			</trkpt>
			<trkpt lat="24.2999674" lon="120.5949544">
				<ele>56.400000</ele>
				<time>2019-06-08T07:29:30Z</time>
				<speed>3.287530</speed>
			</trkpt>
			<trkpt lat="24.2999715" lon="120.5949544">
				<ele>55.500000</ele>
				<time>2019-06-08T07:29:31Z</time>
				<speed>0.269031</speed>
			</trkpt>
			<trkpt lat="24.2999715" lon="120.5949707">
				<ele>55.400000</ele>
				<time>2019-06-08T07:29:32Z</time>
				<speed>0.157921</speed>
			</trkpt>
			<trkpt lat="24.2999715" lon="120.5949707">
				<ele>55.300000</ele>
				<time>2019-06-08T07:29:33Z</time>
				<speed>0.078189</speed>
			</trkpt>
			<trkpt lat="24.2999715" lon="120.5949707">
				<ele>55.100000</ele>
				<time>2019-06-08T07:29:34Z</time>
				<speed>0.118826</speed>
			</trkpt>
			<trkpt lat="24.2999715" lon="120.5949707">
				<ele>55.000000</ele>
				<time>2019-06-08T07:29:35Z</time>
				<speed>0.205246</speed>
			</trkpt>
			<trkpt lat="24.2999756" lon="120.5949707">
				<ele>54.800000</ele>
				<time>2019-06-08T07:29:36Z</time>
				<speed>0.208846</speed>
			</trkpt>
			<trkpt lat="24.2999756" lon="120.5949707">
				<ele>54.600000</ele>
				<time>2019-06-08T07:29:37Z</time>
				<speed>0.257200</speed>
			</trkpt>
			<trkpt lat="24.2999715" lon="120.5949707">
				<ele>54.800000</ele>
				<time>2019-06-08T07:29:38Z</time>
				<speed>0.058642</speed>
			</trkpt>
			<trkpt lat="24.2999756" lon="120.5949707">
				<ele>54.800000</ele>
				<time>2019-06-08T07:29:39Z</time>
				<speed>0.231994</speed>
			</trkpt>
			<trkpt lat="24.2999715" lon="120.5949707">
				<ele>54.900000</ele>
				<time>2019-06-08T07:29:40Z</time>
				<speed>0.099279</speed>
			</trkpt>
			<trkpt lat="24.2999715" lon="120.5949870">
				<ele>55.400000</ele>
				<time>2019-06-08T07:29:41Z</time>
				<speed>0.100822</speed>
			</trkpt>
			<trkpt lat="24.2999674" lon="120.5949870">
				<ele>55.300000</ele>
				<time>2019-06-08T07:29:42Z</time>
				<speed>0.290636</speed>
			</trkpt>
			<trkpt lat="24.2999674" lon="120.5949870">
				<ele>55.200000</ele>
				<time>2019-06-08T07:29:43Z</time>
				<speed>0.305554</speed>
			</trkpt>
			<trkpt lat="24.2999674" lon="120.5949870">
				<ele>55.200000</ele>
				<time>2019-06-08T07:29:44Z</time>
				<speed>0.026234</speed>
			</trkpt>
			<trkpt lat="24.2999634" lon="120.5949870">
				<ele>55.200000</ele>
				<time>2019-06-08T07:29:45Z</time>
				<speed>0.019547</speed>
			</trkpt>
			<trkpt lat="24.2999634" lon="120.5950033">
				<ele>54.800000</ele>
				<time>2019-06-08T07:29:46Z</time>
				<speed>0.165637</speed>
			</trkpt>
			<trkpt lat="24.2999634" lon="120.5950033">
				<ele>54.400000</ele>
				<time>2019-06-08T07:29:47Z</time>
				<speed>0.344134</speed>
			</trkpt>
			<trkpt lat="24.2999634" lon="120.5950033">
				<ele>53.900000</ele>
				<time>2019-06-08T07:29:48Z</time>
				<speed>0.316870</speed>
			</trkpt>
			<trkpt lat="24.2999634" lon="120.5950033">
				<ele>53.800000</ele>
				<time>2019-06-08T07:29:49Z</time>
				<speed>0.230966</speed>
			</trkpt>
			<trkpt lat="24.2999593" lon="120.5950033">
				<ele>53.700000</ele>
				<time>2019-06-08T07:29:50Z</time>
				<speed>0.288064</speed>
			</trkpt>
			<trkpt lat="24.2999593" lon="120.5950033">
				<ele>53.600000</ele>
				<time>2019-06-08T07:29:51Z</time>
				<speed>0.121913</speed>
			</trkpt>
			<trkpt lat="24.2999593" lon="120.5950033">
				<ele>53.200000</ele>
				<time>2019-06-08T07:29:52Z</time>
				<speed>0.193929</speed>
			</trkpt>
			<trkpt lat="24.2999593" lon="120.5950033">
				<ele>53.000000</ele>
				<time>2019-06-08T07:29:53Z</time>
				<speed>0.228908</speed>
			</trkpt>
			<trkpt lat="24.2999593" lon="120.5950195">
				<ele>52.800000</ele>
				<time>2019-06-08T07:29:54Z</time>
				<speed>0.183641</speed>
			</trkpt>
			<trkpt lat="24.2999593" lon="120.5950195">
				<ele>52.600000</ele>
				<time>2019-06-08T07:29:55Z</time>
				<speed>0.093106</speed>
			</trkpt>
			<trkpt lat="24.2999634" lon="120.5950195">
				<ele>52.600000</ele>
				<time>2019-06-08T07:29:56Z</time>
				<speed>0.067386</speed>
			</trkpt>
			<trkpt lat="24.2999634" lon="120.5950033">
				<ele>52.300000</ele>
				<time>2019-06-08T07:29:57Z</time>
				<speed>0.067901</speed>
			</trkpt>
			<trkpt lat="24.2999634" lon="120.5950195">
				<ele>52.000000</ele>
				<time>2019-06-08T07:29:58Z</time>
				<speed>0.100308</speed>
			</trkpt>
			<trkpt lat="24.2999593" lon="120.5950195">
				<ele>52.000000</ele>
				<time>2019-06-08T07:29:59Z</time>
				<speed>0.259772</speed>
			</trkpt>
			<trkpt lat="24.2999634" lon="120.5950195">
				<ele>52.100000</ele>
				<time>2019-06-08T07:30:00Z</time>
				<speed>0.051954</speed>
			</trkpt>
			<trkpt lat="24.2999634" lon="120.5950033">
				<ele>52.100000</ele>
				<time>2019-06-08T07:30:01Z</time>
				<speed>0.147118</speed>
			</trkpt>
			<trkpt lat="24.2999674" lon="120.5950195">
				<ele>52.100000</ele>
				<time>2019-06-08T07:30:02Z</time>
				<speed>0.763370</speed>
			</trkpt>
			<trkpt lat="24.2999837" lon="120.5950195">
				<ele>51.900000</ele>
				<time>2019-06-08T07:30:03Z</time>
				<speed>2.343092</speed>
			</trkpt>
			<trkpt lat="24.3000122" lon="120.5950358">
				<ele>51.500000</ele>
				<time>2019-06-08T07:30:04Z</time>
				<speed>3.891436</speed>
			</trkpt>
			<trkpt lat="24.3000488" lon="120.5950684">
				<ele>51.400000</ele>
				<time>2019-06-08T07:30:05Z</time>
				<speed>5.117251</speed>
			</trkpt>
			<trkpt lat="24.3000936" lon="120.5951009">
				<ele>51.000000</ele>
				<time>2019-06-08T07:30:06Z</time>
				<speed>6.281339</speed>
			</trkpt>
			<trkpt lat="24.3001465" lon="120.5951335">
				<ele>51.300000</ele>
				<time>2019-06-08T07:30:07Z</time>
				<speed>6.960861</speed>
			</trkpt>
			<trkpt lat="24.3002035" lon="120.5951660">
				<ele>51.400000</ele>
				<time>2019-06-08T07:30:08Z</time>
				<speed>7.501495</speed>
			</trkpt>
			<trkpt lat="24.3002645" lon="120.5952148">
				<ele>51.500000</ele>
				<time>2019-06-08T07:30:09Z</time>
				<speed>7.965998</speed>
			</trkpt>
			<trkpt lat="24.3003255" lon="120.5952474">
				<ele>51.800000</ele>
				<time>2019-06-08T07:30:10Z</time>
				<speed>8.426387</speed>
			</trkpt>
			<trkpt lat="24.3003947" lon="120.5952962">
				<ele>52.000000</ele>
				<time>2019-06-08T07:30:11Z</time>
				<speed>8.799841</speed>
			</trkpt>
			<trkpt lat="24.3004639" lon="120.5953451">
				<ele>52.000000</ele>
				<time>2019-06-08T07:30:12Z</time>
				<speed>9.012802</speed>
			</trkpt>
			<trkpt lat="24.3005412" lon="120.5953776">
				<ele>52.400000</ele>
				<time>2019-06-08T07:30:13Z</time>
				<speed>9.579157</speed>
			</trkpt>
			<trkpt lat="24.3006266" lon="120.5954102">
				<ele>52.400000</ele>
				<time>2019-06-08T07:30:14Z</time>
				<speed>10.170202</speed>
			</trkpt>
			<trkpt lat="24.3007121" lon="120.5954590">
				<ele>52.400000</ele>
				<time>2019-06-08T07:30:15Z</time>
				<speed>10.517937</speed>
			</trkpt>
			<trkpt lat="24.3008057" lon="120.5954915">
				<ele>52.500000</ele>
				<time>2019-06-08T07:30:16Z</time>
				<speed>11.013304</speed>
			</trkpt>
			<trkpt lat="24.3008993" lon="120.5955404">
				<ele>52.400000</ele>
				<time>2019-06-08T07:30:17Z</time>
				<speed>11.442828</speed>
			</trkpt>
			<trkpt lat="24.3009969" lon="120.5955729">
				<ele>52.500000</ele>
				<time>2019-06-08T07:30:18Z</time>
				<speed>11.661448</speed>
			</trkpt>
			<trkpt lat="24.3010986" lon="120.5956217">
				<ele>52.400000</ele>
				<time>2019-06-08T07:30:19Z</time>
				<speed>12.155272</speed>
			</trkpt>
			<trkpt lat="24.3012044" lon="120.5956706">
				<ele>52.300000</ele>
				<time>2019-06-08T07:30:20Z</time>
				<speed>12.617717</speed>
			</trkpt>
			<trkpt lat="24.3013143" lon="120.5957194">
				<ele>52.200000</ele>
				<time>2019-06-08T07:30:21Z</time>
				<speed>13.081192</speed>
			</trkpt>
			<trkpt lat="24.3014242" lon="120.5957682">
				<ele>52.400000</ele>
				<time>2019-06-08T07:30:22Z</time>
				<speed>13.125945</speed>
			</trkpt>
			<trkpt lat="24.3015422" lon="120.5958171">
				<ele>52.400000</ele>
				<time>2019-06-08T07:30:23Z</time>
				<speed>13.542609</speed>
			</trkpt>
			<trkpt lat="24.3016561" lon="120.5958496">
				<ele>52.800000</ele>
				<time>2019-06-08T07:30:24Z</time>
				<speed>13.562156</speed>
			</trkpt>
			<trkpt lat="24.3017782" lon="120.5958984">
				<ele>53.200000</ele>
				<time>2019-06-08T07:30:25Z</time>
				<speed>14.014828</speed>
			</trkpt>
			<trkpt lat="24.3019002" lon="120.5959310">
				<ele>53.300000</ele>
				<time>2019-06-08T07:30:26Z</time>
				<speed>14.022544</speed>
			</trkpt>
			<trkpt lat="24.3020223" lon="120.5959798">
				<ele>53.500000</ele>
				<time>2019-06-08T07:30:27Z</time>
				<speed>14.366163</speed>
			</trkpt>
			<trkpt lat="24.3021444" lon="120.5960286">
				<ele>53.900000</ele>
				<time>2019-06-08T07:30:28Z</time>
				<speed>14.451039</speed>
			</trkpt>
			<trkpt lat="24.3022664" lon="120.5960775">
				<ele>54.100000</ele>
				<time>2019-06-08T07:30:29Z</time>
				<speed>14.506595</speed>
			</trkpt>
			<trkpt lat="24.3023844" lon="120.5961426">
				<ele>54.000000</ele>
				<time>2019-06-08T07:30:30Z</time>
				<speed>14.544660</speed>
			</trkpt>
			<trkpt lat="24.3025106" lon="120.5961914">
				<ele>54.200000</ele>
				<time>2019-06-08T07:30:31Z</time>
				<speed>14.665544</speed>
			</trkpt>
			<trkpt lat="24.3026326" lon="120.5962240">
				<ele>54.500000</ele>
				<time>2019-06-08T07:30:32Z</time>
				<speed>14.387254</speed>
			</trkpt>
			<trkpt lat="24.3027507" lon="120.5962728">
				<ele>54.600000</ele>
				<time>2019-06-08T07:30:33Z</time>
				<speed>13.446931</speed>
			</trkpt>
			<trkpt lat="24.3028564" lon="120.5963216">
				<ele>54.400000</ele>
				<time>2019-06-08T07:30:34Z</time>
				<speed>12.927901</speed>
			</trkpt>
			<trkpt lat="24.3029663" lon="120.5963542">
				<ele>54.300000</ele>
				<time>2019-06-08T07:30:35Z</time>
				<speed>12.107433</speed>
			</trkpt>
			<trkpt lat="24.3030680" lon="120.5963867">
				<ele>54.200000</ele>
				<time>2019-06-08T07:30:36Z</time>
				<speed>11.419165</speed>
			</trkpt>
			<trkpt lat="24.3030680" lon="120.5963867">
				<ele>54.900000</ele>
				<time>2019-06-08T07:30:36Z</time>
				<speed>11.419165</speed>
			</trkpt>
		</trkseg>
	</trk>
</gpx>