<?xml version='1.0' encoding='utf-8'?>
<gpx xmlns="http://www.topografix.com/GPX/1/1" xmlns:xsi="http://www.w3.org/2001/XMLSchema-instance" creator="Astro Gemini" version="1.0" xsi:schemaLocation="http://www.topografix.com/GPX/1/0 http://www.topografix.com/GPX/1/0/gpx.xsd">
	<trk>
		<name>FRON0643</name>
		<trkseg>
			<trkpt lat="24.1994670" lon="120.5375326">
				<ele>-8.200000</ele>
				<time>2019-06-08T07:06:36Z</time>
				<speed>17.412439</speed>
			</trkpt>
			<trkpt lat="24.1996175" lon="120.5375814">
				<ele>-8.300000</ele>
				<time>2019-06-08T07:06:37Z</time>
				<speed>17.467481</speed>
			</trkpt>
			<trkpt lat="24.1996175" lon="120.5375814">
				<ele>-8.500000</ele>
				<time>2019-06-08T07:06:37Z</time>
				<speed>17.467481</speed>
			</trkpt>
			<trkpt lat="24.1999268" lon="120.5376628">
				<ele>-8.700000</ele>
				<time>2019-06-08T07:06:39Z</time>
				<speed>17.583735</speed>
			</trkpt>
			<trkpt lat="24.2000814" lon="120.5376953">
				<ele>-9.100000</ele>
				<time>2019-06-08T07:06:40Z</time>
				<speed>17.600196</speed>
			</trkpt>
			<trkpt lat="24.2002401" lon="120.5377279">
				<ele>-9.300000</ele>
				<time>2019-06-08T07:06:41Z</time>
				<speed>17.668097</speed>
			</trkpt>
			<trkpt lat="24.2003947" lon="120.5377604">
				<ele>-9.600000</ele>
				<time>2019-06-08T07:06:42Z</time>
				<speed>17.685073</speed>
			</trkpt>
			<trkpt lat="24.2005534" lon="120.5378092">
				<ele>-10.000000</ele>
				<time>2019-06-08T07:06:43Z</time>
				<speed>17.653694</speed>
			</trkpt>
			<trkpt lat="24.2007080" lon="120.5378418">
				<ele>-10.200000</ele>
				<time>2019-06-08T07:06:44Z</time>
				<speed>17.704105</speed>
			</trkpt>
			<trkpt lat="24.2008626" lon="120.5378743">
				<ele>-10.600000</ele>
				<time>2019-06-08T07:06:45Z</time>
				<speed>17.696903</speed>
			</trkpt>
			<trkpt lat="24.2010213" lon="120.5379232">
				<ele>-10.400000</ele>
				<time>2019-06-08T07:06:46Z</time>
				<speed>17.546184</speed>
			</trkpt>
			<trkpt lat="24.2011759" lon="120.5379557">
				<ele>-10.600000</ele>
				<time>2019-06-08T07:06:47Z</time>
				<speed>17.487542</speed>
			</trkpt>
			<trkpt lat="24.2013306" lon="120.5379883">
				<ele>-10.800000</ele>
				<time>2019-06-08T07:06:48Z</time>
				<speed>17.595567</speed>
			</trkpt>
			<trkpt lat="24.2014852" lon="120.5380371">
				<ele>-11.200000</ele>
				<time>2019-06-08T07:06:49Z</time>
				<speed>17.549785</speed>
			</trkpt>
			<trkpt lat="24.2016398" lon="120.5380697">
				<ele>-10.800000</ele>
				<time>2019-06-08T07:06:50Z</time>
				<speed>17.568817</speed>
			</trkpt>
			<trkpt lat="24.2017944" lon="120.5381185">
				<ele>-10.200000</ele>
				<time>2019-06-08T07:06:51Z</time>
				<speed>17.565216</speed>
			</trkpt>
			<trkpt lat="24.2019491" lon="120.5381673">
				<ele>-8.900000</ele>
				<time>2019-06-08T07:06:52Z</time>
				<speed>17.478798</speed>
			</trkpt>
			<trkpt lat="24.2021037" lon="120.5381999">
				<ele>-7.800000</ele>
				<time>2019-06-08T07:06:53Z</time>
				<speed>17.559043</speed>
			</trkpt>
			<trkpt lat="24.2022542" lon="120.5382487">
				<ele>-7.000000</ele>
				<time>2019-06-08T07:06:54Z</time>
				<speed>17.501945</speed>
			</trkpt>
			<trkpt lat="24.2024048" lon="120.5382812">
				<ele>-6.200000</ele>
				<time>2019-06-08T07:06:55Z</time>
				<speed>17.388264</speed>
			</trkpt>
			<trkpt lat="24.2025594" lon="120.5383301">
				<ele>-5.300000</ele>
				<time>2019-06-08T07:06:56Z</time>
				<speed>17.368716</speed>
			</trkpt>
			<trkpt lat="24.2027100" lon="120.5383626">
				<ele>-5.500000</ele>
				<time>2019-06-08T07:06:57Z</time>
				<speed>17.269436</speed>
			</trkpt>
			<trkpt lat="24.2028605" lon="120.5383952">
				<ele>-5.700000</ele>
				<time>2019-06-08T07:06:58Z</time>
				<speed>17.090425</speed>
			</trkpt>
			<trkpt lat="24.2030111" lon="120.5384277">
				<ele>-5.200000</ele>
				<time>2019-06-08T07:06:59Z</time>
				<speed>16.945880</speed>
			</trkpt>
			<trkpt lat="24.2031616" lon="120.5384766">
				<ele>-4.500000</ele>
				<time>2019-06-08T07:07:00Z</time>
				<speed>17.133635</speed>
			</trkpt>
			<trkpt lat="24.2033122" lon="120.5385091">
				<ele>-3.800000</ele>
				<time>2019-06-08T07:07:01Z</time>
				<speed>17.182503</speed>
			</trkpt>
			<trkpt lat="24.2034627" lon="120.5385579">
				<ele>-3.400000</ele>
				<time>2019-06-08T07:07:02Z</time>
				<speed>17.107401</speed>
			</trkpt>
			<trkpt lat="24.2036133" lon="120.5385905">
				<ele>-3.600000</ele>
				<time>2019-06-08T07:07:03Z</time>
				<speed>17.039500</speed>
			</trkpt>
			<trkpt lat="24.2037638" lon="120.5386393">
				<ele>-3.100000</ele>
				<time>2019-06-08T07:07:04Z</time>
				<speed>17.091455</speed>
			</trkpt>
			<trkpt lat="24.2039144" lon="120.5386719">
				<ele>-3.200000</ele>
				<time>2019-06-08T07:07:05Z</time>
				<speed>17.163985</speed>
			</trkpt>
			<trkpt lat="24.2040649" lon="120.5387044">
				<ele>-3.200000</ele>
				<time>2019-06-08T07:07:06Z</time>
				<speed>17.145981</speed>
			</trkpt>
			<trkpt lat="24.2042155" lon="120.5387370">
				<ele>-3.300000</ele>
				<time>2019-06-08T07:07:07Z</time>
				<speed>17.055445</speed>
			</trkpt>
			<trkpt lat="24.2043660" lon="120.5387858">
				<ele>-3.200000</ele>
				<time>2019-06-08T07:07:08Z</time>
				<speed>16.836826</speed>
			</trkpt>
			<trkpt lat="24.2045085" lon="120.5388184">
				<ele>-3.000000</ele>
				<time>2019-06-08T07:07:09Z</time>
				<speed>16.726744</speed>
			</trkpt>
			<trkpt lat="24.2046549" lon="120.5388509">
				<ele>-2.700000</ele>
				<time>2019-06-08T07:07:10Z</time>
				<speed>16.610491</speed>
			</trkpt>
			<trkpt lat="24.2047974" lon="120.5388835">
				<ele>-2.700000</ele>
				<time>2019-06-08T07:07:11Z</time>
				<speed>16.541562</speed>
			</trkpt>
			<trkpt lat="24.2049438" lon="120.5389160">
				<ele>-2.400000</ele>
				<time>2019-06-08T07:07:12Z</time>
				<speed>16.575511</speed>
			</trkpt>
			<trkpt lat="24.2050903" lon="120.5389648">
				<ele>-2.200000</ele>
				<time>2019-06-08T07:07:13Z</time>
				<speed>16.587342</speed>
			</trkpt>
			<trkpt lat="24.2052368" lon="120.5389974">
				<ele>-2.000000</ele>
				<time>2019-06-08T07:07:14Z</time>
				<speed>16.605345</speed>
			</trkpt>
			<trkpt lat="24.2053833" lon="120.5390462">
				<ele>-2.200000</ele>
				<time>2019-06-08T07:07:15Z</time>
				<speed>16.672732</speed>
			</trkpt>
			<trkpt lat="24.2055298" lon="120.5390788">
				<ele>-2.500000</ele>
				<time>2019-06-08T07:07:16Z</time>
				<speed>16.961825</speed>
			</trkpt>
			<trkpt lat="24.2056763" lon="120.5391113">
				<ele>-2.400000</ele>
				<time>2019-06-08T07:07:17Z</time>
				<speed>16.987545</speed>
			</trkpt>
			<trkpt lat="24.2058268" lon="120.5391602">
				<ele>-2.100000</ele>
				<time>2019-06-08T07:07:18Z</time>
				<speed>17.155239</speed>
			</trkpt>
			<trkpt lat="24.2059774" lon="120.5391927">
				<ele>-2.200000</ele>
				<time>2019-06-08T07:07:19Z</time>
				<speed>17.136721</speed>
			</trkpt>
			<trkpt lat="24.2061279" lon="120.5392415">
				<ele>-2.200000</ele>
				<time>2019-06-08T07:07:20Z</time>
				<speed>17.212338</speed>
			</trkpt>
			<trkpt lat="24.2062826" lon="120.5392741">
				<ele>-2.200000</ele>
				<time>2019-06-08T07:07:21Z</time>
				<speed>17.293613</speed>
			</trkpt>
			<trkpt lat="24.2064331" lon="120.5393229">
				<ele>-2.200000</ele>
				<time>2019-06-08T07:07:22Z</time>
				<speed>17.344024</speed>
			</trkpt>
			<trkpt lat="24.2065837" lon="120.5393555">
				<ele>-2.300000</ele>
				<time>2019-06-08T07:07:23Z</time>
				<speed>17.353284</speed>
			</trkpt>
			<trkpt lat="24.2067383" lon="120.5393880">
				<ele>-2.300000</ele>
				<time>2019-06-08T07:07:24Z</time>
				<speed>17.416040</speed>
			</trkpt>
			<trkpt lat="24.2068888" lon="120.5394368">
				<ele>-2.500000</ele>
				<time>2019-06-08T07:07:25Z</time>
				<speed>17.385691</speed>
			</trkpt>
			<trkpt lat="24.2070435" lon="120.5394694">
				<ele>-2.400000</ele>
				<time>2019-06-08T07:07:26Z</time>
				<speed>17.545156</speed>
			</trkpt>
			<trkpt lat="24.2071981" lon="120.5395182">
				<ele>-2.400000</ele>
				<time>2019-06-08T07:07:27Z</time>
				<speed>17.816759</speed>
			</trkpt>
			<trkpt lat="24.2073568" lon="120.5395508">
				<ele>-2.400000</ele>
				<time>2019-06-08T07:07:28Z</time>
				<speed>17.978795</speed>
			</trkpt>
			<trkpt lat="24.2075155" lon="120.5395996">
				<ele>-2.300000</ele>
				<time>2019-06-08T07:07:29Z</time>
				<speed>17.989597</speed>
			</trkpt>
			<trkpt lat="24.2076742" lon="120.5396322">
				<ele>-2.300000</ele>
				<time>2019-06-08T07:07:30Z</time>
				<speed>18.055439</speed>
			</trkpt>
			<trkpt lat="24.2078328" lon="120.5396810">
				<ele>-2.600000</ele>
				<time>2019-06-08T07:07:31Z</time>
				<speed>17.627460</speed>
			</trkpt>
			<trkpt lat="24.2079834" lon="120.5397135">
				<ele>-2.700000</ele>
				<time>2019-06-08T07:07:32Z</time>
				<speed>17.275609</speed>
			</trkpt>
			<trkpt lat="24.2081299" lon="120.5397461">
				<ele>-3.000000</ele>
				<time>2019-06-08T07:07:33Z</time>
				<speed>16.897525</speed>
			</trkpt>
			<trkpt lat="24.2082764" lon="120.5397949">
				<ele>-3.300000</ele>
				<time>2019-06-08T07:07:34Z</time>
				<speed>16.608946</speed>
			</trkpt>
			<trkpt lat="24.2084188" lon="120.5398275">
				<ele>-3.200000</ele>
				<time>2019-06-08T07:07:35Z</time>
				<speed>16.242180</speed>
			</trkpt>
			<trkpt lat="24.2085612" lon="120.5398600">
				<ele>-3.400000</ele>
				<time>2019-06-08T07:07:36Z</time>
				<speed>15.906277</speed>
			</trkpt>
			<trkpt lat="24.2086955" lon="120.5398926">
				<ele>-3.300000</ele>
				<time>2019-06-08T07:07:37Z</time>
				<speed>15.510189</speed>
			</trkpt>
			<trkpt lat="24.2088338" lon="120.5399251">
				<ele>-3.600000</ele>
				<time>2019-06-08T07:07:38Z</time>
				<speed>15.439716</speed>
			</trkpt>
			<trkpt lat="24.2089681" lon="120.5399577">
				<ele>-3.600000</ele>
				<time>2019-06-08T07:07:39Z</time>
				<speed>15.216466</speed>
			</trkpt>
			<trkpt lat="24.2090942" lon="120.5399902">
				<ele>-3.200000</ele>
				<time>2019-06-08T07:07:40Z</time>
				<speed>14.795172</speed>
			</trkpt>
			<trkpt lat="24.2092163" lon="120.5400228">
				<ele>-4.400000</ele>
				<time>2019-06-08T07:07:41Z</time>
				<speed>14.185095</speed>
			</trkpt>
			<trkpt lat="24.2093262" lon="120.5400065">
				<ele>-6.800000</ele>
				<time>2019-06-08T07:07:42Z</time>
				<speed>13.345080</speed>
			</trkpt>
			<trkpt lat="24.2094401" lon="120.5400391">
				<ele>-7.400000</ele>
				<time>2019-06-08T07:07:43Z</time>
				<speed>12.974197</speed>
			</trkpt>
			<trkpt lat="24.2095459" lon="120.5400553">
				<ele>-8.300000</ele>
				<time>2019-06-08T07:07:44Z</time>
				<speed>12.192309</speed>
			</trkpt>
			<trkpt lat="24.2096517" lon="120.5400879">
				<ele>-11.400000</ele>
				<time>2019-06-08T07:07:45Z</time>
				<speed>11.687168</speed>
			</trkpt>
			<trkpt lat="24.2097453" lon="120.5400879">
				<ele>-14.800000</ele>
				<time>2019-06-08T07:07:46Z</time>
				<speed>10.932543</speed>
			</trkpt>
			<trkpt lat="24.2098348" lon="120.5400879">
				<ele>-18.700000</ele>
				<time>2019-06-08T07:07:47Z</time>
				<speed>10.399624</speed>
			</trkpt>
			<trkpt lat="24.2099202" lon="120.5400879">
				<ele>-21.200000</ele>
				<time>2019-06-08T07:07:48Z</time>
				<speed>9.763827</speed>
			</trkpt>
			<trkpt lat="24.2099976" lon="120.5400879">
				<ele>-22.800000</ele>
				<time>2019-06-08T07:07:49Z</time>
				<speed>9.121855</speed>
			</trkpt>
			<trkpt lat="24.2100749" lon="120.5401204">
				<ele>-22.200000</ele>
				<time>2019-06-08T07:07:50Z</time>
				<speed>8.425872</speed>
			</trkpt>
			<trkpt lat="24.2101400" lon="120.5401204">
				<ele>-22.200000</ele>
				<time>2019-06-08T07:07:51Z</time>
				<speed>7.795218</speed>
			</trkpt>
			<trkpt lat="24.2102051" lon="120.5401367">
				<ele>-21.800000</ele>
				<time>2019-06-08T07:07:52Z</time>
				<speed>6.957774</speed>
			</trkpt>
			<trkpt lat="24.2102620" lon="120.5401530">
				<ele>-21.300000</ele>
				<time>2019-06-08T07:07:53Z</time>
				<speed>6.087409</speed>
			</trkpt>
			<trkpt lat="24.2103109" lon="120.5401693">
				<ele>-21.000000</ele>
				<time>2019-06-08T07:07:54Z</time>
				<speed>5.122395</speed>
			</trkpt>
			<trkpt lat="24.2103434" lon="120.5401855">
				<ele>-20.700000</ele>
				<time>2019-06-08T07:07:55Z</time>
				<speed>3.269526</speed>
			</trkpt>
			<trkpt lat="24.2103516" lon="120.5401855">
				<ele>-19.300000</ele>
				<time>2019-06-08T07:07:56Z</time>
				<speed>0.682609</speed>
			</trkpt>
			<trkpt lat="24.2103516" lon="120.5402018">
				<ele>-18.600000</ele>
				<time>2019-06-08T07:07:57Z</time>
				<speed>0.274175</speed>
			</trkpt>
			<trkpt lat="24.2103556" lon="120.5402018">
				<ele>-18.200000</ele>
				<time>2019-06-08T07:07:58Z</time>
				<speed>0.144032</speed>
			</trkpt>
			<trkpt lat="24.2103516" lon="120.5402018">
				<ele>-15.300000</ele>
				<time>2019-06-08T07:07:59Z</time>
				<speed>0.184670</speed>
			</trkpt>
			<trkpt lat="24.2103516" lon="120.5402181">
				<ele>-14.700000</ele>
				<time>2019-06-08T07:08:00Z</time>
				<speed>0.100308</speed>
			</trkpt>
			<trkpt lat="24.2103516" lon="120.5402181">
				<ele>-14.000000</ele>
				<time>2019-06-08T07:08:01Z</time>
				<speed>0.057613</speed>
			</trkpt>
			<trkpt lat="24.2103516" lon="120.5402181">
				<ele>-12.400000</ele>
				<time>2019-06-08T07:08:02Z</time>
				<speed>0.057098</speed>
			</trkpt>
			<trkpt lat="24.2103516" lon="120.5402181">
				<ele>-11.800000</ele>
				<time>2019-06-08T07:08:03Z</time>
				<speed>0.041152</speed>
			</trkpt>
			<trkpt lat="24.2103516" lon="120.5402344">
				<ele>-11.100000</ele>
				<time>2019-06-08T07:08:04Z</time>
				<speed>0.023662</speed>
			</trkpt>
			<trkpt lat="24.2103556" lon="120.5402344">
				<ele>-9.300000</ele>
				<time>2019-06-08T07:08:05Z</time>
				<speed>0.684152</speed>
			</trkpt>
			<trkpt lat="24.2103678" lon="120.5402507">
				<ele>-9.300000</ele>
				<time>2019-06-08T07:08:06Z</time>
				<speed>1.738158</speed>
			</trkpt>
			<trkpt lat="24.2103963" lon="120.5402507">
				<ele>-10.000000</ele>
				<time>2019-06-08T07:08:07Z</time>
				<speed>2.977862</speed>
			</trkpt>
			<trkpt lat="24.2104370" lon="120.5402669">
				<ele>-9.900000</ele>
				<time>2019-06-08T07:08:08Z</time>
				<speed>4.153780</speed>
			</trkpt>
			<trkpt lat="24.2104899" lon="120.5402832">
				<ele>-9.500000</ele>
				<time>2019-06-08T07:08:09Z</time>
				<speed>5.379081</speed>
			</trkpt>
			<trkpt lat="24.2105509" lon="120.5402832">
				<ele>-8.300000</ele>
				<time>2019-06-08T07:08:10Z</time>
				<speed>6.559115</speed>
			</trkpt>
			<trkpt lat="24.2106160" lon="120.5402995">
				<ele>-7.600000</ele>
				<time>2019-06-08T07:08:11Z</time>
				<speed>7.278760</speed>
			</trkpt>
			<trkpt lat="24.2106852" lon="120.5403320">
				<ele>-7.800000</ele>
				<time>2019-06-08T07:08:12Z</time>
				<speed>7.851802</speed>
			</trkpt>
			<trkpt lat="24.2107625" lon="120.5403483">
				<ele>-8.100000</ele>
				<time>2019-06-08T07:08:13Z</time>
				<speed>8.434102</speed>
			</trkpt>
			<trkpt lat="24.2108398" lon="120.5403646">
				<ele>-8.100000</ele>
				<time>2019-06-08T07:08:14Z</time>
				<speed>8.735541</speed>
			</trkpt>
			<trkpt lat="24.2109212" lon="120.5403971">
				<ele>-7.900000</ele>
				<time>2019-06-08T07:08:15Z</time>
				<speed>9.432553</speed>
			</trkpt>
			<trkpt lat="24.2110107" lon="120.5404134">
				<ele>-7.800000</ele>
				<time>2019-06-08T07:08:16Z</time>
				<speed>10.017940</speed>
			</trkpt>
			<trkpt lat="24.2111084" lon="120.5404460">
				<ele>-7.900000</ele>
				<time>2019-06-08T07:08:17Z</time>
				<speed>10.611043</speed>
			</trkpt>
			<trkpt lat="24.2112061" lon="120.5404622">
				<ele>-7.800000</ele>
				<time>2019-06-08T07:08:18Z</time>
				<speed>11.116698</speed>
			</trkpt>
			<trkpt lat="24.2113118" lon="120.5404948">
				<ele>-7.700000</ele>
				<time>2019-06-08T07:08:19Z</time>
				<speed>11.573486</speed>
			</trkpt>
			<trkpt lat="24.2114176" lon="120.5405273">
				<ele>-7.500000</ele>
				<time>2019-06-08T07:08:20Z</time>
				<speed>12.035416</speed>
			</trkpt>
			<trkpt lat="24.2115275" lon="120.5405599">
				<ele>-7.500000</ele>
				<time>2019-06-08T07:08:21Z</time>
				<speed>12.361546</speed>
			</trkpt>
			<trkpt lat="24.2116414" lon="120.5405762">
				<ele>-7.500000</ele>
				<time>2019-06-08T07:08:22Z</time>
				<speed>12.710309</speed>
			</trkpt>
			<trkpt lat="24.2117594" lon="120.5406087">
				<ele>-7.700000</ele>
				<time>2019-06-08T07:08:23Z</time>
				<speed>13.052386</speed>
			</trkpt>
			<trkpt lat="24.2118815" lon="120.5406413">
				<ele>-7.800000</ele>
				<time>2019-06-08T07:08:24Z</time>
				<speed>13.274606</speed>
			</trkpt>
			<trkpt lat="24.2119995" lon="120.5406576">
				<ele>-7.900000</ele>
				<time>2019-06-08T07:08:25Z</time>
				<speed>13.498370</speed>
			</trkpt>
			<trkpt lat="24.2121216" lon="120.5406901">
				<ele>-7.700000</ele>
				<time>2019-06-08T07:08:26Z</time>
				<speed>13.767916</speed>
			</trkpt>
			<trkpt lat="24.2122437" lon="120.5407227">
				<ele>-7.000000</ele>
				<time>2019-06-08T07:08:27Z</time>
				<speed>13.978820</speed>
			</trkpt>
			<trkpt lat="24.2123698" lon="120.5407552">
				<ele>-6.700000</ele>
				<time>2019-06-08T07:08:28Z</time>
				<speed>14.220588</speed>
			</trkpt>
			<trkpt lat="24.2125000" lon="120.5407715">
				<ele>-6.700000</ele>
				<time>2019-06-08T07:08:29Z</time>
				<speed>14.502480</speed>
			</trkpt>
			<trkpt lat="24.2126302" lon="120.5408203">
				<ele>-6.600000</ele>
				<time>2019-06-08T07:08:30Z</time>
				<speed>14.709783</speed>
			</trkpt>
			<trkpt lat="24.2127645" lon="120.5408529">
				<ele>-6.400000</ele>
				<time>2019-06-08T07:08:31Z</time>
				<speed>14.898053</speed>
			</trkpt>
			<trkpt lat="24.2128988" lon="120.5408854">
				<ele>-6.500000</ele>
				<time>2019-06-08T07:08:32Z</time>
				<speed>15.174286</speed>
			</trkpt>
			<trkpt lat="24.2130371" lon="120.5409180">
				<ele>-6.600000</ele>
				<time>2019-06-08T07:08:33Z</time>
				<speed>15.329635</speed>
			</trkpt>
			<trkpt lat="24.2131755" lon="120.5409505">
				<ele>-6.700000</ele>
				<time>2019-06-08T07:08:34Z</time>
				<speed>15.445374</speed>
			</trkpt>
			<trkpt lat="24.2133138" lon="120.5409831">
				<ele>-6.500000</ele>
				<time>2019-06-08T07:08:35Z</time>
				<speed>15.634159</speed>
			</trkpt>
			<trkpt lat="24.2134562" lon="120.5410319">
				<ele>-6.400000</ele>
				<time>2019-06-08T07:08:36Z</time>
				<speed>15.752471</speed>
			</trkpt>
			<trkpt lat="24.2135946" lon="120.5410645">
				<ele>-6.300000</ele>
				<time>2019-06-08T07:08:37Z</time>
				<speed>15.892388</speed>
			</trkpt>
			<trkpt lat="24.2137370" lon="120.5411133">
				<ele>-6.100000</ele>
				<time>2019-06-08T07:08:38Z</time>
				<speed>16.019959</speed>
			</trkpt>
			<trkpt lat="24.2138794" lon="120.5411458">
				<ele>-6.000000</ele>
				<time>2019-06-08T07:08:39Z</time>
				<speed>15.978293</speed>
			</trkpt>
			<trkpt lat="24.2140218" lon="120.5411947">
				<ele>-5.900000</ele>
				<time>2019-06-08T07:08:40Z</time>
				<speed>15.976235</speed>
			</trkpt>
			<trkpt lat="24.2141642" lon="120.5412272">
				<ele>-5.300000</ele>
				<time>2019-06-08T07:08:41Z</time>
				<speed>16.072943</speed>
			</trkpt>
			<trkpt lat="24.2143066" lon="120.5412598">
				<ele>-5.500000</ele>
				<time>2019-06-08T07:08:42Z</time>
				<speed>16.188683</speed>
			</trkpt>
			<trkpt lat="24.2144491" lon="120.5413086">
				<ele>-4.900000</ele>
				<time>2019-06-08T07:08:43Z</time>
				<speed>16.249896</speed>
			</trkpt>
			<trkpt lat="24.2145955" lon="120.5413411">
				<ele>-4.300000</ele>
				<time>2019-06-08T07:08:44Z</time>
				<speed>16.380039</speed>
			</trkpt>
			<trkpt lat="24.2147380" lon="120.5413900">
				<ele>-3.800000</ele>
				<time>2019-06-08T07:08:45Z</time>
				<speed>16.349690</speed>
			</trkpt>
			<trkpt lat="24.2148844" lon="120.5414388">
				<ele>-3.200000</ele>
				<time>2019-06-08T07:08:46Z</time>
				<speed>16.475203</speed>
			</trkpt>
			<trkpt lat="24.2150309" lon="120.5414714">
				<ele>-2.700000</ele>
				<time>2019-06-08T07:08:47Z</time>
				<speed>16.442282</speed>
			</trkpt>
			<trkpt lat="24.2151774" lon="120.5415202">
				<ele>-2.400000</ele>
				<time>2019-06-08T07:08:48Z</time>
				<speed>16.564709</speed>
			</trkpt>
			<trkpt lat="24.2153239" lon="120.5415690">
				<ele>-1.900000</ele>
				<time>2019-06-08T07:08:49Z</time>
				<speed>16.622321</speed>
			</trkpt>
			<trkpt lat="24.2154704" lon="120.5416016">
				<ele>-1.300000</ele>
				<time>2019-06-08T07:08:50Z</time>
				<speed>16.679934</speed>
			</trkpt>
			<trkpt lat="24.2156169" lon="120.5416504">
				<ele>-0.600000</ele>
				<time>2019-06-08T07:08:51Z</time>
				<speed>16.619749</speed>
			</trkpt>
			<trkpt lat="24.2157633" lon="120.5416992">
				<ele>0.300000</ele>
				<time>2019-06-08T07:08:52Z</time>
				<speed>16.599174</speed>
			</trkpt>
			<trkpt lat="24.2159098" lon="120.5417480">
				<ele>1.100000</ele>
				<time>2019-06-08T07:08:53Z</time>
				<speed>16.588886</speed>
			</trkpt>
			<trkpt lat="24.2160522" lon="120.5417806">
				<ele>1.100000</ele>
				<time>2019-06-08T07:08:54Z</time>
				<speed>16.331171</speed>
			</trkpt>
			<trkpt lat="24.2161906" lon="120.5418132">
				<ele>0.900000</ele>
				<time>2019-06-08T07:08:55Z</time>
				<speed>15.638274</speed>
			</trkpt>
			<trkpt lat="24.2163208" lon="120.5418620">
				<ele>1.300000</ele>
				<time>2019-06-08T07:08:56Z</time>
				<speed>14.936633</speed>
			</trkpt>
			<trkpt lat="24.2164429" lon="120.5418945">
				<ele>2.200000</ele>
				<time>2019-06-08T07:08:57Z</time>
				<speed>14.213901</speed>
			</trkpt>
			<trkpt lat="24.2165609" lon="120.5419271">
				<ele>2.500000</ele>
				<time>2019-06-08T07:08:58Z</time>
				<speed>13.657835</speed>
			</trkpt>
			<trkpt lat="24.2166748" lon="120.5419596">
				<ele>2.900000</ele>
				<time>2019-06-08T07:08:59Z</time>
				<speed>13.122858</speed>
			</trkpt>
			<trkpt lat="24.2167847" lon="120.5419922">
				<ele>3.500000</ele>
				<time>2019-06-08T07:09:00Z</time>
				<speed>12.626977</speed>
			</trkpt>
			<trkpt lat="24.2168905" lon="120.5420247">
				<ele>3.700000</ele>
				<time>2019-06-08T07:09:01Z</time>
				<speed>12.150643</speed>
			</trkpt>
			<trkpt lat="24.2169881" lon="120.5420573">
				<ele>4.000000</ele>
				<time>2019-06-08T07:09:02Z</time>
				<speed>11.669679</speed>
			</trkpt>
			<trkpt lat="24.2170858" lon="120.5420898">
				<ele>4.100000</ele>
				<time>2019-06-08T07:09:03Z</time>
				<speed>11.301368</speed>
			</trkpt>
			<trkpt lat="24.2171794" lon="120.5421224">
				<ele>4.100000</ele>
				<time>2019-06-08T07:09:04Z</time>
				<speed>10.894478</speed>
			</trkpt>
			<trkpt lat="24.2172729" lon="120.5421387">
				<ele>3.900000</ele>
				<time>2019-06-08T07:09:05Z</time>
				<speed>10.487072</speed>
			</trkpt>
			<trkpt lat="24.2173584" lon="120.5421712">
				<ele>4.200000</ele>
				<time>2019-06-08T07:09:06Z</time>
				<speed>9.822983</speed>
			</trkpt>
			<trkpt lat="24.2174357" lon="120.5421875">
				<ele>4.400000</ele>
				<time>2019-06-08T07:09:07Z</time>
				<speed>9.111053</speed>
			</trkpt>
			<trkpt lat="24.2175090" lon="120.5422201">
				<ele>4.800000</ele>
				<time>2019-06-08T07:09:08Z</time>
				<speed>8.460851</speed>
			</trkpt>
			<trkpt lat="24.2175781" lon="120.5422363">
				<ele>5.100000</ele>
				<time>2019-06-08T07:09:09Z</time>
				<speed>7.935134</speed>
			</trkpt>
			<trkpt lat="24.2176432" lon="120.5422526">
				<ele>5.200000</ele>
				<time>2019-06-08T07:09:10Z</time>
				<speed>7.380097</speed>
			</trkpt>
			<trkpt lat="24.2177002" lon="120.5422689">
				<ele>5.500000</ele>
				<time>2019-06-08T07:09:11Z</time>
				<speed>6.676398</speed>
			</trkpt>
			<trkpt lat="24.2177531" lon="120.5422852">
				<ele>5.200000</ele>
				<time>2019-06-08T07:09:12Z</time>
				<speed>6.045229</speed>
			</trkpt>
			<trkpt lat="24.2177979" lon="120.5422852">
				<ele>5.200000</ele>
				<time>2019-06-08T07:09:13Z</time>
				<speed>5.547290</speed>
			</trkpt>
			<trkpt lat="24.2178426" lon="120.5422852">
				<ele>4.700000</ele>
				<time>2019-06-08T07:09:14Z</time>
				<speed>5.028774</speed>
			</trkpt>
			<trkpt lat="24.2178792" lon="120.5422852">
				<ele>3.800000</ele>
				<time>2019-06-08T07:09:15Z</time>
				<speed>4.481453</speed>
			</trkpt>
			<trkpt lat="24.2179159" lon="120.5423014">
				<ele>3.600000</ele>
				<time>2019-06-08T07:09:16Z</time>
				<speed>4.148636</speed>
			</trkpt>
			<trkpt lat="24.2179484" lon="120.5423014">
				<ele>3.300000</ele>
				<time>2019-06-08T07:09:17Z</time>
				<speed>3.744317</speed>
			</trkpt>
			<trkpt lat="24.2179810" lon="120.5423014">
				<ele>3.000000</ele>
				<time>2019-06-08T07:09:18Z</time>
				<speed>3.399155</speed>
			</trkpt>
			<trkpt lat="24.2180054" lon="120.5423014">
				<ele>2.500000</ele>
				<time>2019-06-08T07:09:19Z</time>
				<speed>2.957800</speed>
			</trkpt>
			<trkpt lat="24.2180216" lon="120.5423014">
				<ele>0.800000</ele>
				<time>2019-06-08T07:09:20Z</time>
				<speed>1.708837</speed>
			</trkpt>
			<trkpt lat="24.2180257" lon="120.5422852">
				<ele>-0.800000</ele>
				<time>2019-06-08T07:09:21Z</time>
				<speed>0.512342</speed>
			</trkpt>
			<trkpt lat="24.2180298" lon="120.5422852">
				<ele>-2.200000</ele>
				<time>2019-06-08T07:09:22Z</time>
				<speed>0.153291</speed>
			</trkpt>
			<trkpt lat="24.2180298" lon="120.5422689">
				<ele>-3.500000</ele>
				<time>2019-06-08T07:09:23Z</time>
				<speed>0.151234</speed>
			</trkpt>
			<trkpt lat="24.2180298" lon="120.5422689">
				<ele>-4.500000</ele>
				<time>2019-06-08T07:09:24Z</time>
				<speed>0.111110</speed>
			</trkpt>
			<trkpt lat="24.2180298" lon="120.5422526">
				<ele>-5.400000</ele>
				<time>2019-06-08T07:09:25Z</time>
				<speed>0.037551</speed>
			</trkpt>
			<trkpt lat="24.2180298" lon="120.5422526">
				<ele>-6.100000</ele>
				<time>2019-06-08T07:09:26Z</time>
				<speed>0.010802</speed>
			</trkpt>
			<trkpt lat="24.2180298" lon="120.5422526">
				<ele>-7.300000</ele>
				<time>2019-06-08T07:09:27Z</time>
				<speed>0.006687</speed>
			</trkpt>
			<trkpt lat="24.2180298" lon="120.5422526">
				<ele>-8.400000</ele>
				<time>2019-06-08T07:09:28Z</time>
				<speed>0.058127</speed>
			</trkpt>
			<trkpt lat="24.2180298" lon="120.5422363">
				<ele>-9.100000</ele>
				<time>2019-06-08T07:09:29Z</time>
				<speed>0.074588</speed>
			</trkpt>
			<trkpt lat="24.2180298" lon="120.5422363">
				<ele>-9.700000</ele>
				<time>2019-06-08T07:09:30Z</time>
				<speed>0.005144</speed>
			</trkpt>
			<trkpt lat="24.2180298" lon="120.5422363">
				<ele>-10.500000</ele>
				<time>2019-06-08T07:09:31Z</time>
				<speed>0.040123</speed>
			</trkpt>
			<trkpt lat="24.2180339" lon="120.5422363">
				<ele>-11.100000</ele>
				<time>2019-06-08T07:09:32Z</time>
				<speed>0.102880</speed>
			</trkpt>
			<trkpt lat="24.2180339" lon="120.5422363">
				<ele>-11.600000</ele>
				<time>2019-06-08T07:09:33Z</time>
				<speed>0.127057</speed>
			</trkpt>
			<trkpt lat="24.2180339" lon="120.5422363">
				<ele>-12.200000</ele>
				<time>2019-06-08T07:09:34Z</time>
				<speed>0.150719</speed>
			</trkpt>
			<trkpt lat="24.2180339" lon="120.5422363">
				<ele>-13.200000</ele>
				<time>2019-06-08T07:09:35Z</time>
				<speed>0.146604</speed>
			</trkpt>
			<trkpt lat="24.2180339" lon="120.5422363">
				<ele>-13.900000</ele>
				<time>2019-06-08T07:09:36Z</time>
				<speed>0.014918</speed>
			</trkpt>
			<trkpt lat="24.2180339" lon="120.5422363">
				<ele>-13.900000</ele>
				<time>2019-06-08T07:09:36Z</time>
				<speed>0.014918</speed>
			</trkpt>
		</trkseg>
	</trk>
</gpx>