<?xml version='1.0' encoding='utf-8'?>
<gpx xmlns="http://www.topografix.com/GPX/1/1" xmlns:xsi="http://www.w3.org/2001/XMLSchema-instance" creator="Astro Gemini" version="1.0" xsi:schemaLocation="http://www.topografix.com/GPX/1/0 http://www.topografix.com/GPX/1/0/gpx.xsd">
	<trk>
		<name>FRON0674</name>
		<trkseg>
			<trkpt lat="24.2261108" lon="120.6450521">
				<ele>162.800000</ele>
				<time>2000-00-00T09:41:39Z</time>
				<speed>4.961388</speed>
			</trkpt>
			<trkpt lat="24.2261108" lon="120.6450521">
				<ele>162.800000</ele>
				<time>2000-00-00T09:41:39Z</time>
				<speed>4.961388</speed>
			</trkpt>
			<trkpt lat="24.2260783" lon="120.6450521">
				<ele>162.800000</ele>
				<time>2000-00-00T09:41:40Z</time>
				<speed>6192.709390</speed>
			</trkpt>
			<trkpt lat="24.2260498" lon="120.6450846">
				<ele>164.100000</ele>
				<time>2019-06-08T09:41:41Z</time>
				<speed>3.786498</speed>
			</trkpt>
			<trkpt lat="24.2260173" lon="120.6451009">
				<ele>164.400000</ele>
				<time>2019-06-08T09:41:42Z</time>
				<speed>3.564792</speed>
			</trkpt>
			<trkpt lat="24.2259928" lon="120.6451172">
				<ele>165.800000</ele>
				<time>2019-06-08T09:41:43Z</time>
				<speed>3.209856</speed>
			</trkpt>
			<trkpt lat="24.2259766" lon="120.6451335">
				<ele>166.100000</ele>
				<time>2019-06-08T09:41:44Z</time>
				<speed>2.706773</speed>
			</trkpt>
			<trkpt lat="24.2259521" lon="120.6451497">
				<ele>166.000000</ele>
				<time>2019-06-08T09:41:45Z</time>
				<speed>3.043705</speed>
			</trkpt>
			<trkpt lat="24.2259318" lon="120.6451660">
				<ele>165.500000</ele>
				<time>2019-06-08T09:41:46Z</time>
				<speed>2.616238</speed>
			</trkpt>
			<trkpt lat="24.2259074" lon="120.6451823">
				<ele>165.200000</ele>
				<time>2019-06-08T09:41:47Z</time>
				<speed>2.292681</speed>
			</trkpt>
			<trkpt lat="24.2259033" lon="120.6451986">
				<ele>165.400000</ele>
				<time>2019-06-08T09:41:48Z</time>
				<speed>0.697526</speed>
			</trkpt>
			<trkpt lat="24.2258993" lon="120.6451986">
				<ele>165.300000</ele>
				<time>2019-06-08T09:41:49Z</time>
				<speed>0.033436</speed>
			</trkpt>
			<trkpt lat="24.2258993" lon="120.6451986">
				<ele>164.800000</ele>
				<time>2019-06-08T09:41:50Z</time>
				<speed>0.190328</speed>
			</trkpt>
			<trkpt lat="24.2259074" lon="120.6451823">
				<ele>165.200000</ele>
				<time>2019-06-08T09:41:51Z</time>
				<speed>0.747938</speed>
			</trkpt>
			<trkpt lat="24.2259115" lon="120.6451823">
				<ele>164.200000</ele>
				<time>2019-06-08T09:41:52Z</time>
				<speed>0.863678</speed>
			</trkpt>
			<trkpt lat="24.2259115" lon="120.6451823">
				<ele>163.700000</ele>
				<time>2019-06-08T09:41:53Z</time>
				<speed>0.615737</speed>
			</trkpt>
			<trkpt lat="24.2259115" lon="120.6451823">
				<ele>162.500000</ele>
				<time>2019-06-08T09:41:54Z</time>
				<speed>0.572527</speed>
			</trkpt>
			<trkpt lat="24.2259155" lon="120.6451823">
				<ele>161.800000</ele>
				<time>2019-06-08T09:41:55Z</time>
				<speed>0.644029</speed>
			</trkpt>
			<trkpt lat="24.2259237" lon="120.6451823">
				<ele>160.700000</ele>
				<time>2019-06-08T09:41:56Z</time>
				<speed>0.919233</speed>
			</trkpt>
			<trkpt lat="24.2259277" lon="120.6451823">
				<ele>160.300000</ele>
				<time>2019-06-08T09:41:57Z</time>
				<speed>0.797320</speed>
			</trkpt>
			<trkpt lat="24.2259318" lon="120.6451823">
				<ele>159.100000</ele>
				<time>2019-06-08T09:41:58Z</time>
				<speed>0.503598</speed>
			</trkpt>
			<trkpt lat="24.2259277" lon="120.6451660">
				<ele>157.800000</ele>
				<time>2019-06-08T09:41:59Z</time>
				<speed>0.565840</speed>
			</trkpt>
			<trkpt lat="24.2259277" lon="120.6451660">
				<ele>158.700000</ele>
				<time>2019-06-08T09:42:00Z</time>
				<speed>0.154834</speed>
			</trkpt>
			<trkpt lat="24.2259277" lon="120.6451823">
				<ele>158.500000</ele>
				<time>2019-06-08T09:42:01Z</time>
				<speed>0.301953</speed>
			</trkpt>
			<trkpt lat="24.2259237" lon="120.6451823">
				<ele>158.200000</ele>
				<time>2019-06-08T09:42:02Z</time>
				<speed>0.282406</speed>
			</trkpt>
			<trkpt lat="24.2259277" lon="120.6451823">
				<ele>159.300000</ele>
				<time>2019-06-08T09:42:03Z</time>
				<speed>0.253599</speed>
			</trkpt>
			<trkpt lat="24.2259318" lon="120.6451660">
				<ele>158.600000</ele>
				<time>2019-06-08T09:42:04Z</time>
				<speed>0.326130</speed>
			</trkpt>
			<trkpt lat="24.2259359" lon="120.6451660">
				<ele>159.400000</ele>
				<time>2019-06-08T09:42:05Z</time>
				<speed>0.096193</speed>
			</trkpt>
			<trkpt lat="24.2259481" lon="120.6451660">
				<ele>160.300000</ele>
				<time>2019-06-08T09:42:06Z</time>
				<speed>0.290122</speed>
			</trkpt>
			<trkpt lat="24.2259521" lon="120.6451660">
				<ele>160.700000</ele>
				<time>2019-06-08T09:42:07Z</time>
				<speed>0.291150</speed>
			</trkpt>
			<trkpt lat="24.2259521" lon="120.6451660">
				<ele>160.000000</ele>
				<time>2019-06-08T09:42:08Z</time>
				<speed>0.279319</speed>
			</trkpt>
			<trkpt lat="24.2259481" lon="120.6451660">
				<ele>159.600000</ele>
				<time>2019-06-08T09:42:09Z</time>
				<speed>0.121398</speed>
			</trkpt>
			<trkpt lat="24.2259440" lon="120.6451660">
				<ele>159.000000</ele>
				<time>2019-06-08T09:42:10Z</time>
				<speed>0.187756</speed>
			</trkpt>
			<trkpt lat="24.2259481" lon="120.6451823">
				<ele>159.300000</ele>
				<time>2019-06-08T09:42:11Z</time>
				<speed>0.112139</speed>
			</trkpt>
			<trkpt lat="24.2259440" lon="120.6451823">
				<ele>159.200000</ele>
				<time>2019-06-08T09:42:12Z</time>
				<speed>0.039609</speed>
			</trkpt>
			<trkpt lat="24.2259440" lon="120.6451823">
				<ele>159.400000</ele>
				<time>2019-06-08T09:42:13Z</time>
				<speed>0.036522</speed>
			</trkpt>
			<trkpt lat="24.2259440" lon="120.6451823">
				<ele>159.300000</ele>
				<time>2019-06-08T09:42:14Z</time>
				<speed>0.073559</speed>
			</trkpt>
			<trkpt lat="24.2259399" lon="120.6451823">
				<ele>159.000000</ele>
				<time>2019-06-08T09:42:15Z</time>
				<speed>0.134773</speed>
			</trkpt>
			<trkpt lat="24.2259399" lon="120.6451823">
				<ele>158.900000</ele>
				<time>2019-06-08T09:42:16Z</time>
				<speed>0.086934</speed>
			</trkpt>
			<trkpt lat="24.2259440" lon="120.6451823">
				<ele>157.800000</ele>
				<time>2019-06-08T09:42:17Z</time>
				<speed>0.067386</speed>
			</trkpt>
			<trkpt lat="24.2259440" lon="120.6451823">
				<ele>157.000000</ele>
				<time>2019-06-08T09:42:18Z</time>
				<speed>0.043724</speed>
			</trkpt>
			<trkpt lat="24.2259440" lon="120.6451823">
				<ele>156.600000</ele>
				<time>2019-06-08T09:42:19Z</time>
				<speed>0.120370</speed>
			</trkpt>
			<trkpt lat="24.2259440" lon="120.6451823">
				<ele>156.000000</ele>
				<time>2019-06-08T09:42:20Z</time>
				<speed>0.037551</speed>
			</trkpt>
			<trkpt lat="24.2259521" lon="120.6451986">
				<ele>155.600000</ele>
				<time>2019-06-08T09:42:21Z</time>
				<speed>0.108024</speed>
			</trkpt>
			<trkpt lat="24.2259521" lon="120.6451823">
				<ele>154.700000</ele>
				<time>2019-06-08T09:42:22Z</time>
				<speed>0.195472</speed>
			</trkpt>
			<trkpt lat="24.2259562" lon="120.6451986">
				<ele>154.400000</ele>
				<time>2019-06-08T09:42:23Z</time>
				<speed>0.077674</speed>
			</trkpt>
			<trkpt lat="24.2259521" lon="120.6451823">
				<ele>153.200000</ele>
				<time>2019-06-08T09:42:24Z</time>
				<speed>0.171295</speed>
			</trkpt>
			<trkpt lat="24.2259521" lon="120.6451986">
				<ele>152.700000</ele>
				<time>2019-06-08T09:42:25Z</time>
				<speed>0.132715</speed>
			</trkpt>
			<trkpt lat="24.2259521" lon="120.6451986">
				<ele>151.900000</ele>
				<time>2019-06-08T09:42:26Z</time>
				<speed>0.130143</speed>
			</trkpt>
			<trkpt lat="24.2259521" lon="120.6451986">
				<ele>152.000000</ele>
				<time>2019-06-08T09:42:27Z</time>
				<speed>0.086934</speed>
			</trkpt>
			<trkpt lat="24.2259562" lon="120.6451986">
				<ele>151.900000</ele>
				<time>2019-06-08T09:42:28Z</time>
				<speed>0.101851</speed>
			</trkpt>
			<trkpt lat="24.2259562" lon="120.6451986">
				<ele>151.700000</ele>
				<time>2019-06-08T09:42:29Z</time>
				<speed>0.045267</speed>
			</trkpt>
			<trkpt lat="24.2259562" lon="120.6451986">
				<ele>150.900000</ele>
				<time>2019-06-08T09:42:30Z</time>
				<speed>0.144032</speed>
			</trkpt>
			<trkpt lat="24.2259603" lon="120.6451986">
				<ele>151.100000</ele>
				<time>2019-06-08T09:42:31Z</time>
				<speed>0.277776</speed>
			</trkpt>
			<trkpt lat="24.2259521" lon="120.6451986">
				<ele>150.600000</ele>
				<time>2019-06-08T09:42:32Z</time>
				<speed>0.386829</speed>
			</trkpt>
			<trkpt lat="24.2259359" lon="120.6452148">
				<ele>148.000000</ele>
				<time>2019-06-08T09:42:33Z</time>
				<speed>1.109046</speed>
			</trkpt>
			<trkpt lat="24.2259155" lon="120.6452311">
				<ele>147.200000</ele>
				<time>2019-06-08T09:42:34Z</time>
				<speed>1.584352</speed>
			</trkpt>
			<trkpt lat="24.2258830" lon="120.6452637">
				<ele>146.800000</ele>
				<time>2019-06-08T09:42:35Z</time>
				<speed>2.593090</speed>
			</trkpt>
			<trkpt lat="24.2258341" lon="120.6452799">
				<ele>146.300000</ele>
				<time>2019-06-08T09:42:36Z</time>
				<speed>3.316851</speed>
			</trkpt>
			<trkpt lat="24.2257894" lon="120.6453125">
				<ele>145.500000</ele>
				<time>2019-06-08T09:42:37Z</time>
				<speed>3.966024</speed>
			</trkpt>
			<trkpt lat="24.2257080" lon="120.6453451">
				<ele>147.700000</ele>
				<time>2019-06-08T09:42:38Z</time>
				<speed>5.350274</speed>
			</trkpt>
			<trkpt lat="24.2255819" lon="120.6453939">
				<ele>150.500000</ele>
				<time>2019-06-08T09:42:39Z</time>
				<speed>7.845629</speed>
			</trkpt>
			<trkpt lat="24.2254883" lon="120.6454264">
				<ele>150.300000</ele>
				<time>2019-06-08T09:42:40Z</time>
				<speed>8.874943</speed>
			</trkpt>
			<trkpt lat="24.2253988" lon="120.6454753">
				<ele>149.600000</ele>
				<time>2019-06-08T09:42:41Z</time>
				<speed>9.404776</speed>
			</trkpt>
			<trkpt lat="24.2253011" lon="120.6455241">
				<ele>149.600000</ele>
				<time>2019-06-08T09:42:42Z</time>
				<speed>10.153228</speed>
			</trkpt>
			<trkpt lat="24.2251994" lon="120.6455729">
				<ele>150.100000</ele>
				<time>2019-06-08T09:42:43Z</time>
				<speed>10.582237</speed>
			</trkpt>
			<trkpt lat="24.2250814" lon="120.6456217">
				<ele>150.600000</ele>
				<time>2019-06-08T09:42:44Z</time>
				<speed>11.386244</speed>
			</trkpt>
			<trkpt lat="24.2249593" lon="120.6456543">
				<ele>150.800000</ele>
				<time>2019-06-08T09:42:45Z</time>
				<speed>12.077084</speed>
			</trkpt>
			<trkpt lat="24.2248332" lon="120.6457031">
				<ele>152.400000</ele>
				<time>2019-06-08T09:42:46Z</time>
				<speed>13.009691</speed>
			</trkpt>
			<trkpt lat="24.2247192" lon="120.6457520">
				<ele>152.200000</ele>
				<time>2019-06-08T09:42:47Z</time>
				<speed>13.192302</speed>
			</trkpt>
			<trkpt lat="24.2245931" lon="120.6458171">
				<ele>151.700000</ele>
				<time>2019-06-08T09:42:48Z</time>
				<speed>13.882628</speed>
			</trkpt>
			<trkpt lat="24.2244792" lon="120.6458659">
				<ele>151.700000</ele>
				<time>2019-06-08T09:42:49Z</time>
				<speed>13.853820</speed>
			</trkpt>
			<trkpt lat="24.2243490" lon="120.6459147">
				<ele>152.000000</ele>
				<time>2019-06-08T09:42:50Z</time>
				<speed>14.365649</speed>
			</trkpt>
			<trkpt lat="24.2242269" lon="120.6459798">
				<ele>152.300000</ele>
				<time>2019-06-08T09:42:51Z</time>
				<speed>14.484476</speed>
			</trkpt>
			<trkpt lat="24.2241007" lon="120.6460286">
				<ele>152.600000</ele>
				<time>2019-06-08T09:42:52Z</time>
				<speed>14.450524</speed>
			</trkpt>
			<trkpt lat="24.2239827" lon="120.6460938">
				<ele>152.200000</ele>
				<time>2019-06-08T09:42:53Z</time>
				<speed>14.284373</speed>
			</trkpt>
			<trkpt lat="24.2238607" lon="120.6461426">
				<ele>151.800000</ele>
				<time>2019-06-08T09:42:54Z</time>
				<speed>14.303406</speed>
			</trkpt>
			<trkpt lat="24.2237508" lon="120.6462077">
				<ele>151.600000</ele>
				<time>2019-06-08T09:42:55Z</time>
				<speed>14.173263</speed>
			</trkpt>
			<trkpt lat="24.2236328" lon="120.6462565">
				<ele>151.500000</ele>
				<time>2019-06-08T09:42:56Z</time>
				<speed>14.145486</speed>
			</trkpt>
			<trkpt lat="24.2235148" lon="120.6463053">
				<ele>151.400000</ele>
				<time>2019-06-08T09:42:57Z</time>
				<speed>13.879541</speed>
			</trkpt>
			<trkpt lat="24.2233968" lon="120.6463704">
				<ele>151.100000</ele>
				<time>2019-06-08T09:42:58Z</time>
				<speed>13.719562</speed>
			</trkpt>
			<trkpt lat="24.2232869" lon="120.6463704">
				<ele>151.100000</ele>
				<time>2019-06-08T09:42:59Z</time>
				<speed>0.000000</speed>
			</trkpt>
			<trkpt lat="24.2231812" lon="120.6464681">
				<ele>150.200000</ele>
				<time>2019-06-08T09:43:00Z</time>
				<speed>12.965966</speed>
			</trkpt>
			<trkpt lat="24.2230835" lon="120.6465007">
				<ele>150.100000</ele>
				<time>2019-06-08T09:43:01Z</time>
				<speed>12.189737</speed>
			</trkpt>
			<trkpt lat="24.2229858" lon="120.6465495">
				<ele>150.200000</ele>
				<time>2019-06-08T09:43:02Z</time>
				<speed>11.590461</speed>
			</trkpt>
			<trkpt lat="24.2228882" lon="120.6465983">
				<ele>151.100000</ele>
				<time>2019-06-08T09:43:03Z</time>
				<speed>11.437684</speed>
			</trkpt>
			<trkpt lat="24.2227905" lon="120.6466309">
				<ele>151.800000</ele>
				<time>2019-06-08T09:43:04Z</time>
				<speed>11.381100</speed>
			</trkpt>
			<trkpt lat="24.2226929" lon="120.6466797">
				<ele>152.700000</ele>
				<time>2019-06-08T09:43:05Z</time>
				<speed>11.715974</speed>
			</trkpt>
			<trkpt lat="24.2225911" lon="120.6467122">
				<ele>152.400000</ele>
				<time>2019-06-08T09:43:06Z</time>
				<speed>11.806509</speed>
			</trkpt>
			<trkpt lat="24.2224894" lon="120.6467773">
				<ele>152.400000</ele>
				<time>2019-06-08T09:43:07Z</time>
				<speed>12.184079</speed>
			</trkpt>
			<trkpt lat="24.2223836" lon="120.6468262">
				<ele>152.900000</ele>
				<time>2019-06-08T09:43:08Z</time>
				<speed>12.426876</speed>
			</trkpt>
			<trkpt lat="24.2222778" lon="120.6468750">
				<ele>152.800000</ele>
				<time>2019-06-08T09:43:09Z</time>
				<speed>12.634693</speed>
			</trkpt>
			<trkpt lat="24.2221761" lon="120.6469238">
				<ele>152.700000</ele>
				<time>2019-06-08T09:43:10Z</time>
				<speed>12.611031</speed>
			</trkpt>
			<trkpt lat="24.2220703" lon="120.6469889">
				<ele>152.200000</ele>
				<time>2019-06-08T09:43:11Z</time>
				<speed>12.799301</speed>
			</trkpt>
			<trkpt lat="24.2219645" lon="120.6470378">
				<ele>152.300000</ele>
				<time>2019-06-08T09:43:12Z</time>
				<speed>12.847654</speed>
			</trkpt>
			<trkpt lat="24.2218506" lon="120.6470866">
				<ele>152.500000</ele>
				<time>2019-06-08T09:43:13Z</time>
				<speed>13.106398</speed>
			</trkpt>
			<trkpt lat="24.2217448" lon="120.6471354">
				<ele>153.000000</ele>
				<time>2019-06-08T09:43:14Z</time>
				<speed>12.827079</speed>
			</trkpt>
			<trkpt lat="24.2216471" lon="120.6472005">
				<ele>153.400000</ele>
				<time>2019-06-08T09:43:15Z</time>
				<speed>12.399612</speed>
			</trkpt>
			<trkpt lat="24.2215454" lon="120.6472331">
				<ele>153.800000</ele>
				<time>2019-06-08T09:43:16Z</time>
				<speed>12.076054</speed>
			</trkpt>
			<trkpt lat="24.2214437" lon="120.6472819">
				<ele>154.500000</ele>
				<time>2019-06-08T09:43:17Z</time>
				<speed>11.934595</speed>
			</trkpt>
			<trkpt lat="24.2213460" lon="120.6473307">
				<ele>155.600000</ele>
				<time>2019-06-08T09:43:18Z</time>
				<speed>11.898587</speed>
			</trkpt>
			<trkpt lat="24.2212524" lon="120.6473796">
				<ele>156.100000</ele>
				<time>2019-06-08T09:43:19Z</time>
				<speed>11.504042</speed>
			</trkpt>
			<trkpt lat="24.2211670" lon="120.6474284">
				<ele>156.500000</ele>
				<time>2019-06-08T09:43:20Z</time>
				<speed>11.231409</speed>
			</trkpt>
			<trkpt lat="24.2210815" lon="120.6474772">
				<ele>157.600000</ele>
				<time>2019-06-08T09:43:21Z</time>
				<speed>11.186657</speed>
			</trkpt>
			<trkpt lat="24.2209839" lon="120.6475423">
				<ele>158.900000</ele>
				<time>2019-06-08T09:43:22Z</time>
				<speed>11.625954</speed>
			</trkpt>
			<trkpt lat="24.2208862" lon="120.6475911">
				<ele>158.900000</ele>
				<time>2019-06-08T09:43:23Z</time>
				<speed>11.761242</speed>
			</trkpt>
			<trkpt lat="24.2207804" lon="120.6476400">
				<ele>159.400000</ele>
				<time>2019-06-08T09:43:24Z</time>
				<speed>12.168132</speed>
			</trkpt>
			<trkpt lat="24.2206828" lon="120.6476888">
				<ele>159.800000</ele>
				<time>2019-06-08T09:43:25Z</time>
				<speed>12.304962</speed>
			</trkpt>
			<trkpt lat="24.2205770" lon="120.6477376">
				<ele>159.700000</ele>
				<time>2019-06-08T09:43:26Z</time>
				<speed>12.440250</speed>
			</trkpt>
			<trkpt lat="24.2204753" lon="120.6478027">
				<ele>159.600000</ele>
				<time>2019-06-08T09:43:27Z</time>
				<speed>12.446937</speed>
			</trkpt>
			<trkpt lat="24.2203695" lon="120.6478516">
				<ele>159.600000</ele>
				<time>2019-06-08T09:43:28Z</time>
				<speed>12.682017</speed>
			</trkpt>
			<trkpt lat="24.2202637" lon="120.6479004">
				<ele>159.600000</ele>
				<time>2019-06-08T09:43:29Z</time>
				<speed>12.771523</speed>
			</trkpt>
			<trkpt lat="24.2201335" lon="120.6479655">
				<ele>159.500000</ele>
				<time>2019-06-08T09:43:30Z</time>
				<speed>13.641888</speed>
			</trkpt>
			<trkpt lat="24.2200155" lon="120.6480143">
				<ele>160.000000</ele>
				<time>2019-06-08T09:43:31Z</time>
				<speed>14.009684</speed>
			</trkpt>
			<trkpt lat="24.2198934" lon="120.6480794">
				<ele>160.200000</ele>
				<time>2019-06-08T09:43:32Z</time>
				<speed>14.313695</speed>
			</trkpt>
			<trkpt lat="24.2197713" lon="120.6481283">
				<ele>160.500000</ele>
				<time>2019-06-08T09:43:33Z</time>
				<speed>14.497335</speed>
			</trkpt>
			<trkpt lat="24.2196493" lon="120.6481934">
				<ele>160.000000</ele>
				<time>2019-06-08T09:43:34Z</time>
				<speed>14.722128</speed>
			</trkpt>
			<trkpt lat="24.2195272" lon="120.6482585">
				<ele>160.300000</ele>
				<time>2019-06-08T09:43:35Z</time>
				<speed>14.833753</speed>
			</trkpt>
			<trkpt lat="24.2194010" lon="120.6483236">
				<ele>160.300000</ele>
				<time>2019-06-08T09:43:36Z</time>
				<speed>14.754020</speed>
			</trkpt>
			<trkpt lat="24.2192708" lon="120.6483887">
				<ele>160.300000</ele>
				<time>2019-06-08T09:43:37Z</time>
				<speed>15.482926</speed>
			</trkpt>
			<trkpt lat="24.2191406" lon="120.6484375">
				<ele>159.600000</ele>
				<time>2019-06-08T09:43:38Z</time>
				<speed>15.290540</speed>
			</trkpt>
			<trkpt lat="24.2190104" lon="120.6485026">
				<ele>159.800000</ele>
				<time>2019-06-08T09:43:39Z</time>
				<speed>15.371301</speed>
			</trkpt>
			<trkpt lat="24.2188843" lon="120.6485677">
				<ele>160.300000</ele>
				<time>2019-06-08T09:43:40Z</time>
				<speed>15.320890</speed>
			</trkpt>
			<trkpt lat="24.2187500" lon="120.6486165">
				<ele>160.100000</ele>
				<time>2019-06-08T09:43:41Z</time>
				<speed>15.316774</speed>
			</trkpt>
			<trkpt lat="24.2186279" lon="120.6486654">
				<ele>160.400000</ele>
				<time>2019-06-08T09:43:42Z</time>
				<speed>14.876962</speed>
			</trkpt>
			<trkpt lat="24.2185099" lon="120.6487305">
				<ele>160.600000</ele>
				<time>2019-06-08T09:43:43Z</time>
				<speed>14.179950</speed>
			</trkpt>
			<trkpt lat="24.2183879" lon="120.6487793">
				<ele>160.100000</ele>
				<time>2019-06-08T09:43:44Z</time>
				<speed>14.083757</speed>
			</trkpt>
			<trkpt lat="24.2182739" lon="120.6488444">
				<ele>159.500000</ele>
				<time>2019-06-08T09:43:45Z</time>
				<speed>13.828615</speed>
			</trkpt>
			<trkpt lat="24.2181559" lon="120.6488932">
				<ele>158.900000</ele>
				<time>2019-06-08T09:43:46Z</time>
				<speed>13.784377</speed>
			</trkpt>
			<trkpt lat="24.2180298" lon="120.6489421">
				<ele>157.900000</ele>
				<time>2019-06-08T09:43:47Z</time>
				<speed>13.787978</speed>
			</trkpt>
			<trkpt lat="24.2179036" lon="120.6489746">
				<ele>156.600000</ele>
				<time>2019-06-08T09:43:48Z</time>
				<speed>13.610509</speed>
			</trkpt>
			<trkpt lat="24.2177816" lon="120.6490234">
				<ele>156.700000</ele>
				<time>2019-06-08T09:43:49Z</time>
				<speed>13.614110</speed>
			</trkpt>
			<trkpt lat="24.2176473" lon="120.6490560">
				<ele>156.200000</ele>
				<time>2019-06-08T09:43:50Z</time>
				<speed>14.084272</speed>
			</trkpt>
			<trkpt lat="24.2175212" lon="120.6490885">
				<ele>156.100000</ele>
				<time>2019-06-08T09:43:51Z</time>
				<speed>14.008655</speed>
			</trkpt>
			<trkpt lat="24.2174032" lon="120.6491211">
				<ele>156.600000</ele>
				<time>2019-06-08T09:43:52Z</time>
				<speed>13.640345</speed>
			</trkpt>
			<trkpt lat="24.2172974" lon="120.6491862">
				<ele>157.500000</ele>
				<time>2019-06-08T09:43:53Z</time>
				<speed>13.218537</speed>
			</trkpt>
			<trkpt lat="24.2171997" lon="120.6492188">
				<ele>158.000000</ele>
				<time>2019-06-08T09:43:54Z</time>
				<speed>12.487574</speed>
			</trkpt>
			<trkpt lat="24.2170898" lon="120.6492513">
				<ele>158.800000</ele>
				<time>2019-06-08T09:43:55Z</time>
				<speed>12.102803</speed>
			</trkpt>
			<trkpt lat="24.2169922" lon="120.6492839">
				<ele>159.400000</ele>
				<time>2019-06-08T09:43:56Z</time>
				<speed>11.671221</speed>
			</trkpt>
			<trkpt lat="24.2168986" lon="120.6493001">
				<ele>159.900000</ele>
				<time>2019-06-08T09:43:57Z</time>
				<speed>10.631105</speed>
			</trkpt>
			<trkpt lat="24.2168213" lon="120.6493164">
				<ele>160.100000</ele>
				<time>2019-06-08T09:43:58Z</time>
				<speed>9.400146</speed>
			</trkpt>
			<trkpt lat="24.2167399" lon="120.6493327">
				<ele>159.900000</ele>
				<time>2019-06-08T09:43:59Z</time>
				<speed>8.869799</speed>
			</trkpt>
			<trkpt lat="24.2166748" lon="120.6493490">
				<ele>160.100000</ele>
				<time>2019-06-08T09:44:00Z</time>
				<speed>7.899641</speed>
			</trkpt>
			<trkpt lat="24.2166260" lon="120.6493327">
				<ele>160.200000</ele>
				<time>2019-06-08T09:44:01Z</time>
				<speed>6.180516</speed>
			</trkpt>
			<trkpt lat="24.2165975" lon="120.6493490">
				<ele>161.000000</ele>
				<time>2019-06-08T09:44:02Z</time>
				<speed>4.779805</speed>
			</trkpt>
			<trkpt lat="24.2165812" lon="120.6493652">
				<ele>161.700000</ele>
				<time>2019-06-08T09:44:03Z</time>
				<speed>3.405842</speed>
			</trkpt>
			<trkpt lat="24.2165527" lon="120.6493652">
				<ele>161.200000</ele>
				<time>2019-06-08T09:44:04Z</time>
				<speed>3.002038</speed>
			</trkpt>
			<trkpt lat="24.2165405" lon="120.6493815">
				<ele>161.400000</ele>
				<time>2019-06-08T09:44:05Z</time>
				<speed>1.976839</speed>
			</trkpt>
			<trkpt lat="24.2165405" lon="120.6493815">
				<ele>161.700000</ele>
				<time>2019-06-08T09:44:06Z</time>
				<speed>0.835900</speed>
			</trkpt>
			<trkpt lat="24.2165324" lon="120.6493652">
				<ele>161.900000</ele>
				<time>2019-06-08T09:44:07Z</time>
				<speed>0.635284</speed>
			</trkpt>
			<trkpt lat="24.2165324" lon="120.6493652">
				<ele>162.100000</ele>
				<time>2019-06-08T09:44:08Z</time>
				<speed>0.387343</speed>
			</trkpt>
			<trkpt lat="24.2165283" lon="120.6493652">
				<ele>161.500000</ele>
				<time>2019-06-08T09:44:09Z</time>
				<speed>0.290122</speed>
			</trkpt>
			<trkpt lat="24.2165243" lon="120.6493652">
				<ele>161.400000</ele>
				<time>2019-06-08T09:44:10Z</time>
				<speed>0.197015</speed>
			</trkpt>
			<trkpt lat="24.2165202" lon="120.6493652">
				<ele>161.600000</ele>
				<time>2019-06-08T09:44:11Z</time>
				<speed>0.064300</speed>
			</trkpt>
			<trkpt lat="24.2165161" lon="120.6493652">
				<ele>161.700000</ele>
				<time>2019-06-08T09:44:12Z</time>
				<speed>0.094135</speed>
			</trkpt>
			<trkpt lat="24.2165120" lon="120.6493652">
				<ele>161.900000</ele>
				<time>2019-06-08T09:44:13Z</time>
				<speed>0.080761</speed>
			</trkpt>
			<trkpt lat="24.2165039" lon="120.6493652">
				<ele>162.100000</ele>
				<time>2019-06-08T09:44:14Z</time>
				<speed>0.069958</speed>
			</trkpt>
			<trkpt lat="24.2164958" lon="120.6493652">
				<ele>162.200000</ele>
				<time>2019-06-08T09:44:15Z</time>
				<speed>0.161522</speed>
			</trkpt>
			<trkpt lat="24.2164917" lon="120.6493490">
				<ele>162.400000</ele>
				<time>2019-06-08T09:44:16Z</time>
				<speed>0.127057</speed>
			</trkpt>
			<trkpt lat="24.2164876" lon="120.6493490">
				<ele>162.700000</ele>
				<time>2019-06-08T09:44:17Z</time>
				<speed>0.141974</speed>
			</trkpt>
			<trkpt lat="24.2164836" lon="120.6493490">
				<ele>163.200000</ele>
				<time>2019-06-08T09:44:18Z</time>
				<speed>0.172838</speed>
			</trkpt>
			<trkpt lat="24.2164795" lon="120.6493490">
				<ele>163.600000</ele>
				<time>2019-06-08T09:44:19Z</time>
				<speed>0.102366</speed>
			</trkpt>
			<trkpt lat="24.2164795" lon="120.6493490">
				<ele>164.100000</ele>
				<time>2019-06-08T09:44:20Z</time>
				<speed>0.028806</speed>
			</trkpt>
			<trkpt lat="24.2164795" lon="120.6493490">
				<ele>164.900000</ele>
				<time>2019-06-08T09:44:21Z</time>
				<speed>0.207818</speed>
			</trkpt>
			<trkpt lat="24.2164754" lon="120.6493490">
				<ele>165.300000</ele>
				<time>2019-06-08T09:44:22Z</time>
				<speed>0.073045</speed>
			</trkpt>
			<trkpt lat="24.2164754" lon="120.6493490">
				<ele>165.900000</ele>
				<time>2019-06-08T09:44:23Z</time>
				<speed>0.233538</speed>
			</trkpt>
			<trkpt lat="24.2164754" lon="120.6493490">
				<ele>166.100000</ele>
				<time>2019-06-08T09:44:24Z</time>
				<speed>0.244854</speed>
			</trkpt>
			<trkpt lat="24.2164714" lon="120.6493490">
				<ele>166.200000</ele>
				<time>2019-06-08T09:44:25Z</time>
				<speed>0.131172</speed>
			</trkpt>
			<trkpt lat="24.2164714" lon="120.6493490">
				<ele>166.500000</ele>
				<time>2019-06-08T09:44:26Z</time>
				<speed>0.101337</speed>
			</trkpt>
			<trkpt lat="24.2164673" lon="120.6493490">
				<ele>166.800000</ele>
				<time>2019-06-08T09:44:27Z</time>
				<speed>0.172838</speed>
			</trkpt>
			<trkpt lat="24.2164632" lon="120.6493490">
				<ele>166.900000</ele>
				<time>2019-06-08T09:44:28Z</time>
				<speed>0.042695</speed>
			</trkpt>
			<trkpt lat="24.2164632" lon="120.6493490">
				<ele>167.200000</ele>
				<time>2019-06-08T09:44:29Z</time>
				<speed>0.090020</speed>
			</trkpt>
			<trkpt lat="24.2164632" lon="120.6493490">
				<ele>167.300000</ele>
				<time>2019-06-08T09:44:30Z</time>
				<speed>0.129629</speed>
			</trkpt>
			<trkpt lat="24.2164591" lon="120.6493327">
				<ele>167.100000</ele>
				<time>2019-06-08T09:44:31Z</time>
				<speed>0.043210</speed>
			</trkpt>
			<trkpt lat="24.2164551" lon="120.6493327">
				<ele>167.100000</ele>
				<time>2019-06-08T09:44:32Z</time>
				<speed>0.060699</speed>
			</trkpt>
			<trkpt lat="24.2164551" lon="120.6493327">
				<ele>167.500000</ele>
				<time>2019-06-08T09:44:33Z</time>
				<speed>0.189814</speed>
			</trkpt>
			<trkpt lat="24.2164510" lon="120.6493327">
				<ele>167.500000</ele>
				<time>2019-06-08T09:44:34Z</time>
				<speed>0.095678</speed>
			</trkpt>
			<trkpt lat="24.2164429" lon="120.6493327">
				<ele>167.300000</ele>
				<time>2019-06-08T09:44:35Z</time>
				<speed>0.133230</speed>
			</trkpt>
			<trkpt lat="24.2164429" lon="120.6493327">
				<ele>167.300000</ele>
				<time>2019-06-08T09:44:36Z</time>
				<speed>0.074074</speed>
			</trkpt>
			<trkpt lat="24.2164388" lon="120.6493327">
				<ele>167.300000</ele>
				<time>2019-06-08T09:44:37Z</time>
				<speed>0.102366</speed>
			</trkpt>
			<trkpt lat="24.2164347" lon="120.6493327">
				<ele>167.300000</ele>
				<time>2019-06-08T09:44:38Z</time>
				<speed>0.058127</speed>
			</trkpt>
			<trkpt lat="24.2164347" lon="120.6493327">
				<ele>167.300000</ele>
				<time>2019-06-08T09:44:38Z</time>
				<speed>0.058127</speed>
			</trkpt>
		</trkseg>
	</trk>
</gpx>