<?xml version='1.0' encoding='utf-8'?>
<gpx xmlns="http://www.topografix.com/GPX/1/1" xmlns:xsi="http://www.w3.org/2001/XMLSchema-instance" creator="Astro Gemini" version="1.0" xsi:schemaLocation="http://www.topografix.com/GPX/1/0 http://www.topografix.com/GPX/1/0/gpx.xsd">
	<trk>
		<name>FRON0651</name>
		<trkseg>
			<trkpt lat="24.3030680" lon="120.5963867">
				<ele>54.900000</ele>
				<time>2019-06-08T07:30:36Z</time>
				<speed>11.419165</speed>
			</trkpt>
			<trkpt lat="24.3031657" lon="120.5964030">
				<ele>54.900000</ele>
				<time>2019-06-08T07:30:37Z</time>
				<speed>10.985527</speed>
			</trkpt>
			<trkpt lat="24.3031657" lon="120.5964030">
				<ele>55.800000</ele>
				<time>2019-06-08T07:30:37Z</time>
				<speed>10.985527</speed>
			</trkpt>
			<trkpt lat="24.3033610" lon="120.5964518">
				<ele>56.100000</ele>
				<time>2019-06-08T07:30:39Z</time>
				<speed>10.896020</speed>
			</trkpt>
			<trkpt lat="24.3034546" lon="120.5964681">
				<ele>56.200000</ele>
				<time>2019-06-08T07:30:40Z</time>
				<speed>10.482443</speed>
			</trkpt>
			<trkpt lat="24.3035482" lon="120.5965007">
				<ele>56.500000</ele>
				<time>2019-06-08T07:30:41Z</time>
				<speed>10.597668</speed>
			</trkpt>
			<trkpt lat="24.3036418" lon="120.5965332">
				<ele>56.900000</ele>
				<time>2019-06-08T07:30:42Z</time>
				<speed>10.637792</speed>
			</trkpt>
			<trkpt lat="24.3037394" lon="120.5965495">
				<ele>56.800000</ele>
				<time>2019-06-08T07:30:43Z</time>
				<speed>11.140876</speed>
			</trkpt>
			<trkpt lat="24.3038411" lon="120.5965820">
				<ele>57.200000</ele>
				<time>2019-06-08T07:30:44Z</time>
				<speed>11.427910</speed>
			</trkpt>
			<trkpt lat="24.3039469" lon="120.5965983">
				<ele>56.500000</ele>
				<time>2019-06-08T07:30:45Z</time>
				<speed>12.011754</speed>
			</trkpt>
			<trkpt lat="24.3040568" lon="120.5966146">
				<ele>56.500000</ele>
				<time>2019-06-08T07:30:46Z</time>
				<speed>12.352802</speed>
			</trkpt>
			<trkpt lat="24.3041707" lon="120.5966309">
				<ele>56.600000</ele>
				<time>2019-06-08T07:30:47Z</time>
				<speed>12.642409</speed>
			</trkpt>
			<trkpt lat="24.3042887" lon="120.5966634">
				<ele>56.400000</ele>
				<time>2019-06-08T07:30:48Z</time>
				<speed>13.123372</speed>
			</trkpt>
			<trkpt lat="24.3044067" lon="120.5966797">
				<ele>56.500000</ele>
				<time>2019-06-08T07:30:49Z</time>
				<speed>13.357424</speed>
			</trkpt>
			<trkpt lat="24.3045288" lon="120.5966960">
				<ele>56.400000</ele>
				<time>2019-06-08T07:30:50Z</time>
				<speed>13.494769</speed>
			</trkpt>
			<trkpt lat="24.3046509" lon="120.5967122">
				<ele>56.500000</ele>
				<time>2019-06-08T07:30:51Z</time>
				<speed>13.558041</speed>
			</trkpt>
			<trkpt lat="24.3047729" lon="120.5967285">
				<ele>56.700000</ele>
				<time>2019-06-08T07:30:52Z</time>
				<speed>13.721105</speed>
			</trkpt>
			<trkpt lat="24.3049032" lon="120.5967611">
				<ele>57.000000</ele>
				<time>2019-06-08T07:30:53Z</time>
				<speed>14.354846</speed>
			</trkpt>
			<trkpt lat="24.3050252" lon="120.5967773">
				<ele>57.300000</ele>
				<time>2019-06-08T07:30:54Z</time>
				<speed>14.034376</speed>
			</trkpt>
			<trkpt lat="24.3051514" lon="120.5968099">
				<ele>58.300000</ele>
				<time>2019-06-08T07:30:55Z</time>
				<speed>14.161432</speed>
			</trkpt>
			<trkpt lat="24.3052734" lon="120.5968262">
				<ele>58.800000</ele>
				<time>2019-06-08T07:30:56Z</time>
				<speed>13.850735</speed>
			</trkpt>
			<trkpt lat="24.3053955" lon="120.5968424">
				<ele>59.500000</ele>
				<time>2019-06-08T07:30:57Z</time>
				<speed>13.707216</speed>
			</trkpt>
			<trkpt lat="24.3055176" lon="120.5968587">
				<ele>60.300000</ele>
				<time>2019-06-08T07:30:58Z</time>
				<speed>13.744768</speed>
			</trkpt>
			<trkpt lat="24.3056396" lon="120.5968913">
				<ele>60.900000</ele>
				<time>2019-06-08T07:30:59Z</time>
				<speed>13.550324</speed>
			</trkpt>
			<trkpt lat="24.3057576" lon="120.5969076">
				<ele>61.500000</ele>
				<time>2019-06-08T07:31:00Z</time>
				<speed>13.590962</speed>
			</trkpt>
			<trkpt lat="24.3058838" lon="120.5969401">
				<ele>61.900000</ele>
				<time>2019-06-08T07:31:01Z</time>
				<speed>13.608966</speed>
			</trkpt>
			<trkpt lat="24.3060099" lon="120.5969564">
				<ele>61.700000</ele>
				<time>2019-06-08T07:31:02Z</time>
				<speed>13.710303</speed>
			</trkpt>
			<trkpt lat="24.3061320" lon="120.5969889">
				<ele>60.900000</ele>
				<time>2019-06-08T07:31:03Z</time>
				<speed>14.233448</speed>
			</trkpt>
			<trkpt lat="24.3062581" lon="120.5970215">
				<ele>61.900000</ele>
				<time>2019-06-08T07:31:04Z</time>
				<speed>14.103819</speed>
			</trkpt>
			<trkpt lat="24.3063802" lon="120.5970703">
				<ele>61.900000</ele>
				<time>2019-06-08T07:31:05Z</time>
				<speed>14.162461</speed>
			</trkpt>
			<trkpt lat="24.3065063" lon="120.5971029">
				<ele>62.600000</ele>
				<time>2019-06-08T07:31:06Z</time>
				<speed>14.698980</speed>
			</trkpt>
			<trkpt lat="24.3066366" lon="120.5971517">
				<ele>63.100000</ele>
				<time>2019-06-08T07:31:07Z</time>
				<speed>15.005562</speed>
			</trkpt>
			<trkpt lat="24.3067668" lon="120.5972005">
				<ele>63.300000</ele>
				<time>2019-06-08T07:31:08Z</time>
				<speed>15.394963</speed>
			</trkpt>
			<trkpt lat="24.3069010" lon="120.5972656">
				<ele>63.300000</ele>
				<time>2019-06-08T07:31:09Z</time>
				<speed>15.731895</speed>
			</trkpt>
			<trkpt lat="24.3070313" lon="120.5973307">
				<ele>63.200000</ele>
				<time>2019-06-08T07:31:10Z</time>
				<speed>16.156276</speed>
			</trkpt>
			<trkpt lat="24.3071615" lon="120.5973958">
				<ele>63.200000</ele>
				<time>2019-06-08T07:31:11Z</time>
				<speed>16.340431</speed>
			</trkpt>
			<trkpt lat="24.3072917" lon="120.5974772">
				<ele>63.200000</ele>
				<time>2019-06-08T07:31:12Z</time>
				<speed>16.538475</speed>
			</trkpt>
			<trkpt lat="24.3074178" lon="120.5975749">
				<ele>62.600000</ele>
				<time>2019-06-08T07:31:13Z</time>
				<speed>16.788987</speed>
			</trkpt>
			<trkpt lat="24.3075399" lon="120.5976725">
				<ele>62.400000</ele>
				<time>2019-06-08T07:31:14Z</time>
				<speed>16.948452</speed>
			</trkpt>
			<trkpt lat="24.3076619" lon="120.5977702">
				<ele>62.000000</ele>
				<time>2019-06-08T07:31:15Z</time>
				<speed>17.008635</speed>
			</trkpt>
			<trkpt lat="24.3077799" lon="120.5978678">
				<ele>61.900000</ele>
				<time>2019-06-08T07:31:16Z</time>
				<speed>16.765324</speed>
			</trkpt>
			<trkpt lat="24.3078979" lon="120.5979655">
				<ele>61.900000</ele>
				<time>2019-06-08T07:31:17Z</time>
				<speed>16.555449</speed>
			</trkpt>
			<trkpt lat="24.3080078" lon="120.5980794">
				<ele>61.800000</ele>
				<time>2019-06-08T07:31:18Z</time>
				<speed>16.511211</speed>
			</trkpt>
			<trkpt lat="24.3081217" lon="120.5981771">
				<ele>61.700000</ele>
				<time>2019-06-08T07:31:19Z</time>
				<speed>16.366665</speed>
			</trkpt>
			<trkpt lat="24.3082357" lon="120.5982910">
				<ele>61.300000</ele>
				<time>2019-06-08T07:31:20Z</time>
				<speed>16.366150</speed>
			</trkpt>
			<trkpt lat="24.3083455" lon="120.5983887">
				<ele>61.000000</ele>
				<time>2019-06-08T07:31:21Z</time>
				<speed>16.285390</speed>
			</trkpt>
			<trkpt lat="24.3084554" lon="120.5984863">
				<ele>60.900000</ele>
				<time>2019-06-08T07:31:22Z</time>
				<speed>16.280760</speed>
			</trkpt>
			<trkpt lat="24.3085612" lon="120.5986003">
				<ele>61.000000</ele>
				<time>2019-06-08T07:31:23Z</time>
				<speed>16.287447</speed>
			</trkpt>
			<trkpt lat="24.3086629" lon="120.5987142">
				<ele>61.000000</ele>
				<time>2019-06-08T07:31:24Z</time>
				<speed>16.433537</speed>
			</trkpt>
			<trkpt lat="24.3087524" lon="120.5988444">
				<ele>61.200000</ele>
				<time>2019-06-08T07:31:25Z</time>
				<speed>16.377982</speed>
			</trkpt>
			<trkpt lat="24.3088379" lon="120.5989746">
				<ele>61.600000</ele>
				<time>2019-06-08T07:31:26Z</time>
				<speed>16.290534</speed>
			</trkpt>
			<trkpt lat="24.3089274" lon="120.5991048">
				<ele>61.700000</ele>
				<time>2019-06-08T07:31:27Z</time>
				<speed>16.193312</speed>
			</trkpt>
			<trkpt lat="24.3090088" lon="120.5992350">
				<ele>62.200000</ele>
				<time>2019-06-08T07:31:28Z</time>
				<speed>16.174280</speed>
			</trkpt>
			<trkpt lat="24.3090902" lon="120.5993652">
				<ele>62.300000</ele>
				<time>2019-06-08T07:31:29Z</time>
				<speed>16.142387</speed>
			</trkpt>
			<trkpt lat="24.3091715" lon="120.5994954">
				<ele>62.800000</ele>
				<time>2019-06-08T07:31:30Z</time>
				<speed>15.962861</speed>
			</trkpt>
			<trkpt lat="24.3092367" lon="120.5996257">
				<ele>63.500000</ele>
				<time>2019-06-08T07:31:31Z</time>
				<speed>15.867697</speed>
			</trkpt>
			<trkpt lat="24.3093018" lon="120.5997721">
				<ele>64.200000</ele>
				<time>2019-06-08T07:31:32Z</time>
				<speed>15.737554</speed>
			</trkpt>
			<trkpt lat="24.3093628" lon="120.5999023">
				<ele>64.500000</ele>
				<time>2019-06-08T07:31:33Z</time>
				<speed>15.756587</speed>
			</trkpt>
			<trkpt lat="24.3094238" lon="120.6000488">
				<ele>65.100000</ele>
				<time>2019-06-08T07:31:34Z</time>
				<speed>15.696916</speed>
			</trkpt>
			<trkpt lat="24.3094808" lon="120.6001953">
				<ele>65.600000</ele>
				<time>2019-06-08T07:31:35Z</time>
				<speed>15.498872</speed>
			</trkpt>
			<trkpt lat="24.3095418" lon="120.6003255">
				<ele>65.600000</ele>
				<time>2019-06-08T07:31:36Z</time>
				<speed>15.686628</speed>
			</trkpt>
			<trkpt lat="24.3095988" lon="120.6004720">
				<ele>65.900000</ele>
				<time>2019-06-08T07:31:37Z</time>
				<speed>15.788480</speed>
			</trkpt>
			<trkpt lat="24.3096558" lon="120.6006348">
				<ele>66.100000</ele>
				<time>2019-06-08T07:31:38Z</time>
				<speed>16.050823</speed>
			</trkpt>
			<trkpt lat="24.3097046" lon="120.6007812">
				<ele>66.100000</ele>
				<time>2019-06-08T07:31:39Z</time>
				<speed>15.880557</speed>
			</trkpt>
			<trkpt lat="24.3097656" lon="120.6009115">
				<ele>66.100000</ele>
				<time>2019-06-08T07:31:40Z</time>
				<speed>16.028190</speed>
			</trkpt>
			<trkpt lat="24.3098267" lon="120.6010579">
				<ele>66.100000</ele>
				<time>2019-06-08T07:31:41Z</time>
				<speed>15.929424</speed>
			</trkpt>
			<trkpt lat="24.3098877" lon="120.6012044">
				<ele>66.400000</ele>
				<time>2019-06-08T07:31:42Z</time>
				<speed>15.927367</speed>
			</trkpt>
			<trkpt lat="24.3099487" lon="120.6013346">
				<ele>66.600000</ele>
				<time>2019-06-08T07:31:43Z</time>
				<speed>15.919651</speed>
			</trkpt>
			<trkpt lat="24.3100098" lon="120.6014811">
				<ele>67.000000</ele>
				<time>2019-06-08T07:31:44Z</time>
				<speed>15.913993</speed>
			</trkpt>
			<trkpt lat="24.3100667" lon="120.6016276">
				<ele>67.300000</ele>
				<time>2019-06-08T07:31:45Z</time>
				<speed>15.948457</speed>
			</trkpt>
			<trkpt lat="24.3101237" lon="120.6017741">
				<ele>67.700000</ele>
				<time>2019-06-08T07:31:46Z</time>
				<speed>15.776648</speed>
			</trkpt>
			<trkpt lat="24.3101847" lon="120.6019043">
				<ele>67.700000</ele>
				<time>2019-06-08T07:31:47Z</time>
				<speed>15.748870</speed>
			</trkpt>
			<trkpt lat="24.3102417" lon="120.6020508">
				<ele>67.800000</ele>
				<time>2019-06-08T07:31:48Z</time>
				<speed>15.119245</speed>
			</trkpt>
			<trkpt lat="24.3102987" lon="120.6021810">
				<ele>67.700000</ele>
				<time>2019-06-08T07:31:49Z</time>
				<speed>14.284373</speed>
			</trkpt>
			<trkpt lat="24.3103516" lon="120.6022949">
				<ele>67.600000</ele>
				<time>2019-06-08T07:31:50Z</time>
				<speed>13.306499</speed>
			</trkpt>
			<trkpt lat="24.3104045" lon="120.6024089">
				<ele>67.900000</ele>
				<time>2019-06-08T07:31:51Z</time>
				<speed>12.276670</speed>
			</trkpt>
			<trkpt lat="24.3104574" lon="120.6025065">
				<ele>68.300000</ele>
				<time>2019-06-08T07:31:52Z</time>
				<speed>11.463404</speed>
			</trkpt>
			<trkpt lat="24.3105062" lon="120.6026042">
				<ele>68.200000</ele>
				<time>2019-06-08T07:31:53Z</time>
				<speed>11.046740</speed>
			</trkpt>
			<trkpt lat="24.3105591" lon="120.6027018">
				<ele>68.100000</ele>
				<time>2019-06-08T07:31:54Z</time>
				<speed>10.781824</speed>
			</trkpt>
			<trkpt lat="24.3106120" lon="120.6027832">
				<ele>68.300000</ele>
				<time>2019-06-08T07:31:55Z</time>
				<speed>10.214955</speed>
			</trkpt>
			<trkpt lat="24.3106689" lon="120.6028646">
				<ele>68.400000</ele>
				<time>2019-06-08T07:31:56Z</time>
				<speed>9.723703</speed>
			</trkpt>
			<trkpt lat="24.3107178" lon="120.6029297">
				<ele>68.200000</ele>
				<time>2019-06-08T07:31:57Z</time>
				<speed>9.179468</speed>
			</trkpt>
			<trkpt lat="24.3107707" lon="120.6029948">
				<ele>68.300000</ele>
				<time>2019-06-08T07:31:58Z</time>
				<speed>8.658381</speed>
			</trkpt>
			<trkpt lat="24.3108154" lon="120.6030599">
				<ele>68.500000</ele>
				<time>2019-06-08T07:31:59Z</time>
				<speed>7.913530</speed>
			</trkpt>
			<trkpt lat="24.3108602" lon="120.6031087">
				<ele>69.000000</ele>
				<time>2019-06-08T07:32:00Z</time>
				<speed>7.159933</speed>
			</trkpt>
			<trkpt lat="24.3109049" lon="120.6031576">
				<ele>69.000000</ele>
				<time>2019-06-08T07:32:01Z</time>
				<speed>6.023109</speed>
			</trkpt>
			<trkpt lat="24.3109375" lon="120.6031901">
				<ele>69.200000</ele>
				<time>2019-06-08T07:32:02Z</time>
				<speed>5.001511</speed>
			</trkpt>
			<trkpt lat="24.3109660" lon="120.6032227">
				<ele>69.400000</ele>
				<time>2019-06-08T07:32:03Z</time>
				<speed>3.962423</speed>
			</trkpt>
			<trkpt lat="24.3109904" lon="120.6032389">
				<ele>69.700000</ele>
				<time>2019-06-08T07:32:04Z</time>
				<speed>3.460883</speed>
			</trkpt>
			<trkpt lat="24.3110107" lon="120.6032552">
				<ele>69.400000</ele>
				<time>2019-06-08T07:32:05Z</time>
				<speed>2.765929</speed>
			</trkpt>
			<trkpt lat="24.3110189" lon="120.6032715">
				<ele>69.400000</ele>
				<time>2019-06-08T07:32:06Z</time>
				<speed>0.485079</speed>
			</trkpt>
			<trkpt lat="24.3110229" lon="120.6032552">
				<ele>69.000000</ele>
				<time>2019-06-08T07:32:07Z</time>
				<speed>0.049382</speed>
			</trkpt>
			<trkpt lat="24.3110229" lon="120.6032552">
				<ele>69.200000</ele>
				<time>2019-06-08T07:32:08Z</time>
				<speed>0.157406</speed>
			</trkpt>
			<trkpt lat="24.3110229" lon="120.6032552">
				<ele>69.300000</ele>
				<time>2019-06-08T07:32:09Z</time>
				<speed>0.122942</speed>
			</trkpt>
			<trkpt lat="24.3110229" lon="120.6032552">
				<ele>69.500000</ele>
				<time>2019-06-08T07:32:10Z</time>
				<speed>0.128600</speed>
			</trkpt>
			<trkpt lat="24.3110270" lon="120.6032552">
				<ele>69.500000</ele>
				<time>2019-06-08T07:32:11Z</time>
				<speed>0.185698</speed>
			</trkpt>
			<trkpt lat="24.3110270" lon="120.6032552">
				<ele>69.500000</ele>
				<time>2019-06-08T07:32:12Z</time>
				<speed>0.265945</speed>
			</trkpt>
			<trkpt lat="24.3110270" lon="120.6032552">
				<ele>69.500000</ele>
				<time>2019-06-08T07:32:13Z</time>
				<speed>0.138374</speed>
			</trkpt>
			<trkpt lat="24.3110229" lon="120.6032552">
				<ele>69.700000</ele>
				<time>2019-06-08T07:32:14Z</time>
				<speed>0.097736</speed>
			</trkpt>
			<trkpt lat="24.3110229" lon="120.6032552">
				<ele>69.900000</ele>
				<time>2019-06-08T07:32:15Z</time>
				<speed>0.031378</speed>
			</trkpt>
			<trkpt lat="24.3110229" lon="120.6032552">
				<ele>69.800000</ele>
				<time>2019-06-08T07:32:16Z</time>
				<speed>0.082304</speed>
			</trkpt>
			<trkpt lat="24.3110229" lon="120.6032552">
				<ele>70.000000</ele>
				<time>2019-06-08T07:32:17Z</time>
				<speed>0.057098</speed>
			</trkpt>
			<trkpt lat="24.3110229" lon="120.6032552">
				<ele>70.100000</ele>
				<time>2019-06-08T07:32:18Z</time>
				<speed>0.073045</speed>
			</trkpt>
			<trkpt lat="24.3110229" lon="120.6032552">
				<ele>70.500000</ele>
				<time>2019-06-08T07:32:19Z</time>
				<speed>0.185184</speed>
			</trkpt>
			<trkpt lat="24.3110229" lon="120.6032552">
				<ele>70.300000</ele>
				<time>2019-06-08T07:32:20Z</time>
				<speed>0.248970</speed>
			</trkpt>
			<trkpt lat="24.3110229" lon="120.6032552">
				<ele>70.500000</ele>
				<time>2019-06-08T07:32:21Z</time>
				<speed>0.157921</speed>
			</trkpt>
			<trkpt lat="24.3110270" lon="120.6032552">
				<ele>70.500000</ele>
				<time>2019-06-08T07:32:22Z</time>
				<speed>0.069444</speed>
			</trkpt>
			<trkpt lat="24.3110270" lon="120.6032552">
				<ele>70.300000</ele>
				<time>2019-06-08T07:32:23Z</time>
				<speed>0.049897</speed>
			</trkpt>
			<trkpt lat="24.3110229" lon="120.6032552">
				<ele>70.300000</ele>
				<time>2019-06-08T07:32:24Z</time>
				<speed>0.044753</speed>
			</trkpt>
			<trkpt lat="24.3110229" lon="120.6032552">
				<ele>70.500000</ele>
				<time>2019-06-08T07:32:25Z</time>
				<speed>0.064300</speed>
			</trkpt>
			<trkpt lat="24.3110229" lon="120.6032552">
				<ele>70.400000</ele>
				<time>2019-06-08T07:32:26Z</time>
				<speed>0.096193</speed>
			</trkpt>
			<trkpt lat="24.3110229" lon="120.6032389">
				<ele>70.500000</ele>
				<time>2019-06-08T07:32:27Z</time>
				<speed>0.044238</speed>
			</trkpt>
			<trkpt lat="24.3110229" lon="120.6032389">
				<ele>70.600000</ele>
				<time>2019-06-08T07:32:28Z</time>
				<speed>0.080246</speed>
			</trkpt>
			<trkpt lat="24.3110229" lon="120.6032389">
				<ele>70.600000</ele>
				<time>2019-06-08T07:32:29Z</time>
				<speed>0.030350</speed>
			</trkpt>
			<trkpt lat="24.3110229" lon="120.6032389">
				<ele>70.600000</ele>
				<time>2019-06-08T07:32:30Z</time>
				<speed>0.025720</speed>
			</trkpt>
			<trkpt lat="24.3110229" lon="120.6032552">
				<ele>70.600000</ele>
				<time>2019-06-08T07:32:31Z</time>
				<speed>0.129629</speed>
			</trkpt>
			<trkpt lat="24.3110311" lon="120.6032552">
				<ele>70.800000</ele>
				<time>2019-06-08T07:32:32Z</time>
				<speed>1.151742</speed>
			</trkpt>
			<trkpt lat="24.3110433" lon="120.6032715">
				<ele>70.600000</ele>
				<time>2019-06-08T07:32:33Z</time>
				<speed>2.712946</speed>
			</trkpt>
			<trkpt lat="24.3110718" lon="120.6032878">
				<ele>70.700000</ele>
				<time>2019-06-08T07:32:34Z</time>
				<speed>4.354910</speed>
			</trkpt>
			<trkpt lat="24.3111084" lon="120.6033366">
				<ele>70.600000</ele>
				<time>2019-06-08T07:32:35Z</time>
				<speed>5.577639</speed>
			</trkpt>
			<trkpt lat="24.3111491" lon="120.6033691">
				<ele>70.800000</ele>
				<time>2019-06-08T07:32:36Z</time>
				<speed>6.543682</speed>
			</trkpt>
			<trkpt lat="24.3111979" lon="120.6034180">
				<ele>71.200000</ele>
				<time>2019-06-08T07:32:37Z</time>
				<speed>7.205715</speed>
			</trkpt>
			<trkpt lat="24.3112508" lon="120.6034505">
				<ele>72.700000</ele>
				<time>2019-06-08T07:32:38Z</time>
				<speed>8.035443</speed>
			</trkpt>
			<trkpt lat="24.3113159" lon="120.6034993">
				<ele>73.300000</ele>
				<time>2019-06-08T07:32:39Z</time>
				<speed>8.726282</speed>
			</trkpt>
			<trkpt lat="24.3113892" lon="120.6035482">
				<ele>73.800000</ele>
				<time>2019-06-08T07:32:40Z</time>
				<speed>9.463416</speed>
			</trkpt>
			<trkpt lat="24.3114624" lon="120.6036133">
				<ele>74.200000</ele>
				<time>2019-06-08T07:32:41Z</time>
				<speed>9.977816</speed>
			</trkpt>
			<trkpt lat="24.3115479" lon="120.6036621">
				<ele>74.200000</ele>
				<time>2019-06-08T07:32:42Z</time>
				<speed>10.695405</speed>
			</trkpt>
			<trkpt lat="24.3116374" lon="120.6037109">
				<ele>74.700000</ele>
				<time>2019-06-08T07:32:43Z</time>
				<speed>11.265874</speed>
			</trkpt>
			<trkpt lat="24.3117310" lon="120.6037598">
				<ele>75.200000</ele>
				<time>2019-06-08T07:32:44Z</time>
				<speed>11.674822</speed>
			</trkpt>
			<trkpt lat="24.3118327" lon="120.6038086">
				<ele>75.300000</ele>
				<time>2019-06-08T07:32:45Z</time>
				<speed>12.008668</speed>
			</trkpt>
			<trkpt lat="24.3119385" lon="120.6038411">
				<ele>75.200000</ele>
				<time>2019-06-08T07:32:46Z</time>
				<speed>12.818334</speed>
			</trkpt>
			<trkpt lat="24.3120524" lon="120.6038737">
				<ele>75.900000</ele>
				<time>2019-06-08T07:32:47Z</time>
				<speed>13.177385</speed>
			</trkpt>
			<trkpt lat="24.3121704" lon="120.6039225">
				<ele>76.700000</ele>
				<time>2019-06-08T07:32:48Z</time>
				<speed>13.664007</speed>
			</trkpt>
			<trkpt lat="24.3122884" lon="120.6039551">
				<ele>77.100000</ele>
				<time>2019-06-08T07:32:49Z</time>
				<speed>13.937668</speed>
			</trkpt>
			<trkpt lat="24.3124146" lon="120.6039876">
				<ele>77.300000</ele>
				<time>2019-06-08T07:32:50Z</time>
				<speed>14.392398</speed>
			</trkpt>
			<trkpt lat="24.3125448" lon="120.6040365">
				<ele>77.300000</ele>
				<time>2019-06-08T07:32:51Z</time>
				<speed>14.946406</speed>
			</trkpt>
			<trkpt lat="24.3126750" lon="120.6040690">
				<ele>77.600000</ele>
				<time>2019-06-08T07:32:52Z</time>
				<speed>15.105356</speed>
			</trkpt>
			<trkpt lat="24.3128133" lon="120.6041016">
				<ele>77.600000</ele>
				<time>2019-06-08T07:32:53Z</time>
				<speed>15.553913</speed>
			</trkpt>
			<trkpt lat="24.3129517" lon="120.6041341">
				<ele>77.700000</ele>
				<time>2019-06-08T07:32:54Z</time>
				<speed>15.965433</speed>
			</trkpt>
			<trkpt lat="24.3130941" lon="120.6041829">
				<ele>77.700000</ele>
				<time>2019-06-08T07:32:55Z</time>
				<speed>16.055967</speed>
			</trkpt>
			<trkpt lat="24.3132365" lon="120.6042318">
				<ele>77.500000</ele>
				<time>2019-06-08T07:32:56Z</time>
				<speed>16.418105</speed>
			</trkpt>
			<trkpt lat="24.3133789" lon="120.6042643">
				<ele>77.800000</ele>
				<time>2019-06-08T07:32:57Z</time>
				<speed>16.582198</speed>
			</trkpt>
			<trkpt lat="24.3135254" lon="120.6043132">
				<ele>78.200000</ele>
				<time>2019-06-08T07:32:58Z</time>
				<speed>16.773556</speed>
			</trkpt>
			<trkpt lat="24.3136719" lon="120.6043620">
				<ele>78.400000</ele>
				<time>2019-06-08T07:32:59Z</time>
				<speed>16.836312</speed>
			</trkpt>
			<trkpt lat="24.3138184" lon="120.6043945">
				<ele>78.700000</ele>
				<time>2019-06-08T07:33:00Z</time>
				<speed>16.876949</speed>
			</trkpt>
			<trkpt lat="24.3139648" lon="120.6044434">
				<ele>78.900000</ele>
				<time>2019-06-08T07:33:01Z</time>
				<speed>16.983430</speed>
			</trkpt>
			<trkpt lat="24.3141113" lon="120.6044922">
				<ele>79.200000</ele>
				<time>2019-06-08T07:33:02Z</time>
				<speed>16.938164</speed>
			</trkpt>
			<trkpt lat="24.3142619" lon="120.6045410">
				<ele>79.400000</ele>
				<time>2019-06-08T07:33:03Z</time>
				<speed>17.144953</speed>
			</trkpt>
			<trkpt lat="24.3144084" lon="120.6045898">
				<ele>79.800000</ele>
				<time>2019-06-08T07:33:04Z</time>
				<speed>17.229827</speed>
			</trkpt>
			<trkpt lat="24.3145630" lon="120.6046224">
				<ele>79.900000</ele>
				<time>2019-06-08T07:33:05Z</time>
				<speed>17.379518</speed>
			</trkpt>
			<trkpt lat="24.3147135" lon="120.6046712">
				<ele>79.700000</ele>
				<time>2019-06-08T07:33:06Z</time>
				<speed>17.459251</speed>
			</trkpt>
			<trkpt lat="24.3148641" lon="120.6047201">
				<ele>79.900000</ele>
				<time>2019-06-08T07:33:07Z</time>
				<speed>17.444846</speed>
			</trkpt>
			<trkpt lat="24.3150106" lon="120.6047689">
				<ele>80.200000</ele>
				<time>2019-06-08T07:33:08Z</time>
				<speed>17.425300</speed>
			</trkpt>
			<trkpt lat="24.3151652" lon="120.6048177">
				<ele>80.400000</ele>
				<time>2019-06-08T07:33:09Z</time>
				<speed>17.549785</speed>
			</trkpt>
			<trkpt lat="24.3153158" lon="120.6048503">
				<ele>80.500000</ele>
				<time>2019-06-08T07:33:10Z</time>
				<speed>17.630031</speed>
			</trkpt>
			<trkpt lat="24.3154704" lon="120.6048991">
				<ele>80.600000</ele>
				<time>2019-06-08T07:33:11Z</time>
				<speed>17.630545</speed>
			</trkpt>
			<trkpt lat="24.3156209" lon="120.6049479">
				<ele>80.700000</ele>
				<time>2019-06-08T07:33:12Z</time>
				<speed>17.538469</speed>
			</trkpt>
			<trkpt lat="24.3157756" lon="120.6049967">
				<ele>81.000000</ele>
				<time>2019-06-08T07:33:13Z</time>
				<speed>17.630031</speed>
			</trkpt>
			<trkpt lat="24.3159302" lon="120.6050456">
				<ele>81.100000</ele>
				<time>2019-06-08T07:33:14Z</time>
				<speed>17.722109</speed>
			</trkpt>
			<trkpt lat="24.3160807" lon="120.6050781">
				<ele>81.100000</ele>
				<time>2019-06-08T07:33:15Z</time>
				<speed>17.683014</speed>
			</trkpt>
			<trkpt lat="24.3162354" lon="120.6051270">
				<ele>81.400000</ele>
				<time>2019-06-08T07:33:16Z</time>
				<speed>17.862025</speed>
			</trkpt>
			<trkpt lat="24.3163940" lon="120.6051758">
				<ele>81.600000</ele>
				<time>2019-06-08T07:33:17Z</time>
				<speed>17.885688</speed>
			</trkpt>
			<trkpt lat="24.3165487" lon="120.6052246">
				<ele>81.600000</ele>
				<time>2019-06-08T07:33:18Z</time>
				<speed>17.903692</speed>
			</trkpt>
			<trkpt lat="24.3167074" lon="120.6052734">
				<ele>81.600000</ele>
				<time>2019-06-08T07:33:19Z</time>
				<speed>18.109967</speed>
			</trkpt>
			<trkpt lat="24.3168660" lon="120.6053223">
				<ele>81.500000</ele>
				<time>2019-06-08T07:33:20Z</time>
				<speed>18.229307</speed>
			</trkpt>
			<trkpt lat="24.3170207" lon="120.6053711">
				<ele>81.500000</ele>
				<time>2019-06-08T07:33:21Z</time>
				<speed>18.275089</speed>
			</trkpt>
			<trkpt lat="24.3171794" lon="120.6054199">
				<ele>81.400000</ele>
				<time>2019-06-08T07:33:22Z</time>
				<speed>18.327558</speed>
			</trkpt>
			<trkpt lat="24.3173421" lon="120.6054688">
				<ele>81.200000</ele>
				<time>2019-06-08T07:33:23Z</time>
				<speed>18.430953</speed>
			</trkpt>
			<trkpt lat="24.3175008" lon="120.6055176">
				<ele>80.800000</ele>
				<time>2019-06-08T07:33:24Z</time>
				<speed>18.395459</speed>
			</trkpt>
			<trkpt lat="24.3176636" lon="120.6055664">
				<ele>80.500000</ele>
				<time>2019-06-08T07:33:25Z</time>
				<speed>18.565724</speed>
			</trkpt>
			<trkpt lat="24.3178223" lon="120.6056152">
				<ele>80.300000</ele>
				<time>2019-06-08T07:33:26Z</time>
				<speed>18.425294</speed>
			</trkpt>
			<trkpt lat="24.3179850" lon="120.6056641">
				<ele>80.200000</ele>
				<time>2019-06-08T07:33:27Z</time>
				<speed>18.342476</speed>
			</trkpt>
			<trkpt lat="24.3181437" lon="120.6057129">
				<ele>80.300000</ele>
				<time>2019-06-08T07:33:28Z</time>
				<speed>18.165007</speed>
			</trkpt>
			<trkpt lat="24.3182983" lon="120.6057617">
				<ele>80.100000</ele>
				<time>2019-06-08T07:33:29Z</time>
				<speed>17.859455</speed>
			</trkpt>
			<trkpt lat="24.3184530" lon="120.6058105">
				<ele>79.900000</ele>
				<time>2019-06-08T07:33:30Z</time>
				<speed>17.882087</speed>
			</trkpt>
			<trkpt lat="24.3186117" lon="120.6058594">
				<ele>79.600000</ele>
				<time>2019-06-08T07:33:31Z</time>
				<speed>17.942273</speed>
			</trkpt>
			<trkpt lat="24.3187663" lon="120.6059082">
				<ele>79.800000</ele>
				<time>2019-06-08T07:33:32Z</time>
				<speed>17.633117</speed>
			</trkpt>
			<trkpt lat="24.3189209" lon="120.6059408">
				<ele>79.800000</ele>
				<time>2019-06-08T07:33:33Z</time>
				<speed>17.637232</speed>
			</trkpt>
			<trkpt lat="24.3190715" lon="120.6059896">
				<ele>79.800000</ele>
				<time>2019-06-08T07:33:34Z</time>
				<speed>17.428901</speed>
			</trkpt>
			<trkpt lat="24.3192261" lon="120.6060384">
				<ele>80.000000</ele>
				<time>2019-06-08T07:33:35Z</time>
				<speed>17.397522</speed>
			</trkpt>
			<trkpt lat="24.3193766" lon="120.6060872">
				<ele>80.200000</ele>
				<time>2019-06-08T07:33:36Z</time>
				<speed>17.289498</speed>
			</trkpt>
			<trkpt lat="24.3193766" lon="120.6060872">
				<ele>80.200000</ele>
				<time>2019-06-08T07:33:36Z</time>
				<speed>17.289498</speed>
			</trkpt>
		</trkseg>
	</trk>
</gpx>