<?xml version='1.0' encoding='utf-8'?>
<gpx xmlns="http://www.topografix.com/GPX/1/1" xmlns:xsi="http://www.w3.org/2001/XMLSchema-instance" creator="Astro Gemini" version="1.0" xsi:schemaLocation="http://www.topografix.com/GPX/1/0 http://www.topografix.com/GPX/1/0/gpx.xsd">
	<trk>
		<name>FRON0663</name>
		<trkseg>
			<trkpt lat="24.3090129" lon="120.6032878">
				<ele>57.000000</ele>
				<time>2019-06-08T09:08:41Z</time>
				<speed>13.685098</speed>
			</trkpt>
			<trkpt lat="24.3091309" lon="120.6033366">
				<ele>56.900000</ele>
				<time>2019-06-08T09:08:42Z</time>
				<speed>13.877998</speed>
			</trkpt>
			<trkpt lat="24.3091309" lon="120.6033366">
				<ele>56.600000</ele>
				<time>2019-06-08T09:08:42Z</time>
				<speed>13.877998</speed>
			</trkpt>
			<trkpt lat="24.3093587" lon="120.6034505">
				<ele>56.800000</ele>
				<time>2019-06-08T09:08:44Z</time>
				<speed>13.987565</speed>
			</trkpt>
			<trkpt lat="24.3094808" lon="120.6034993">
				<ele>57.200000</ele>
				<time>2019-06-08T09:08:45Z</time>
				<speed>14.173263</speed>
			</trkpt>
			<trkpt lat="24.3096029" lon="120.6035482">
				<ele>57.100000</ele>
				<time>2019-06-08T09:08:46Z</time>
				<speed>14.325011</speed>
			</trkpt>
			<trkpt lat="24.3097249" lon="120.6035970">
				<ele>57.300000</ele>
				<time>2019-06-08T09:08:47Z</time>
				<speed>14.675317</speed>
			</trkpt>
			<trkpt lat="24.3098511" lon="120.6036621">
				<ele>57.400000</ele>
				<time>2019-06-08T09:08:48Z</time>
				<speed>14.910913</speed>
			</trkpt>
			<trkpt lat="24.3099731" lon="120.6037272">
				<ele>57.400000</ele>
				<time>2019-06-08T09:08:49Z</time>
				<speed>14.893423</speed>
			</trkpt>
			<trkpt lat="24.3100993" lon="120.6037923">
				<ele>57.700000</ele>
				<time>2019-06-08T09:08:50Z</time>
				<speed>14.971612</speed>
			</trkpt>
			<trkpt lat="24.3102254" lon="120.6038411">
				<ele>58.000000</ele>
				<time>2019-06-08T09:08:51Z</time>
				<speed>15.024595</speed>
			</trkpt>
			<trkpt lat="24.3103516" lon="120.6038900">
				<ele>58.500000</ele>
				<time>2019-06-08T09:08:52Z</time>
				<speed>15.029739</speed>
			</trkpt>
			<trkpt lat="24.3104777" lon="120.6039388">
				<ele>58.400000</ele>
				<time>2019-06-08T09:08:53Z</time>
				<speed>14.962867</speed>
			</trkpt>
			<trkpt lat="24.3106079" lon="120.6040039">
				<ele>58.800000</ele>
				<time>2019-06-08T09:08:54Z</time>
				<speed>15.245787</speed>
			</trkpt>
			<trkpt lat="24.3107381" lon="120.6040527">
				<ele>59.400000</ele>
				<time>2019-06-08T09:08:55Z</time>
				<speed>15.281281</speed>
			</trkpt>
			<trkpt lat="24.3108643" lon="120.6041016">
				<ele>59.800000</ele>
				<time>2019-06-08T09:08:56Z</time>
				<speed>15.305972</speed>
			</trkpt>
			<trkpt lat="24.3109904" lon="120.6041667">
				<ele>60.500000</ele>
				<time>2019-06-08T09:08:57Z</time>
				<speed>15.386733</speed>
			</trkpt>
			<trkpt lat="24.3111206" lon="120.6042155">
				<ele>61.200000</ele>
				<time>2019-06-08T09:08:58Z</time>
				<speed>15.408338</speed>
			</trkpt>
			<trkpt lat="24.3112467" lon="120.6042806">
				<ele>61.600000</ele>
				<time>2019-06-08T09:08:59Z</time>
				<speed>15.513276</speed>
			</trkpt>
			<trkpt lat="24.3113729" lon="120.6043294">
				<ele>61.800000</ele>
				<time>2019-06-08T09:09:00Z</time>
				<speed>15.272021</speed>
			</trkpt>
			<trkpt lat="24.3114990" lon="120.6043945">
				<ele>62.300000</ele>
				<time>2019-06-08T09:09:01Z</time>
				<speed>15.176857</speed>
			</trkpt>
			<trkpt lat="24.3116252" lon="120.6044434">
				<ele>62.700000</ele>
				<time>2019-06-08T09:09:02Z</time>
				<speed>15.084265</speed>
			</trkpt>
			<trkpt lat="24.3117513" lon="120.6044922">
				<ele>62.900000</ele>
				<time>2019-06-08T09:09:03Z</time>
				<speed>14.658857</speed>
			</trkpt>
			<trkpt lat="24.3118734" lon="120.6045573">
				<ele>63.200000</ele>
				<time>2019-06-08T09:09:04Z</time>
				<speed>14.755050</speed>
			</trkpt>
			<trkpt lat="24.3119914" lon="120.6046061">
				<ele>63.500000</ele>
				<time>2019-06-08T09:09:05Z</time>
				<speed>14.635195</speed>
			</trkpt>
			<trkpt lat="24.3121012" lon="120.6046712">
				<ele>63.700000</ele>
				<time>2019-06-08T09:09:06Z</time>
				<speed>13.686127</speed>
			</trkpt>
			<trkpt lat="24.3122030" lon="120.6047363">
				<ele>64.200000</ele>
				<time>2019-06-08T09:09:07Z</time>
				<speed>12.790042</speed>
			</trkpt>
			<trkpt lat="24.3123006" lon="120.6047689">
				<ele>64.300000</ele>
				<time>2019-06-08T09:09:08Z</time>
				<speed>11.792105</speed>
			</trkpt>
			<trkpt lat="24.3123861" lon="120.6048177">
				<ele>64.500000</ele>
				<time>2019-06-08T09:09:09Z</time>
				<speed>10.710837</speed>
			</trkpt>
			<trkpt lat="24.3124756" lon="120.6048340">
				<ele>64.400000</ele>
				<time>2019-06-08T09:09:10Z</time>
				<speed>10.493760</speed>
			</trkpt>
			<trkpt lat="24.3125448" lon="120.6048340">
				<ele>64.400000</ele>
				<time>2019-06-08T09:09:11Z</time>
				<speed>8.266408</speed>
			</trkpt>
			<trkpt lat="24.3126058" lon="120.6047526">
				<ele>65.700000</ele>
				<time>2019-06-08T09:09:12Z</time>
				<speed>7.707770</speed>
			</trkpt>
			<trkpt lat="24.3126587" lon="120.6046875">
				<ele>65.400000</ele>
				<time>2019-06-08T09:09:13Z</time>
				<speed>8.356428</speed>
			</trkpt>
			<trkpt lat="24.3127157" lon="120.6046224">
				<ele>64.400000</ele>
				<time>2019-06-08T09:09:14Z</time>
				<speed>8.870828</speed>
			</trkpt>
			<trkpt lat="24.3127604" lon="120.6045573">
				<ele>63.700000</ele>
				<time>2019-06-08T09:09:15Z</time>
				<speed>8.766919</speed>
			</trkpt>
			<trkpt lat="24.3127970" lon="120.6044922">
				<ele>62.800000</ele>
				<time>2019-06-08T09:09:16Z</time>
				<speed>8.527723</speed>
			</trkpt>
			<trkpt lat="24.3128418" lon="120.6044271">
				<ele>61.900000</ele>
				<time>2019-06-08T09:09:17Z</time>
				<speed>8.256120</speed>
			</trkpt>
			<trkpt lat="24.3128866" lon="120.6044108">
				<ele>61.600000</ele>
				<time>2019-06-08T09:09:18Z</time>
				<speed>7.250468</speed>
			</trkpt>
			<trkpt lat="24.3129476" lon="120.6043945">
				<ele>61.600000</ele>
				<time>2019-06-08T09:09:19Z</time>
				<speed>7.266415</speed>
			</trkpt>
			<trkpt lat="24.3130208" lon="120.6043945">
				<ele>61.900000</ele>
				<time>2019-06-08T09:09:20Z</time>
				<speed>7.567853</speed>
			</trkpt>
			<trkpt lat="24.3130981" lon="120.6044271">
				<ele>61.800000</ele>
				<time>2019-06-08T09:09:21Z</time>
				<speed>8.253034</speed>
			</trkpt>
			<trkpt lat="24.3131755" lon="120.6044434">
				<ele>61.500000</ele>
				<time>2019-06-08T09:09:22Z</time>
				<speed>8.665583</speed>
			</trkpt>
			<trkpt lat="24.3132650" lon="120.6044596">
				<ele>61.200000</ele>
				<time>2019-06-08T09:09:23Z</time>
				<speed>9.346134</speed>
			</trkpt>
			<trkpt lat="24.3133626" lon="120.6044759">
				<ele>61.100000</ele>
				<time>2019-06-08T09:09:24Z</time>
				<speed>10.062179</speed>
			</trkpt>
			<trkpt lat="24.3134562" lon="120.6045085">
				<ele>61.000000</ele>
				<time>2019-06-08T09:09:25Z</time>
				<speed>10.556516</speed>
			</trkpt>
			<trkpt lat="24.3135457" lon="120.6045247">
				<ele>60.600000</ele>
				<time>2019-06-08T09:09:26Z</time>
				<speed>10.195922</speed>
			</trkpt>
			<trkpt lat="24.3136271" lon="120.6045573">
				<ele>60.600000</ele>
				<time>2019-06-08T09:09:27Z</time>
				<speed>9.427923</speed>
			</trkpt>
			<trkpt lat="24.3136963" lon="120.6045898">
				<ele>60.500000</ele>
				<time>2019-06-08T09:09:28Z</time>
				<speed>8.228857</speed>
			</trkpt>
			<trkpt lat="24.3137329" lon="120.6046224">
				<ele>59.500000</ele>
				<time>2019-06-08T09:09:29Z</time>
				<speed>6.440288</speed>
			</trkpt>
			<trkpt lat="24.3137614" lon="120.6046712">
				<ele>62.700000</ele>
				<time>2019-06-08T09:09:30Z</time>
				<speed>6.127019</speed>
			</trkpt>
			<trkpt lat="24.3137899" lon="120.6047201">
				<ele>63.000000</ele>
				<time>2019-06-08T09:09:31Z</time>
				<speed>5.272600</speed>
			</trkpt>
			<trkpt lat="24.3137980" lon="120.6047689">
				<ele>62.800000</ele>
				<time>2019-06-08T09:09:32Z</time>
				<speed>5.187724</speed>
			</trkpt>
			<trkpt lat="24.3137980" lon="120.6048340">
				<ele>62.700000</ele>
				<time>2019-06-08T09:09:33Z</time>
				<speed>5.665602</speed>
			</trkpt>
			<trkpt lat="24.3137939" lon="120.6049154">
				<ele>62.500000</ele>
				<time>2019-06-08T09:09:34Z</time>
				<speed>6.691315</speed>
			</trkpt>
			<trkpt lat="24.3137858" lon="120.6050130">
				<ele>63.400000</ele>
				<time>2019-06-08T09:09:35Z</time>
				<speed>7.879065</speed>
			</trkpt>
			<trkpt lat="24.3137573" lon="120.6051758">
				<ele>62.600000</ele>
				<time>2019-06-08T09:09:37Z</time>
				<speed>8.329680</speed>
			</trkpt>
			<trkpt lat="24.3137410" lon="120.6052734">
				<ele>62.300000</ele>
				<time>2019-06-08T09:09:38Z</time>
				<speed>8.800869</speed>
			</trkpt>
			<trkpt lat="24.3137248" lon="120.6053711">
				<ele>61.900000</ele>
				<time>2019-06-08T09:09:39Z</time>
				<speed>9.543663</speed>
			</trkpt>
			<trkpt lat="24.3137044" lon="120.6054688">
				<ele>62.000000</ele>
				<time>2019-06-08T09:09:40Z</time>
				<speed>9.864649</speed>
			</trkpt>
			<trkpt lat="24.3136882" lon="120.6055827">
				<ele>61.900000</ele>
				<time>2019-06-08T09:09:41Z</time>
				<speed>10.339440</speed>
			</trkpt>
			<trkpt lat="24.3136759" lon="120.6056803">
				<ele>61.300000</ele>
				<time>2019-06-08T09:09:42Z</time>
				<speed>10.591496</speed>
			</trkpt>
			<trkpt lat="24.3136556" lon="120.6057943">
				<ele>61.400000</ele>
				<time>2019-06-08T09:09:43Z</time>
				<speed>10.723183</speed>
			</trkpt>
			<trkpt lat="24.3136434" lon="120.6059082">
				<ele>61.500000</ele>
				<time>2019-06-08T09:09:44Z</time>
				<speed>10.785424</speed>
			</trkpt>
			<trkpt lat="24.3136230" lon="120.6060221">
				<ele>61.600000</ele>
				<time>2019-06-08T09:09:45Z</time>
				<speed>11.291080</speed>
			</trkpt>
			<trkpt lat="24.3135986" lon="120.6061361">
				<ele>61.800000</ele>
				<time>2019-06-08T09:09:46Z</time>
				<speed>11.679966</speed>
			</trkpt>
			<trkpt lat="24.3135742" lon="120.6062500">
				<ele>61.900000</ele>
				<time>2019-06-08T09:09:47Z</time>
				<speed>11.810109</speed>
			</trkpt>
			<trkpt lat="24.3135498" lon="120.6063802">
				<ele>61.800000</ele>
				<time>2019-06-08T09:09:48Z</time>
				<speed>12.299818</speed>
			</trkpt>
			<trkpt lat="24.3135254" lon="120.6064941">
				<ele>62.300000</ele>
				<time>2019-06-08T09:09:49Z</time>
				<speed>12.397554</speed>
			</trkpt>
			<trkpt lat="24.3135010" lon="120.6066243">
				<ele>62.000000</ele>
				<time>2019-06-08T09:09:50Z</time>
				<speed>12.777182</speed>
			</trkpt>
			<trkpt lat="24.3134766" lon="120.6067546">
				<ele>62.300000</ele>
				<time>2019-06-08T09:09:51Z</time>
				<speed>12.956193</speed>
			</trkpt>
			<trkpt lat="24.3134399" lon="120.6068848">
				<ele>62.400000</ele>
				<time>2019-06-08T09:09:52Z</time>
				<speed>13.311643</speed>
			</trkpt>
			<trkpt lat="24.3134237" lon="120.6070150">
				<ele>62.200000</ele>
				<time>2019-06-08T09:09:53Z</time>
				<speed>13.498885</speed>
			</trkpt>
			<trkpt lat="24.3134074" lon="120.6071615">
				<ele>62.200000</ele>
				<time>2019-06-08T09:09:54Z</time>
				<speed>13.566786</speed>
			</trkpt>
			<trkpt lat="24.3133870" lon="120.6072917">
				<ele>62.200000</ele>
				<time>2019-06-08T09:09:55Z</time>
				<speed>13.637258</speed>
			</trkpt>
			<trkpt lat="24.3133708" lon="120.6074382">
				<ele>62.000000</ele>
				<time>2019-06-08T09:09:56Z</time>
				<speed>14.074498</speed>
			</trkpt>
			<trkpt lat="24.3133382" lon="120.6075846">
				<ele>62.500000</ele>
				<time>2019-06-08T09:09:57Z</time>
				<speed>14.428405</speed>
			</trkpt>
			<trkpt lat="24.3133179" lon="120.6077311">
				<ele>62.700000</ele>
				<time>2019-06-08T09:09:58Z</time>
				<speed>14.682519</speed>
			</trkpt>
			<trkpt lat="24.3132975" lon="120.6078776">
				<ele>62.300000</ele>
				<time>2019-06-08T09:09:59Z</time>
				<speed>14.935604</speed>
			</trkpt>
			<trkpt lat="24.3132690" lon="120.6080241">
				<ele>62.300000</ele>
				<time>2019-06-08T09:10:00Z</time>
				<speed>14.982414</speed>
			</trkpt>
			<trkpt lat="24.3132446" lon="120.6081706">
				<ele>62.500000</ele>
				<time>2019-06-08T09:10:01Z</time>
				<speed>15.147022</speed>
			</trkpt>
			<trkpt lat="24.3132324" lon="120.6083171">
				<ele>63.100000</ele>
				<time>2019-06-08T09:10:02Z</time>
				<speed>15.232413</speed>
			</trkpt>
			<trkpt lat="24.3132080" lon="120.6084635">
				<ele>62.900000</ele>
				<time>2019-06-08T09:10:03Z</time>
				<speed>15.471095</speed>
			</trkpt>
			<trkpt lat="24.3131958" lon="120.6086263">
				<ele>63.000000</ele>
				<time>2019-06-08T09:10:04Z</time>
				<speed>15.572432</speed>
			</trkpt>
			<trkpt lat="24.3131714" lon="120.6087728">
				<ele>62.900000</ele>
				<time>2019-06-08T09:10:05Z</time>
				<speed>15.787965</speed>
			</trkpt>
			<trkpt lat="24.3131510" lon="120.6089355">
				<ele>62.700000</ele>
				<time>2019-06-08T09:10:06Z</time>
				<speed>15.940228</speed>
			</trkpt>
			<trkpt lat="24.3131266" lon="120.6090983">
				<ele>63.000000</ele>
				<time>2019-06-08T09:10:07Z</time>
				<speed>16.017387</speed>
			</trkpt>
			<trkpt lat="24.3130981" lon="120.6092448">
				<ele>63.200000</ele>
				<time>2019-06-08T09:10:08Z</time>
				<speed>16.043107</speed>
			</trkpt>
			<trkpt lat="24.3130697" lon="120.6094076">
				<ele>63.500000</ele>
				<time>2019-06-08T09:10:09Z</time>
				<speed>16.036935</speed>
			</trkpt>
			<trkpt lat="24.3130493" lon="120.6095540">
				<ele>63.500000</ele>
				<time>2019-06-08T09:10:10Z</time>
				<speed>16.104320</speed>
			</trkpt>
			<trkpt lat="24.3130249" lon="120.6097168">
				<ele>63.800000</ele>
				<time>2019-06-08T09:10:11Z</time>
				<speed>16.036935</speed>
			</trkpt>
			<trkpt lat="24.3129964" lon="120.6098633">
				<ele>63.900000</ele>
				<time>2019-06-08T09:10:12Z</time>
				<speed>16.163477</speed>
			</trkpt>
			<trkpt lat="24.3129801" lon="120.6100260">
				<ele>64.200000</ele>
				<time>2019-06-08T09:10:13Z</time>
				<speed>16.351233</speed>
			</trkpt>
			<trkpt lat="24.3129517" lon="120.6101888">
				<ele>64.500000</ele>
				<time>2019-06-08T09:10:14Z</time>
				<speed>16.326028</speed>
			</trkpt>
			<trkpt lat="24.3129313" lon="120.6103353">
				<ele>64.600000</ele>
				<time>2019-06-08T09:10:15Z</time>
				<speed>16.383126</speed>
			</trkpt>
			<trkpt lat="24.3129110" lon="120.6104980">
				<ele>64.900000</ele>
				<time>2019-06-08T09:10:16Z</time>
				<speed>16.412446</speed>
			</trkpt>
			<trkpt lat="24.3128906" lon="120.6106608">
				<ele>65.000000</ele>
				<time>2019-06-08T09:10:17Z</time>
				<speed>16.441253</speed>
			</trkpt>
			<trkpt lat="24.3128621" lon="120.6108236">
				<ele>65.000000</ele>
				<time>2019-06-08T09:10:18Z</time>
				<speed>16.545162</speed>
			</trkpt>
			<trkpt lat="24.3128377" lon="120.6109863">
				<ele>65.000000</ele>
				<time>2019-06-08T09:10:19Z</time>
				<speed>16.643926</speed>
			</trkpt>
			<trkpt lat="24.3128133" lon="120.6111491">
				<ele>64.900000</ele>
				<time>2019-06-08T09:10:20Z</time>
				<speed>16.588886</speed>
			</trkpt>
			<trkpt lat="24.3127848" lon="120.6113118">
				<ele>65.000000</ele>
				<time>2019-06-08T09:10:21Z</time>
				<speed>16.664502</speed>
			</trkpt>
			<trkpt lat="24.3127482" lon="120.6114746">
				<ele>65.300000</ele>
				<time>2019-06-08T09:10:22Z</time>
				<speed>16.554935</speed>
			</trkpt>
			<trkpt lat="24.3127238" lon="120.6116211">
				<ele>65.600000</ele>
				<time>2019-06-08T09:10:23Z</time>
				<speed>16.492179</speed>
			</trkpt>
			<trkpt lat="24.3126953" lon="120.6117839">
				<ele>66.000000</ele>
				<time>2019-06-08T09:10:24Z</time>
				<speed>16.454628</speed>
			</trkpt>
			<trkpt lat="24.3126750" lon="120.6119466">
				<ele>66.300000</ele>
				<time>2019-06-08T09:10:25Z</time>
				<speed>16.533844</speed>
			</trkpt>
			<trkpt lat="24.3126506" lon="120.6121094">
				<ele>66.800000</ele>
				<time>2019-06-08T09:10:26Z</time>
				<speed>16.511211</speed>
			</trkpt>
			<trkpt lat="24.3126302" lon="120.6122721">
				<ele>66.800000</ele>
				<time>2019-06-08T09:10:27Z</time>
				<speed>16.603803</speed>
			</trkpt>
			<trkpt lat="24.3126017" lon="120.6124349">
				<ele>67.000000</ele>
				<time>2019-06-08T09:10:28Z</time>
				<speed>16.701024</speed>
			</trkpt>
			<trkpt lat="24.3125732" lon="120.6125814">
				<ele>67.100000</ele>
				<time>2019-06-08T09:10:29Z</time>
				<speed>16.584771</speed>
			</trkpt>
			<trkpt lat="24.3125448" lon="120.6127441">
				<ele>66.900000</ele>
				<time>2019-06-08T09:10:30Z</time>
				<speed>16.680448</speed>
			</trkpt>
			<trkpt lat="24.3125122" lon="120.6129069">
				<ele>66.900000</ele>
				<time>2019-06-08T09:10:31Z</time>
				<speed>16.638269</speed>
			</trkpt>
			<trkpt lat="24.3124878" lon="120.6130697">
				<ele>66.900000</ele>
				<time>2019-06-08T09:10:32Z</time>
				<speed>16.670676</speed>
			</trkpt>
			<trkpt lat="24.3124634" lon="120.6132324">
				<ele>67.000000</ele>
				<time>2019-06-08T09:10:33Z</time>
				<speed>16.653186</speed>
			</trkpt>
			<trkpt lat="24.3124430" lon="120.6133952">
				<ele>66.800000</ele>
				<time>2019-06-08T09:10:34Z</time>
				<speed>16.693309</speed>
			</trkpt>
			<trkpt lat="24.3124227" lon="120.6135579">
				<ele>66.800000</ele>
				<time>2019-06-08T09:10:35Z</time>
				<speed>16.672732</speed>
			</trkpt>
			<trkpt lat="24.3124064" lon="120.6137207">
				<ele>67.200000</ele>
				<time>2019-06-08T09:10:36Z</time>
				<speed>16.591458</speed>
			</trkpt>
			<trkpt lat="24.3123901" lon="120.6138835">
				<ele>67.300000</ele>
				<time>2019-06-08T09:10:37Z</time>
				<speed>16.609462</speed>
			</trkpt>
			<trkpt lat="24.3123698" lon="120.6140462">
				<ele>67.700000</ele>
				<time>2019-06-08T09:10:38Z</time>
				<speed>16.599688</speed>
			</trkpt>
			<trkpt lat="24.3123454" lon="120.6142090">
				<ele>67.400000</ele>
				<time>2019-06-08T09:10:39Z</time>
				<speed>16.735490</speed>
			</trkpt>
			<trkpt lat="24.3123169" lon="120.6143717">
				<ele>67.600000</ele>
				<time>2019-06-08T09:10:40Z</time>
				<speed>16.660387</speed>
			</trkpt>
			<trkpt lat="24.3122925" lon="120.6145345">
				<ele>67.700000</ele>
				<time>2019-06-08T09:10:41Z</time>
				<speed>16.731889</speed>
			</trkpt>
			<trkpt lat="24.3122884" lon="120.6146973">
				<ele>68.100000</ele>
				<time>2019-06-08T09:10:42Z</time>
				<speed>16.809564</speed>
			</trkpt>
			<trkpt lat="24.3122599" lon="120.6148600">
				<ele>68.100000</ele>
				<time>2019-06-08T09:10:43Z</time>
				<speed>16.891354</speed>
			</trkpt>
			<trkpt lat="24.3122437" lon="120.6150391">
				<ele>67.900000</ele>
				<time>2019-06-08T09:10:44Z</time>
				<speed>16.963884</speed>
			</trkpt>
			<trkpt lat="24.3122192" lon="120.6152018">
				<ele>68.000000</ele>
				<time>2019-06-08T09:10:45Z</time>
				<speed>16.948966</speed>
			</trkpt>
			<trkpt lat="24.3121908" lon="120.6153646">
				<ele>68.100000</ele>
				<time>2019-06-08T09:10:46Z</time>
				<speed>16.891354</speed>
			</trkpt>
			<trkpt lat="24.3121582" lon="120.6155273">
				<ele>68.300000</ele>
				<time>2019-06-08T09:10:47Z</time>
				<speed>16.837856</speed>
			</trkpt>
			<trkpt lat="24.3121175" lon="120.6156738">
				<ele>68.200000</ele>
				<time>2019-06-08T09:10:48Z</time>
				<speed>16.666561</speed>
			</trkpt>
			<trkpt lat="24.3120687" lon="120.6158366">
				<ele>68.200000</ele>
				<time>2019-06-08T09:10:49Z</time>
				<speed>16.557507</speed>
			</trkpt>
			<trkpt lat="24.3120199" lon="120.6159831">
				<ele>68.300000</ele>
				<time>2019-06-08T09:10:50Z</time>
				<speed>16.669645</speed>
			</trkpt>
			<trkpt lat="24.3119710" lon="120.6161458">
				<ele>68.600000</ele>
				<time>2019-06-08T09:10:51Z</time>
				<speed>16.882094</speed>
			</trkpt>
			<trkpt lat="24.3119222" lon="120.6162923">
				<ele>69.200000</ele>
				<time>2019-06-08T09:10:52Z</time>
				<speed>16.778699</speed>
			</trkpt>
			<trkpt lat="24.3118652" lon="120.6164388">
				<ele>69.600000</ele>
				<time>2019-06-08T09:10:53Z</time>
				<speed>16.801332</speed>
			</trkpt>
			<trkpt lat="24.3118123" lon="120.6166016">
				<ele>69.900000</ele>
				<time>2019-06-08T09:10:54Z</time>
				<speed>16.731375</speed>
			</trkpt>
			<trkpt lat="24.3117472" lon="120.6167318">
				<ele>70.100000</ele>
				<time>2019-06-08T09:10:55Z</time>
				<speed>16.562136</speed>
			</trkpt>
			<trkpt lat="24.3116903" lon="120.6168945">
				<ele>70.500000</ele>
				<time>2019-06-08T09:10:56Z</time>
				<speed>16.551334</speed>
			</trkpt>
			<trkpt lat="24.3116333" lon="120.6170247">
				<ele>71.000000</ele>
				<time>2019-06-08T09:10:57Z</time>
				<speed>16.290534</speed>
			</trkpt>
			<trkpt lat="24.3115763" lon="120.6171712">
				<ele>71.400000</ele>
				<time>2019-06-08T09:10:58Z</time>
				<speed>16.198970</speed>
			</trkpt>
			<trkpt lat="24.3115153" lon="120.6173177">
				<ele>71.500000</ele>
				<time>2019-06-08T09:10:59Z</time>
				<speed>16.386727</speed>
			</trkpt>
			<trkpt lat="24.3114502" lon="120.6174642">
				<ele>71.700000</ele>
				<time>2019-06-08T09:11:00Z</time>
				<speed>16.288476</speed>
			</trkpt>
			<trkpt lat="24.3113810" lon="120.6175944">
				<ele>71.900000</ele>
				<time>2019-06-08T09:11:01Z</time>
				<speed>16.204114</speed>
			</trkpt>
			<trkpt lat="24.3112996" lon="120.6177246">
				<ele>72.400000</ele>
				<time>2019-06-08T09:11:02Z</time>
				<speed>16.108436</speed>
			</trkpt>
			<trkpt lat="24.3111816" lon="120.6178385">
				<ele>72.900000</ele>
				<time>2019-06-08T09:11:03Z</time>
				<speed>15.954116</speed>
			</trkpt>
			<trkpt lat="24.3110596" lon="120.6179525">
				<ele>73.300000</ele>
				<time>2019-06-08T09:11:04Z</time>
				<speed>16.050309</speed>
			</trkpt>
			<trkpt lat="24.3109456" lon="120.6180827">
				<ele>73.500000</ele>
				<time>2019-06-08T09:11:05Z</time>
				<speed>16.320884</speed>
			</trkpt>
			<trkpt lat="24.3108480" lon="120.6182129">
				<ele>73.700000</ele>
				<time>2019-06-08T09:11:06Z</time>
				<speed>16.281274</speed>
			</trkpt>
			<trkpt lat="24.3107422" lon="120.6183268">
				<ele>74.200000</ele>
				<time>2019-06-08T09:11:07Z</time>
				<speed>16.330657</speed>
			</trkpt>
			<trkpt lat="24.3106405" lon="120.6184408">
				<ele>74.300000</ele>
				<time>2019-06-08T09:11:08Z</time>
				<speed>16.352776</speed>
			</trkpt>
			<trkpt lat="24.3105387" lon="120.6185710">
				<ele>74.300000</ele>
				<time>2019-06-08T09:11:09Z</time>
				<speed>16.500409</speed>
			</trkpt>
			<trkpt lat="24.3104451" lon="120.6187012">
				<ele>74.400000</ele>
				<time>2019-06-08T09:11:10Z</time>
				<speed>16.446397</speed>
			</trkpt>
			<trkpt lat="24.3103475" lon="120.6188151">
				<ele>74.900000</ele>
				<time>2019-06-08T09:11:11Z</time>
				<speed>16.354834</speed>
			</trkpt>
			<trkpt lat="24.3102498" lon="120.6189453">
				<ele>75.000000</ele>
				<time>2019-06-08T09:11:12Z</time>
				<speed>16.366665</speed>
			</trkpt>
			<trkpt lat="24.3101522" lon="120.6190592">
				<ele>75.300000</ele>
				<time>2019-06-08T09:11:13Z</time>
				<speed>16.422220</speed>
			</trkpt>
			<trkpt lat="24.3100545" lon="120.6191895">
				<ele>75.500000</ele>
				<time>2019-06-08T09:11:14Z</time>
				<speed>16.394957</speed>
			</trkpt>
			<trkpt lat="24.3099528" lon="120.6193197">
				<ele>75.700000</ele>
				<time>2019-06-08T09:11:15Z</time>
				<speed>16.431994</speed>
			</trkpt>
			<trkpt lat="24.3098551" lon="120.6194336">
				<ele>75.900000</ele>
				<time>2019-06-08T09:11:16Z</time>
				<speed>16.383126</speed>
			</trkpt>
			<trkpt lat="24.3097575" lon="120.6195638">
				<ele>76.000000</ele>
				<time>2019-06-08T09:11:17Z</time>
				<speed>16.217489</speed>
			</trkpt>
			<trkpt lat="24.3096598" lon="120.6196777">
				<ele>76.000000</ele>
				<time>2019-06-08T09:11:18Z</time>
				<speed>16.260184</speed>
			</trkpt>
			<trkpt lat="24.3095581" lon="120.6197917">
				<ele>76.200000</ele>
				<time>2019-06-08T09:11:19Z</time>
				<speed>16.215946</speed>
			</trkpt>
			<trkpt lat="24.3094686" lon="120.6199219">
				<ele>76.800000</ele>
				<time>2019-06-08T09:11:20Z</time>
				<speed>16.272015</speed>
			</trkpt>
			<trkpt lat="24.3093791" lon="120.6200358">
				<ele>77.200000</ele>
				<time>2019-06-08T09:11:21Z</time>
				<speed>16.297220</speed>
			</trkpt>
			<trkpt lat="24.3092936" lon="120.6201660">
				<ele>78.300000</ele>
				<time>2019-06-08T09:11:22Z</time>
				<speed>16.208230</speed>
			</trkpt>
			<trkpt lat="24.3092122" lon="120.6202962">
				<ele>79.100000</ele>
				<time>2019-06-08T09:11:23Z</time>
				<speed>16.259155</speed>
			</trkpt>
			<trkpt lat="24.3091187" lon="120.6204102">
				<ele>79.300000</ele>
				<time>2019-06-08T09:11:24Z</time>
				<speed>16.277673</speed>
			</trkpt>
			<trkpt lat="24.3090210" lon="120.6205404">
				<ele>79.500000</ele>
				<time>2019-06-08T09:11:25Z</time>
				<speed>16.246809</speed>
			</trkpt>
			<trkpt lat="24.3089233" lon="120.6206543">
				<ele>79.600000</ele>
				<time>2019-06-08T09:11:26Z</time>
				<speed>16.240122</speed>
			</trkpt>
			<trkpt lat="24.3088379" lon="120.6207845">
				<ele>80.400000</ele>
				<time>2019-06-08T09:11:27Z</time>
				<speed>16.108436</speed>
			</trkpt>
			<trkpt lat="24.3087524" lon="120.6208984">
				<ele>81.200000</ele>
				<time>2019-06-08T09:11:28Z</time>
				<speed>16.050309</speed>
			</trkpt>
			<trkpt lat="24.3086629" lon="120.6210286">
				<ele>81.600000</ele>
				<time>2019-06-08T09:11:29Z</time>
				<speed>16.088374</speed>
			</trkpt>
			<trkpt lat="24.3085612" lon="120.6211589">
				<ele>81.500000</ele>
				<time>2019-06-08T09:11:30Z</time>
				<speed>16.147016</speed>
			</trkpt>
			<trkpt lat="24.3084676" lon="120.6212728">
				<ele>81.900000</ele>
				<time>2019-06-08T09:11:31Z</time>
				<speed>16.230863</speed>
			</trkpt>
			<trkpt lat="24.3083781" lon="120.6214030">
				<ele>82.200000</ele>
				<time>2019-06-08T09:11:32Z</time>
				<speed>16.113065</speed>
			</trkpt>
			<trkpt lat="24.3082845" lon="120.6215169">
				<ele>82.700000</ele>
				<time>2019-06-08T09:11:33Z</time>
				<speed>16.050309</speed>
			</trkpt>
			<trkpt lat="24.3081991" lon="120.6216471">
				<ele>83.200000</ele>
				<time>2019-06-08T09:11:34Z</time>
				<speed>15.975720</speed>
			</trkpt>
			<trkpt lat="24.3081014" lon="120.6217611">
				<ele>83.600000</ele>
				<time>2019-06-08T09:11:35Z</time>
				<speed>15.969034</speed>
			</trkpt>
			<trkpt lat="24.3080078" lon="120.6218913">
				<ele>83.600000</ele>
				<time>2019-06-08T09:11:36Z</time>
				<speed>15.999898</speed>
			</trkpt>
			<trkpt lat="24.3079142" lon="120.6220052">
				<ele>83.800000</ele>
				<time>2019-06-08T09:11:37Z</time>
				<speed>15.936112</speed>
			</trkpt>
			<trkpt lat="24.3078206" lon="120.6221191">
				<ele>83.900000</ele>
				<time>2019-06-08T09:11:38Z</time>
				<speed>15.917594</speed>
			</trkpt>
			<trkpt lat="24.3077189" lon="120.6222331">
				<ele>84.000000</ele>
				<time>2019-06-08T09:11:39Z</time>
				<speed>15.846606</speed>
			</trkpt>
			<trkpt lat="24.3076213" lon="120.6223633">
				<ele>84.000000</ele>
				<time>2019-06-08T09:11:40Z</time>
				<speed>15.744241</speed>
			</trkpt>
			<trkpt lat="24.3075236" lon="120.6224772">
				<ele>84.000000</ele>
				<time>2019-06-08T09:11:41Z</time>
				<speed>15.759158</speed>
			</trkpt>
			<trkpt lat="24.3075236" lon="120.6224772">
				<ele>84.000000</ele>
				<time>2019-06-08T09:11:41Z</time>
				<speed>15.759158</speed>
			</trkpt>
		</trkseg>
	</trk>
</gpx>