<?xml version='1.0' encoding='utf-8'?>
<gpx xmlns="http://www.topografix.com/GPX/1/1" xmlns:xsi="http://www.w3.org/2001/XMLSchema-instance" creator="Astro Gemini" version="1.0" xsi:schemaLocation="http://www.topografix.com/GPX/1/0 http://www.topografix.com/GPX/1/0/gpx.xsd">
	<trk>
		<name>FRON0635</name>
		<trkseg>
			<trkpt lat="24.1066895" lon="120.6142415">
				<ele>36.500000</ele>
				<time>2019-06-08T06:42:36Z</time>
				<speed>5.432064</speed>
			</trkpt>
			<trkpt lat="24.1067261" lon="120.6141927">
				<ele>36.000000</ele>
				<time>2019-06-08T06:42:37Z</time>
				<speed>6.344095</speed>
			</trkpt>
			<trkpt lat="24.1067261" lon="120.6141927">
				<ele>35.600000</ele>
				<time>2019-06-08T06:42:37Z</time>
				<speed>6.344095</speed>
			</trkpt>
			<trkpt lat="24.1068197" lon="120.6140625">
				<ele>34.700000</ele>
				<time>2019-06-08T06:42:39Z</time>
				<speed>7.923303</speed>
			</trkpt>
			<trkpt lat="24.1068644" lon="120.6139811">
				<ele>34.000000</ele>
				<time>2019-06-08T06:42:40Z</time>
				<speed>8.683587</speed>
			</trkpt>
			<trkpt lat="24.1069132" lon="120.6138997">
				<ele>32.900000</ele>
				<time>2019-06-08T06:42:41Z</time>
				<speed>9.112082</speed>
			</trkpt>
			<trkpt lat="24.1069580" lon="120.6138184">
				<ele>31.500000</ele>
				<time>2019-06-08T06:42:42Z</time>
				<speed>9.659917</speed>
			</trkpt>
			<trkpt lat="24.1070028" lon="120.6137044">
				<ele>30.900000</ele>
				<time>2019-06-08T06:42:43Z</time>
				<speed>10.503019</speed>
			</trkpt>
			<trkpt lat="24.1070475" lon="120.6136068">
				<ele>30.700000</ele>
				<time>2019-06-08T06:42:44Z</time>
				<speed>11.366183</speed>
			</trkpt>
			<trkpt lat="24.1070923" lon="120.6134766">
				<ele>31.000000</ele>
				<time>2019-06-08T06:42:45Z</time>
				<speed>11.949512</speed>
			</trkpt>
			<trkpt lat="24.1071370" lon="120.6133626">
				<ele>30.700000</ele>
				<time>2019-06-08T06:42:46Z</time>
				<speed>12.786441</speed>
			</trkpt>
			<trkpt lat="24.1071818" lon="120.6132324">
				<ele>30.200000</ele>
				<time>2019-06-08T06:42:47Z</time>
				<speed>13.120287</speed>
			</trkpt>
			<trkpt lat="24.1072184" lon="120.6131022">
				<ele>30.500000</ele>
				<time>2019-06-08T06:42:48Z</time>
				<speed>13.298268</speed>
			</trkpt>
			<trkpt lat="24.1072469" lon="120.6129720">
				<ele>30.700000</ele>
				<time>2019-06-08T06:42:49Z</time>
				<speed>13.498885</speed>
			</trkpt>
			<trkpt lat="24.1072713" lon="120.6128418">
				<ele>30.500000</ele>
				<time>2019-06-08T06:42:50Z</time>
				<speed>14.190239</speed>
			</trkpt>
			<trkpt lat="24.1072998" lon="120.6126953">
				<ele>30.400000</ele>
				<time>2019-06-08T06:42:51Z</time>
				<speed>14.280772</speed>
			</trkpt>
			<trkpt lat="24.1073242" lon="120.6125488">
				<ele>30.400000</ele>
				<time>2019-06-08T06:42:52Z</time>
				<speed>14.454126</speed>
			</trkpt>
			<trkpt lat="24.1073446" lon="120.6124186">
				<ele>30.600000</ele>
				<time>2019-06-08T06:42:53Z</time>
				<speed>14.436636</speed>
			</trkpt>
			<trkpt lat="24.1073730" lon="120.6122721">
				<ele>30.600000</ele>
				<time>2019-06-08T06:42:54Z</time>
				<speed>14.651141</speed>
			</trkpt>
			<trkpt lat="24.1074097" lon="120.6121257">
				<ele>30.000000</ele>
				<time>2019-06-08T06:42:55Z</time>
				<speed>14.842498</speed>
			</trkpt>
			<trkpt lat="24.1074422" lon="120.6119792">
				<ele>30.200000</ele>
				<time>2019-06-08T06:42:56Z</time>
				<speed>14.709783</speed>
			</trkpt>
			<trkpt lat="24.1074748" lon="120.6118490">
				<ele>30.700000</ele>
				<time>2019-06-08T06:42:57Z</time>
				<speed>14.656285</speed>
			</trkpt>
			<trkpt lat="24.1075033" lon="120.6117025">
				<ele>31.100000</ele>
				<time>2019-06-08T06:42:58Z</time>
				<speed>14.988587</speed>
			</trkpt>
			<trkpt lat="24.1075317" lon="120.6115560">
				<ele>31.400000</ele>
				<time>2019-06-08T06:42:59Z</time>
				<speed>15.054945</speed>
			</trkpt>
			<trkpt lat="24.1075521" lon="120.6114095">
				<ele>31.600000</ele>
				<time>2019-06-08T06:43:00Z</time>
				<speed>15.023566</speed>
			</trkpt>
			<trkpt lat="24.1075846" lon="120.6112630">
				<ele>31.400000</ele>
				<time>2019-06-08T06:43:01Z</time>
				<speed>15.093524</speed>
			</trkpt>
			<trkpt lat="24.1076213" lon="120.6111165">
				<ele>31.600000</ele>
				<time>2019-06-08T06:43:02Z</time>
				<speed>15.211322</speed>
			</trkpt>
			<trkpt lat="24.1076579" lon="120.6109701">
				<ele>31.800000</ele>
				<time>2019-06-08T06:43:03Z</time>
				<speed>15.380560</speed>
			</trkpt>
			<trkpt lat="24.1076904" lon="120.6108236">
				<ele>31.900000</ele>
				<time>2019-06-08T06:43:04Z</time>
				<speed>15.644447</speed>
			</trkpt>
			<trkpt lat="24.1077271" lon="120.6106608">
				<ele>31.300000</ele>
				<time>2019-06-08T06:43:05Z</time>
				<speed>15.790022</speed>
			</trkpt>
			<trkpt lat="24.1077677" lon="120.6105306">
				<ele>31.200000</ele>
				<time>2019-06-08T06:43:06Z</time>
				<speed>15.504016</speed>
			</trkpt>
			<trkpt lat="24.1078044" lon="120.6103841">
				<ele>31.500000</ele>
				<time>2019-06-08T06:43:07Z</time>
				<speed>15.348153</speed>
			</trkpt>
			<trkpt lat="24.1078573" lon="120.6102376">
				<ele>31.000000</ele>
				<time>2019-06-08T06:43:08Z</time>
				<speed>15.246816</speed>
			</trkpt>
			<trkpt lat="24.1079102" lon="120.6100911">
				<ele>30.400000</ele>
				<time>2019-06-08T06:43:09Z</time>
				<speed>15.422227</speed>
			</trkpt>
			<trkpt lat="24.1079427" lon="120.6099447">
				<ele>30.000000</ele>
				<time>2019-06-08T06:43:10Z</time>
				<speed>15.771504</speed>
			</trkpt>
			<trkpt lat="24.1079753" lon="120.6097819">
				<ele>29.800000</ele>
				<time>2019-06-08T06:43:11Z</time>
				<speed>16.202057</speed>
			</trkpt>
			<trkpt lat="24.1080078" lon="120.6096191">
				<ele>29.700000</ele>
				<time>2019-06-08T06:43:12Z</time>
				<speed>16.454113</speed>
			</trkpt>
			<trkpt lat="24.1080322" lon="120.6094564">
				<ele>29.600000</ele>
				<time>2019-06-08T06:43:13Z</time>
				<speed>16.528187</speed>
			</trkpt>
			<trkpt lat="24.1080688" lon="120.6092936">
				<ele>29.200000</ele>
				<time>2019-06-08T06:43:14Z</time>
				<speed>16.691766</speed>
			</trkpt>
			<trkpt lat="24.1080973" lon="120.6091471">
				<ele>29.000000</ele>
				<time>2019-06-08T06:43:15Z</time>
				<speed>16.694337</speed>
			</trkpt>
			<trkpt lat="24.1081217" lon="120.6089844">
				<ele>28.600000</ele>
				<time>2019-06-08T06:43:16Z</time>
				<speed>16.813165</speed>
			</trkpt>
			<trkpt lat="24.1081584" lon="120.6088216">
				<ele>28.600000</ele>
				<time>2019-06-08T06:43:17Z</time>
				<speed>16.823967</speed>
			</trkpt>
			<trkpt lat="24.1081950" lon="120.6086589">
				<ele>28.400000</ele>
				<time>2019-06-08T06:43:18Z</time>
				<speed>16.684049</speed>
			</trkpt>
			<trkpt lat="24.1082316" lon="120.6084961">
				<ele>28.400000</ele>
				<time>2019-06-08T06:43:19Z</time>
				<speed>16.708740</speed>
			</trkpt>
			<trkpt lat="24.1082804" lon="120.6083171">
				<ele>28.400000</ele>
				<time>2019-06-08T06:43:20Z</time>
				<speed>17.226741</speed>
			</trkpt>
			<trkpt lat="24.1083171" lon="120.6081543">
				<ele>28.600000</ele>
				<time>2019-06-08T06:43:21Z</time>
				<speed>17.355857</speed>
			</trkpt>
			<trkpt lat="24.1083618" lon="120.6079915">
				<ele>28.400000</ele>
				<time>2019-06-08T06:43:22Z</time>
				<speed>17.346083</speed>
			</trkpt>
			<trkpt lat="24.1084066" lon="120.6078288">
				<ele>28.500000</ele>
				<time>2019-06-08T06:43:23Z</time>
				<speed>17.033327</speed>
			</trkpt>
			<trkpt lat="24.1084513" lon="120.6076823">
				<ele>28.300000</ele>
				<time>2019-06-08T06:43:24Z</time>
				<speed>16.459257</speed>
			</trkpt>
			<trkpt lat="24.1084920" lon="120.6075521">
				<ele>28.200000</ele>
				<time>2019-06-08T06:43:25Z</time>
				<speed>16.018931</speed>
			</trkpt>
			<trkpt lat="24.1085490" lon="120.6073893">
				<ele>28.200000</ele>
				<time>2019-06-08T06:43:26Z</time>
				<speed>16.222118</speed>
			</trkpt>
			<trkpt lat="24.1085897" lon="120.6072428">
				<ele>28.000000</ele>
				<time>2019-06-08T06:43:27Z</time>
				<speed>16.010186</speed>
			</trkpt>
			<trkpt lat="24.1086426" lon="120.6070964">
				<ele>27.500000</ele>
				<time>2019-06-08T06:43:28Z</time>
				<speed>15.816771</speed>
			</trkpt>
			<trkpt lat="24.1086873" lon="120.6069499">
				<ele>27.300000</ele>
				<time>2019-06-08T06:43:29Z</time>
				<speed>15.751443</speed>
			</trkpt>
			<trkpt lat="24.1087362" lon="120.6068034">
				<ele>27.400000</ele>
				<time>2019-06-08T06:43:30Z</time>
				<speed>15.691257</speed>
			</trkpt>
			<trkpt lat="24.1087769" lon="120.6066569">
				<ele>27.400000</ele>
				<time>2019-06-08T06:43:31Z</time>
				<speed>15.553398</speed>
			</trkpt>
			<trkpt lat="24.1088135" lon="120.6065104">
				<ele>26.900000</ele>
				<time>2019-06-08T06:43:32Z</time>
				<speed>15.526650</speed>
			</trkpt>
			<trkpt lat="24.1088582" lon="120.6063639">
				<ele>27.000000</ele>
				<time>2019-06-08T06:43:33Z</time>
				<speed>15.783335</speed>
			</trkpt>
			<trkpt lat="24.1089071" lon="120.6062012">
				<ele>27.300000</ele>
				<time>2019-06-08T06:43:34Z</time>
				<speed>16.256068</speed>
			</trkpt>
			<trkpt lat="24.1089478" lon="120.6060547">
				<ele>27.700000</ele>
				<time>2019-06-08T06:43:35Z</time>
				<speed>16.136728</speed>
			</trkpt>
			<trkpt lat="24.1090007" lon="120.6058919">
				<ele>28.200000</ele>
				<time>2019-06-08T06:43:36Z</time>
				<speed>16.394443</speed>
			</trkpt>
			<trkpt lat="24.1090495" lon="120.6057454">
				<ele>28.500000</ele>
				<time>2019-06-08T06:43:37Z</time>
				<speed>16.137243</speed>
			</trkpt>
			<trkpt lat="24.1090942" lon="120.6055990">
				<ele>29.000000</ele>
				<time>2019-06-08T06:43:38Z</time>
				<speed>16.223147</speed>
			</trkpt>
			<trkpt lat="24.1091268" lon="120.6054362">
				<ele>29.900000</ele>
				<time>2019-06-08T06:43:39Z</time>
				<speed>16.322941</speed>
			</trkpt>
			<trkpt lat="24.1091553" lon="120.6052897">
				<ele>30.800000</ele>
				<time>2019-06-08T06:43:40Z</time>
				<speed>16.149073</speed>
			</trkpt>
			<trkpt lat="24.1091919" lon="120.6051432">
				<ele>32.100000</ele>
				<time>2019-06-08T06:43:41Z</time>
				<speed>16.062654</speed>
			</trkpt>
			<trkpt lat="24.1092326" lon="120.6049967">
				<ele>33.100000</ele>
				<time>2019-06-08T06:43:42Z</time>
				<speed>15.966976</speed>
			</trkpt>
			<trkpt lat="24.1092692" lon="120.6048340">
				<ele>34.100000</ele>
				<time>2019-06-08T06:43:43Z</time>
				<speed>16.193312</speed>
			</trkpt>
			<trkpt lat="24.1093221" lon="120.6046875">
				<ele>35.000000</ele>
				<time>2019-06-08T06:43:44Z</time>
				<speed>16.227777</speed>
			</trkpt>
			<trkpt lat="24.1093669" lon="120.6045410">
				<ele>35.600000</ele>
				<time>2019-06-08T06:43:45Z</time>
				<speed>15.919651</speed>
			</trkpt>
			<trkpt lat="24.1094076" lon="120.6043945">
				<ele>36.200000</ele>
				<time>2019-06-08T06:43:46Z</time>
				<speed>15.894446</speed>
			</trkpt>
			<trkpt lat="24.1094686" lon="120.6042318">
				<ele>37.100000</ele>
				<time>2019-06-08T06:43:47Z</time>
				<speed>16.501437</speed>
			</trkpt>
			<trkpt lat="24.1095215" lon="120.6040690">
				<ele>37.700000</ele>
				<time>2019-06-08T06:43:48Z</time>
				<speed>16.767383</speed>
			</trkpt>
			<trkpt lat="24.1095744" lon="120.6039062">
				<ele>38.000000</ele>
				<time>2019-06-08T06:43:49Z</time>
				<speed>16.661416</speed>
			</trkpt>
			<trkpt lat="24.1096273" lon="120.6037435">
				<ele>39.300000</ele>
				<time>2019-06-08T06:43:50Z</time>
				<speed>16.784873</speed>
			</trkpt>
			<trkpt lat="24.1096761" lon="120.6035970">
				<ele>40.100000</ele>
				<time>2019-06-08T06:43:51Z</time>
				<speed>16.659873</speed>
			</trkpt>
			<trkpt lat="24.1097209" lon="120.6034505">
				<ele>40.100000</ele>
				<time>2019-06-08T06:43:52Z</time>
				<speed>16.448968</speed>
			</trkpt>
			<trkpt lat="24.1097697" lon="120.6032878">
				<ele>40.700000</ele>
				<time>2019-06-08T06:43:53Z</time>
				<speed>16.725716</speed>
			</trkpt>
			<trkpt lat="24.1098226" lon="120.6031250">
				<ele>41.500000</ele>
				<time>2019-06-08T06:43:54Z</time>
				<speed>16.796703</speed>
			</trkpt>
			<trkpt lat="24.1098755" lon="120.6029622">
				<ele>41.800000</ele>
				<time>2019-06-08T06:43:55Z</time>
				<speed>17.030756</speed>
			</trkpt>
			<trkpt lat="24.1099202" lon="120.6027995">
				<ele>42.500000</ele>
				<time>2019-06-08T06:43:56Z</time>
				<speed>17.181989</speed>
			</trkpt>
			<trkpt lat="24.1099691" lon="120.6026367">
				<ele>43.400000</ele>
				<time>2019-06-08T06:43:57Z</time>
				<speed>17.310075</speed>
			</trkpt>
			<trkpt lat="24.1100016" lon="120.6024902">
				<ele>44.000000</ele>
				<time>2019-06-08T06:43:58Z</time>
				<speed>16.786929</speed>
			</trkpt>
			<trkpt lat="24.1100382" lon="120.6023438">
				<ele>44.000000</ele>
				<time>2019-06-08T06:43:59Z</time>
				<speed>16.414504</speed>
			</trkpt>
			<trkpt lat="24.1100749" lon="120.6022135">
				<ele>44.100000</ele>
				<time>2019-06-08T06:44:00Z</time>
				<speed>15.577576</speed>
			</trkpt>
			<trkpt lat="24.1101115" lon="120.6020833">
				<ele>43.700000</ele>
				<time>2019-06-08T06:44:01Z</time>
				<speed>14.992702</speed>
			</trkpt>
			<trkpt lat="24.1101562" lon="120.6019531">
				<ele>44.100000</ele>
				<time>2019-06-08T06:44:02Z</time>
				<speed>14.405772</speed>
			</trkpt>
			<trkpt lat="24.1101929" lon="120.6018392">
				<ele>44.400000</ele>
				<time>2019-06-08T06:44:03Z</time>
				<speed>13.532320</speed>
			</trkpt>
			<trkpt lat="24.1102336" lon="120.6017253">
				<ele>44.300000</ele>
				<time>2019-06-08T06:44:04Z</time>
				<speed>13.006090</speed>
			</trkpt>
			<trkpt lat="24.1102743" lon="120.6016113">
				<ele>44.700000</ele>
				<time>2019-06-08T06:44:05Z</time>
				<speed>12.298276</speed>
			</trkpt>
			<trkpt lat="24.1103068" lon="120.6014974">
				<ele>45.100000</ele>
				<time>2019-06-08T06:44:06Z</time>
				<speed>11.544680</speed>
			</trkpt>
			<trkpt lat="24.1103394" lon="120.6014160">
				<ele>45.400000</ele>
				<time>2019-06-08T06:44:07Z</time>
				<speed>10.750446</speed>
			</trkpt>
			<trkpt lat="24.1103760" lon="120.6013184">
				<ele>45.400000</ele>
				<time>2019-06-08T06:44:08Z</time>
				<speed>10.335839</speed>
			</trkpt>
			<trkpt lat="24.1104085" lon="120.6012207">
				<ele>45.800000</ele>
				<time>2019-06-08T06:44:09Z</time>
				<speed>9.720616</speed>
			</trkpt>
			<trkpt lat="24.1104370" lon="120.6011393">
				<ele>45.900000</ele>
				<time>2019-06-08T06:44:10Z</time>
				<speed>8.911980</speed>
			</trkpt>
			<trkpt lat="24.1104736" lon="120.6010742">
				<ele>46.200000</ele>
				<time>2019-06-08T06:44:11Z</time>
				<speed>8.630603</speed>
			</trkpt>
			<trkpt lat="24.1105021" lon="120.6010091">
				<ele>46.400000</ele>
				<time>2019-06-08T06:44:12Z</time>
				<speed>7.744806</speed>
			</trkpt>
			<trkpt lat="24.1105143" lon="120.6009440">
				<ele>47.100000</ele>
				<time>2019-06-08T06:44:13Z</time>
				<speed>6.985038</speed>
			</trkpt>
			<trkpt lat="24.1105428" lon="120.6008789">
				<ele>47.100000</ele>
				<time>2019-06-08T06:44:14Z</time>
				<speed>6.505102</speed>
			</trkpt>
			<trkpt lat="24.1105550" lon="120.6008301">
				<ele>47.500000</ele>
				<time>2019-06-08T06:44:15Z</time>
				<speed>5.662001</speed>
			</trkpt>
			<trkpt lat="24.1105632" lon="120.6007812">
				<ele>48.400000</ele>
				<time>2019-06-08T06:44:16Z</time>
				<speed>5.134741</speed>
			</trkpt>
			<trkpt lat="24.1105713" lon="120.6007487">
				<ele>48.900000</ele>
				<time>2019-06-08T06:44:17Z</time>
				<speed>4.527749</speed>
			</trkpt>
			<trkpt lat="24.1105713" lon="120.6007324">
				<ele>49.700000</ele>
				<time>2019-06-08T06:44:18Z</time>
				<speed>3.338456</speed>
			</trkpt>
			<trkpt lat="24.1105713" lon="120.6007161">
				<ele>50.300000</ele>
				<time>2019-06-08T06:44:19Z</time>
				<speed>1.318407</speed>
			</trkpt>
			<trkpt lat="24.1105672" lon="120.6007161">
				<ele>50.700000</ele>
				<time>2019-06-08T06:44:20Z</time>
				<speed>0.482507</speed>
			</trkpt>
			<trkpt lat="24.1105672" lon="120.6007161">
				<ele>51.300000</ele>
				<time>2019-06-08T06:44:21Z</time>
				<speed>0.307097</speed>
			</trkpt>
			<trkpt lat="24.1105632" lon="120.6007161">
				<ele>51.300000</ele>
				<time>2019-06-08T06:44:22Z</time>
				<speed>0.371911</speed>
			</trkpt>
			<trkpt lat="24.1105632" lon="120.6007161">
				<ele>51.300000</ele>
				<time>2019-06-08T06:44:23Z</time>
				<speed>0.298352</speed>
			</trkpt>
			<trkpt lat="24.1105591" lon="120.6007161">
				<ele>51.300000</ele>
				<time>2019-06-08T06:44:24Z</time>
				<speed>0.372940</speed>
			</trkpt>
			<trkpt lat="24.1105550" lon="120.6007161">
				<ele>51.300000</ele>
				<time>2019-06-08T06:44:25Z</time>
				<speed>0.320986</speed>
			</trkpt>
			<trkpt lat="24.1105509" lon="120.6007161">
				<ele>51.200000</ele>
				<time>2019-06-08T06:44:26Z</time>
				<speed>0.277262</speed>
			</trkpt>
			<trkpt lat="24.1105509" lon="120.6007161">
				<ele>51.100000</ele>
				<time>2019-06-08T06:44:27Z</time>
				<speed>0.319957</speed>
			</trkpt>
			<trkpt lat="24.1105509" lon="120.6007161">
				<ele>51.100000</ele>
				<time>2019-06-08T06:44:28Z</time>
				<speed>0.208846</speed>
			</trkpt>
			<trkpt lat="24.1105387" lon="120.6006999">
				<ele>51.800000</ele>
				<time>2019-06-08T06:44:29Z</time>
				<speed>0.564297</speed>
			</trkpt>
			<trkpt lat="24.1105225" lon="120.6006999">
				<ele>52.900000</ele>
				<time>2019-06-08T06:44:30Z</time>
				<speed>0.444956</speed>
			</trkpt>
			<trkpt lat="24.1105103" lon="120.6007161">
				<ele>54.100000</ele>
				<time>2019-06-08T06:44:31Z</time>
				<speed>0.079732</speed>
			</trkpt>
			<trkpt lat="24.1104980" lon="120.6007324">
				<ele>55.000000</ele>
				<time>2019-06-08T06:44:32Z</time>
				<speed>0.316870</speed>
			</trkpt>
			<trkpt lat="24.1104858" lon="120.6007324">
				<ele>56.200000</ele>
				<time>2019-06-08T06:44:33Z</time>
				<speed>0.379627</speed>
			</trkpt>
			<trkpt lat="24.1104736" lon="120.6007487">
				<ele>57.600000</ele>
				<time>2019-06-08T06:44:34Z</time>
				<speed>0.606478</speed>
			</trkpt>
			<trkpt lat="24.1104614" lon="120.6007650">
				<ele>59.000000</ele>
				<time>2019-06-08T06:44:35Z</time>
				<speed>0.476849</speed>
			</trkpt>
			<trkpt lat="24.1104574" lon="120.6007650">
				<ele>59.600000</ele>
				<time>2019-06-08T06:44:36Z</time>
				<speed>0.327158</speed>
			</trkpt>
			<trkpt lat="24.1104574" lon="120.6007650">
				<ele>59.600000</ele>
				<time>2019-06-08T06:44:37Z</time>
				<speed>0.306068</speed>
			</trkpt>
			<trkpt lat="24.1104533" lon="120.6007650">
				<ele>60.500000</ele>
				<time>2019-06-08T06:44:38Z</time>
				<speed>0.250513</speed>
			</trkpt>
			<trkpt lat="24.1104533" lon="120.6007650">
				<ele>60.800000</ele>
				<time>2019-06-08T06:44:39Z</time>
				<speed>0.230966</speed>
			</trkpt>
			<trkpt lat="24.1104614" lon="120.6007650">
				<ele>60.900000</ele>
				<time>2019-06-08T06:44:40Z</time>
				<speed>0.466561</speed>
			</trkpt>
			<trkpt lat="24.1104614" lon="120.6007650">
				<ele>60.600000</ele>
				<time>2019-06-08T06:44:41Z</time>
				<speed>0.203188</speed>
			</trkpt>
			<trkpt lat="24.1104614" lon="120.6007812">
				<ele>60.100000</ele>
				<time>2019-06-08T06:44:42Z</time>
				<speed>0.206274</speed>
			</trkpt>
			<trkpt lat="24.1104655" lon="120.6007650">
				<ele>59.900000</ele>
				<time>2019-06-08T06:44:43Z</time>
				<speed>0.245883</speed>
			</trkpt>
			<trkpt lat="24.1104696" lon="120.6007650">
				<ele>59.100000</ele>
				<time>2019-06-08T06:44:44Z</time>
				<speed>0.287550</speed>
			</trkpt>
			<trkpt lat="24.1104818" lon="120.6007650">
				<ele>58.600000</ele>
				<time>2019-06-08T06:44:45Z</time>
				<speed>0.439812</speed>
			</trkpt>
			<trkpt lat="24.1104858" lon="120.6007650">
				<ele>58.100000</ele>
				<time>2019-06-08T06:44:46Z</time>
				<speed>0.233538</speed>
			</trkpt>
			<trkpt lat="24.1104940" lon="120.6007487">
				<ele>57.100000</ele>
				<time>2019-06-08T06:44:47Z</time>
				<speed>0.123970</speed>
			</trkpt>
			<trkpt lat="24.1104980" lon="120.6007487">
				<ele>56.500000</ele>
				<time>2019-06-08T06:44:48Z</time>
				<speed>0.123456</speed>
			</trkpt>
			<trkpt lat="24.1105021" lon="120.6007487">
				<ele>56.200000</ele>
				<time>2019-06-08T06:44:49Z</time>
				<speed>0.192900</speed>
			</trkpt>
			<trkpt lat="24.1105062" lon="120.6007487">
				<ele>55.300000</ele>
				<time>2019-06-08T06:44:50Z</time>
				<speed>0.183126</speed>
			</trkpt>
			<trkpt lat="24.1105225" lon="120.6007324">
				<ele>54.600000</ele>
				<time>2019-06-08T06:44:51Z</time>
				<speed>0.152262</speed>
			</trkpt>
			<trkpt lat="24.1105347" lon="120.6007324">
				<ele>54.600000</ele>
				<time>2019-06-08T06:44:52Z</time>
				<speed>0.386829</speed>
			</trkpt>
			<trkpt lat="24.1105387" lon="120.6007324">
				<ele>54.400000</ele>
				<time>2019-06-08T06:44:53Z</time>
				<speed>0.368825</speed>
			</trkpt>
			<trkpt lat="24.1105469" lon="120.6007324">
				<ele>54.300000</ele>
				<time>2019-06-08T06:44:54Z</time>
				<speed>0.366253</speed>
			</trkpt>
			<trkpt lat="24.1105428" lon="120.6007324">
				<ele>54.000000</ele>
				<time>2019-06-08T06:44:55Z</time>
				<speed>0.068415</speed>
			</trkpt>
			<trkpt lat="24.1105509" lon="120.6007324">
				<ele>53.900000</ele>
				<time>2019-06-08T06:44:56Z</time>
				<speed>0.209361</speed>
			</trkpt>
			<trkpt lat="24.1105469" lon="120.6007324">
				<ele>54.300000</ele>
				<time>2019-06-08T06:44:57Z</time>
				<speed>0.152262</speed>
			</trkpt>
			<trkpt lat="24.1105469" lon="120.6007324">
				<ele>54.800000</ele>
				<time>2019-06-08T06:44:58Z</time>
				<speed>0.174382</speed>
			</trkpt>
			<trkpt lat="24.1105428" lon="120.6007324">
				<ele>55.100000</ele>
				<time>2019-06-08T06:44:59Z</time>
				<speed>0.123970</speed>
			</trkpt>
			<trkpt lat="24.1105469" lon="120.6007324">
				<ele>55.200000</ele>
				<time>2019-06-08T06:45:00Z</time>
				<speed>0.048354</speed>
			</trkpt>
			<trkpt lat="24.1105509" lon="120.6007324">
				<ele>55.600000</ele>
				<time>2019-06-08T06:45:01Z</time>
				<speed>0.431067</speed>
			</trkpt>
			<trkpt lat="24.1105469" lon="120.6007324">
				<ele>56.200000</ele>
				<time>2019-06-08T06:45:02Z</time>
				<speed>0.575614</speed>
			</trkpt>
			<trkpt lat="24.1105509" lon="120.6006999">
				<ele>56.200000</ele>
				<time>2019-06-08T06:45:03Z</time>
				<speed>1.527768</speed>
			</trkpt>
			<trkpt lat="24.1105794" lon="120.6006348">
				<ele>56.600000</ele>
				<time>2019-06-08T06:45:04Z</time>
				<speed>4.794208</speed>
			</trkpt>
			<trkpt lat="24.1105998" lon="120.6005859">
				<ele>56.700000</ele>
				<time>2019-06-08T06:45:05Z</time>
				<speed>6.091010</speed>
			</trkpt>
			<trkpt lat="24.1106323" lon="120.6005208">
				<ele>57.100000</ele>
				<time>2019-06-08T06:45:06Z</time>
				<speed>6.879585</speed>
			</trkpt>
			<trkpt lat="24.1106649" lon="120.6004395">
				<ele>57.300000</ele>
				<time>2019-06-08T06:45:07Z</time>
				<speed>7.578141</speed>
			</trkpt>
			<trkpt lat="24.1106934" lon="120.6003581">
				<ele>57.800000</ele>
				<time>2019-06-08T06:45:08Z</time>
				<speed>8.322478</speed>
			</trkpt>
			<trkpt lat="24.1107218" lon="120.6002767">
				<ele>57.800000</ele>
				<time>2019-06-08T06:45:09Z</time>
				<speed>9.159406</speed>
			</trkpt>
			<trkpt lat="24.1107463" lon="120.6001790">
				<ele>57.800000</ele>
				<time>2019-06-08T06:45:10Z</time>
				<speed>9.971130</speed>
			</trkpt>
			<trkpt lat="24.1107707" lon="120.6000814">
				<ele>58.300000</ele>
				<time>2019-06-08T06:45:11Z</time>
				<speed>10.605385</speed>
			</trkpt>
			<trkpt lat="24.1108032" lon="120.5999837">
				<ele>58.700000</ele>
				<time>2019-06-08T06:45:12Z</time>
				<speed>11.164538</speed>
			</trkpt>
			<trkpt lat="24.1108398" lon="120.5998698">
				<ele>59.000000</ele>
				<time>2019-06-08T06:45:13Z</time>
				<speed>11.664020</speed>
			</trkpt>
			<trkpt lat="24.1108602" lon="120.5997559">
				<ele>59.300000</ele>
				<time>2019-06-08T06:45:14Z</time>
				<speed>12.084285</speed>
			</trkpt>
			<trkpt lat="24.1108887" lon="120.5996257">
				<ele>59.400000</ele>
				<time>2019-06-08T06:45:15Z</time>
				<speed>12.400127</speed>
			</trkpt>
			<trkpt lat="24.1109172" lon="120.5995117">
				<ele>59.500000</ele>
				<time>2019-06-08T06:45:16Z</time>
				<speed>12.729343</speed>
			</trkpt>
			<trkpt lat="24.1109456" lon="120.5993815">
				<ele>59.600000</ele>
				<time>2019-06-08T06:45:17Z</time>
				<speed>12.804959</speed>
			</trkpt>
			<trkpt lat="24.1109945" lon="120.5992513">
				<ele>59.100000</ele>
				<time>2019-06-08T06:45:18Z</time>
				<speed>13.031809</speed>
			</trkpt>
			<trkpt lat="24.1110311" lon="120.5991374">
				<ele>59.000000</ele>
				<time>2019-06-08T06:45:19Z</time>
				<speed>13.154751</speed>
			</trkpt>
			<trkpt lat="24.1110596" lon="120.5990072">
				<ele>59.400000</ele>
				<time>2019-06-08T06:45:20Z</time>
				<speed>13.223166</speed>
			</trkpt>
			<trkpt lat="24.1110962" lon="120.5988770">
				<ele>59.400000</ele>
				<time>2019-06-08T06:45:21Z</time>
				<speed>13.640859</speed>
			</trkpt>
			<trkpt lat="24.1111328" lon="120.5987305">
				<ele>59.600000</ele>
				<time>2019-06-08T06:45:22Z</time>
				<speed>13.896002</speed>
			</trkpt>
			<trkpt lat="24.1111776" lon="120.5986003">
				<ele>59.100000</ele>
				<time>2019-06-08T06:45:23Z</time>
				<speed>14.017400</speed>
			</trkpt>
			<trkpt lat="24.1112142" lon="120.5984701">
				<ele>59.100000</ele>
				<time>2019-06-08T06:45:24Z</time>
				<speed>13.941268</speed>
			</trkpt>
			<trkpt lat="24.1112508" lon="120.5983398">
				<ele>59.100000</ele>
				<time>2019-06-08T06:45:25Z</time>
				<speed>13.905776</speed>
			</trkpt>
			<trkpt lat="24.1112956" lon="120.5981934">
				<ele>59.100000</ele>
				<time>2019-06-08T06:45:26Z</time>
				<speed>14.062667</speed>
			</trkpt>
			<trkpt lat="24.1113485" lon="120.5980469">
				<ele>59.100000</ele>
				<time>2019-06-08T06:45:27Z</time>
				<speed>14.555977</speed>
			</trkpt>
			<trkpt lat="24.1113973" lon="120.5979004">
				<ele>59.100000</ele>
				<time>2019-06-08T06:45:28Z</time>
				<speed>14.736532</speed>
			</trkpt>
			<trkpt lat="24.1114461" lon="120.5977539">
				<ele>58.900000</ele>
				<time>2019-06-08T06:45:29Z</time>
				<speed>14.987558</speed>
			</trkpt>
			<trkpt lat="24.1115031" lon="120.5975911">
				<ele>58.800000</ele>
				<time>2019-06-08T06:45:30Z</time>
				<speed>15.596094</speed>
			</trkpt>
			<trkpt lat="24.1115479" lon="120.5974447">
				<ele>58.500000</ele>
				<time>2019-06-08T06:45:31Z</time>
				<speed>15.533337</speed>
			</trkpt>
			<trkpt lat="24.1115926" lon="120.5972982">
				<ele>58.500000</ele>
				<time>2019-06-08T06:45:32Z</time>
				<speed>15.970062</speed>
			</trkpt>
			<trkpt lat="24.1116414" lon="120.5971354">
				<ele>58.300000</ele>
				<time>2019-06-08T06:45:33Z</time>
				<speed>16.465943</speed>
			</trkpt>
			<trkpt lat="24.1116862" lon="120.5969727">
				<ele>57.800000</ele>
				<time>2019-06-08T06:45:34Z</time>
				<speed>16.517384</speed>
			</trkpt>
			<trkpt lat="24.1117269" lon="120.5968262">
				<ele>57.400000</ele>
				<time>2019-06-08T06:45:35Z</time>
				<speed>16.469544</speed>
			</trkpt>
			<trkpt lat="24.1117757" lon="120.5966634">
				<ele>57.000000</ele>
				<time>2019-06-08T06:45:36Z</time>
				<speed>16.457199</speed>
			</trkpt>
			<trkpt lat="24.1117757" lon="120.5966634">
				<ele>57.000000</ele>
				<time>2019-06-08T06:45:36Z</time>
				<speed>16.457199</speed>
			</trkpt>
		</trkseg>
	</trk>
</gpx>