<?xml version='1.0' encoding='utf-8'?>
<gpx xmlns="http://www.topografix.com/GPX/1/1" xmlns:xsi="http://www.w3.org/2001/XMLSchema-instance" creator="Astro Gemini" version="1.0" xsi:schemaLocation="http://www.topografix.com/GPX/1/0 http://www.topografix.com/GPX/1/0/gpx.xsd">
	<trk>
		<name>FRON0676</name>
		<trkseg>
			<trkpt lat="24.2001343" lon="120.6552572">
				<ele>124.100000</ele>
				<time>2019-06-08T09:47:39Z</time>
				<speed>0.820468</speed>
			</trkpt>
			<trkpt lat="24.2001343" lon="120.6552572">
				<ele>124.100000</ele>
				<time>2019-06-08T09:47:39Z</time>
				<speed>0.820468</speed>
			</trkpt>
			<trkpt lat="24.2001343" lon="120.6552572">
				<ele>124.100000</ele>
				<time>2019-06-08T09:47:40Z</time>
				<speed>1049.024045</speed>
			</trkpt>
			<trkpt lat="24.2001261" lon="120.6552734">
				<ele>124.000000</ele>
				<time>2019-06-08T09:47:41Z</time>
				<speed>1.169746</speed>
			</trkpt>
			<trkpt lat="24.2001221" lon="120.6552897">
				<ele>123.900000</ele>
				<time>2019-06-08T09:47:42Z</time>
				<speed>1.229930</speed>
			</trkpt>
			<trkpt lat="24.2001261" lon="120.6552897">
				<ele>123.700000</ele>
				<time>2019-06-08T09:47:43Z</time>
				<speed>0.407405</speed>
			</trkpt>
			<trkpt lat="24.2001261" lon="120.6553060">
				<ele>123.500000</ele>
				<time>2019-06-08T09:47:44Z</time>
				<speed>0.259772</speed>
			</trkpt>
			<trkpt lat="24.2001302" lon="120.6553060">
				<ele>123.300000</ele>
				<time>2019-06-08T09:47:45Z</time>
				<speed>0.167180</speed>
			</trkpt>
			<trkpt lat="24.2001302" lon="120.6553060">
				<ele>123.300000</ele>
				<time>2019-06-08T09:47:46Z</time>
				<speed>0.121913</speed>
			</trkpt>
			<trkpt lat="24.2001302" lon="120.6553060">
				<ele>123.000000</ele>
				<time>2019-06-08T09:47:47Z</time>
				<speed>0.167180</speed>
			</trkpt>
			<trkpt lat="24.2001261" lon="120.6553060">
				<ele>122.400000</ele>
				<time>2019-06-08T09:47:48Z</time>
				<speed>0.273661</speed>
			</trkpt>
			<trkpt lat="24.2001221" lon="120.6553060">
				<ele>121.700000</ele>
				<time>2019-06-08T09:47:49Z</time>
				<speed>0.337961</speed>
			</trkpt>
			<trkpt lat="24.2001139" lon="120.6553060">
				<ele>120.900000</ele>
				<time>2019-06-08T09:47:50Z</time>
				<speed>0.407405</speed>
			</trkpt>
			<trkpt lat="24.2001099" lon="120.6553060">
				<ele>120.500000</ele>
				<time>2019-06-08T09:47:51Z</time>
				<speed>0.344648</speed>
			</trkpt>
			<trkpt lat="24.2001017" lon="120.6553060">
				<ele>119.400000</ele>
				<time>2019-06-08T09:47:52Z</time>
				<speed>0.551951</speed>
			</trkpt>
			<trkpt lat="24.2000936" lon="120.6553060">
				<ele>118.600000</ele>
				<time>2019-06-08T09:47:53Z</time>
				<speed>0.584873</speed>
			</trkpt>
			<trkpt lat="24.2000895" lon="120.6553060">
				<ele>118.800000</ele>
				<time>2019-06-08T09:47:54Z</time>
				<speed>0.575614</speed>
			</trkpt>
			<trkpt lat="24.2000936" lon="120.6553060">
				<ele>119.000000</ele>
				<time>2019-06-08T09:47:55Z</time>
				<speed>0.282920</speed>
			</trkpt>
			<trkpt lat="24.2000936" lon="120.6553223">
				<ele>119.200000</ele>
				<time>2019-06-08T09:47:56Z</time>
				<speed>0.282920</speed>
			</trkpt>
			<trkpt lat="24.2000895" lon="120.6553223">
				<ele>118.700000</ele>
				<time>2019-06-08T09:47:57Z</time>
				<speed>0.234052</speed>
			</trkpt>
			<trkpt lat="24.2000854" lon="120.6553223">
				<ele>118.400000</ele>
				<time>2019-06-08T09:47:58Z</time>
				<speed>0.138888</speed>
			</trkpt>
			<trkpt lat="24.2000773" lon="120.6553223">
				<ele>117.800000</ele>
				<time>2019-06-08T09:47:59Z</time>
				<speed>0.242282</speed>
			</trkpt>
			<trkpt lat="24.2000773" lon="120.6553223">
				<ele>117.700000</ele>
				<time>2019-06-08T09:48:00Z</time>
				<speed>0.145061</speed>
			</trkpt>
			<trkpt lat="24.2000773" lon="120.6553223">
				<ele>117.700000</ele>
				<time>2019-06-08T09:48:01Z</time>
				<speed>0.198558</speed>
			</trkpt>
			<trkpt lat="24.2000773" lon="120.6553223">
				<ele>117.500000</ele>
				<time>2019-06-08T09:48:02Z</time>
				<speed>0.135287</speed>
			</trkpt>
			<trkpt lat="24.2000773" lon="120.6553223">
				<ele>117.300000</ele>
				<time>2019-06-08T09:48:03Z</time>
				<speed>0.122942</speed>
			</trkpt>
			<trkpt lat="24.2000773" lon="120.6553223">
				<ele>117.200000</ele>
				<time>2019-06-08T09:48:04Z</time>
				<speed>0.050411</speed>
			</trkpt>
			<trkpt lat="24.2000773" lon="120.6553223">
				<ele>117.000000</ele>
				<time>2019-06-08T09:48:05Z</time>
				<speed>0.068930</speed>
			</trkpt>
			<trkpt lat="24.2000773" lon="120.6553223">
				<ele>116.900000</ele>
				<time>2019-06-08T09:48:06Z</time>
				<speed>0.066358</speed>
			</trkpt>
			<trkpt lat="24.2000773" lon="120.6553223">
				<ele>116.900000</ele>
				<time>2019-06-08T09:48:07Z</time>
				<speed>0.106995</speed>
			</trkpt>
			<trkpt lat="24.2000773" lon="120.6553223">
				<ele>116.500000</ele>
				<time>2019-06-08T09:48:08Z</time>
				<speed>0.131172</speed>
			</trkpt>
			<trkpt lat="24.2000773" lon="120.6553223">
				<ele>116.400000</ele>
				<time>2019-06-08T09:48:09Z</time>
				<speed>0.129114</speed>
			</trkpt>
			<trkpt lat="24.2000732" lon="120.6553223">
				<ele>116.200000</ele>
				<time>2019-06-08T09:48:10Z</time>
				<speed>0.172324</speed>
			</trkpt>
			<trkpt lat="24.2000692" lon="120.6553223">
				<ele>116.000000</ele>
				<time>2019-06-08T09:48:11Z</time>
				<speed>0.150719</speed>
			</trkpt>
			<trkpt lat="24.2000692" lon="120.6553223">
				<ele>115.800000</ele>
				<time>2019-06-08T09:48:12Z</time>
				<speed>0.143518</speed>
			</trkpt>
			<trkpt lat="24.2000692" lon="120.6553385">
				<ele>115.800000</ele>
				<time>2019-06-08T09:48:13Z</time>
				<speed>0.113168</speed>
			</trkpt>
			<trkpt lat="24.2000692" lon="120.6553385">
				<ele>115.600000</ele>
				<time>2019-06-08T09:48:14Z</time>
				<speed>0.153806</speed>
			</trkpt>
			<trkpt lat="24.2000692" lon="120.6553385">
				<ele>115.700000</ele>
				<time>2019-06-08T09:48:15Z</time>
				<speed>0.123970</speed>
			</trkpt>
			<trkpt lat="24.2000692" lon="120.6553385">
				<ele>115.600000</ele>
				<time>2019-06-08T09:48:16Z</time>
				<speed>0.108538</speed>
			</trkpt>
			<trkpt lat="24.2000692" lon="120.6553385">
				<ele>115.500000</ele>
				<time>2019-06-08T09:48:17Z</time>
				<speed>0.121398</speed>
			</trkpt>
			<trkpt lat="24.2000692" lon="120.6553385">
				<ele>115.600000</ele>
				<time>2019-06-08T09:48:18Z</time>
				<speed>0.070473</speed>
			</trkpt>
			<trkpt lat="24.2000692" lon="120.6553385">
				<ele>115.400000</ele>
				<time>2019-06-08T09:48:19Z</time>
				<speed>0.092592</speed>
			</trkpt>
			<trkpt lat="24.2000692" lon="120.6553385">
				<ele>115.400000</ele>
				<time>2019-06-08T09:48:20Z</time>
				<speed>0.133230</speed>
			</trkpt>
			<trkpt lat="24.2000692" lon="120.6553385">
				<ele>115.400000</ele>
				<time>2019-06-08T09:48:21Z</time>
				<speed>0.065843</speed>
			</trkpt>
			<trkpt lat="24.2000692" lon="120.6553385">
				<ele>115.300000</ele>
				<time>2019-06-08T09:48:22Z</time>
				<speed>0.007716</speed>
			</trkpt>
			<trkpt lat="24.2000692" lon="120.6553385">
				<ele>115.400000</ele>
				<time>2019-06-08T09:48:23Z</time>
				<speed>0.087448</speed>
			</trkpt>
			<trkpt lat="24.2000692" lon="120.6553385">
				<ele>115.300000</ele>
				<time>2019-06-08T09:48:24Z</time>
				<speed>0.101851</speed>
			</trkpt>
			<trkpt lat="24.2000692" lon="120.6553385">
				<ele>115.500000</ele>
				<time>2019-06-08T09:48:25Z</time>
				<speed>0.099794</speed>
			</trkpt>
			<trkpt lat="24.2000692" lon="120.6553385">
				<ele>115.600000</ele>
				<time>2019-06-08T09:48:26Z</time>
				<speed>0.045782</speed>
			</trkpt>
			<trkpt lat="24.2000692" lon="120.6553385">
				<ele>115.600000</ele>
				<time>2019-06-08T09:48:27Z</time>
				<speed>0.037551</speed>
			</trkpt>
			<trkpt lat="24.2000651" lon="120.6553385">
				<ele>115.500000</ele>
				<time>2019-06-08T09:48:28Z</time>
				<speed>0.161007</speed>
			</trkpt>
			<trkpt lat="24.2000651" lon="120.6553385">
				<ele>115.600000</ele>
				<time>2019-06-08T09:48:29Z</time>
				<speed>0.140946</speed>
			</trkpt>
			<trkpt lat="24.2000651" lon="120.6553385">
				<ele>115.800000</ele>
				<time>2019-06-08T09:48:30Z</time>
				<speed>0.077674</speed>
			</trkpt>
			<trkpt lat="24.2000692" lon="120.6553385">
				<ele>116.100000</ele>
				<time>2019-06-08T09:48:31Z</time>
				<speed>0.017490</speed>
			</trkpt>
			<trkpt lat="24.2000692" lon="120.6553385">
				<ele>116.300000</ele>
				<time>2019-06-08T09:48:32Z</time>
				<speed>0.013889</speed>
			</trkpt>
			<trkpt lat="24.2000692" lon="120.6553385">
				<ele>116.500000</ele>
				<time>2019-06-08T09:48:33Z</time>
				<speed>0.012860</speed>
			</trkpt>
			<trkpt lat="24.2000732" lon="120.6553548">
				<ele>116.700000</ele>
				<time>2019-06-08T09:48:34Z</time>
				<speed>0.025720</speed>
			</trkpt>
			<trkpt lat="24.2000732" lon="120.6553548">
				<ele>116.800000</ele>
				<time>2019-06-08T09:48:35Z</time>
				<speed>0.065843</speed>
			</trkpt>
			<trkpt lat="24.2000692" lon="120.6553548">
				<ele>116.900000</ele>
				<time>2019-06-08T09:48:36Z</time>
				<speed>0.047325</speed>
			</trkpt>
			<trkpt lat="24.2000692" lon="120.6553548">
				<ele>117.000000</ele>
				<time>2019-06-08T09:48:37Z</time>
				<speed>0.034979</speed>
			</trkpt>
			<trkpt lat="24.2000732" lon="120.6553548">
				<ele>117.100000</ele>
				<time>2019-06-08T09:48:38Z</time>
				<speed>0.044753</speed>
			</trkpt>
			<trkpt lat="24.2000732" lon="120.6553548">
				<ele>117.100000</ele>
				<time>2019-06-08T09:48:39Z</time>
				<speed>0.023148</speed>
			</trkpt>
			<trkpt lat="24.2000732" lon="120.6553548">
				<ele>117.200000</ele>
				<time>2019-06-08T09:48:40Z</time>
				<speed>0.011831</speed>
			</trkpt>
			<trkpt lat="24.2000732" lon="120.6553548">
				<ele>117.300000</ele>
				<time>2019-06-08T09:48:41Z</time>
				<speed>0.018518</speed>
			</trkpt>
			<trkpt lat="24.2000732" lon="120.6553548">
				<ele>117.500000</ele>
				<time>2019-06-08T09:48:42Z</time>
				<speed>0.066358</speed>
			</trkpt>
			<trkpt lat="24.2000732" lon="120.6553548">
				<ele>117.500000</ele>
				<time>2019-06-08T09:48:43Z</time>
				<speed>0.044238</speed>
			</trkpt>
			<trkpt lat="24.2000732" lon="120.6553548">
				<ele>117.600000</ele>
				<time>2019-06-08T09:48:44Z</time>
				<speed>0.032407</speed>
			</trkpt>
			<trkpt lat="24.2000773" lon="120.6553548">
				<ele>117.700000</ele>
				<time>2019-06-08T09:48:45Z</time>
				<speed>0.054526</speed>
			</trkpt>
			<trkpt lat="24.2000773" lon="120.6553548">
				<ele>117.900000</ele>
				<time>2019-06-08T09:48:46Z</time>
				<speed>0.062242</speed>
			</trkpt>
			<trkpt lat="24.2000773" lon="120.6553548">
				<ele>117.900000</ele>
				<time>2019-06-08T09:48:47Z</time>
				<speed>0.077674</speed>
			</trkpt>
			<trkpt lat="24.2000773" lon="120.6553548">
				<ele>117.900000</ele>
				<time>2019-06-08T09:48:48Z</time>
				<speed>0.044753</speed>
			</trkpt>
			<trkpt lat="24.2000773" lon="120.6553548">
				<ele>117.800000</ele>
				<time>2019-06-08T09:48:49Z</time>
				<speed>0.023662</speed>
			</trkpt>
			<trkpt lat="24.2000773" lon="120.6553548">
				<ele>117.900000</ele>
				<time>2019-06-08T09:48:50Z</time>
				<speed>0.058127</speed>
			</trkpt>
			<trkpt lat="24.2000814" lon="120.6553548">
				<ele>118.100000</ele>
				<time>2019-06-08T09:48:51Z</time>
				<speed>0.060699</speed>
			</trkpt>
			<trkpt lat="24.2000814" lon="120.6553548">
				<ele>118.200000</ele>
				<time>2019-06-08T09:48:52Z</time>
				<speed>0.076646</speed>
			</trkpt>
			<trkpt lat="24.2000854" lon="120.6553548">
				<ele>118.300000</ele>
				<time>2019-06-08T09:48:53Z</time>
				<speed>0.080761</speed>
			</trkpt>
			<trkpt lat="24.2000854" lon="120.6553548">
				<ele>118.400000</ele>
				<time>2019-06-08T09:48:54Z</time>
				<speed>0.076131</speed>
			</trkpt>
			<trkpt lat="24.2000854" lon="120.6553548">
				<ele>118.400000</ele>
				<time>2019-06-08T09:48:55Z</time>
				<speed>0.106481</speed>
			</trkpt>
			<trkpt lat="24.2000895" lon="120.6553548">
				<ele>118.400000</ele>
				<time>2019-06-08T09:48:56Z</time>
				<speed>0.013889</speed>
			</trkpt>
			<trkpt lat="24.2000895" lon="120.6553548">
				<ele>118.500000</ele>
				<time>2019-06-08T09:48:57Z</time>
				<speed>0.032407</speed>
			</trkpt>
			<trkpt lat="24.2000895" lon="120.6553548">
				<ele>118.500000</ele>
				<time>2019-06-08T09:48:58Z</time>
				<speed>0.102880</speed>
			</trkpt>
			<trkpt lat="24.2000936" lon="120.6553548">
				<ele>118.800000</ele>
				<time>2019-06-08T09:48:59Z</time>
				<speed>0.042695</speed>
			</trkpt>
			<trkpt lat="24.2000936" lon="120.6553548">
				<ele>118.800000</ele>
				<time>2019-06-08T09:49:00Z</time>
				<speed>0.061214</speed>
			</trkpt>
			<trkpt lat="24.2000936" lon="120.6553548">
				<ele>118.800000</ele>
				<time>2019-06-08T09:49:01Z</time>
				<speed>0.050926</speed>
			</trkpt>
			<trkpt lat="24.2000977" lon="120.6553548">
				<ele>119.000000</ele>
				<time>2019-06-08T09:49:02Z</time>
				<speed>0.113168</speed>
			</trkpt>
			<trkpt lat="24.2000977" lon="120.6553548">
				<ele>119.200000</ele>
				<time>2019-06-08T09:49:03Z</time>
				<speed>0.027778</speed>
			</trkpt>
			<trkpt lat="24.2000977" lon="120.6553548">
				<ele>119.400000</ele>
				<time>2019-06-08T09:49:04Z</time>
				<speed>0.043210</speed>
			</trkpt>
			<trkpt lat="24.2000977" lon="120.6553548">
				<ele>119.400000</ele>
				<time>2019-06-08T09:49:05Z</time>
				<speed>0.037551</speed>
			</trkpt>
			<trkpt lat="24.2000977" lon="120.6553548">
				<ele>119.700000</ele>
				<time>2019-06-08T09:49:06Z</time>
				<speed>0.783431</speed>
			</trkpt>
			<trkpt lat="24.2000773" lon="120.6553548">
				<ele>119.600000</ele>
				<time>2019-06-08T09:49:07Z</time>
				<speed>2.615724</speed>
			</trkpt>
			<trkpt lat="24.2000529" lon="120.6553874">
				<ele>119.600000</ele>
				<time>2019-06-08T09:49:08Z</time>
				<speed>3.714483</speed>
			</trkpt>
			<trkpt lat="24.2000122" lon="120.6554036">
				<ele>119.700000</ele>
				<time>2019-06-08T09:49:09Z</time>
				<speed>5.340501</speed>
			</trkpt>
			<trkpt lat="24.1999634" lon="120.6554362">
				<ele>119.700000</ele>
				<time>2019-06-08T09:49:10Z</time>
				<speed>6.238643</speed>
			</trkpt>
			<trkpt lat="24.1999064" lon="120.6554687">
				<ele>120.000000</ele>
				<time>2019-06-08T09:49:11Z</time>
				<speed>6.974750</speed>
			</trkpt>
			<trkpt lat="24.1998413" lon="120.6555013">
				<ele>120.800000</ele>
				<time>2019-06-08T09:49:12Z</time>
				<speed>8.226285</speed>
			</trkpt>
			<trkpt lat="24.1997640" lon="120.6555501">
				<ele>120.900000</ele>
				<time>2019-06-08T09:49:13Z</time>
				<speed>9.380598</speed>
			</trkpt>
			<trkpt lat="24.1996826" lon="120.6555990">
				<ele>121.500000</ele>
				<time>2019-06-08T09:49:14Z</time>
				<speed>10.081726</speed>
			</trkpt>
			<trkpt lat="24.1995931" lon="120.6556315">
				<ele>121.800000</ele>
				<time>2019-06-08T09:49:15Z</time>
				<speed>10.726784</speed>
			</trkpt>
			<trkpt lat="24.1995076" lon="120.6556966">
				<ele>122.400000</ele>
				<time>2019-06-08T09:49:16Z</time>
				<speed>11.335833</speed>
			</trkpt>
			<trkpt lat="24.1994181" lon="120.6557454">
				<ele>122.400000</ele>
				<time>2019-06-08T09:49:17Z</time>
				<speed>11.635728</speed>
			</trkpt>
			<trkpt lat="24.1993286" lon="120.6558105">
				<ele>122.800000</ele>
				<time>2019-06-08T09:49:18Z</time>
				<speed>12.155787</speed>
			</trkpt>
			<trkpt lat="24.1992350" lon="120.6558757">
				<ele>123.200000</ele>
				<time>2019-06-08T09:49:19Z</time>
				<speed>12.455167</speed>
			</trkpt>
			<trkpt lat="24.1991252" lon="120.6559408">
				<ele>123.500000</ele>
				<time>2019-06-08T09:49:20Z</time>
				<speed>14.245280</speed>
			</trkpt>
			<trkpt lat="24.1990153" lon="120.6560221">
				<ele>124.000000</ele>
				<time>2019-06-08T09:49:21Z</time>
				<speed>0.000000</speed>
			</trkpt>
			<trkpt lat="24.1989014" lon="120.6560872">
				<ele>124.400000</ele>
				<time>2019-06-08T09:49:22Z</time>
				<speed>14.581183</speed>
			</trkpt>
			<trkpt lat="24.1987874" lon="120.6561686">
				<ele>124.600000</ele>
				<time>2019-06-08T09:49:23Z</time>
				<speed>14.476759</speed>
			</trkpt>
			<trkpt lat="24.1986735" lon="120.6562337">
				<ele>124.700000</ele>
				<time>2019-06-08T09:49:24Z</time>
				<speed>13.926865</speed>
			</trkpt>
			<trkpt lat="24.1985718" lon="120.6562988">
				<ele>125.700000</ele>
				<time>2019-06-08T09:49:25Z</time>
				<speed>13.261232</speed>
			</trkpt>
			<trkpt lat="24.1984741" lon="120.6563639">
				<ele>125.700000</ele>
				<time>2019-06-08T09:49:26Z</time>
				<speed>12.238091</speed>
			</trkpt>
			<trkpt lat="24.1983765" lon="120.6564128">
				<ele>125.400000</ele>
				<time>2019-06-08T09:49:27Z</time>
				<speed>11.414021</speed>
			</trkpt>
			<trkpt lat="24.1983032" lon="120.6564616">
				<ele>127.600000</ele>
				<time>2019-06-08T09:49:28Z</time>
				<speed>10.727812</speed>
			</trkpt>
			<trkpt lat="24.1982137" lon="120.6565104">
				<ele>127.200000</ele>
				<time>2019-06-08T09:49:29Z</time>
				<speed>10.093043</speed>
			</trkpt>
			<trkpt lat="24.1981405" lon="120.6565592">
				<ele>127.500000</ele>
				<time>2019-06-08T09:49:30Z</time>
				<speed>9.260229</speed>
			</trkpt>
			<trkpt lat="24.1980672" lon="120.6566081">
				<ele>127.500000</ele>
				<time>2019-06-08T09:49:31Z</time>
				<speed>8.963935</speed>
			</trkpt>
			<trkpt lat="24.1979980" lon="120.6566406">
				<ele>127.200000</ele>
				<time>2019-06-08T09:49:32Z</time>
				<speed>7.991719</speed>
			</trkpt>
			<trkpt lat="24.1979289" lon="120.6566732">
				<ele>127.400000</ele>
				<time>2019-06-08T09:49:33Z</time>
				<speed>8.270523</speed>
			</trkpt>
			<trkpt lat="24.1978638" lon="120.6567220">
				<ele>127.900000</ele>
				<time>2019-06-08T09:49:34Z</time>
				<speed>8.655295</speed>
			</trkpt>
			<trkpt lat="24.1977865" lon="120.6567546">
				<ele>128.100000</ele>
				<time>2019-06-08T09:49:35Z</time>
				<speed>9.315269</speed>
			</trkpt>
			<trkpt lat="24.1977010" lon="120.6568034">
				<ele>128.700000</ele>
				<time>2019-06-08T09:49:36Z</time>
				<speed>9.961870</speed>
			</trkpt>
			<trkpt lat="24.1976237" lon="120.6568522">
				<ele>128.800000</ele>
				<time>2019-06-08T09:49:37Z</time>
				<speed>9.870307</speed>
			</trkpt>
			<trkpt lat="24.1975423" lon="120.6569010">
				<ele>129.100000</ele>
				<time>2019-06-08T09:49:38Z</time>
				<speed>10.652195</speed>
			</trkpt>
			<trkpt lat="24.1974731" lon="120.6569499">
				<ele>130.700000</ele>
				<time>2019-06-08T09:49:39Z</time>
				<speed>10.558060</speed>
			</trkpt>
			<trkpt lat="24.1973836" lon="120.6570150">
				<ele>130.700000</ele>
				<time>2019-06-08T09:49:40Z</time>
				<speed>11.046740</speed>
			</trkpt>
			<trkpt lat="24.1972900" lon="120.6570638">
				<ele>130.900000</ele>
				<time>2019-06-08T09:49:41Z</time>
				<speed>11.655790</speed>
			</trkpt>
			<trkpt lat="24.1971924" lon="120.6571289">
				<ele>131.000000</ele>
				<time>2019-06-08T09:49:42Z</time>
				<speed>12.103317</speed>
			</trkpt>
			<trkpt lat="24.1970866" lon="120.6571940">
				<ele>130.700000</ele>
				<time>2019-06-08T09:49:43Z</time>
				<speed>12.915041</speed>
			</trkpt>
			<trkpt lat="24.1969849" lon="120.6572591">
				<ele>130.600000</ele>
				<time>2019-06-08T09:49:44Z</time>
				<speed>13.125431</speed>
			</trkpt>
			<trkpt lat="24.1968791" lon="120.6573242">
				<ele>130.400000</ele>
				<time>2019-06-08T09:49:45Z</time>
				<speed>13.136747</speed>
			</trkpt>
			<trkpt lat="24.1967733" lon="120.6573893">
				<ele>130.300000</ele>
				<time>2019-06-08T09:49:46Z</time>
				<speed>13.436643</speed>
			</trkpt>
			<trkpt lat="24.1966634" lon="120.6574544">
				<ele>130.900000</ele>
				<time>2019-06-08T09:49:47Z</time>
				<speed>13.688184</speed>
			</trkpt>
			<trkpt lat="24.1965535" lon="120.6575195">
				<ele>131.100000</ele>
				<time>2019-06-08T09:49:48Z</time>
				<speed>13.821928</speed>
			</trkpt>
			<trkpt lat="24.1964355" lon="120.6576009">
				<ele>131.300000</ele>
				<time>2019-06-08T09:49:49Z</time>
				<speed>14.399599</speed>
			</trkpt>
			<trkpt lat="24.1963257" lon="120.6576660">
				<ele>130.400000</ele>
				<time>2019-06-08T09:49:50Z</time>
				<speed>14.326554</speed>
			</trkpt>
			<trkpt lat="24.1962199" lon="120.6577311">
				<ele>129.300000</ele>
				<time>2019-06-08T09:49:51Z</time>
				<speed>13.725735</speed>
			</trkpt>
			<trkpt lat="24.1961182" lon="120.6577962">
				<ele>128.000000</ele>
				<time>2019-06-08T09:49:52Z</time>
				<speed>13.138805</speed>
			</trkpt>
			<trkpt lat="24.1960083" lon="120.6578613">
				<ele>127.100000</ele>
				<time>2019-06-08T09:49:53Z</time>
				<speed>13.276664</speed>
			</trkpt>
			<trkpt lat="24.1959025" lon="120.6579264">
				<ele>126.700000</ele>
				<time>2019-06-08T09:49:54Z</time>
				<speed>13.057015</speed>
			</trkpt>
			<trkpt lat="24.1958049" lon="120.6579915">
				<ele>126.300000</ele>
				<time>2019-06-08T09:49:55Z</time>
				<speed>12.946934</speed>
			</trkpt>
			<trkpt lat="24.1956991" lon="120.6580566">
				<ele>125.900000</ele>
				<time>2019-06-08T09:49:56Z</time>
				<speed>13.671209</speed>
			</trkpt>
			<trkpt lat="24.1955973" lon="120.6581217">
				<ele>125.300000</ele>
				<time>2019-06-08T09:49:57Z</time>
				<speed>13.496828</speed>
			</trkpt>
			<trkpt lat="24.1954997" lon="120.6582031">
				<ele>125.500000</ele>
				<time>2019-06-08T09:49:58Z</time>
				<speed>13.369256</speed>
			</trkpt>
			<trkpt lat="24.1953857" lon="120.6582682">
				<ele>126.300000</ele>
				<time>2019-06-08T09:49:59Z</time>
				<speed>13.761229</speed>
			</trkpt>
			<trkpt lat="24.1952677" lon="120.6583333">
				<ele>126.700000</ele>
				<time>2019-06-08T09:50:00Z</time>
				<speed>14.079643</speed>
			</trkpt>
			<trkpt lat="24.1951538" lon="120.6584147">
				<ele>126.500000</ele>
				<time>2019-06-08T09:50:01Z</time>
				<speed>14.932517</speed>
			</trkpt>
			<trkpt lat="24.1950439" lon="120.6584798">
				<ele>125.400000</ele>
				<time>2019-06-08T09:50:02Z</time>
				<speed>14.558035</speed>
			</trkpt>
			<trkpt lat="24.1949300" lon="120.6585612">
				<ele>126.200000</ele>
				<time>2019-06-08T09:50:03Z</time>
				<speed>15.138278</speed>
			</trkpt>
			<trkpt lat="24.1948120" lon="120.6586263">
				<ele>124.800000</ele>
				<time>2019-06-08T09:50:04Z</time>
				<speed>14.969554</speed>
			</trkpt>
			<trkpt lat="24.1946981" lon="120.6586914">
				<ele>124.000000</ele>
				<time>2019-06-08T09:50:05Z</time>
				<speed>14.877477</speed>
			</trkpt>
			<trkpt lat="24.1946004" lon="120.6587728">
				<ele>126.100000</ele>
				<time>2019-06-08T09:50:06Z</time>
				<speed>14.864102</speed>
			</trkpt>
			<trkpt lat="24.1944865" lon="120.6588542">
				<ele>126.200000</ele>
				<time>2019-06-08T09:50:07Z</time>
				<speed>14.966983</speed>
			</trkpt>
			<trkpt lat="24.1943807" lon="120.6589355">
				<ele>127.300000</ele>
				<time>2019-06-08T09:50:08Z</time>
				<speed>15.221096</speed>
			</trkpt>
			<trkpt lat="24.1942708" lon="120.6590169">
				<ele>127.500000</ele>
				<time>2019-06-08T09:50:09Z</time>
				<speed>15.321404</speed>
			</trkpt>
			<trkpt lat="24.1941488" lon="120.6590983">
				<ele>126.700000</ele>
				<time>2019-06-08T09:50:10Z</time>
				<speed>15.466465</speed>
			</trkpt>
			<trkpt lat="24.1940267" lon="120.6591634">
				<ele>126.800000</ele>
				<time>2019-06-08T09:50:11Z</time>
				<speed>15.495786</speed>
			</trkpt>
			<trkpt lat="24.1939046" lon="120.6592448">
				<ele>127.000000</ele>
				<time>2019-06-08T09:50:12Z</time>
				<speed>15.668109</speed>
			</trkpt>
			<trkpt lat="24.1937744" lon="120.6593262">
				<ele>128.100000</ele>
				<time>2019-06-08T09:50:13Z</time>
				<speed>16.117695</speed>
			</trkpt>
			<trkpt lat="24.1935221" lon="120.6595052">
				<ele>128.700000</ele>
				<time>2019-06-08T09:50:15Z</time>
				<speed>16.224691</speed>
			</trkpt>
			<trkpt lat="24.1933960" lon="120.6595866">
				<ele>128.600000</ele>
				<time>2019-06-08T09:50:16Z</time>
				<speed>16.277159</speed>
			</trkpt>
			<trkpt lat="24.1932699" lon="120.6596680">
				<ele>127.800000</ele>
				<time>2019-06-08T09:50:17Z</time>
				<speed>16.120267</speed>
			</trkpt>
			<trkpt lat="24.1931437" lon="120.6597493">
				<ele>127.400000</ele>
				<time>2019-06-08T09:50:18Z</time>
				<speed>15.835804</speed>
			</trkpt>
			<trkpt lat="24.1930216" lon="120.6598145">
				<ele>127.000000</ele>
				<time>2019-06-08T09:50:19Z</time>
				<speed>15.467494</speed>
			</trkpt>
			<trkpt lat="24.1929077" lon="120.6598958">
				<ele>126.600000</ele>
				<time>2019-06-08T09:50:20Z</time>
				<speed>14.803917</speed>
			</trkpt>
			<trkpt lat="24.1927897" lon="120.6599609">
				<ele>125.800000</ele>
				<time>2019-06-08T09:50:21Z</time>
				<speed>14.061639</speed>
			</trkpt>
			<trkpt lat="24.1926961" lon="120.6600260">
				<ele>125.800000</ele>
				<time>2019-06-08T09:50:22Z</time>
				<speed>13.390861</speed>
			</trkpt>
			<trkpt lat="24.1926025" lon="120.6600911">
				<ele>127.200000</ele>
				<time>2019-06-08T09:50:23Z</time>
				<speed>12.682017</speed>
			</trkpt>
			<trkpt lat="24.1925008" lon="120.6601400">
				<ele>126.500000</ele>
				<time>2019-06-08T09:50:24Z</time>
				<speed>12.129552</speed>
			</trkpt>
			<trkpt lat="24.1923991" lon="120.6601888">
				<ele>126.800000</ele>
				<time>2019-06-08T09:50:25Z</time>
				<speed>11.651160</speed>
			</trkpt>
			<trkpt lat="24.1923136" lon="120.6602376">
				<ele>127.200000</ele>
				<time>2019-06-08T09:50:26Z</time>
				<speed>11.134702</speed>
			</trkpt>
			<trkpt lat="24.1922323" lon="120.6602702">
				<ele>126.400000</ele>
				<time>2019-06-08T09:50:27Z</time>
				<speed>10.258680</speed>
			</trkpt>
			<trkpt lat="24.1921509" lon="120.6603190">
				<ele>125.200000</ele>
				<time>2019-06-08T09:50:28Z</time>
				<speed>9.903743</speed>
			</trkpt>
			<trkpt lat="24.1920736" lon="120.6603678">
				<ele>125.300000</ele>
				<time>2019-06-08T09:50:29Z</time>
				<speed>9.586358</speed>
			</trkpt>
			<trkpt lat="24.1920044" lon="120.6604004">
				<ele>124.700000</ele>
				<time>2019-06-08T09:50:30Z</time>
				<speed>8.945416</speed>
			</trkpt>
			<trkpt lat="24.1919434" lon="120.6604329">
				<ele>124.900000</ele>
				<time>2019-06-08T09:50:31Z</time>
				<speed>8.342539</speed>
			</trkpt>
			<trkpt lat="24.1918905" lon="120.6604655">
				<ele>123.300000</ele>
				<time>2019-06-08T09:50:32Z</time>
				<speed>7.254583</speed>
			</trkpt>
			<trkpt lat="24.1918376" lon="120.6604818">
				<ele>123.200000</ele>
				<time>2019-06-08T09:50:33Z</time>
				<speed>6.450576</speed>
			</trkpt>
			<trkpt lat="24.1918009" lon="120.6605143">
				<ele>122.300000</ele>
				<time>2019-06-08T09:50:34Z</time>
				<speed>4.895545</speed>
			</trkpt>
			<trkpt lat="24.1917806" lon="120.6605306">
				<ele>122.400000</ele>
				<time>2019-06-08T09:50:35Z</time>
				<speed>3.673845</speed>
			</trkpt>
			<trkpt lat="24.1917684" lon="120.6605469">
				<ele>122.100000</ele>
				<time>2019-06-08T09:50:36Z</time>
				<speed>2.345150</speed>
			</trkpt>
			<trkpt lat="24.1917603" lon="120.6605469">
				<ele>120.900000</ele>
				<time>2019-06-08T09:50:37Z</time>
				<speed>1.520566</speed>
			</trkpt>
			<trkpt lat="24.1917603" lon="120.6605306">
				<ele>120.800000</ele>
				<time>2019-06-08T09:50:38Z</time>
				<speed>0.751538</speed>
			</trkpt>
			<trkpt lat="24.1917603" lon="120.6605306">
				<ele>120.800000</ele>
				<time>2019-06-08T09:50:38Z</time>
				<speed>0.751538</speed>
			</trkpt>
		</trkseg>
	</trk>
</gpx>