<?xml version='1.0' encoding='utf-8'?>
<gpx xmlns="http://www.topografix.com/GPX/1/1" xmlns:xsi="http://www.w3.org/2001/XMLSchema-instance" creator="Astro Gemini" version="1.0" xsi:schemaLocation="http://www.topografix.com/GPX/1/0 http://www.topografix.com/GPX/1/0/gpx.xsd">
	<trk>
		<name>FRON0665</name>
		<trkseg>
			<trkpt lat="24.2927327" lon="120.6270833">
				<ele>185.100000</ele>
				<time>2019-06-08T09:14:41Z</time>
				<speed>11.804965</speed>
			</trkpt>
			<trkpt lat="24.2927124" lon="120.6269531">
				<ele>185.400000</ele>
				<time>2019-06-08T09:14:42Z</time>
				<speed>12.253522</speed>
			</trkpt>
			<trkpt lat="24.2927124" lon="120.6269531">
				<ele>185.700000</ele>
				<time>2019-06-08T09:14:42Z</time>
				<speed>12.253522</speed>
			</trkpt>
			<trkpt lat="24.2926595" lon="120.6267090">
				<ele>186.300000</ele>
				<time>2019-06-08T09:14:44Z</time>
				<speed>12.633150</speed>
			</trkpt>
			<trkpt lat="24.2926310" lon="120.6265788">
				<ele>186.700000</ele>
				<time>2019-06-08T09:14:45Z</time>
				<speed>12.547245</speed>
			</trkpt>
			<trkpt lat="24.2925944" lon="120.6264648">
				<ele>187.100000</ele>
				<time>2019-06-08T09:14:46Z</time>
				<speed>12.120807</speed>
			</trkpt>
			<trkpt lat="24.2925456" lon="120.6263672">
				<ele>187.800000</ele>
				<time>2019-06-08T09:14:47Z</time>
				<speed>12.178420</speed>
			</trkpt>
			<trkpt lat="24.2925049" lon="120.6262533">
				<ele>188.400000</ele>
				<time>2019-06-08T09:14:48Z</time>
				<speed>12.154757</speed>
			</trkpt>
			<trkpt lat="24.2924764" lon="120.6261393">
				<ele>188.800000</ele>
				<time>2019-06-08T09:14:49Z</time>
				<speed>12.216486</speed>
			</trkpt>
			<trkpt lat="24.2924561" lon="120.6260254">
				<ele>189.900000</ele>
				<time>2019-06-08T09:14:50Z</time>
				<speed>12.573480</speed>
			</trkpt>
			<trkpt lat="24.2924316" lon="120.6258952">
				<ele>190.400000</ele>
				<time>2019-06-08T09:14:51Z</time>
				<speed>12.668129</speed>
			</trkpt>
			<trkpt lat="24.2924235" lon="120.6257813">
				<ele>191.400000</ele>
				<time>2019-06-08T09:14:52Z</time>
				<speed>12.530784</speed>
			</trkpt>
			<trkpt lat="24.2924316" lon="120.6256510">
				<ele>192.300000</ele>
				<time>2019-06-08T09:14:53Z</time>
				<speed>12.275128</speed>
			</trkpt>
			<trkpt lat="24.2924601" lon="120.6255046">
				<ele>193.000000</ele>
				<time>2019-06-08T09:14:54Z</time>
				<speed>12.933559</speed>
			</trkpt>
			<trkpt lat="24.2924723" lon="120.6253743">
				<ele>193.400000</ele>
				<time>2019-06-08T09:14:55Z</time>
				<speed>13.346108</speed>
			</trkpt>
			<trkpt lat="24.2924886" lon="120.6252279">
				<ele>1.000000</ele>
				<time>2019-06-08T09:14:56Z</time>
				<speed>13.651661</speed>
			</trkpt>
			<trkpt lat="24.2925090" lon="120.6250977">
				<ele>194.400000</ele>
				<time>2019-06-08T09:14:57Z</time>
				<speed>13.970076</speed>
			</trkpt>
			<trkpt lat="24.2925212" lon="120.6249512">
				<ele>195.500000</ele>
				<time>2019-06-08T09:14:58Z</time>
				<speed>14.356390</speed>
			</trkpt>
			<trkpt lat="24.2925334" lon="120.6248047">
				<ele>196.100000</ele>
				<time>2019-06-08T09:14:59Z</time>
				<speed>14.346102</speed>
			</trkpt>
			<trkpt lat="24.2925537" lon="120.6246582">
				<ele>196.700000</ele>
				<time>2019-06-08T09:15:00Z</time>
				<speed>14.426348</speed>
			</trkpt>
			<trkpt lat="24.2925700" lon="120.6245117">
				<ele>197.200000</ele>
				<time>2019-06-08T09:15:01Z</time>
				<speed>14.624392</speed>
			</trkpt>
			<trkpt lat="24.2925944" lon="120.6243815">
				<ele>197.800000</ele>
				<time>2019-06-08T09:15:02Z</time>
				<speed>14.379538</speed>
			</trkpt>
			<trkpt lat="24.2926147" lon="120.6242350">
				<ele>198.600000</ele>
				<time>2019-06-08T09:15:03Z</time>
				<speed>14.034890</speed>
			</trkpt>
			<trkpt lat="24.2926392" lon="120.6240885">
				<ele>199.200000</ele>
				<time>2019-06-08T09:15:04Z</time>
				<speed>14.303406</speed>
			</trkpt>
			<trkpt lat="24.2926636" lon="120.6239583">
				<ele>199.800000</ele>
				<time>2019-06-08T09:15:05Z</time>
				<speed>14.247337</speed>
			</trkpt>
			<trkpt lat="24.2926880" lon="120.6238118">
				<ele>200.300000</ele>
				<time>2019-06-08T09:15:06Z</time>
				<speed>14.423776</speed>
			</trkpt>
			<trkpt lat="24.2927083" lon="120.6236816">
				<ele>201.000000</ele>
				<time>2019-06-08T09:15:07Z</time>
				<speed>14.113079</speed>
			</trkpt>
			<trkpt lat="24.2927205" lon="120.6235352">
				<ele>201.400000</ele>
				<time>2019-06-08T09:15:08Z</time>
				<speed>14.410916</speed>
			</trkpt>
			<trkpt lat="24.2927287" lon="120.6233887">
				<ele>202.500000</ele>
				<time>2019-06-08T09:15:09Z</time>
				<speed>14.331184</speed>
			</trkpt>
			<trkpt lat="24.2927368" lon="120.6232585">
				<ele>203.100000</ele>
				<time>2019-06-08T09:15:10Z</time>
				<speed>14.261226</speed>
			</trkpt>
			<trkpt lat="24.2927409" lon="120.6231283">
				<ele>203.600000</ele>
				<time>2019-06-08T09:15:11Z</time>
				<speed>14.158346</speed>
			</trkpt>
			<trkpt lat="24.2927368" lon="120.6229980">
				<ele>204.400000</ele>
				<time>2019-06-08T09:15:12Z</time>
				<speed>13.810611</speed>
			</trkpt>
			<trkpt lat="24.2927287" lon="120.6228841">
				<ele>205.600000</ele>
				<time>2019-06-08T09:15:13Z</time>
				<speed>13.120801</speed>
			</trkpt>
			<trkpt lat="24.2927124" lon="120.6227539">
				<ele>206.100000</ele>
				<time>2019-06-08T09:15:14Z</time>
				<speed>12.848684</speed>
			</trkpt>
			<trkpt lat="24.2927205" lon="120.6226400">
				<ele>206.700000</ele>
				<time>2019-06-08T09:15:15Z</time>
				<speed>12.601257</speed>
			</trkpt>
			<trkpt lat="24.2927246" lon="120.6225260">
				<ele>207.300000</ele>
				<time>2019-06-08T09:15:16Z</time>
				<speed>12.263296</speed>
			</trkpt>
			<trkpt lat="24.2927287" lon="120.6223958">
				<ele>208.000000</ele>
				<time>2019-06-08T09:15:17Z</time>
				<speed>12.659898</speed>
			</trkpt>
			<trkpt lat="24.2927287" lon="120.6222656">
				<ele>208.700000</ele>
				<time>2019-06-08T09:15:18Z</time>
				<speed>12.900123</speed>
			</trkpt>
			<trkpt lat="24.2927287" lon="120.6221354">
				<ele>209.400000</ele>
				<time>2019-06-08T09:15:19Z</time>
				<speed>13.076048</speed>
			</trkpt>
			<trkpt lat="24.2927368" lon="120.6220052">
				<ele>210.500000</ele>
				<time>2019-06-08T09:15:20Z</time>
				<speed>12.999916</speed>
			</trkpt>
			<trkpt lat="24.2927531" lon="120.6218750">
				<ele>211.500000</ele>
				<time>2019-06-08T09:15:21Z</time>
				<speed>13.142405</speed>
			</trkpt>
			<trkpt lat="24.2927612" lon="120.6217448">
				<ele>212.600000</ele>
				<time>2019-06-08T09:15:22Z</time>
				<speed>13.191788</speed>
			</trkpt>
			<trkpt lat="24.2927775" lon="120.6216146">
				<ele>213.300000</ele>
				<time>2019-06-08T09:15:23Z</time>
				<speed>13.227796</speed>
			</trkpt>
			<trkpt lat="24.2928060" lon="120.6214844">
				<ele>214.300000</ele>
				<time>2019-06-08T09:15:24Z</time>
				<speed>13.126459</speed>
			</trkpt>
			<trkpt lat="24.2928345" lon="120.6213379">
				<ele>214.900000</ele>
				<time>2019-06-08T09:15:25Z</time>
				<speed>13.760714</speed>
			</trkpt>
			<trkpt lat="24.2928345" lon="120.6211914">
				<ele>215.600000</ele>
				<time>2019-06-08T09:15:26Z</time>
				<speed>14.309580</speed>
			</trkpt>
			<trkpt lat="24.2928385" lon="120.6210449">
				<ele>215.900000</ele>
				<time>2019-06-08T09:15:27Z</time>
				<speed>14.219559</speed>
			</trkpt>
			<trkpt lat="24.2928385" lon="120.6208822">
				<ele>216.600000</ele>
				<time>2019-06-08T09:15:28Z</time>
				<speed>14.505565</speed>
			</trkpt>
			<trkpt lat="24.2928345" lon="120.6207357">
				<ele>217.100000</ele>
				<time>2019-06-08T09:15:29Z</time>
				<speed>14.899082</speed>
			</trkpt>
			<trkpt lat="24.2928304" lon="120.6205729">
				<ele>217.600000</ele>
				<time>2019-06-08T09:15:30Z</time>
				<speed>14.953608</speed>
			</trkpt>
			<trkpt lat="24.2928182" lon="120.6204264">
				<ele>218.600000</ele>
				<time>2019-06-08T09:15:31Z</time>
				<speed>14.869246</speed>
			</trkpt>
			<trkpt lat="24.2928019" lon="120.6202962">
				<ele>219.300000</ele>
				<time>2019-06-08T09:15:32Z</time>
				<speed>14.575009</speed>
			</trkpt>
			<trkpt lat="24.2927897" lon="120.6201660">
				<ele>220.200000</ele>
				<time>2019-06-08T09:15:33Z</time>
				<speed>13.296726</speed>
			</trkpt>
			<trkpt lat="24.2927816" lon="120.6200521">
				<ele>221.000000</ele>
				<time>2019-06-08T09:15:34Z</time>
				<speed>12.441793</speed>
			</trkpt>
			<trkpt lat="24.2927572" lon="120.6199382">
				<ele>221.200000</ele>
				<time>2019-06-08T09:15:35Z</time>
				<speed>11.977290</speed>
			</trkpt>
			<trkpt lat="24.2927327" lon="120.6198079">
				<ele>221.600000</ele>
				<time>2019-06-08T09:15:36Z</time>
				<speed>11.674822</speed>
			</trkpt>
			<trkpt lat="24.2927124" lon="120.6196940">
				<ele>221.800000</ele>
				<time>2019-06-08T09:15:37Z</time>
				<speed>11.537478</speed>
			</trkpt>
			<trkpt lat="24.2926961" lon="120.6195801">
				<ele>222.000000</ele>
				<time>2019-06-08T09:15:38Z</time>
				<speed>11.320401</speed>
			</trkpt>
			<trkpt lat="24.2926758" lon="120.6194661">
				<ele>222.600000</ele>
				<time>2019-06-08T09:15:39Z</time>
				<speed>11.322458</speed>
			</trkpt>
			<trkpt lat="24.2926514" lon="120.6193522">
				<ele>222.600000</ele>
				<time>2019-06-08T09:15:40Z</time>
				<speed>11.101781</speed>
			</trkpt>
			<trkpt lat="24.2926147" lon="120.6192383">
				<ele>222.800000</ele>
				<time>2019-06-08T09:15:41Z</time>
				<speed>11.120813</speed>
			</trkpt>
			<trkpt lat="24.2925618" lon="120.6191406">
				<ele>222.700000</ele>
				<time>2019-06-08T09:15:42Z</time>
				<speed>11.260731</speed>
			</trkpt>
			<trkpt lat="24.2925130" lon="120.6190430">
				<ele>223.200000</ele>
				<time>2019-06-08T09:15:43Z</time>
				<speed>10.964436</speed>
			</trkpt>
			<trkpt lat="24.2924479" lon="120.6189779">
				<ele>224.200000</ele>
				<time>2019-06-08T09:15:44Z</time>
				<speed>10.291087</speed>
			</trkpt>
			<trkpt lat="24.2923665" lon="120.6188965">
				<ele>224.700000</ele>
				<time>2019-06-08T09:15:45Z</time>
				<speed>11.124929</speed>
			</trkpt>
			<trkpt lat="24.2922811" lon="120.6187988">
				<ele>223.800000</ele>
				<time>2019-06-08T09:15:46Z</time>
				<speed>11.940767</speed>
			</trkpt>
			<trkpt lat="24.2921916" lon="120.6187174">
				<ele>222.900000</ele>
				<time>2019-06-08T09:15:47Z</time>
				<speed>12.583253</speed>
			</trkpt>
			<trkpt lat="24.2921021" lon="120.6186198">
				<ele>221.700000</ele>
				<time>2019-06-08T09:15:48Z</time>
				<speed>12.888292</speed>
			</trkpt>
			<trkpt lat="24.2920085" lon="120.6185384">
				<ele>221.300000</ele>
				<time>2019-06-08T09:15:49Z</time>
				<speed>13.298784</speed>
			</trkpt>
			<trkpt lat="24.2919108" lon="120.6184408">
				<ele>221.900000</ele>
				<time>2019-06-08T09:15:50Z</time>
				<speed>13.727279</speed>
			</trkpt>
			<trkpt lat="24.2918091" lon="120.6183431">
				<ele>221.500000</ele>
				<time>2019-06-08T09:15:51Z</time>
				<speed>14.064724</speed>
			</trkpt>
			<trkpt lat="24.2917074" lon="120.6182454">
				<ele>221.800000</ele>
				<time>2019-06-08T09:15:52Z</time>
				<speed>14.337871</speed>
			</trkpt>
			<trkpt lat="24.2916056" lon="120.6181478">
				<ele>221.500000</ele>
				<time>2019-06-08T09:15:53Z</time>
				<speed>14.494763</speed>
			</trkpt>
			<trkpt lat="24.2914958" lon="120.6180339">
				<ele>221.000000</ele>
				<time>2019-06-08T09:15:54Z</time>
				<speed>15.043113</speed>
			</trkpt>
			<trkpt lat="24.2913940" lon="120.6179362">
				<ele>220.700000</ele>
				<time>2019-06-08T09:15:55Z</time>
				<speed>15.179430</speed>
			</trkpt>
			<trkpt lat="24.2912882" lon="120.6178223">
				<ele>220.600000</ele>
				<time>2019-06-08T09:15:56Z</time>
				<speed>15.461320</speed>
			</trkpt>
			<trkpt lat="24.2911825" lon="120.6177246">
				<ele>220.700000</ele>
				<time>2019-06-08T09:15:57Z</time>
				<speed>15.505559</speed>
			</trkpt>
			<trkpt lat="24.2910685" lon="120.6177246">
				<ele>220.400000</ele>
				<time>2019-06-08T09:15:58Z</time>
				<speed>343.619200</speed>
			</trkpt>
			<trkpt lat="24.2909546" lon="120.6174967">
				<ele>219.900000</ele>
				<time>2019-06-08T09:15:59Z</time>
				<speed>16.169135</speed>
			</trkpt>
			<trkpt lat="24.2908447" lon="120.6173828">
				<ele>219.600000</ele>
				<time>2019-06-08T09:16:00Z</time>
				<speed>16.062654</speed>
			</trkpt>
			<trkpt lat="24.2907349" lon="120.6172852">
				<ele>219.300000</ele>
				<time>2019-06-08T09:16:01Z</time>
				<speed>16.125926</speed>
			</trkpt>
			<trkpt lat="24.2906169" lon="120.6171712">
				<ele>218.700000</ele>
				<time>2019-06-08T09:16:02Z</time>
				<speed>16.292591</speed>
			</trkpt>
			<trkpt lat="24.2905029" lon="120.6170573">
				<ele>218.300000</ele>
				<time>2019-06-08T09:16:03Z</time>
				<speed>16.400101</speed>
			</trkpt>
			<trkpt lat="24.2903890" lon="120.6169434">
				<ele>218.000000</ele>
				<time>2019-06-08T09:16:04Z</time>
				<speed>16.395471</speed>
			</trkpt>
			<trkpt lat="24.2902791" lon="120.6168294">
				<ele>217.500000</ele>
				<time>2019-06-08T09:16:05Z</time>
				<speed>16.325513</speed>
			</trkpt>
			<trkpt lat="24.2901652" lon="120.6167155">
				<ele>217.100000</ele>
				<time>2019-06-08T09:16:06Z</time>
				<speed>16.290019</speed>
			</trkpt>
			<trkpt lat="24.2900513" lon="120.6166178">
				<ele>216.900000</ele>
				<time>2019-06-08T09:16:07Z</time>
				<speed>16.134156</speed>
			</trkpt>
			<trkpt lat="24.2899414" lon="120.6165202">
				<ele>216.300000</ele>
				<time>2019-06-08T09:16:08Z</time>
				<speed>16.100720</speed>
			</trkpt>
			<trkpt lat="24.2898275" lon="120.6163900">
				<ele>215.600000</ele>
				<time>2019-06-08T09:16:09Z</time>
				<speed>16.147016</speed>
			</trkpt>
			<trkpt lat="24.2897217" lon="120.6162923">
				<ele>215.600000</ele>
				<time>2019-06-08T09:16:10Z</time>
				<speed>15.966461</speed>
			</trkpt>
			<trkpt lat="24.2896159" lon="120.6161784">
				<ele>215.400000</ele>
				<time>2019-06-08T09:16:11Z</time>
				<speed>15.838891</speed>
			</trkpt>
			<trkpt lat="24.2895060" lon="120.6160645">
				<ele>215.500000</ele>
				<time>2019-06-08T09:16:12Z</time>
				<speed>15.757101</speed>
			</trkpt>
			<trkpt lat="24.2894002" lon="120.6159668">
				<ele>215.900000</ele>
				<time>2019-06-08T09:16:13Z</time>
				<speed>15.576546</speed>
			</trkpt>
			<trkpt lat="24.2892904" lon="120.6158691">
				<ele>215.400000</ele>
				<time>2019-06-08T09:16:14Z</time>
				<speed>15.775105</speed>
			</trkpt>
			<trkpt lat="24.2891805" lon="120.6157552">
				<ele>215.200000</ele>
				<time>2019-06-08T09:16:15Z</time>
				<speed>15.779220</speed>
			</trkpt>
			<trkpt lat="24.2890706" lon="120.6156576">
				<ele>215.100000</ele>
				<time>2019-06-08T09:16:16Z</time>
				<speed>15.770990</speed>
			</trkpt>
			<trkpt lat="24.2889608" lon="120.6155436">
				<ele>215.100000</ele>
				<time>2019-06-08T09:16:17Z</time>
				<speed>15.775105</speed>
			</trkpt>
			<trkpt lat="24.2888550" lon="120.6154460">
				<ele>214.900000</ele>
				<time>2019-06-08T09:16:18Z</time>
				<speed>15.623357</speed>
			</trkpt>
			<trkpt lat="24.2887492" lon="120.6153483">
				<ele>214.700000</ele>
				<time>2019-06-08T09:16:19Z</time>
				<speed>15.593521</speed>
			</trkpt>
			<trkpt lat="24.2886475" lon="120.6152507">
				<ele>215.000000</ele>
				<time>2019-06-08T09:16:20Z</time>
				<speed>15.409881</speed>
			</trkpt>
			<trkpt lat="24.2885376" lon="120.6151367">
				<ele>215.000000</ele>
				<time>2019-06-08T09:16:21Z</time>
				<speed>15.466465</speed>
			</trkpt>
			<trkpt lat="24.2884318" lon="120.6150391">
				<ele>215.400000</ele>
				<time>2019-06-08T09:16:22Z</time>
				<speed>15.325005</speed>
			</trkpt>
			<trkpt lat="24.2883301" lon="120.6149414">
				<ele>215.600000</ele>
				<time>2019-06-08T09:16:23Z</time>
				<speed>15.078093</speed>
			</trkpt>
			<trkpt lat="24.2882284" lon="120.6148275">
				<ele>215.600000</ele>
				<time>2019-06-08T09:16:24Z</time>
				<speed>15.088381</speed>
			</trkpt>
			<trkpt lat="24.2881266" lon="120.6147298">
				<ele>215.700000</ele>
				<time>2019-06-08T09:16:25Z</time>
				<speed>15.028710</speed>
			</trkpt>
			<trkpt lat="24.2880249" lon="120.6146322">
				<ele>215.600000</ele>
				<time>2019-06-08T09:16:26Z</time>
				<speed>15.127476</speed>
			</trkpt>
			<trkpt lat="24.2879272" lon="120.6145182">
				<ele>215.700000</ele>
				<time>2019-06-08T09:16:27Z</time>
				<speed>15.089924</speed>
			</trkpt>
			<trkpt lat="24.2878255" lon="120.6144206">
				<ele>215.800000</ele>
				<time>2019-06-08T09:16:28Z</time>
				<speed>15.014821</speed>
			</trkpt>
			<trkpt lat="24.2877279" lon="120.6143229">
				<ele>215.800000</ele>
				<time>2019-06-08T09:16:29Z</time>
				<speed>0.000000</speed>
			</trkpt>
			<trkpt lat="24.2876302" lon="120.6142090">
				<ele>215.800000</ele>
				<time>2019-06-08T09:16:30Z</time>
				<speed>14.814720</speed>
			</trkpt>
			<trkpt lat="24.2875366" lon="120.6141113">
				<ele>216.100000</ele>
				<time>2019-06-08T09:16:31Z</time>
				<speed>14.648054</speed>
			</trkpt>
			<trkpt lat="24.2874390" lon="120.6140137">
				<ele>216.200000</ele>
				<time>2019-06-08T09:16:32Z</time>
				<speed>14.628507</speed>
			</trkpt>
			<trkpt lat="24.2873454" lon="120.6139160">
				<ele>216.300000</ele>
				<time>2019-06-08T09:16:33Z</time>
				<speed>14.725729</speed>
			</trkpt>
			<trkpt lat="24.2872477" lon="120.6138021">
				<ele>216.300000</ele>
				<time>2019-06-08T09:16:34Z</time>
				<speed>14.860502</speed>
			</trkpt>
			<trkpt lat="24.2871460" lon="120.6137044">
				<ele>216.400000</ele>
				<time>2019-06-08T09:16:35Z</time>
				<speed>14.763280</speed>
			</trkpt>
			<trkpt lat="24.2870402" lon="120.6136230">
				<ele>216.600000</ele>
				<time>2019-06-08T09:16:36Z</time>
				<speed>14.621305</speed>
			</trkpt>
			<trkpt lat="24.2869303" lon="120.6135417">
				<ele>216.600000</ele>
				<time>2019-06-08T09:16:37Z</time>
				<speed>14.633651</speed>
			</trkpt>
			<trkpt lat="24.2868205" lon="120.6134603">
				<ele>216.700000</ele>
				<time>2019-06-08T09:16:38Z</time>
				<speed>13.974191</speed>
			</trkpt>
			<trkpt lat="24.2867025" lon="120.6134115">
				<ele>216.500000</ele>
				<time>2019-06-08T09:16:39Z</time>
				<speed>13.720591</speed>
			</trkpt>
			<trkpt lat="24.2865804" lon="120.6133952">
				<ele>217.300000</ele>
				<time>2019-06-08T09:16:40Z</time>
				<speed>13.784891</speed>
			</trkpt>
			<trkpt lat="24.2864543" lon="120.6134115">
				<ele>218.100000</ele>
				<time>2019-06-08T09:16:41Z</time>
				<speed>14.213387</speed>
			</trkpt>
			<trkpt lat="24.2863241" lon="120.6134115">
				<ele>218.000000</ele>
				<time>2019-06-08T09:16:42Z</time>
				<speed>14.707210</speed>
			</trkpt>
			<trkpt lat="24.2861938" lon="120.6134115">
				<ele>217.900000</ele>
				<time>2019-06-08T09:16:43Z</time>
				<speed>14.635195</speed>
			</trkpt>
			<trkpt lat="24.2860555" lon="120.6134115">
				<ele>217.700000</ele>
				<time>2019-06-08T09:16:44Z</time>
				<speed>14.749391</speed>
			</trkpt>
			<trkpt lat="24.2859253" lon="120.6134115">
				<ele>217.900000</ele>
				<time>2019-06-08T09:16:45Z</time>
				<speed>14.626450</speed>
			</trkpt>
			<trkpt lat="24.2858032" lon="120.6134277">
				<ele>218.200000</ele>
				<time>2019-06-08T09:16:46Z</time>
				<speed>14.256596</speed>
			</trkpt>
			<trkpt lat="24.2856771" lon="120.6134440">
				<ele>219.000000</ele>
				<time>2019-06-08T09:16:47Z</time>
				<speed>14.322439</speed>
			</trkpt>
			<trkpt lat="24.2855591" lon="120.6134440">
				<ele>219.300000</ele>
				<time>2019-06-08T09:16:48Z</time>
				<speed>13.787978</speed>
			</trkpt>
			<trkpt lat="24.2854289" lon="120.6134603">
				<ele>219.900000</ele>
				<time>2019-06-08T09:16:49Z</time>
				<speed>14.122852</speed>
			</trkpt>
			<trkpt lat="24.2852987" lon="120.6134766">
				<ele>220.000000</ele>
				<time>2019-06-08T09:16:50Z</time>
				<speed>14.380566</speed>
			</trkpt>
			<trkpt lat="24.2851644" lon="120.6134766">
				<ele>220.000000</ele>
				<time>2019-06-08T09:16:51Z</time>
				<speed>14.665544</speed>
			</trkpt>
			<trkpt lat="24.2850301" lon="120.6134928">
				<ele>220.200000</ele>
				<time>2019-06-08T09:16:52Z</time>
				<speed>14.768424</speed>
			</trkpt>
			<trkpt lat="24.2848918" lon="120.6134928">
				<ele>220.100000</ele>
				<time>2019-06-08T09:16:53Z</time>
				<speed>15.068319</speed>
			</trkpt>
			<trkpt lat="24.2847616" lon="120.6134928">
				<ele>220.200000</ele>
				<time>2019-06-08T09:16:54Z</time>
				<speed>14.745791</speed>
			</trkpt>
			<trkpt lat="24.2846273" lon="120.6135091">
				<ele>220.300000</ele>
				<time>2019-06-08T09:16:55Z</time>
				<speed>14.844041</speed>
			</trkpt>
			<trkpt lat="24.2844889" lon="120.6135091">
				<ele>220.100000</ele>
				<time>2019-06-08T09:16:56Z</time>
				<speed>15.035912</speed>
			</trkpt>
			<trkpt lat="24.2843547" lon="120.6135091">
				<ele>220.400000</ele>
				<time>2019-06-08T09:16:57Z</time>
				<speed>14.943835</speed>
			</trkpt>
			<trkpt lat="24.2842163" lon="120.6135091">
				<ele>220.700000</ele>
				<time>2019-06-08T09:16:58Z</time>
				<speed>15.105356</speed>
			</trkpt>
			<trkpt lat="24.2840820" lon="120.6135254">
				<ele>220.700000</ele>
				<time>2019-06-08T09:16:59Z</time>
				<speed>14.959781</speed>
			</trkpt>
			<trkpt lat="24.2839437" lon="120.6135417">
				<ele>220.800000</ele>
				<time>2019-06-08T09:17:00Z</time>
				<speed>15.245272</speed>
			</trkpt>
			<trkpt lat="24.2837972" lon="120.6135417">
				<ele>221.000000</ele>
				<time>2019-06-08T09:17:01Z</time>
				<speed>15.702060</speed>
			</trkpt>
			<trkpt lat="24.2836548" lon="120.6135579">
				<ele>220.900000</ele>
				<time>2019-06-08T09:17:02Z</time>
				<speed>15.690229</speed>
			</trkpt>
			<trkpt lat="24.2835164" lon="120.6135579">
				<ele>221.000000</ele>
				<time>2019-06-08T09:17:03Z</time>
				<speed>15.675826</speed>
			</trkpt>
			<trkpt lat="24.2833740" lon="120.6135579">
				<ele>220.900000</ele>
				<time>2019-06-08T09:17:04Z</time>
				<speed>15.700516</speed>
			</trkpt>
			<trkpt lat="24.2832357" lon="120.6135742">
				<ele>221.200000</ele>
				<time>2019-06-08T09:17:05Z</time>
				<speed>15.519448</speed>
			</trkpt>
			<trkpt lat="24.2831014" lon="120.6135905">
				<ele>221.600000</ele>
				<time>2019-06-08T09:17:06Z</time>
				<speed>15.467494</speed>
			</trkpt>
			<trkpt lat="24.2829671" lon="120.6136068">
				<ele>222.000000</ele>
				<time>2019-06-08T09:17:07Z</time>
				<speed>15.436115</speed>
			</trkpt>
			<trkpt lat="24.2828328" lon="120.6136230">
				<ele>222.400000</ele>
				<time>2019-06-08T09:17:08Z</time>
				<speed>15.413996</speed>
			</trkpt>
			<trkpt lat="24.2826864" lon="120.6136230">
				<ele>222.200000</ele>
				<time>2019-06-08T09:17:09Z</time>
				<speed>15.620270</speed>
			</trkpt>
			<trkpt lat="24.2825317" lon="120.6136230">
				<ele>221.900000</ele>
				<time>2019-06-08T09:17:10Z</time>
				<speed>16.001955</speed>
			</trkpt>
			<trkpt lat="24.2823853" lon="120.6136393">
				<ele>221.800000</ele>
				<time>2019-06-08T09:17:11Z</time>
				<speed>16.106893</speed>
			</trkpt>
			<trkpt lat="24.2822388" lon="120.6136393">
				<ele>221.800000</ele>
				<time>2019-06-08T09:17:12Z</time>
				<speed>16.196913</speed>
			</trkpt>
			<trkpt lat="24.2820841" lon="120.6136393">
				<ele>221.900000</ele>
				<time>2019-06-08T09:17:13Z</time>
				<speed>16.496294</speed>
			</trkpt>
			<trkpt lat="24.2819377" lon="120.6136556">
				<ele>222.000000</ele>
				<time>2019-06-08T09:17:14Z</time>
				<speed>16.105350</speed>
			</trkpt>
			<trkpt lat="24.2817952" lon="120.6136556">
				<ele>221.800000</ele>
				<time>2019-06-08T09:17:15Z</time>
				<speed>15.747842</speed>
			</trkpt>
			<trkpt lat="24.2816528" lon="120.6136719">
				<ele>221.900000</ele>
				<time>2019-06-08T09:17:16Z</time>
				<speed>15.821915</speed>
			</trkpt>
			<trkpt lat="24.2815104" lon="120.6136719">
				<ele>221.900000</ele>
				<time>2019-06-08T09:17:17Z</time>
				<speed>15.529736</speed>
			</trkpt>
			<trkpt lat="24.2813761" lon="120.6136719">
				<ele>221.900000</ele>
				<time>2019-06-08T09:17:18Z</time>
				<speed>14.899596</speed>
			</trkpt>
			<trkpt lat="24.2812541" lon="120.6136719">
				<ele>222.000000</ele>
				<time>2019-06-08T09:17:19Z</time>
				<speed>14.008655</speed>
			</trkpt>
			<trkpt lat="24.2811320" lon="120.6136719">
				<ele>222.000000</ele>
				<time>2019-06-08T09:17:20Z</time>
				<speed>13.657835</speed>
			</trkpt>
			<trkpt lat="24.2810099" lon="120.6136393">
				<ele>221.800000</ele>
				<time>2019-06-08T09:17:21Z</time>
				<speed>13.591991</speed>
			</trkpt>
			<trkpt lat="24.2808919" lon="120.6136068">
				<ele>221.400000</ele>
				<time>2019-06-08T09:17:22Z</time>
				<speed>13.465449</speed>
			</trkpt>
			<trkpt lat="24.2807780" lon="120.6135579">
				<ele>221.300000</ele>
				<time>2019-06-08T09:17:23Z</time>
				<speed>13.602280</speed>
			</trkpt>
			<trkpt lat="24.2806641" lon="120.6134928">
				<ele>221.200000</ele>
				<time>2019-06-08T09:17:24Z</time>
				<speed>13.521004</speed>
			</trkpt>
			<trkpt lat="24.2805501" lon="120.6134440">
				<ele>221.000000</ele>
				<time>2019-06-08T09:17:25Z</time>
				<speed>13.686127</speed>
			</trkpt>
			<trkpt lat="24.2804362" lon="120.6133789">
				<ele>220.500000</ele>
				<time>2019-06-08T09:17:26Z</time>
				<speed>13.595078</speed>
			</trkpt>
			<trkpt lat="24.2803223" lon="120.6133301">
				<ele>220.400000</ele>
				<time>2019-06-08T09:17:27Z</time>
				<speed>13.471621</speed>
			</trkpt>
			<trkpt lat="24.2802083" lon="120.6132813">
				<ele>220.200000</ele>
				<time>2019-06-08T09:17:28Z</time>
				<speed>13.771002</speed>
			</trkpt>
			<trkpt lat="24.2800985" lon="120.6132324">
				<ele>220.300000</ele>
				<time>2019-06-08T09:17:29Z</time>
				<speed>13.521518</speed>
			</trkpt>
			<trkpt lat="24.2799845" lon="120.6131673">
				<ele>219.800000</ele>
				<time>2019-06-08T09:17:30Z</time>
				<speed>13.677382</speed>
			</trkpt>
			<trkpt lat="24.2798706" lon="120.6131185">
				<ele>219.500000</ele>
				<time>2019-06-08T09:17:31Z</time>
				<speed>13.732422</speed>
			</trkpt>
			<trkpt lat="24.2797567" lon="120.6130534">
				<ele>219.400000</ele>
				<time>2019-06-08T09:17:32Z</time>
				<speed>13.687155</speed>
			</trkpt>
			<trkpt lat="24.2796468" lon="120.6130046">
				<ele>219.000000</ele>
				<time>2019-06-08T09:17:33Z</time>
				<speed>13.738081</speed>
			</trkpt>
			<trkpt lat="24.2795369" lon="120.6129395">
				<ele>219.400000</ele>
				<time>2019-06-08T09:17:34Z</time>
				<speed>13.530263</speed>
			</trkpt>
			<trkpt lat="24.2794230" lon="120.6128743">
				<ele>218.900000</ele>
				<time>2019-06-08T09:17:35Z</time>
				<speed>13.989622</speed>
			</trkpt>
			<trkpt lat="24.2793091" lon="120.6128092">
				<ele>218.900000</ele>
				<time>2019-06-08T09:17:36Z</time>
				<speed>14.425834</speed>
			</trkpt>
			<trkpt lat="24.2791951" lon="120.6127441">
				<ele>218.900000</ele>
				<time>2019-06-08T09:17:37Z</time>
				<speed>14.271513</speed>
			</trkpt>
			<trkpt lat="24.2790853" lon="120.6126790">
				<ele>219.300000</ele>
				<time>2019-06-08T09:17:38Z</time>
				<speed>14.029232</speed>
			</trkpt>
			<trkpt lat="24.2789714" lon="120.6126139">
				<ele>219.300000</ele>
				<time>2019-06-08T09:17:39Z</time>
				<speed>14.267913</speed>
			</trkpt>
			<trkpt lat="24.2788534" lon="120.6125488">
				<ele>219.400000</ele>
				<time>2019-06-08T09:17:40Z</time>
				<speed>14.484990</speed>
			</trkpt>
			<trkpt lat="24.2787354" lon="120.6124837">
				<ele>219.000000</ele>
				<time>2019-06-08T09:17:41Z</time>
				<speed>14.770482</speed>
			</trkpt>
			<trkpt lat="24.2787354" lon="120.6124837">
				<ele>219.000000</ele>
				<time>2019-06-08T09:17:41Z</time>
				<speed>14.770482</speed>
			</trkpt>
		</trkseg>
	</trk>
</gpx>