<?xml version='1.0' encoding='utf-8'?>
<gpx xmlns="http://www.topografix.com/GPX/1/1" xmlns:xsi="http://www.w3.org/2001/XMLSchema-instance" creator="Astro Gemini" version="1.0" xsi:schemaLocation="http://www.topografix.com/GPX/1/0 http://www.topografix.com/GPX/1/0/gpx.xsd">
	<trk>
		<name>FRON0641</name>
		<trkseg>
			<trkpt lat="24.1573486" lon="120.5469401">
				<ele>35.200000</ele>
				<time>2019-06-08T07:00:36Z</time>
				<speed>16.404216</speed>
			</trkpt>
			<trkpt lat="24.1574910" lon="120.5468913">
				<ele>35.100000</ele>
				<time>2019-06-08T07:00:37Z</time>
				<speed>16.530243</speed>
			</trkpt>
			<trkpt lat="24.1574910" lon="120.5468913">
				<ele>35.100000</ele>
				<time>2019-06-08T07:00:37Z</time>
				<speed>16.530243</speed>
			</trkpt>
			<trkpt lat="24.1577515" lon="120.5467448">
				<ele>37.100000</ele>
				<time>2019-06-08T07:00:39Z</time>
				<speed>16.340431</speed>
			</trkpt>
			<trkpt lat="24.1578735" lon="120.5466797">
				<ele>38.600000</ele>
				<time>2019-06-08T07:00:40Z</time>
				<speed>16.252468</speed>
			</trkpt>
			<trkpt lat="24.1580037" lon="120.5466146">
				<ele>38.800000</ele>
				<time>2019-06-08T07:00:41Z</time>
				<speed>15.944343</speed>
			</trkpt>
			<trkpt lat="24.1581340" lon="120.5465495">
				<ele>39.300000</ele>
				<time>2019-06-08T07:00:42Z</time>
				<speed>15.650620</speed>
			</trkpt>
			<trkpt lat="24.1582642" lon="120.5465007">
				<ele>38.500000</ele>
				<time>2019-06-08T07:00:43Z</time>
				<speed>15.399593</speed>
			</trkpt>
			<trkpt lat="24.1583903" lon="120.5464355">
				<ele>39.300000</ele>
				<time>2019-06-08T07:00:44Z</time>
				<speed>15.467494</speed>
			</trkpt>
			<trkpt lat="24.1585083" lon="120.5463704">
				<ele>41.000000</ele>
				<time>2019-06-08T07:00:45Z</time>
				<speed>15.302886</speed>
			</trkpt>
			<trkpt lat="24.1586344" lon="120.5463053">
				<ele>42.400000</ele>
				<time>2019-06-08T07:00:46Z</time>
				<speed>15.465950</speed>
			</trkpt>
			<trkpt lat="24.1587484" lon="120.5462240">
				<ele>43.200000</ele>
				<time>2019-06-08T07:00:47Z</time>
				<speed>15.343523</speed>
			</trkpt>
			<trkpt lat="24.1588745" lon="120.5461589">
				<ele>44.200000</ele>
				<time>2019-06-08T07:00:48Z</time>
				<speed>15.434057</speed>
			</trkpt>
			<trkpt lat="24.1589925" lon="120.5460937">
				<ele>45.100000</ele>
				<time>2019-06-08T07:00:49Z</time>
				<speed>15.415539</speed>
			</trkpt>
			<trkpt lat="24.1591105" lon="120.5460286">
				<ele>46.900000</ele>
				<time>2019-06-08T07:00:50Z</time>
				<speed>15.237557</speed>
			</trkpt>
			<trkpt lat="24.1592122" lon="120.5459798">
				<ele>48.500000</ele>
				<time>2019-06-08T07:00:51Z</time>
				<speed>14.664515</speed>
			</trkpt>
			<trkpt lat="24.1593140" lon="120.5459310">
				<ele>49.900000</ele>
				<time>2019-06-08T07:00:52Z</time>
				<speed>14.368735</speed>
			</trkpt>
			<trkpt lat="24.1595500" lon="120.5458171">
				<ele>49.700000</ele>
				<time>2019-06-08T07:00:54Z</time>
				<speed>14.420176</speed>
			</trkpt>
			<trkpt lat="24.1596680" lon="120.5457845">
				<ele>49.700000</ele>
				<time>2019-06-08T07:00:55Z</time>
				<speed>14.399085</speed>
			</trkpt>
			<trkpt lat="24.1597941" lon="120.5457357">
				<ele>49.500000</ele>
				<time>2019-06-08T07:00:56Z</time>
				<speed>14.953608</speed>
			</trkpt>
			<trkpt lat="24.1599162" lon="120.5456706">
				<ele>49.100000</ele>
				<time>2019-06-08T07:00:57Z</time>
				<speed>15.076550</speed>
			</trkpt>
			<trkpt lat="24.1600382" lon="120.5456217">
				<ele>48.800000</ele>
				<time>2019-06-08T07:00:58Z</time>
				<speed>15.465436</speed>
			</trkpt>
			<trkpt lat="24.1601644" lon="120.5455566">
				<ele>49.100000</ele>
				<time>2019-06-08T07:00:59Z</time>
				<speed>15.817286</speed>
			</trkpt>
			<trkpt lat="24.1602905" lon="120.5454915">
				<ele>50.000000</ele>
				<time>2019-06-08T07:01:00Z</time>
				<speed>16.096605</speed>
			</trkpt>
			<trkpt lat="24.1603963" lon="120.5454264">
				<ele>51.300000</ele>
				<time>2019-06-08T07:01:01Z</time>
				<speed>16.031276</speed>
			</trkpt>
			<trkpt lat="24.1605021" lon="120.5453613">
				<ele>51.600000</ele>
				<time>2019-06-08T07:01:02Z</time>
				<speed>15.512246</speed>
			</trkpt>
			<trkpt lat="24.1606201" lon="120.5452799">
				<ele>52.500000</ele>
				<time>2019-06-08T07:01:03Z</time>
				<speed>15.087866</speed>
			</trkpt>
			<trkpt lat="24.1607178" lon="120.5452148">
				<ele>54.300000</ele>
				<time>2019-06-08T07:01:04Z</time>
				<speed>14.660914</speed>
			</trkpt>
			<trkpt lat="24.1608276" lon="120.5451335">
				<ele>54.200000</ele>
				<time>2019-06-08T07:01:05Z</time>
				<speed>14.642396</speed>
			</trkpt>
			<trkpt lat="24.1609416" lon="120.5450684">
				<ele>53.800000</ele>
				<time>2019-06-08T07:01:06Z</time>
				<speed>14.707210</speed>
			</trkpt>
			<trkpt lat="24.1610596" lon="120.5449870">
				<ele>53.900000</ele>
				<time>2019-06-08T07:01:07Z</time>
				<speed>14.984472</speed>
			</trkpt>
			<trkpt lat="24.1611450" lon="120.5448893">
				<ele>57.500000</ele>
				<time>2019-06-08T07:01:08Z</time>
				<speed>14.965439</speed>
			</trkpt>
			<trkpt lat="24.1612427" lon="120.5448079">
				<ele>60.300000</ele>
				<time>2019-06-08T07:01:09Z</time>
				<speed>14.993216</speed>
			</trkpt>
			<trkpt lat="24.1613322" lon="120.5447103">
				<ele>62.800000</ele>
				<time>2019-06-08T07:01:10Z</time>
				<speed>15.045171</speed>
			</trkpt>
			<trkpt lat="24.1614258" lon="120.5446289">
				<ele>65.400000</ele>
				<time>2019-06-08T07:01:11Z</time>
				<speed>14.927373</speed>
			</trkpt>
			<trkpt lat="24.1615234" lon="120.5445313">
				<ele>67.100000</ele>
				<time>2019-06-08T07:01:12Z</time>
				<speed>15.098154</speed>
			</trkpt>
			<trkpt lat="24.1616333" lon="120.5444336">
				<ele>66.900000</ele>
				<time>2019-06-08T07:01:13Z</time>
				<speed>15.361013</speed>
			</trkpt>
			<trkpt lat="24.1617350" lon="120.5443359">
				<ele>67.200000</ele>
				<time>2019-06-08T07:01:14Z</time>
				<speed>15.566258</speed>
			</trkpt>
			<trkpt lat="24.1618327" lon="120.5442220">
				<ele>67.200000</ele>
				<time>2019-06-08T07:01:15Z</time>
				<speed>15.444346</speed>
			</trkpt>
			<trkpt lat="24.1619425" lon="120.5441243">
				<ele>66.700000</ele>
				<time>2019-06-08T07:01:16Z</time>
				<speed>15.577061</speed>
			</trkpt>
			<trkpt lat="24.1620402" lon="120.5440104">
				<ele>67.400000</ele>
				<time>2019-06-08T07:01:17Z</time>
				<speed>15.775105</speed>
			</trkpt>
			<trkpt lat="24.1621257" lon="120.5438965">
				<ele>68.500000</ele>
				<time>2019-06-08T07:01:18Z</time>
				<speed>15.566258</speed>
			</trkpt>
			<trkpt lat="24.1622111" lon="120.5437826">
				<ele>69.400000</ele>
				<time>2019-06-08T07:01:19Z</time>
				<speed>15.277680</speed>
			</trkpt>
			<trkpt lat="24.1623006" lon="120.5436686">
				<ele>70.000000</ele>
				<time>2019-06-08T07:01:20Z</time>
				<speed>15.153195</speed>
			</trkpt>
			<trkpt lat="24.1623901" lon="120.5435547">
				<ele>70.300000</ele>
				<time>2019-06-08T07:01:21Z</time>
				<speed>15.082208</speed>
			</trkpt>
			<trkpt lat="24.1624797" lon="120.5434408">
				<ele>70.800000</ele>
				<time>2019-06-08T07:01:22Z</time>
				<speed>14.823465</speed>
			</trkpt>
			<trkpt lat="24.1625651" lon="120.5433431">
				<ele>71.300000</ele>
				<time>2019-06-08T07:01:23Z</time>
				<speed>14.679433</speed>
			</trkpt>
			<trkpt lat="24.1626587" lon="120.5432454">
				<ele>71.900000</ele>
				<time>2019-06-08T07:01:24Z</time>
				<speed>14.123881</speed>
			</trkpt>
			<trkpt lat="24.1627604" lon="120.5431641">
				<ele>73.000000</ele>
				<time>2019-06-08T07:01:25Z</time>
				<speed>13.619254</speed>
			</trkpt>
			<trkpt lat="24.1628866" lon="120.5431152">
				<ele>72.600000</ele>
				<time>2019-06-08T07:01:26Z</time>
				<speed>13.904232</speed>
			</trkpt>
			<trkpt lat="24.1630249" lon="120.5430664">
				<ele>72.500000</ele>
				<time>2019-06-08T07:01:27Z</time>
				<speed>14.571409</speed>
			</trkpt>
			<trkpt lat="24.1631592" lon="120.5430176">
				<ele>72.300000</ele>
				<time>2019-06-08T07:01:28Z</time>
				<speed>14.790543</speed>
			</trkpt>
			<trkpt lat="24.1632975" lon="120.5429850">
				<ele>72.300000</ele>
				<time>2019-06-08T07:01:29Z</time>
				<speed>14.963896</speed>
			</trkpt>
			<trkpt lat="24.1634481" lon="120.5429525">
				<ele>69.800000</ele>
				<time>2019-06-08T07:01:30Z</time>
				<speed>15.153195</speed>
			</trkpt>
			<trkpt lat="24.1635986" lon="120.5429199">
				<ele>67.500000</ele>
				<time>2019-06-08T07:01:31Z</time>
				<speed>15.341980</speed>
			</trkpt>
			<trkpt lat="24.1637533" lon="120.5428874">
				<ele>65.000000</ele>
				<time>2019-06-08T07:01:32Z</time>
				<speed>15.644447</speed>
			</trkpt>
			<trkpt lat="24.1638957" lon="120.5428385">
				<ele>64.800000</ele>
				<time>2019-06-08T07:01:33Z</time>
				<speed>15.810084</speed>
			</trkpt>
			<trkpt lat="24.1640381" lon="120.5428060">
				<ele>64.800000</ele>
				<time>2019-06-08T07:01:34Z</time>
				<speed>15.925824</speed>
			</trkpt>
			<trkpt lat="24.1641886" lon="120.5428060">
				<ele>64.800000</ele>
				<time>2019-06-08T07:01:35Z</time>
				<speed>0.000000</speed>
			</trkpt>
			<trkpt lat="24.1643392" lon="120.5427409">
				<ele>62.900000</ele>
				<time>2019-06-08T07:01:36Z</time>
				<speed>16.271501</speed>
			</trkpt>
			<trkpt lat="24.1644938" lon="120.5427083">
				<ele>61.100000</ele>
				<time>2019-06-08T07:01:37Z</time>
				<speed>16.309052</speed>
			</trkpt>
			<trkpt lat="24.1646484" lon="120.5426595">
				<ele>59.700000</ele>
				<time>2019-06-08T07:01:38Z</time>
				<speed>16.293105</speed>
			</trkpt>
			<trkpt lat="24.1647949" lon="120.5426270">
				<ele>59.600000</ele>
				<time>2019-06-08T07:01:39Z</time>
				<speed>16.293105</speed>
			</trkpt>
			<trkpt lat="24.1649414" lon="120.5425944">
				<ele>59.200000</ele>
				<time>2019-06-08T07:01:40Z</time>
				<speed>16.405759</speed>
			</trkpt>
			<trkpt lat="24.1651001" lon="120.5425618">
				<ele>59.200000</ele>
				<time>2019-06-08T07:01:41Z</time>
				<speed>16.422220</speed>
			</trkpt>
			<trkpt lat="24.1652466" lon="120.5425293">
				<ele>57.300000</ele>
				<time>2019-06-08T07:01:42Z</time>
				<speed>16.153703</speed>
			</trkpt>
			<trkpt lat="24.1653890" lon="120.5424967">
				<ele>56.400000</ele>
				<time>2019-06-08T07:01:43Z</time>
				<speed>16.231892</speed>
			</trkpt>
			<trkpt lat="24.1655436" lon="120.5424642">
				<ele>55.200000</ele>
				<time>2019-06-08T07:01:44Z</time>
				<speed>16.289505</speed>
			</trkpt>
			<trkpt lat="24.1656901" lon="120.5424316">
				<ele>53.800000</ele>
				<time>2019-06-08T07:01:45Z</time>
				<speed>16.275616</speed>
			</trkpt>
			<trkpt lat="24.1658407" lon="120.5423991">
				<ele>52.900000</ele>
				<time>2019-06-08T07:01:46Z</time>
				<speed>16.256584</speed>
			</trkpt>
			<trkpt lat="24.1659871" lon="120.5423828">
				<ele>51.900000</ele>
				<time>2019-06-08T07:01:47Z</time>
				<speed>16.295678</speed>
			</trkpt>
			<trkpt lat="24.1661418" lon="120.5423503">
				<ele>50.800000</ele>
				<time>2019-06-08T07:01:48Z</time>
				<speed>16.522013</speed>
			</trkpt>
			<trkpt lat="24.1662964" lon="120.5423340">
				<ele>49.600000</ele>
				<time>2019-06-08T07:01:49Z</time>
				<speed>16.623351</speed>
			</trkpt>
			<trkpt lat="24.1664551" lon="120.5423503">
				<ele>48.100000</ele>
				<time>2019-06-08T07:01:50Z</time>
				<speed>16.635182</speed>
			</trkpt>
			<trkpt lat="24.1666138" lon="120.5423503">
				<ele>46.400000</ele>
				<time>2019-06-08T07:01:51Z</time>
				<speed>16.711313</speed>
			</trkpt>
			<trkpt lat="24.1667725" lon="120.5423503">
				<ele>44.900000</ele>
				<time>2019-06-08T07:01:52Z</time>
				<speed>16.703083</speed>
			</trkpt>
			<trkpt lat="24.1669312" lon="120.5423503">
				<ele>43.500000</ele>
				<time>2019-06-08T07:01:53Z</time>
				<speed>16.699482</speed>
			</trkpt>
			<trkpt lat="24.1670858" lon="120.5423503">
				<ele>42.600000</ele>
				<time>2019-06-08T07:01:54Z</time>
				<speed>16.711313</speed>
			</trkpt>
			<trkpt lat="24.1672404" lon="120.5423503">
				<ele>41.500000</ele>
				<time>2019-06-08T07:01:55Z</time>
				<speed>16.674791</speed>
			</trkpt>
			<trkpt lat="24.1673991" lon="120.5423503">
				<ele>40.500000</ele>
				<time>2019-06-08T07:01:56Z</time>
				<speed>16.760695</speed>
			</trkpt>
			<trkpt lat="24.1675496" lon="120.5423503">
				<ele>39.600000</ele>
				<time>2019-06-08T07:01:57Z</time>
				<speed>16.489606</speed>
			</trkpt>
			<trkpt lat="24.1677002" lon="120.5423340">
				<ele>39.100000</ele>
				<time>2019-06-08T07:01:58Z</time>
				<speed>16.209772</speed>
			</trkpt>
			<trkpt lat="24.1678426" lon="120.5423340">
				<ele>38.500000</ele>
				<time>2019-06-08T07:01:59Z</time>
				<speed>15.742698</speed>
			</trkpt>
			<trkpt lat="24.1679850" lon="120.5423177">
				<ele>37.800000</ele>
				<time>2019-06-08T07:02:00Z</time>
				<speed>15.505045</speed>
			</trkpt>
			<trkpt lat="24.1681193" lon="120.5423177">
				<ele>37.300000</ele>
				<time>2019-06-08T07:02:01Z</time>
				<speed>14.774597</speed>
			</trkpt>
			<trkpt lat="24.1682454" lon="120.5423340">
				<ele>36.700000</ele>
				<time>2019-06-08T07:02:02Z</time>
				<speed>13.883656</speed>
			</trkpt>
			<trkpt lat="24.1683634" lon="120.5423177">
				<ele>35.900000</ele>
				<time>2019-06-08T07:02:03Z</time>
				<speed>12.959280</speed>
			</trkpt>
			<trkpt lat="24.1684733" lon="120.5423177">
				<ele>35.200000</ele>
				<time>2019-06-08T07:02:04Z</time>
				<speed>12.031302</speed>
			</trkpt>
			<trkpt lat="24.1685750" lon="120.5423177">
				<ele>34.600000</ele>
				<time>2019-06-08T07:02:05Z</time>
				<speed>11.165566</speed>
			</trkpt>
			<trkpt lat="24.1686605" lon="120.5423177">
				<ele>33.300000</ele>
				<time>2019-06-08T07:02:06Z</time>
				<speed>10.108989</speed>
			</trkpt>
			<trkpt lat="24.1687419" lon="120.5423014">
				<ele>32.800000</ele>
				<time>2019-06-08T07:02:07Z</time>
				<speed>8.976280</speed>
			</trkpt>
			<trkpt lat="24.1688110" lon="120.5423014">
				<ele>32.300000</ele>
				<time>2019-06-08T07:02:08Z</time>
				<speed>7.847686</speed>
			</trkpt>
			<trkpt lat="24.1688639" lon="120.5422852">
				<ele>31.700000</ele>
				<time>2019-06-08T07:02:09Z</time>
				<speed>6.522078</speed>
			</trkpt>
			<trkpt lat="24.1689046" lon="120.5422689">
				<ele>30.100000</ele>
				<time>2019-06-08T07:02:10Z</time>
				<speed>4.800895</speed>
			</trkpt>
			<trkpt lat="24.1689209" lon="120.5422526">
				<ele>28.400000</ele>
				<time>2019-06-08T07:02:11Z</time>
				<speed>2.749468</speed>
			</trkpt>
			<trkpt lat="24.1689290" lon="120.5422363">
				<ele>27.300000</ele>
				<time>2019-06-08T07:02:12Z</time>
				<speed>0.981475</speed>
			</trkpt>
			<trkpt lat="24.1689331" lon="120.5422363">
				<ele>26.300000</ele>
				<time>2019-06-08T07:02:13Z</time>
				<speed>0.430038</speed>
			</trkpt>
			<trkpt lat="24.1689372" lon="120.5422363">
				<ele>25.300000</ele>
				<time>2019-06-08T07:02:14Z</time>
				<speed>0.342590</speed>
			</trkpt>
			<trkpt lat="24.1689372" lon="120.5422363">
				<ele>24.100000</ele>
				<time>2019-06-08T07:02:15Z</time>
				<speed>0.377570</speed>
			</trkpt>
			<trkpt lat="24.1689412" lon="120.5422363">
				<ele>23.400000</ele>
				<time>2019-06-08T07:02:16Z</time>
				<speed>0.131172</speed>
			</trkpt>
			<trkpt lat="24.1689453" lon="120.5422363">
				<ele>22.700000</ele>
				<time>2019-06-08T07:02:17Z</time>
				<speed>0.173867</speed>
			</trkpt>
			<trkpt lat="24.1689453" lon="120.5422201">
				<ele>22.100000</ele>
				<time>2019-06-08T07:02:18Z</time>
				<speed>0.165637</speed>
			</trkpt>
			<trkpt lat="24.1689494" lon="120.5422201">
				<ele>21.400000</ele>
				<time>2019-06-08T07:02:19Z</time>
				<speed>0.177982</speed>
			</trkpt>
			<trkpt lat="24.1689535" lon="120.5422363">
				<ele>20.700000</ele>
				<time>2019-06-08T07:02:20Z</time>
				<speed>0.132715</speed>
			</trkpt>
			<trkpt lat="24.1689575" lon="120.5422363">
				<ele>19.900000</ele>
				<time>2019-06-08T07:02:21Z</time>
				<speed>0.147633</speed>
			</trkpt>
			<trkpt lat="24.1689616" lon="120.5422363">
				<ele>19.500000</ele>
				<time>2019-06-08T07:02:22Z</time>
				<speed>0.258229</speed>
			</trkpt>
			<trkpt lat="24.1689657" lon="120.5422363">
				<ele>19.000000</ele>
				<time>2019-06-08T07:02:23Z</time>
				<speed>0.332817</speed>
			</trkpt>
			<trkpt lat="24.1689657" lon="120.5422526">
				<ele>18.900000</ele>
				<time>2019-06-08T07:02:24Z</time>
				<speed>0.309669</speed>
			</trkpt>
			<trkpt lat="24.1689738" lon="120.5422363">
				<ele>18.800000</ele>
				<time>2019-06-08T07:02:25Z</time>
				<speed>0.460902</speed>
			</trkpt>
			<trkpt lat="24.1689738" lon="120.5422363">
				<ele>18.500000</ele>
				<time>2019-06-08T07:02:26Z</time>
				<speed>0.372426</speed>
			</trkpt>
			<trkpt lat="24.1689779" lon="120.5422363">
				<ele>18.300000</ele>
				<time>2019-06-08T07:02:27Z</time>
				<speed>0.257200</speed>
			</trkpt>
			<trkpt lat="24.1689738" lon="120.5422363">
				<ele>18.100000</ele>
				<time>2019-06-08T07:02:28Z</time>
				<speed>0.137859</speed>
			</trkpt>
			<trkpt lat="24.1689697" lon="120.5422363">
				<ele>18.300000</ele>
				<time>2019-06-08T07:02:29Z</time>
				<speed>0.134258</speed>
			</trkpt>
			<trkpt lat="24.1689819" lon="120.5422363">
				<ele>18.200000</ele>
				<time>2019-06-08T07:02:30Z</time>
				<speed>0.456273</speed>
			</trkpt>
			<trkpt lat="24.1690023" lon="120.5422201">
				<ele>18.100000</ele>
				<time>2019-06-08T07:02:31Z</time>
				<speed>1.034973</speed>
			</trkpt>
			<trkpt lat="24.1690430" lon="120.5422038">
				<ele>17.500000</ele>
				<time>2019-06-08T07:02:32Z</time>
				<speed>2.237640</speed>
			</trkpt>
			<trkpt lat="24.1690877" lon="120.5422038">
				<ele>16.700000</ele>
				<time>2019-06-08T07:02:33Z</time>
				<speed>3.342571</speed>
			</trkpt>
			<trkpt lat="24.1691325" lon="120.5422038">
				<ele>16.000000</ele>
				<time>2019-06-08T07:02:34Z</time>
				<speed>4.095138</speed>
			</trkpt>
			<trkpt lat="24.1691895" lon="120.5421875">
				<ele>16.300000</ele>
				<time>2019-06-08T07:02:35Z</time>
				<speed>5.171778</speed>
			</trkpt>
			<trkpt lat="24.1692505" lon="120.5421712">
				<ele>17.300000</ele>
				<time>2019-06-08T07:02:36Z</time>
				<speed>6.325577</speed>
			</trkpt>
			<trkpt lat="24.1693197" lon="120.5421549">
				<ele>17.000000</ele>
				<time>2019-06-08T07:02:37Z</time>
				<speed>7.223719</speed>
			</trkpt>
			<trkpt lat="24.1693929" lon="120.5421387">
				<ele>16.100000</ele>
				<time>2019-06-08T07:02:38Z</time>
				<speed>7.906328</speed>
			</trkpt>
			<trkpt lat="24.1694702" lon="120.5421224">
				<ele>15.400000</ele>
				<time>2019-06-08T07:02:39Z</time>
				<speed>8.567846</speed>
			</trkpt>
			<trkpt lat="24.1695557" lon="120.5421224">
				<ele>14.600000</ele>
				<time>2019-06-08T07:02:40Z</time>
				<speed>9.101280</speed>
			</trkpt>
			<trkpt lat="24.1696370" lon="120.5421061">
				<ele>13.600000</ele>
				<time>2019-06-08T07:02:41Z</time>
				<speed>9.516914</speed>
			</trkpt>
			<trkpt lat="24.1697306" lon="120.5421061">
				<ele>12.600000</ele>
				<time>2019-06-08T07:02:42Z</time>
				<speed>10.094071</speed>
			</trkpt>
			<trkpt lat="24.1698283" lon="120.5421224">
				<ele>11.600000</ele>
				<time>2019-06-08T07:02:43Z</time>
				<speed>10.395509</speed>
			</trkpt>
			<trkpt lat="24.1699422" lon="120.5421549">
				<ele>11.300000</ele>
				<time>2019-06-08T07:02:44Z</time>
				<speed>11.227295</speed>
			</trkpt>
			<trkpt lat="24.1700562" lon="120.5421875">
				<ele>10.200000</ele>
				<time>2019-06-08T07:02:45Z</time>
				<speed>11.818854</speed>
			</trkpt>
			<trkpt lat="24.1701701" lon="120.5422038">
				<ele>9.200000</ele>
				<time>2019-06-08T07:02:46Z</time>
				<speed>12.345600</speed>
			</trkpt>
			<trkpt lat="24.1702881" lon="120.5422526">
				<ele>9.400000</ele>
				<time>2019-06-08T07:02:47Z</time>
				<speed>12.561648</speed>
			</trkpt>
			<trkpt lat="24.1704102" lon="120.5422852">
				<ele>8.400000</ele>
				<time>2019-06-08T07:02:48Z</time>
				<speed>13.031295</speed>
			</trkpt>
			<trkpt lat="24.1705322" lon="120.5423177">
				<ele>7.500000</ele>
				<time>2019-06-08T07:02:49Z</time>
				<speed>13.454646</speed>
			</trkpt>
			<trkpt lat="24.1706543" lon="120.5423503">
				<ele>7.600000</ele>
				<time>2019-06-08T07:02:50Z</time>
				<speed>13.575016</speed>
			</trkpt>
			<trkpt lat="24.1707804" lon="120.5423828">
				<ele>7.600000</ele>
				<time>2019-06-08T07:02:51Z</time>
				<speed>13.779747</speed>
			</trkpt>
			<trkpt lat="24.1709066" lon="120.5423991">
				<ele>7.500000</ele>
				<time>2019-06-08T07:02:52Z</time>
				<speed>14.081186</speed>
			</trkpt>
			<trkpt lat="24.1710368" lon="120.5424154">
				<ele>7.400000</ele>
				<time>2019-06-08T07:02:53Z</time>
				<speed>14.471101</speed>
			</trkpt>
			<trkpt lat="24.1711711" lon="120.5424479">
				<ele>7.100000</ele>
				<time>2019-06-08T07:02:54Z</time>
				<speed>14.852786</speed>
			</trkpt>
			<trkpt lat="24.1713175" lon="120.5425293">
				<ele>9.000000</ele>
				<time>2019-06-08T07:02:55Z</time>
				<speed>15.489613</speed>
			</trkpt>
			<trkpt lat="24.1714640" lon="120.5425618">
				<ele>9.500000</ele>
				<time>2019-06-08T07:02:56Z</time>
				<speed>15.913479</speed>
			</trkpt>
			<trkpt lat="24.1716105" lon="120.5425944">
				<ele>9.500000</ele>
				<time>2019-06-08T07:02:57Z</time>
				<speed>16.218003</speed>
			</trkpt>
			<trkpt lat="24.1717611" lon="120.5426270">
				<ele>9.600000</ele>
				<time>2019-06-08T07:02:58Z</time>
				<speed>16.359463</speed>
			</trkpt>
			<trkpt lat="24.1719116" lon="120.5426595">
				<ele>9.600000</ele>
				<time>2019-06-08T07:02:59Z</time>
				<speed>16.741147</speed>
			</trkpt>
			<trkpt lat="24.1720622" lon="120.5426921">
				<ele>9.600000</ele>
				<time>2019-06-08T07:03:00Z</time>
				<speed>16.858431</speed>
			</trkpt>
			<trkpt lat="24.1722168" lon="120.5427246">
				<ele>9.500000</ele>
				<time>2019-06-08T07:03:01Z</time>
				<speed>16.690736</speed>
			</trkpt>
			<trkpt lat="24.1723674" lon="120.5427572">
				<ele>9.200000</ele>
				<time>2019-06-08T07:03:02Z</time>
				<speed>16.749379</speed>
			</trkpt>
			<trkpt lat="24.1725179" lon="120.5427734">
				<ele>8.900000</ele>
				<time>2019-06-08T07:03:03Z</time>
				<speed>16.701538</speed>
			</trkpt>
			<trkpt lat="24.1726685" lon="120.5428060">
				<ele>8.700000</ele>
				<time>2019-06-08T07:03:04Z</time>
				<speed>16.695881</speed>
			</trkpt>
			<trkpt lat="24.1728190" lon="120.5428385">
				<ele>9.000000</ele>
				<time>2019-06-08T07:03:05Z</time>
				<speed>16.833225</speed>
			</trkpt>
			<trkpt lat="24.1729614" lon="120.5428548">
				<ele>9.600000</ele>
				<time>2019-06-08T07:03:06Z</time>
				<speed>16.588372</speed>
			</trkpt>
			<trkpt lat="24.1731120" lon="120.5428711">
				<ele>9.900000</ele>
				<time>2019-06-08T07:03:07Z</time>
				<speed>16.631067</speed>
			</trkpt>
			<trkpt lat="24.1732666" lon="120.5429036">
				<ele>9.100000</ele>
				<time>2019-06-08T07:03:08Z</time>
				<speed>16.716972</speed>
			</trkpt>
			<trkpt lat="24.1734172" lon="120.5429362">
				<ele>9.100000</ele>
				<time>2019-06-08T07:03:09Z</time>
				<speed>16.801846</speed>
			</trkpt>
			<trkpt lat="24.1735677" lon="120.5429525">
				<ele>9.300000</ele>
				<time>2019-06-08T07:03:10Z</time>
				<speed>16.912958</speed>
			</trkpt>
			<trkpt lat="24.1737142" lon="120.5429850">
				<ele>9.400000</ele>
				<time>2019-06-08T07:03:11Z</time>
				<speed>16.617178</speed>
			</trkpt>
			<trkpt lat="24.1738607" lon="120.5430013">
				<ele>9.800000</ele>
				<time>2019-06-08T07:03:12Z</time>
				<speed>16.464915</speed>
			</trkpt>
			<trkpt lat="24.1740112" lon="120.5430176">
				<ele>9.900000</ele>
				<time>2019-06-08T07:03:13Z</time>
				<speed>16.473661</speed>
			</trkpt>
			<trkpt lat="24.1741577" lon="120.5430176">
				<ele>10.300000</ele>
				<time>2019-06-08T07:03:14Z</time>
				<speed>16.554420</speed>
			</trkpt>
			<trkpt lat="24.1743164" lon="120.5430501">
				<ele>10.600000</ele>
				<time>2019-06-08T07:03:15Z</time>
				<speed>16.840427</speed>
			</trkpt>
			<trkpt lat="24.1744670" lon="120.5430664">
				<ele>10.000000</ele>
				<time>2019-06-08T07:03:16Z</time>
				<speed>16.838884</speed>
			</trkpt>
			<trkpt lat="24.1746175" lon="120.5430664">
				<ele>9.400000</ele>
				<time>2019-06-08T07:03:17Z</time>
				<speed>16.652672</speed>
			</trkpt>
			<trkpt lat="24.1747681" lon="120.5430827">
				<ele>9.200000</ele>
				<time>2019-06-08T07:03:18Z</time>
				<speed>16.697424</speed>
			</trkpt>
			<trkpt lat="24.1749186" lon="120.5430990">
				<ele>9.100000</ele>
				<time>2019-06-08T07:03:19Z</time>
				<speed>16.756066</speed>
			</trkpt>
			<trkpt lat="24.1750732" lon="120.5431152">
				<ele>8.800000</ele>
				<time>2019-06-08T07:03:20Z</time>
				<speed>16.829624</speed>
			</trkpt>
			<trkpt lat="24.1752279" lon="120.5431315">
				<ele>8.500000</ele>
				<time>2019-06-08T07:03:21Z</time>
				<speed>17.077566</speed>
			</trkpt>
			<trkpt lat="24.1753825" lon="120.5431478">
				<ele>8.300000</ele>
				<time>2019-06-08T07:03:22Z</time>
				<speed>17.153697</speed>
			</trkpt>
			<trkpt lat="24.1755371" lon="120.5431641">
				<ele>8.000000</ele>
				<time>2019-06-08T07:03:23Z</time>
				<speed>17.251432</speed>
			</trkpt>
			<trkpt lat="24.1756958" lon="120.5431803">
				<ele>7.800000</ele>
				<time>2019-06-08T07:03:24Z</time>
				<speed>17.293613</speed>
			</trkpt>
			<trkpt lat="24.1758504" lon="120.5432129">
				<ele>9.600000</ele>
				<time>2019-06-08T07:03:25Z</time>
				<speed>17.117175</speed>
			</trkpt>
			<trkpt lat="24.1760050" lon="120.5432292">
				<ele>11.200000</ele>
				<time>2019-06-08T07:03:26Z</time>
				<speed>17.139808</speed>
			</trkpt>
			<trkpt lat="24.1761597" lon="120.5432780">
				<ele>12.800000</ele>
				<time>2019-06-08T07:03:27Z</time>
				<speed>17.186618</speed>
			</trkpt>
			<trkpt lat="24.1763143" lon="120.5432943">
				<ele>13.400000</ele>
				<time>2019-06-08T07:03:28Z</time>
				<speed>16.975714</speed>
			</trkpt>
			<trkpt lat="24.1764648" lon="120.5433268">
				<ele>14.500000</ele>
				<time>2019-06-08T07:03:29Z</time>
				<speed>16.726744</speed>
			</trkpt>
			<trkpt lat="24.1766195" lon="120.5433594">
				<ele>15.300000</ele>
				<time>2019-06-08T07:03:30Z</time>
				<speed>16.731889</speed>
			</trkpt>
			<trkpt lat="24.1767700" lon="120.5433757">
				<ele>15.900000</ele>
				<time>2019-06-08T07:03:31Z</time>
				<speed>16.714399</speed>
			</trkpt>
			<trkpt lat="24.1769206" lon="120.5434082">
				<ele>16.500000</ele>
				<time>2019-06-08T07:03:32Z</time>
				<speed>16.617692</speed>
			</trkpt>
			<trkpt lat="24.1770711" lon="120.5434408">
				<ele>16.800000</ele>
				<time>2019-06-08T07:03:33Z</time>
				<speed>16.622321</speed>
			</trkpt>
			<trkpt lat="24.1772176" lon="120.5434570">
				<ele>17.900000</ele>
				<time>2019-06-08T07:03:34Z</time>
				<speed>16.554935</speed>
			</trkpt>
			<trkpt lat="24.1773682" lon="120.5434733">
				<ele>18.300000</ele>
				<time>2019-06-08T07:03:35Z</time>
				<speed>16.691252</speed>
			</trkpt>
			<trkpt lat="24.1775106" lon="120.5434896">
				<ele>18.700000</ele>
				<time>2019-06-08T07:03:36Z</time>
				<speed>16.687651</speed>
			</trkpt>
			<trkpt lat="24.1775106" lon="120.5434896">
				<ele>18.700000</ele>
				<time>2019-06-08T07:03:36Z</time>
				<speed>16.687651</speed>
			</trkpt>
		</trkseg>
	</trk>
</gpx>