<?xml version='1.0' encoding='utf-8'?>
<gpx xmlns="http://www.topografix.com/GPX/1/1" xmlns:xsi="http://www.w3.org/2001/XMLSchema-instance" creator="Astro Gemini" version="1.0" xsi:schemaLocation="http://www.topografix.com/GPX/1/0 http://www.topografix.com/GPX/1/0/gpx.xsd">
	<trk>
		<name>FRON0675</name>
		<trkseg>
			<trkpt lat="24.2164347" lon="120.6493327">
				<ele>167.400000</ele>
				<time>2019-06-08T09:44:39Z</time>
				<speed>0.033950</speed>
			</trkpt>
			<trkpt lat="24.2164347" lon="120.6493327">
				<ele>167.400000</ele>
				<time>2019-06-08T09:44:39Z</time>
				<speed>0.033950</speed>
			</trkpt>
			<trkpt lat="24.2164307" lon="120.6493327">
				<ele>167.400000</ele>
				<time>2019-06-08T09:44:40Z</time>
				<speed>6192.841004</speed>
			</trkpt>
			<trkpt lat="24.2164307" lon="120.6493164">
				<ele>167.100000</ele>
				<time>2019-06-08T09:44:41Z</time>
				<speed>0.140946</speed>
			</trkpt>
			<trkpt lat="24.2164266" lon="120.6493164">
				<ele>166.600000</ele>
				<time>2019-06-08T09:44:42Z</time>
				<speed>0.199587</speed>
			</trkpt>
			<trkpt lat="24.2164266" lon="120.6493164">
				<ele>166.400000</ele>
				<time>2019-06-08T09:44:43Z</time>
				<speed>0.122942</speed>
			</trkpt>
			<trkpt lat="24.2164225" lon="120.6493164">
				<ele>166.000000</ele>
				<time>2019-06-08T09:44:44Z</time>
				<speed>0.048868</speed>
			</trkpt>
			<trkpt lat="24.2164266" lon="120.6493164">
				<ele>166.300000</ele>
				<time>2019-06-08T09:44:45Z</time>
				<speed>0.269546</speed>
			</trkpt>
			<trkpt lat="24.2164266" lon="120.6493164">
				<ele>166.200000</ele>
				<time>2019-06-08T09:44:46Z</time>
				<speed>0.182098</speed>
			</trkpt>
			<trkpt lat="24.2164225" lon="120.6493164">
				<ele>166.000000</ele>
				<time>2019-06-08T09:44:47Z</time>
				<speed>0.074074</speed>
			</trkpt>
			<trkpt lat="24.2164185" lon="120.6493164">
				<ele>165.700000</ele>
				<time>2019-06-08T09:44:48Z</time>
				<speed>0.037551</speed>
			</trkpt>
			<trkpt lat="24.2164103" lon="120.6493164">
				<ele>165.200000</ele>
				<time>2019-06-08T09:44:49Z</time>
				<speed>0.140946</speed>
			</trkpt>
			<trkpt lat="24.2164062" lon="120.6493164">
				<ele>164.900000</ele>
				<time>2019-06-08T09:44:50Z</time>
				<speed>0.117283</speed>
			</trkpt>
			<trkpt lat="24.2164022" lon="120.6493001">
				<ele>164.400000</ele>
				<time>2019-06-08T09:44:51Z</time>
				<speed>0.249998</speed>
			</trkpt>
			<trkpt lat="24.2163981" lon="120.6493001">
				<ele>163.900000</ele>
				<time>2019-06-08T09:44:52Z</time>
				<speed>0.112139</speed>
			</trkpt>
			<trkpt lat="24.2163981" lon="120.6493001">
				<ele>163.500000</ele>
				<time>2019-06-08T09:44:53Z</time>
				<speed>0.014918</speed>
			</trkpt>
			<trkpt lat="24.2163940" lon="120.6493001">
				<ele>162.900000</ele>
				<time>2019-06-08T09:44:54Z</time>
				<speed>0.038066</speed>
			</trkpt>
			<trkpt lat="24.2163900" lon="120.6492839">
				<ele>162.400000</ele>
				<time>2019-06-08T09:44:55Z</time>
				<speed>0.164608</speed>
			</trkpt>
			<trkpt lat="24.2163859" lon="120.6492839">
				<ele>162.000000</ele>
				<time>2019-06-08T09:44:56Z</time>
				<speed>0.245883</speed>
			</trkpt>
			<trkpt lat="24.2163818" lon="120.6492839">
				<ele>161.600000</ele>
				<time>2019-06-08T09:44:57Z</time>
				<speed>0.191357</speed>
			</trkpt>
			<trkpt lat="24.2163778" lon="120.6492839">
				<ele>161.200000</ele>
				<time>2019-06-08T09:44:58Z</time>
				<speed>0.184155</speed>
			</trkpt>
			<trkpt lat="24.2163737" lon="120.6492839">
				<ele>161.100000</ele>
				<time>2019-06-08T09:44:59Z</time>
				<speed>0.127057</speed>
			</trkpt>
			<trkpt lat="24.2163737" lon="120.6492676">
				<ele>160.600000</ele>
				<time>2019-06-08T09:45:00Z</time>
				<speed>0.054526</speed>
			</trkpt>
			<trkpt lat="24.2163615" lon="120.6492676">
				<ele>160.400000</ele>
				<time>2019-06-08T09:45:01Z</time>
				<speed>0.586930</speed>
			</trkpt>
			<trkpt lat="24.2163534" lon="120.6492676">
				<ele>159.900000</ele>
				<time>2019-06-08T09:45:02Z</time>
				<speed>0.688782</speed>
			</trkpt>
			<trkpt lat="24.2163411" lon="120.6492676">
				<ele>159.700000</ele>
				<time>2019-06-08T09:45:03Z</time>
				<speed>0.885797</speed>
			</trkpt>
			<trkpt lat="24.2163086" lon="120.6492676">
				<ele>159.700000</ele>
				<time>2019-06-08T09:45:04Z</time>
				<speed>1.824577</speed>
			</trkpt>
			<trkpt lat="24.2162760" lon="120.6492676">
				<ele>160.100000</ele>
				<time>2019-06-08T09:45:05Z</time>
				<speed>2.436198</speed>
			</trkpt>
			<trkpt lat="24.2162231" lon="120.6492676">
				<ele>160.300000</ele>
				<time>2019-06-08T09:45:06Z</time>
				<speed>3.705223</speed>
			</trkpt>
			<trkpt lat="24.2161743" lon="120.6492839">
				<ele>160.200000</ele>
				<time>2019-06-08T09:45:07Z</time>
				<speed>4.370857</speed>
			</trkpt>
			<trkpt lat="24.2161174" lon="120.6493164">
				<ele>160.000000</ele>
				<time>2019-06-08T09:45:08Z</time>
				<speed>5.184638</speed>
			</trkpt>
			<trkpt lat="24.2160441" lon="120.6493327">
				<ele>160.000000</ele>
				<time>2019-06-08T09:45:09Z</time>
				<speed>6.140393</speed>
			</trkpt>
			<trkpt lat="24.2159505" lon="120.6493490">
				<ele>160.100000</ele>
				<time>2019-06-08T09:45:10Z</time>
				<speed>7.512812</speed>
			</trkpt>
			<trkpt lat="24.2158488" lon="120.6493652">
				<ele>160.100000</ele>
				<time>2019-06-08T09:45:11Z</time>
				<speed>8.658381</speed>
			</trkpt>
			<trkpt lat="24.2157389" lon="120.6493815">
				<ele>159.700000</ele>
				<time>2019-06-08T09:45:12Z</time>
				<speed>10.045717</speed>
			</trkpt>
			<trkpt lat="24.2156453" lon="120.6493978">
				<ele>160.000000</ele>
				<time>2019-06-08T09:45:13Z</time>
				<speed>10.427916</speed>
			</trkpt>
			<trkpt lat="24.2155355" lon="120.6494303">
				<ele>160.100000</ele>
				<time>2019-06-08T09:45:14Z</time>
				<speed>11.267417</speed>
			</trkpt>
			<trkpt lat="24.2154338" lon="120.6494629">
				<ele>160.700000</ele>
				<time>2019-06-08T09:45:15Z</time>
				<speed>11.790562</speed>
			</trkpt>
			<trkpt lat="24.2153320" lon="120.6495117">
				<ele>161.100000</ele>
				<time>2019-06-08T09:45:16Z</time>
				<speed>11.994780</speed>
			</trkpt>
			<trkpt lat="24.2152140" lon="120.6495280">
				<ele>161.000000</ele>
				<time>2019-06-08T09:45:17Z</time>
				<speed>12.636750</speed>
			</trkpt>
			<trkpt lat="24.2151001" lon="120.6495605">
				<ele>160.900000</ele>
				<time>2019-06-08T09:45:18Z</time>
				<speed>12.873374</speed>
			</trkpt>
			<trkpt lat="24.2149862" lon="120.6495931">
				<ele>162.200000</ele>
				<time>2019-06-08T09:45:19Z</time>
				<speed>13.326561</speed>
			</trkpt>
			<trkpt lat="24.2148641" lon="120.6496094">
				<ele>162.100000</ele>
				<time>2019-06-08T09:45:20Z</time>
				<speed>13.599193</speed>
			</trkpt>
			<trkpt lat="24.2147420" lon="120.6496419">
				<ele>161.900000</ele>
				<time>2019-06-08T09:45:21Z</time>
				<speed>13.824500</speed>
			</trkpt>
			<trkpt lat="24.2146077" lon="120.6496582">
				<ele>161.600000</ele>
				<time>2019-06-08T09:45:22Z</time>
				<speed>14.223160</speed>
			</trkpt>
			<trkpt lat="24.2144775" lon="120.6496908">
				<ele>161.800000</ele>
				<time>2019-06-08T09:45:23Z</time>
				<speed>14.518426</speed>
			</trkpt>
			<trkpt lat="24.2143433" lon="120.6497070">
				<ele>162.200000</ele>
				<time>2019-06-08T09:45:24Z</time>
				<speed>14.760194</speed>
			</trkpt>
			<trkpt lat="24.2142171" lon="120.6497559">
				<ele>163.600000</ele>
				<time>2019-06-08T09:45:25Z</time>
				<speed>14.903197</speed>
			</trkpt>
			<trkpt lat="24.2140788" lon="120.6497884">
				<ele>163.700000</ele>
				<time>2019-06-08T09:45:26Z</time>
				<speed>15.136735</speed>
			</trkpt>
			<trkpt lat="24.2139364" lon="120.6498047">
				<ele>163.700000</ele>
				<time>2019-06-08T09:45:27Z</time>
				<speed>15.216981</speed>
			</trkpt>
			<trkpt lat="24.2137777" lon="120.6498372">
				<ele>163.700000</ele>
				<time>2019-06-08T09:45:28Z</time>
				<speed>15.922223</speed>
			</trkpt>
			<trkpt lat="24.2136230" lon="120.6498535">
				<ele>163.700000</ele>
				<time>2019-06-08T09:45:29Z</time>
				<speed>16.255554</speed>
			</trkpt>
			<trkpt lat="24.2134766" lon="120.6498698">
				<ele>163.700000</ele>
				<time>2019-06-08T09:45:30Z</time>
				<speed>16.378496</speed>
			</trkpt>
			<trkpt lat="24.2133179" lon="120.6499023">
				<ele>163.300000</ele>
				<time>2019-06-08T09:45:31Z</time>
				<speed>16.736518</speed>
			</trkpt>
			<trkpt lat="24.2131551" lon="120.6499186">
				<ele>162.500000</ele>
				<time>2019-06-08T09:45:32Z</time>
				<speed>17.088369</speed>
			</trkpt>
			<trkpt lat="24.2129924" lon="120.6499512">
				<ele>161.900000</ele>
				<time>2019-06-08T09:45:33Z</time>
				<speed>17.500916</speed>
			</trkpt>
			<trkpt lat="24.2128337" lon="120.6499837">
				<ele>161.500000</ele>
				<time>2019-06-08T09:45:34Z</time>
				<speed>17.703591</speed>
			</trkpt>
			<trkpt lat="24.2126790" lon="120.6500163">
				<ele>160.600000</ele>
				<time>2019-06-08T09:45:35Z</time>
				<speed>17.592995</speed>
			</trkpt>
			<trkpt lat="24.2125203" lon="120.6500488">
				<ele>159.300000</ele>
				<time>2019-06-08T09:45:36Z</time>
				<speed>17.554414</speed>
			</trkpt>
			<trkpt lat="24.2123698" lon="120.6500977">
				<ele>158.800000</ele>
				<time>2019-06-08T09:45:37Z</time>
				<speed>17.466453</speed>
			</trkpt>
			<trkpt lat="24.2122111" lon="120.6501465">
				<ele>158.600000</ele>
				<time>2019-06-08T09:45:38Z</time>
				<speed>17.732911</speed>
			</trkpt>
			<trkpt lat="24.2120524" lon="120.6501790">
				<ele>158.300000</ele>
				<time>2019-06-08T09:45:39Z</time>
				<speed>17.891862</speed>
			</trkpt>
			<trkpt lat="24.2118937" lon="120.6502279">
				<ele>157.700000</ele>
				<time>2019-06-08T09:45:40Z</time>
				<speed>17.517378</speed>
			</trkpt>
			<trkpt lat="24.2117391" lon="120.6502604">
				<ele>157.000000</ele>
				<time>2019-06-08T09:45:41Z</time>
				<speed>17.452048</speed>
			</trkpt>
			<trkpt lat="24.2115845" lon="120.6503092">
				<ele>156.200000</ele>
				<time>2019-06-08T09:45:42Z</time>
				<speed>17.394435</speed>
			</trkpt>
			<trkpt lat="24.2114258" lon="120.6503418">
				<ele>155.400000</ele>
				<time>2019-06-08T09:45:43Z</time>
				<speed>17.348655</speed>
			</trkpt>
			<trkpt lat="24.2112671" lon="120.6503906">
				<ele>154.900000</ele>
				<time>2019-06-08T09:45:44Z</time>
				<speed>17.302359</speed>
			</trkpt>
			<trkpt lat="24.2111247" lon="120.6504232">
				<ele>153.800000</ele>
				<time>2019-06-08T09:45:45Z</time>
				<speed>16.725202</speed>
			</trkpt>
			<trkpt lat="24.2109823" lon="120.6504720">
				<ele>153.400000</ele>
				<time>2019-06-08T09:45:46Z</time>
				<speed>16.148045</speed>
			</trkpt>
			<trkpt lat="24.2108398" lon="120.6505046">
				<ele>152.800000</ele>
				<time>2019-06-08T09:45:47Z</time>
				<speed>15.832203</speed>
			</trkpt>
			<trkpt lat="24.2107015" lon="120.6505371">
				<ele>152.000000</ele>
				<time>2019-06-08T09:45:48Z</time>
				<speed>15.523563</speed>
			</trkpt>
			<trkpt lat="24.2105632" lon="120.6505697">
				<ele>150.700000</ele>
				<time>2019-06-08T09:45:49Z</time>
				<speed>15.367186</speed>
			</trkpt>
			<trkpt lat="24.2104289" lon="120.6506022">
				<ele>150.700000</ele>
				<time>2019-06-08T09:45:50Z</time>
				<speed>15.458235</speed>
			</trkpt>
			<trkpt lat="24.2102905" lon="120.6506348">
				<ele>149.600000</ele>
				<time>2019-06-08T09:45:51Z</time>
				<speed>15.457205</speed>
			</trkpt>
			<trkpt lat="24.2101522" lon="120.6506836">
				<ele>149.000000</ele>
				<time>2019-06-08T09:45:52Z</time>
				<speed>15.556485</speed>
			</trkpt>
			<trkpt lat="24.2100220" lon="120.6507324">
				<ele>148.500000</ele>
				<time>2019-06-08T09:45:53Z</time>
				<speed>15.506588</speed>
			</trkpt>
			<trkpt lat="24.2098836" lon="120.6507650">
				<ele>147.700000</ele>
				<time>2019-06-08T09:45:54Z</time>
				<speed>15.598151</speed>
			</trkpt>
			<trkpt lat="24.2097412" lon="120.6508138">
				<ele>146.700000</ele>
				<time>2019-06-08T09:45:55Z</time>
				<speed>15.679941</speed>
			</trkpt>
			<trkpt lat="24.2096029" lon="120.6508464">
				<ele>146.200000</ele>
				<time>2019-06-08T09:45:56Z</time>
				<speed>15.742184</speed>
			</trkpt>
			<trkpt lat="24.2094604" lon="120.6508952">
				<ele>145.500000</ele>
				<time>2019-06-08T09:45:57Z</time>
				<speed>15.940228</speed>
			</trkpt>
			<trkpt lat="24.2093221" lon="120.6509277">
				<ele>144.800000</ele>
				<time>2019-06-08T09:45:58Z</time>
				<speed>15.952572</speed>
			</trkpt>
			<trkpt lat="24.2091838" lon="120.6509766">
				<ele>144.400000</ele>
				<time>2019-06-08T09:45:59Z</time>
				<speed>15.991667</speed>
			</trkpt>
			<trkpt lat="24.2090454" lon="120.6510254">
				<ele>143.600000</ele>
				<time>2019-06-08T09:46:00Z</time>
				<speed>15.862553</speed>
			</trkpt>
			<trkpt lat="24.2089071" lon="120.6510905">
				<ele>143.000000</ele>
				<time>2019-06-08T09:46:01Z</time>
				<speed>16.149073</speed>
			</trkpt>
			<trkpt lat="24.2087687" lon="120.6511230">
				<ele>142.200000</ele>
				<time>2019-06-08T09:46:02Z</time>
				<speed>16.074486</speed>
			</trkpt>
			<trkpt lat="24.2086304" lon="120.6511882">
				<ele>140.800000</ele>
				<time>2019-06-08T09:46:03Z</time>
				<speed>16.146502</speed>
			</trkpt>
			<trkpt lat="24.2084920" lon="120.6512370">
				<ele>140.100000</ele>
				<time>2019-06-08T09:46:04Z</time>
				<speed>16.156790</speed>
			</trkpt>
			<trkpt lat="24.2083496" lon="120.6512858">
				<ele>139.500000</ele>
				<time>2019-06-08T09:46:05Z</time>
				<speed>16.267386</speed>
			</trkpt>
			<trkpt lat="24.2082072" lon="120.6513346">
				<ele>139.200000</ele>
				<time>2019-06-08T09:46:06Z</time>
				<speed>16.401644</speed>
			</trkpt>
			<trkpt lat="24.2080648" lon="120.6513997">
				<ele>138.800000</ele>
				<time>2019-06-08T09:46:07Z</time>
				<speed>16.691766</speed>
			</trkpt>
			<trkpt lat="24.2079305" lon="120.6514486">
				<ele>138.800000</ele>
				<time>2019-06-08T09:46:08Z</time>
				<speed>16.352261</speed>
			</trkpt>
			<trkpt lat="24.2078166" lon="120.6514974">
				<ele>138.900000</ele>
				<time>2019-06-08T09:46:09Z</time>
				<speed>15.076035</speed>
			</trkpt>
			<trkpt lat="24.2077067" lon="120.6515462">
				<ele>138.800000</ele>
				<time>2019-06-08T09:46:10Z</time>
				<speed>14.242193</speed>
			</trkpt>
			<trkpt lat="24.2075968" lon="120.6515951">
				<ele>138.800000</ele>
				<time>2019-06-08T09:46:11Z</time>
				<speed>13.519976</speed>
			</trkpt>
			<trkpt lat="24.2074829" lon="120.6516276">
				<ele>138.000000</ele>
				<time>2019-06-08T09:46:12Z</time>
				<speed>12.975740</speed>
			</trkpt>
			<trkpt lat="24.2073893" lon="120.6516764">
				<ele>138.200000</ele>
				<time>2019-06-08T09:46:13Z</time>
				<speed>12.648582</speed>
			</trkpt>
			<trkpt lat="24.2073120" lon="120.6517253">
				<ele>138.800000</ele>
				<time>2019-06-08T09:46:14Z</time>
				<speed>11.524617</speed>
			</trkpt>
			<trkpt lat="24.2072266" lon="120.6517741">
				<ele>138.200000</ele>
				<time>2019-06-08T09:46:15Z</time>
				<speed>11.098695</speed>
			</trkpt>
			<trkpt lat="24.2071574" lon="120.6518229">
				<ele>138.800000</ele>
				<time>2019-06-08T09:46:16Z</time>
				<speed>10.070923</speed>
			</trkpt>
			<trkpt lat="24.2070923" lon="120.6518555">
				<ele>139.800000</ele>
				<time>2019-06-08T09:46:17Z</time>
				<speed>9.655288</speed>
			</trkpt>
			<trkpt lat="24.2070272" lon="120.6518880">
				<ele>140.200000</ele>
				<time>2019-06-08T09:46:18Z</time>
				<speed>9.088934</speed>
			</trkpt>
			<trkpt lat="24.2069784" lon="120.6519206">
				<ele>140.700000</ele>
				<time>2019-06-08T09:46:19Z</time>
				<speed>7.847172</speed>
			</trkpt>
			<trkpt lat="24.2069336" lon="120.6519531">
				<ele>141.300000</ele>
				<time>2019-06-08T09:46:20Z</time>
				<speed>6.969091</speed>
			</trkpt>
			<trkpt lat="24.2068929" lon="120.6519857">
				<ele>141.900000</ele>
				<time>2019-06-08T09:46:21Z</time>
				<speed>5.911999</speed>
			</trkpt>
			<trkpt lat="24.2068685" lon="120.6519857">
				<ele>142.300000</ele>
				<time>2019-06-08T09:46:22Z</time>
				<speed>4.297812</speed>
			</trkpt>
			<trkpt lat="24.2068604" lon="120.6519857">
				<ele>143.000000</ele>
				<time>2019-06-08T09:46:23Z</time>
				<speed>2.276220</speed>
			</trkpt>
			<trkpt lat="24.2068481" lon="120.6519857">
				<ele>143.000000</ele>
				<time>2019-06-08T09:46:24Z</time>
				<speed>1.734042</speed>
			</trkpt>
			<trkpt lat="24.2068481" lon="120.6519857">
				<ele>142.900000</ele>
				<time>2019-06-08T09:46:25Z</time>
				<speed>1.020570</speed>
			</trkpt>
			<trkpt lat="24.2068400" lon="120.6519857">
				<ele>142.700000</ele>
				<time>2019-06-08T09:46:26Z</time>
				<speed>0.844130</speed>
			</trkpt>
			<trkpt lat="24.2068400" lon="120.6519857">
				<ele>142.700000</ele>
				<time>2019-06-08T09:46:27Z</time>
				<speed>0.611622</speed>
			</trkpt>
			<trkpt lat="24.2068319" lon="120.6519857">
				<ele>142.400000</ele>
				<time>2019-06-08T09:46:28Z</time>
				<speed>0.683638</speed>
			</trkpt>
			<trkpt lat="24.2068197" lon="120.6520182">
				<ele>142.500000</ele>
				<time>2019-06-08T09:46:29Z</time>
				<speed>1.338469</speed>
			</trkpt>
			<trkpt lat="24.2067790" lon="120.6520345">
				<ele>142.300000</ele>
				<time>2019-06-08T09:46:30Z</time>
				<speed>2.906874</speed>
			</trkpt>
			<trkpt lat="24.2067301" lon="120.6520508">
				<ele>141.700000</ele>
				<time>2019-06-08T09:46:31Z</time>
				<speed>3.917670</speed>
			</trkpt>
			<trkpt lat="24.2066610" lon="120.6520833">
				<ele>141.100000</ele>
				<time>2019-06-08T09:46:32Z</time>
				<speed>5.660457</speed>
			</trkpt>
			<trkpt lat="24.2065959" lon="120.6520996">
				<ele>140.700000</ele>
				<time>2019-06-08T09:46:33Z</time>
				<speed>6.160969</speed>
			</trkpt>
			<trkpt lat="24.2065348" lon="120.6521159">
				<ele>140.700000</ele>
				<time>2019-06-08T09:46:34Z</time>
				<speed>6.495329</speed>
			</trkpt>
			<trkpt lat="24.2064697" lon="120.6521484">
				<ele>140.800000</ele>
				<time>2019-06-08T09:46:35Z</time>
				<speed>6.935141</speed>
			</trkpt>
			<trkpt lat="24.2063883" lon="120.6521647">
				<ele>140.600000</ele>
				<time>2019-06-08T09:46:36Z</time>
				<speed>7.843571</speed>
			</trkpt>
			<trkpt lat="24.2063070" lon="120.6521973">
				<ele>140.400000</ele>
				<time>2019-06-08T09:46:37Z</time>
				<speed>8.199536</speed>
			</trkpt>
			<trkpt lat="24.2062297" lon="120.6522298">
				<ele>140.200000</ele>
				<time>2019-06-08T09:46:38Z</time>
				<speed>8.409926</speed>
			</trkpt>
			<trkpt lat="24.2061768" lon="120.6522786">
				<ele>140.300000</ele>
				<time>2019-06-08T09:46:39Z</time>
				<speed>8.203137</speed>
			</trkpt>
			<trkpt lat="24.2060954" lon="120.6523275">
				<ele>140.600000</ele>
				<time>2019-06-08T09:46:40Z</time>
				<speed>8.898091</speed>
			</trkpt>
			<trkpt lat="24.2060262" lon="120.6523926">
				<ele>140.300000</ele>
				<time>2019-06-08T09:46:41Z</time>
				<speed>9.098193</speed>
			</trkpt>
			<trkpt lat="24.2059611" lon="120.6524414">
				<ele>140.800000</ele>
				<time>2019-06-08T09:46:42Z</time>
				<speed>9.288520</speed>
			</trkpt>
			<trkpt lat="24.2058634" lon="120.6524902">
				<ele>140.900000</ele>
				<time>2019-06-08T09:46:43Z</time>
				<speed>9.596646</speed>
			</trkpt>
			<trkpt lat="24.2057617" lon="120.6525228">
				<ele>141.200000</ele>
				<time>2019-06-08T09:46:44Z</time>
				<speed>10.332753</speed>
			</trkpt>
			<trkpt lat="24.2056478" lon="120.6525716">
				<ele>141.200000</ele>
				<time>2019-06-08T09:46:45Z</time>
				<speed>11.013818</speed>
			</trkpt>
			<trkpt lat="24.2055420" lon="120.6526042">
				<ele>141.500000</ele>
				<time>2019-06-08T09:46:46Z</time>
				<speed>11.346635</speed>
			</trkpt>
			<trkpt lat="24.2054443" lon="120.6526530">
				<ele>141.600000</ele>
				<time>2019-06-08T09:46:47Z</time>
				<speed>11.441799</speed>
			</trkpt>
			<trkpt lat="24.2053507" lon="120.6527018">
				<ele>142.000000</ele>
				<time>2019-06-08T09:46:48Z</time>
				<speed>11.746324</speed>
			</trkpt>
			<trkpt lat="24.2052490" lon="120.6527507">
				<ele>142.200000</ele>
				<time>2019-06-08T09:46:49Z</time>
				<speed>12.080684</speed>
			</trkpt>
			<trkpt lat="24.2051473" lon="120.6527995">
				<ele>142.500000</ele>
				<time>2019-06-08T09:46:50Z</time>
				<speed>12.170704</speed>
			</trkpt>
			<trkpt lat="24.2050374" lon="120.6528483">
				<ele>143.000000</ele>
				<time>2019-06-08T09:46:51Z</time>
				<speed>12.491690</speed>
			</trkpt>
			<trkpt lat="24.2049357" lon="120.6529134">
				<ele>142.700000</ele>
				<time>2019-06-08T09:46:52Z</time>
				<speed>12.689734</speed>
			</trkpt>
			<trkpt lat="24.2048258" lon="120.6529785">
				<ele>142.800000</ele>
				<time>2019-06-08T09:46:53Z</time>
				<speed>12.913498</speed>
			</trkpt>
			<trkpt lat="24.2047160" lon="120.6530273">
				<ele>142.900000</ele>
				<time>2019-06-08T09:46:54Z</time>
				<speed>13.174813</speed>
			</trkpt>
			<trkpt lat="24.2045898" lon="120.6530924">
				<ele>143.100000</ele>
				<time>2019-06-08T09:46:55Z</time>
				<speed>13.527691</speed>
			</trkpt>
			<trkpt lat="24.2044678" lon="120.6531413">
				<ele>143.400000</ele>
				<time>2019-06-08T09:46:56Z</time>
				<speed>13.732937</speed>
			</trkpt>
			<trkpt lat="24.2043416" lon="120.6531901">
				<ele>143.000000</ele>
				<time>2019-06-08T09:46:57Z</time>
				<speed>14.019457</speed>
			</trkpt>
			<trkpt lat="24.2042277" lon="120.6532389">
				<ele>142.300000</ele>
				<time>2019-06-08T09:46:58Z</time>
				<speed>13.641373</speed>
			</trkpt>
			<trkpt lat="24.2041097" lon="120.6532878">
				<ele>142.100000</ele>
				<time>2019-06-08T09:46:59Z</time>
				<speed>13.674295</speed>
			</trkpt>
			<trkpt lat="24.2037516" lon="120.6534831">
				<ele>141.800000</ele>
				<time>2019-06-08T09:47:02Z</time>
				<speed>14.615647</speed>
			</trkpt>
			<trkpt lat="24.2036174" lon="120.6535645">
				<ele>141.600000</ele>
				<time>2019-06-08T09:47:03Z</time>
				<speed>15.156282</speed>
			</trkpt>
			<trkpt lat="24.2034831" lon="120.6536296">
				<ele>141.300000</ele>
				<time>2019-06-08T09:47:04Z</time>
				<speed>15.758130</speed>
			</trkpt>
			<trkpt lat="24.2033488" lon="120.6537109">
				<ele>141.000000</ele>
				<time>2019-06-08T09:47:05Z</time>
				<speed>15.857923</speed>
			</trkpt>
			<trkpt lat="24.2032145" lon="120.6537760">
				<ele>140.900000</ele>
				<time>2019-06-08T09:47:06Z</time>
				<speed>15.901133</speed>
			</trkpt>
			<trkpt lat="24.2030721" lon="120.6538411">
				<ele>140.700000</ele>
				<time>2019-06-08T09:47:07Z</time>
				<speed>16.234979</speed>
			</trkpt>
			<trkpt lat="24.2029297" lon="120.6539063">
				<ele>140.500000</ele>
				<time>2019-06-08T09:47:08Z</time>
				<speed>16.353291</speed>
			</trkpt>
			<trkpt lat="24.2028035" lon="120.6539876">
				<ele>140.200000</ele>
				<time>2019-06-08T09:47:09Z</time>
				<speed>16.168620</speed>
			</trkpt>
			<trkpt lat="24.2026815" lon="120.6540365">
				<ele>140.200000</ele>
				<time>2019-06-08T09:47:10Z</time>
				<speed>15.439202</speed>
			</trkpt>
			<trkpt lat="24.2025553" lon="120.6541016">
				<ele>140.100000</ele>
				<time>2019-06-08T09:47:11Z</time>
				<speed>14.930974</speed>
			</trkpt>
			<trkpt lat="24.2024333" lon="120.6541504">
				<ele>140.200000</ele>
				<time>2019-06-08T09:47:12Z</time>
				<speed>14.644968</speed>
			</trkpt>
			<trkpt lat="24.2023071" lon="120.6542155">
				<ele>139.800000</ele>
				<time>2019-06-08T09:47:13Z</time>
				<speed>14.371821</speed>
			</trkpt>
			<trkpt lat="24.2021810" lon="120.6542643">
				<ele>139.500000</ele>
				<time>2019-06-08T09:47:14Z</time>
				<speed>14.394969</speed>
			</trkpt>
			<trkpt lat="24.2020386" lon="120.6543294">
				<ele>137.700000</ele>
				<time>2019-06-08T09:47:15Z</time>
				<speed>14.282316</speed>
			</trkpt>
			<trkpt lat="24.2019002" lon="120.6543783">
				<ele>135.700000</ele>
				<time>2019-06-08T09:47:16Z</time>
				<speed>14.573981</speed>
			</trkpt>
			<trkpt lat="24.2017578" lon="120.6544434">
				<ele>133.800000</ele>
				<time>2019-06-08T09:47:17Z</time>
				<speed>14.750935</speed>
			</trkpt>
			<trkpt lat="24.2016276" lon="120.6545085">
				<ele>132.400000</ele>
				<time>2019-06-08T09:47:18Z</time>
				<speed>14.817806</speed>
			</trkpt>
			<trkpt lat="24.2015055" lon="120.6545736">
				<ele>132.000000</ele>
				<time>2019-06-08T09:47:19Z</time>
				<speed>14.790543</speed>
			</trkpt>
			<trkpt lat="24.2013835" lon="120.6546387">
				<ele>131.800000</ele>
				<time>2019-06-08T09:47:20Z</time>
				<speed>15.070377</speed>
			</trkpt>
			<trkpt lat="24.2012614" lon="120.6547038">
				<ele>131.400000</ele>
				<time>2019-06-08T09:47:21Z</time>
				<speed>14.901654</speed>
			</trkpt>
			<trkpt lat="24.2011434" lon="120.6547689">
				<ele>131.000000</ele>
				<time>2019-06-08T09:47:22Z</time>
				<speed>14.612046</speed>
			</trkpt>
			<trkpt lat="24.2010376" lon="120.6548177">
				<ele>130.300000</ele>
				<time>2019-06-08T09:47:23Z</time>
				<speed>13.774603</speed>
			</trkpt>
			<trkpt lat="24.2009359" lon="120.6548828">
				<ele>130.200000</ele>
				<time>2019-06-08T09:47:24Z</time>
				<speed>13.244257</speed>
			</trkpt>
			<trkpt lat="24.2008382" lon="120.6549316">
				<ele>129.300000</ele>
				<time>2019-06-08T09:47:25Z</time>
				<speed>12.544158</speed>
			</trkpt>
			<trkpt lat="24.2007406" lon="120.6549805">
				<ele>128.300000</ele>
				<time>2019-06-08T09:47:26Z</time>
				<speed>11.849718</speed>
			</trkpt>
			<trkpt lat="24.2006470" lon="120.6550130">
				<ele>126.600000</ele>
				<time>2019-06-08T09:47:27Z</time>
				<speed>11.115155</speed>
			</trkpt>
			<trkpt lat="24.2005575" lon="120.6550456">
				<ele>125.400000</ele>
				<time>2019-06-08T09:47:28Z</time>
				<speed>10.644994</speed>
			</trkpt>
			<trkpt lat="24.2004720" lon="120.6550781">
				<ele>124.700000</ele>
				<time>2019-06-08T09:47:29Z</time>
				<speed>10.160429</speed>
			</trkpt>
			<trkpt lat="24.2003906" lon="120.6551107">
				<ele>124.200000</ele>
				<time>2019-06-08T09:47:30Z</time>
				<speed>9.741707</speed>
			</trkpt>
			<trkpt lat="24.2003215" lon="120.6551595">
				<ele>124.000000</ele>
				<time>2019-06-08T09:47:31Z</time>
				<speed>9.373397</speed>
			</trkpt>
			<trkpt lat="24.2002645" lon="120.6551921">
				<ele>123.600000</ele>
				<time>2019-06-08T09:47:32Z</time>
				<speed>8.446448</speed>
			</trkpt>
			<trkpt lat="24.2002116" lon="120.6552246">
				<ele>123.200000</ele>
				<time>2019-06-08T09:47:33Z</time>
				<speed>7.509211</speed>
			</trkpt>
			<trkpt lat="24.2001912" lon="120.6552246">
				<ele>123.500000</ele>
				<time>2019-06-08T09:47:34Z</time>
				<speed>5.590499</speed>
			</trkpt>
			<trkpt lat="24.2001668" lon="120.6552409">
				<ele>123.600000</ele>
				<time>2019-06-08T09:47:35Z</time>
				<speed>4.149665</speed>
			</trkpt>
			<trkpt lat="24.2001465" lon="120.6552572">
				<ele>123.500000</ele>
				<time>2019-06-08T09:47:36Z</time>
				<speed>3.174877</speed>
			</trkpt>
			<trkpt lat="24.2001383" lon="120.6552572">
				<ele>123.600000</ele>
				<time>2019-06-08T09:47:37Z</time>
				<speed>1.955749</speed>
			</trkpt>
			<trkpt lat="24.2001343" lon="120.6552572">
				<ele>124.100000</ele>
				<time>2019-06-08T09:47:38Z</time>
				<speed>1.258737</speed>
			</trkpt>
			<trkpt lat="24.2001343" lon="120.6552572">
				<ele>124.100000</ele>
				<time>2019-06-08T09:47:38Z</time>
				<speed>1.258737</speed>
			</trkpt>
		</trkseg>
	</trk>
</gpx>