<?xml version='1.0' encoding='utf-8'?>
<gpx xmlns="http://www.topografix.com/GPX/1/1" xmlns:xsi="http://www.w3.org/2001/XMLSchema-instance" creator="Astro Gemini" version="1.0" xsi:schemaLocation="http://www.topografix.com/GPX/1/0 http://www.topografix.com/GPX/1/0/gpx.xsd">
	<trk>
		<name>FRON0644</name>
		<trkseg>
			<trkpt lat="24.2180339" lon="120.5422363">
				<ele>-13.900000</ele>
				<time>2019-06-08T07:09:36Z</time>
				<speed>0.014918</speed>
			</trkpt>
			<trkpt lat="24.2180339" lon="120.5422363">
				<ele>-14.500000</ele>
				<time>2019-06-08T07:09:37Z</time>
				<speed>0.020062</speed>
			</trkpt>
			<trkpt lat="24.2180339" lon="120.5422363">
				<ele>-15.100000</ele>
				<time>2019-06-08T07:09:37Z</time>
				<speed>0.020062</speed>
			</trkpt>
			<trkpt lat="24.2180379" lon="120.5422363">
				<ele>-15.600000</ele>
				<time>2019-06-08T07:09:39Z</time>
				<speed>0.078189</speed>
			</trkpt>
			<trkpt lat="24.2180379" lon="120.5422363">
				<ele>-16.100000</ele>
				<time>2019-06-08T07:09:40Z</time>
				<speed>0.056584</speed>
			</trkpt>
			<trkpt lat="24.2180379" lon="120.5422363">
				<ele>-16.700000</ele>
				<time>2019-06-08T07:09:41Z</time>
				<speed>0.035494</speed>
			</trkpt>
			<trkpt lat="24.2180379" lon="120.5422363">
				<ele>-17.100000</ele>
				<time>2019-06-08T07:09:42Z</time>
				<speed>0.034465</speed>
			</trkpt>
			<trkpt lat="24.2180379" lon="120.5422363">
				<ele>-17.500000</ele>
				<time>2019-06-08T07:09:43Z</time>
				<speed>0.036522</speed>
			</trkpt>
			<trkpt lat="24.2180379" lon="120.5422363">
				<ele>-18.100000</ele>
				<time>2019-06-08T07:09:44Z</time>
				<speed>0.079732</speed>
			</trkpt>
			<trkpt lat="24.2180379" lon="120.5422363">
				<ele>-18.100000</ele>
				<time>2019-06-08T07:09:45Z</time>
				<speed>0.061728</speed>
			</trkpt>
			<trkpt lat="24.2180339" lon="120.5422363">
				<ele>-17.900000</ele>
				<time>2019-06-08T07:09:46Z</time>
				<speed>0.050411</speed>
			</trkpt>
			<trkpt lat="24.2180339" lon="120.5422363">
				<ele>-18.100000</ele>
				<time>2019-06-08T07:09:47Z</time>
				<speed>0.064814</speed>
			</trkpt>
			<trkpt lat="24.2180339" lon="120.5422363">
				<ele>-18.200000</ele>
				<time>2019-06-08T07:09:48Z</time>
				<speed>0.040123</speed>
			</trkpt>
			<trkpt lat="24.2180339" lon="120.5422363">
				<ele>-18.600000</ele>
				<time>2019-06-08T07:09:49Z</time>
				<speed>0.099279</speed>
			</trkpt>
			<trkpt lat="24.2180339" lon="120.5422363">
				<ele>-18.400000</ele>
				<time>2019-06-08T07:09:50Z</time>
				<speed>0.104423</speed>
			</trkpt>
			<trkpt lat="24.2180339" lon="120.5422363">
				<ele>-18.400000</ele>
				<time>2019-06-08T07:09:51Z</time>
				<speed>0.079218</speed>
			</trkpt>
			<trkpt lat="24.2180298" lon="120.5422363">
				<ele>-18.100000</ele>
				<time>2019-06-08T07:09:52Z</time>
				<speed>0.051954</speed>
			</trkpt>
			<trkpt lat="24.2180298" lon="120.5422363">
				<ele>-17.800000</ele>
				<time>2019-06-08T07:09:53Z</time>
				<speed>0.044753</speed>
			</trkpt>
			<trkpt lat="24.2180298" lon="120.5422363">
				<ele>-17.300000</ele>
				<time>2019-06-08T07:09:54Z</time>
				<speed>0.057613</speed>
			</trkpt>
			<trkpt lat="24.2180298" lon="120.5422363">
				<ele>-17.100000</ele>
				<time>2019-06-08T07:09:55Z</time>
				<speed>0.086934</speed>
			</trkpt>
			<trkpt lat="24.2180298" lon="120.5422363">
				<ele>-16.600000</ele>
				<time>2019-06-08T07:09:56Z</time>
				<speed>0.019033</speed>
			</trkpt>
			<trkpt lat="24.2180298" lon="120.5422526">
				<ele>-15.900000</ele>
				<time>2019-06-08T07:09:57Z</time>
				<speed>0.023662</speed>
			</trkpt>
			<trkpt lat="24.2180257" lon="120.5422526">
				<ele>-14.900000</ele>
				<time>2019-06-08T07:09:58Z</time>
				<speed>0.090534</speed>
			</trkpt>
			<trkpt lat="24.2180257" lon="120.5422526">
				<ele>-14.600000</ele>
				<time>2019-06-08T07:09:59Z</time>
				<speed>0.055555</speed>
			</trkpt>
			<trkpt lat="24.2180257" lon="120.5422526">
				<ele>-14.200000</ele>
				<time>2019-06-08T07:10:00Z</time>
				<speed>0.033436</speed>
			</trkpt>
			<trkpt lat="24.2180257" lon="120.5422526">
				<ele>-13.700000</ele>
				<time>2019-06-08T07:10:01Z</time>
				<speed>0.045782</speed>
			</trkpt>
			<trkpt lat="24.2180257" lon="120.5422526">
				<ele>-13.700000</ele>
				<time>2019-06-08T07:10:02Z</time>
				<speed>0.145061</speed>
			</trkpt>
			<trkpt lat="24.2180379" lon="120.5422526">
				<ele>-13.700000</ele>
				<time>2019-06-08T07:10:03Z</time>
				<speed>1.183120</speed>
			</trkpt>
			<trkpt lat="24.2180664" lon="120.5422689">
				<ele>-13.500000</ele>
				<time>2019-06-08T07:10:04Z</time>
				<speed>2.872410</speed>
			</trkpt>
			<trkpt lat="24.2181030" lon="120.5422852">
				<ele>-13.500000</ele>
				<time>2019-06-08T07:10:05Z</time>
				<speed>4.225281</speed>
			</trkpt>
			<trkpt lat="24.2181519" lon="120.5423014">
				<ele>-12.800000</ele>
				<time>2019-06-08T07:10:06Z</time>
				<speed>5.073527</speed>
			</trkpt>
			<trkpt lat="24.2182129" lon="120.5423177">
				<ele>-12.200000</ele>
				<time>2019-06-08T07:10:07Z</time>
				<speed>6.418169</speed>
			</trkpt>
			<trkpt lat="24.2182739" lon="120.5423177">
				<ele>-12.300000</ele>
				<time>2019-06-08T07:10:08Z</time>
				<speed>7.077115</speed>
			</trkpt>
			<trkpt lat="24.2183390" lon="120.5423503">
				<ele>-12.500000</ele>
				<time>2019-06-08T07:10:09Z</time>
				<speed>7.753037</speed>
			</trkpt>
			<trkpt lat="24.2184204" lon="120.5423665">
				<ele>-12.800000</ele>
				<time>2019-06-08T07:10:10Z</time>
				<speed>8.587394</speed>
			</trkpt>
			<trkpt lat="24.2185099" lon="120.5423991">
				<ele>-13.100000</ele>
				<time>2019-06-08T07:10:11Z</time>
				<speed>9.528746</speed>
			</trkpt>
			<trkpt lat="24.2186035" lon="120.5424316">
				<ele>-13.600000</ele>
				<time>2019-06-08T07:10:12Z</time>
				<speed>9.902714</speed>
			</trkpt>
			<trkpt lat="24.2186930" lon="120.5424479">
				<ele>-13.400000</ele>
				<time>2019-06-08T07:10:13Z</time>
				<speed>10.250963</speed>
			</trkpt>
			<trkpt lat="24.2187907" lon="120.5424805">
				<ele>-13.400000</ele>
				<time>2019-06-08T07:10:14Z</time>
				<speed>10.776680</speed>
			</trkpt>
			<trkpt lat="24.2187907" lon="120.5424805">
				<ele>-13.900000</ele>
				<time>2019-06-08T07:10:14Z</time>
				<speed>10.776680</speed>
			</trkpt>
			<trkpt lat="24.2187907" lon="120.5424805">
				<ele>-14.200000</ele>
				<time>2019-06-08T07:10:14Z</time>
				<speed>10.776680</speed>
			</trkpt>
			<trkpt lat="24.2190999" lon="120.5425618">
				<ele>-14.300000</ele>
				<time>2019-06-08T07:10:17Z</time>
				<speed>12.155272</speed>
			</trkpt>
			<trkpt lat="24.2192057" lon="120.5426107">
				<ele>-14.500000</ele>
				<time>2019-06-08T07:10:18Z</time>
				<speed>12.417616</speed>
			</trkpt>
			<trkpt lat="24.2193197" lon="120.5426432">
				<ele>-13.900000</ele>
				<time>2019-06-08T07:10:19Z</time>
				<speed>12.764836</speed>
			</trkpt>
			<trkpt lat="24.2194336" lon="120.5426758">
				<ele>-13.800000</ele>
				<time>2019-06-08T07:10:20Z</time>
				<speed>13.108455</speed>
			</trkpt>
			<trkpt lat="24.2195516" lon="120.5427083">
				<ele>-13.900000</ele>
				<time>2019-06-08T07:10:21Z</time>
				<speed>13.457218</speed>
			</trkpt>
			<trkpt lat="24.2196737" lon="120.5427409">
				<ele>-13.800000</ele>
				<time>2019-06-08T07:10:22Z</time>
				<speed>13.757113</speed>
			</trkpt>
			<trkpt lat="24.2197957" lon="120.5427897">
				<ele>-13.800000</ele>
				<time>2019-06-08T07:10:23Z</time>
				<speed>14.021001</speed>
			</trkpt>
			<trkpt lat="24.2199219" lon="120.5428223">
				<ele>-13.700000</ele>
				<time>2019-06-08T07:10:24Z</time>
				<speed>14.250938</speed>
			</trkpt>
			<trkpt lat="24.2200480" lon="120.5428548">
				<ele>-13.600000</ele>
				<time>2019-06-08T07:10:25Z</time>
				<speed>14.471101</speed>
			</trkpt>
			<trkpt lat="24.2201782" lon="120.5429036">
				<ele>-13.200000</ele>
				<time>2019-06-08T07:10:26Z</time>
				<speed>14.721099</speed>
			</trkpt>
			<trkpt lat="24.2203084" lon="120.5429362">
				<ele>-13.100000</ele>
				<time>2019-06-08T07:10:27Z</time>
				<speed>15.033340</speed>
			</trkpt>
			<trkpt lat="24.2204427" lon="120.5429850">
				<ele>-13.100000</ele>
				<time>2019-06-08T07:10:28Z</time>
				<speed>15.317289</speed>
			</trkpt>
			<trkpt lat="24.2205811" lon="120.5430339">
				<ele>-12.900000</ele>
				<time>2019-06-08T07:10:29Z</time>
				<speed>15.413996</speed>
			</trkpt>
			<trkpt lat="24.2207194" lon="120.5430664">
				<ele>-12.800000</ele>
				<time>2019-06-08T07:10:30Z</time>
				<speed>15.561629</speed>
			</trkpt>
			<trkpt lat="24.2208577" lon="120.5431152">
				<ele>-12.700000</ele>
				<time>2019-06-08T07:10:31Z</time>
				<speed>15.886730</speed>
			</trkpt>
			<trkpt lat="24.2210002" lon="120.5431641">
				<ele>-12.800000</ele>
				<time>2019-06-08T07:10:32Z</time>
				<speed>16.186624</speed>
			</trkpt>
			<trkpt lat="24.2211466" lon="120.5431966">
				<ele>-12.600000</ele>
				<time>2019-06-08T07:10:33Z</time>
				<speed>16.419648</speed>
			</trkpt>
			<trkpt lat="24.2212891" lon="120.5432454">
				<ele>-12.300000</ele>
				<time>2019-06-08T07:10:34Z</time>
				<speed>16.559051</speed>
			</trkpt>
			<trkpt lat="24.2214355" lon="120.5432943">
				<ele>-12.200000</ele>
				<time>2019-06-08T07:10:35Z</time>
				<speed>16.663474</speed>
			</trkpt>
			<trkpt lat="24.2215820" lon="120.5433431">
				<ele>-11.900000</ele>
				<time>2019-06-08T07:10:36Z</time>
				<speed>16.789502</speed>
			</trkpt>
			<trkpt lat="24.2217285" lon="120.5433919">
				<ele>-11.800000</ele>
				<time>2019-06-08T07:10:37Z</time>
				<speed>16.900098</speed>
			</trkpt>
			<trkpt lat="24.2218750" lon="120.5434408">
				<ele>-11.500000</ele>
				<time>2019-06-08T07:10:38Z</time>
				<speed>16.959255</speed>
			</trkpt>
			<trkpt lat="24.2220215" lon="120.5434896">
				<ele>-11.400000</ele>
				<time>2019-06-08T07:10:39Z</time>
				<speed>16.950509</speed>
			</trkpt>
			<trkpt lat="24.2221680" lon="120.5435384">
				<ele>-11.100000</ele>
				<time>2019-06-08T07:10:40Z</time>
				<speed>17.006579</speed>
			</trkpt>
			<trkpt lat="24.2223145" lon="120.5435872">
				<ele>-10.700000</ele>
				<time>2019-06-08T07:10:41Z</time>
				<speed>17.032813</speed>
			</trkpt>
			<trkpt lat="24.2224650" lon="120.5436523">
				<ele>-10.200000</ele>
				<time>2019-06-08T07:10:42Z</time>
				<speed>17.084768</speed>
			</trkpt>
			<trkpt lat="24.2226115" lon="120.5437012">
				<ele>-9.900000</ele>
				<time>2019-06-08T07:10:43Z</time>
				<speed>17.134149</speed>
			</trkpt>
			<trkpt lat="24.2227580" lon="120.5437663">
				<ele>-9.600000</ele>
				<time>2019-06-08T07:10:44Z</time>
				<speed>17.175816</speed>
			</trkpt>
			<trkpt lat="24.2229085" lon="120.5438151">
				<ele>-9.500000</ele>
				<time>2019-06-08T07:10:45Z</time>
				<speed>17.115631</speed>
			</trkpt>
			<trkpt lat="24.2230550" lon="120.5438639">
				<ele>-9.300000</ele>
				<time>2019-06-08T07:10:46Z</time>
				<speed>17.096084</speed>
			</trkpt>
			<trkpt lat="24.2232015" lon="120.5439128">
				<ele>-9.100000</ele>
				<time>2019-06-08T07:10:47Z</time>
				<speed>17.144953</speed>
			</trkpt>
			<trkpt lat="24.2233521" lon="120.5439779">
				<ele>-8.900000</ele>
				<time>2019-06-08T07:10:48Z</time>
				<speed>17.224684</speed>
			</trkpt>
			<trkpt lat="24.2234985" lon="120.5440267">
				<ele>-8.600000</ele>
				<time>2019-06-08T07:10:49Z</time>
				<speed>17.240630</speed>
			</trkpt>
			<trkpt lat="24.2236450" lon="120.5440755">
				<ele>-8.200000</ele>
				<time>2019-06-08T07:10:50Z</time>
				<speed>17.167072</speed>
			</trkpt>
			<trkpt lat="24.2237915" lon="120.5441406">
				<ele>-7.800000</ele>
				<time>2019-06-08T07:10:51Z</time>
				<speed>17.127977</speed>
			</trkpt>
			<trkpt lat="24.2239380" lon="120.5441895">
				<ele>-7.400000</ele>
				<time>2019-06-08T07:10:52Z</time>
				<speed>17.102772</speed>
			</trkpt>
			<trkpt lat="24.2240885" lon="120.5442546">
				<ele>-7.200000</ele>
				<time>2019-06-08T07:10:53Z</time>
				<speed>17.093512</speed>
			</trkpt>
			<trkpt lat="24.2242350" lon="120.5443034">
				<ele>-6.600000</ele>
				<time>2019-06-08T07:10:54Z</time>
				<speed>17.130548</speed>
			</trkpt>
			<trkpt lat="24.2243815" lon="120.5443522">
				<ele>-6.700000</ele>
				<time>2019-06-08T07:10:55Z</time>
				<speed>17.106887</speed>
			</trkpt>
			<trkpt lat="24.2245280" lon="120.5444010">
				<ele>-6.300000</ele>
				<time>2019-06-08T07:10:56Z</time>
				<speed>17.011208</speed>
			</trkpt>
			<trkpt lat="24.2246745" lon="120.5444661">
				<ele>-5.900000</ele>
				<time>2019-06-08T07:10:57Z</time>
				<speed>16.912442</speed>
			</trkpt>
			<trkpt lat="24.2248169" lon="120.5445150">
				<ele>-5.800000</ele>
				<time>2019-06-08T07:10:58Z</time>
				<speed>16.901126</speed>
			</trkpt>
			<trkpt lat="24.2249634" lon="120.5445638">
				<ele>-5.300000</ele>
				<time>2019-06-08T07:10:59Z</time>
				<speed>16.951023</speed>
			</trkpt>
			<trkpt lat="24.2251099" lon="120.5446126">
				<ele>-5.000000</ele>
				<time>2019-06-08T07:11:00Z</time>
				<speed>16.956682</speed>
			</trkpt>
			<trkpt lat="24.2252563" lon="120.5446615">
				<ele>-4.700000</ele>
				<time>2019-06-08T07:11:01Z</time>
				<speed>16.810078</speed>
			</trkpt>
			<trkpt lat="24.2254028" lon="120.5447103">
				<ele>-4.800000</ele>
				<time>2019-06-08T07:11:02Z</time>
				<speed>16.759153</speed>
			</trkpt>
			<trkpt lat="24.2255493" lon="120.5447591">
				<ele>-4.600000</ele>
				<time>2019-06-08T07:11:03Z</time>
				<speed>16.740119</speed>
			</trkpt>
			<trkpt lat="24.2256958" lon="120.5448079">
				<ele>-4.400000</ele>
				<time>2019-06-08T07:11:04Z</time>
				<speed>16.791560</speed>
			</trkpt>
			<trkpt lat="24.2258382" lon="120.5448405">
				<ele>-4.600000</ele>
				<time>2019-06-08T07:11:05Z</time>
				<speed>16.660902</speed>
			</trkpt>
			<trkpt lat="24.2259766" lon="120.5448893">
				<ele>-4.400000</ele>
				<time>2019-06-08T07:11:06Z</time>
				<speed>15.903191</speed>
			</trkpt>
			<trkpt lat="24.2261068" lon="120.5449219">
				<ele>-4.400000</ele>
				<time>2019-06-08T07:11:07Z</time>
				<speed>15.165027</speed>
			</trkpt>
			<trkpt lat="24.2262329" lon="120.5449707">
				<ele>-4.500000</ele>
				<time>2019-06-08T07:11:08Z</time>
				<speed>14.405257</speed>
			</trkpt>
			<trkpt lat="24.2263509" lon="120.5450033">
				<ele>-4.300000</ele>
				<time>2019-06-08T07:11:09Z</time>
				<speed>13.665036</speed>
			</trkpt>
			<trkpt lat="24.2264648" lon="120.5450358">
				<ele>-4.300000</ele>
				<time>2019-06-08T07:11:10Z</time>
				<speed>12.983970</speed>
			</trkpt>
			<trkpt lat="24.2265706" lon="120.5450684">
				<ele>-4.300000</ele>
				<time>2019-06-08T07:11:11Z</time>
				<speed>12.159387</speed>
			</trkpt>
			<trkpt lat="24.2266683" lon="120.5451009">
				<ele>-4.300000</ele>
				<time>2019-06-08T07:11:12Z</time>
				<speed>11.011246</speed>
			</trkpt>
			<trkpt lat="24.2267497" lon="120.5451335">
				<ele>-4.400000</ele>
				<time>2019-06-08T07:11:13Z</time>
				<speed>9.363109</speed>
			</trkpt>
			<trkpt lat="24.2268107" lon="120.5451497">
				<ele>-4.800000</ele>
				<time>2019-06-08T07:11:14Z</time>
				<speed>7.309624</speed>
			</trkpt>
			<trkpt lat="24.2268433" lon="120.5451497">
				<ele>-4.000000</ele>
				<time>2019-06-08T07:11:15Z</time>
				<speed>4.416124</speed>
			</trkpt>
			<trkpt lat="24.2268514" lon="120.5451335">
				<ele>-5.400000</ele>
				<time>2019-06-08T07:11:16Z</time>
				<speed>1.251535</speed>
			</trkpt>
			<trkpt lat="24.2268555" lon="120.5451335">
				<ele>-5.500000</ele>
				<time>2019-06-08T07:11:17Z</time>
				<speed>0.314298</speed>
			</trkpt>
			<trkpt lat="24.2268595" lon="120.5451335">
				<ele>-5.500000</ele>
				<time>2019-06-08T07:11:18Z</time>
				<speed>0.114711</speed>
			</trkpt>
			<trkpt lat="24.2268595" lon="120.5451335">
				<ele>-5.900000</ele>
				<time>2019-06-08T07:11:19Z</time>
				<speed>0.054526</speed>
			</trkpt>
			<trkpt lat="24.2268595" lon="120.5451335">
				<ele>-6.100000</ele>
				<time>2019-06-08T07:11:20Z</time>
				<speed>0.067386</speed>
			</trkpt>
			<trkpt lat="24.2268595" lon="120.5451335">
				<ele>-6.100000</ele>
				<time>2019-06-08T07:11:21Z</time>
				<speed>0.098250</speed>
			</trkpt>
			<trkpt lat="24.2268595" lon="120.5451335">
				<ele>-4.700000</ele>
				<time>2019-06-08T07:11:22Z</time>
				<speed>0.031378</speed>
			</trkpt>
			<trkpt lat="24.2268595" lon="120.5451335">
				<ele>-4.800000</ele>
				<time>2019-06-08T07:11:23Z</time>
				<speed>0.056584</speed>
			</trkpt>
			<trkpt lat="24.2268636" lon="120.5451335">
				<ele>-4.700000</ele>
				<time>2019-06-08T07:11:24Z</time>
				<speed>0.040123</speed>
			</trkpt>
			<trkpt lat="24.2268636" lon="120.5451335">
				<ele>-4.700000</ele>
				<time>2019-06-08T07:11:25Z</time>
				<speed>0.004115</speed>
			</trkpt>
			<trkpt lat="24.2268636" lon="120.5451335">
				<ele>-4.500000</ele>
				<time>2019-06-08T07:11:26Z</time>
				<speed>0.057098</speed>
			</trkpt>
			<trkpt lat="24.2268636" lon="120.5451335">
				<ele>-4.300000</ele>
				<time>2019-06-08T07:11:27Z</time>
				<speed>0.028806</speed>
			</trkpt>
			<trkpt lat="24.2268677" lon="120.5451335">
				<ele>-4.100000</ele>
				<time>2019-06-08T07:11:28Z</time>
				<speed>0.011831</speed>
			</trkpt>
			<trkpt lat="24.2268677" lon="120.5451497">
				<ele>-3.800000</ele>
				<time>2019-06-08T07:11:29Z</time>
				<speed>0.068415</speed>
			</trkpt>
			<trkpt lat="24.2268677" lon="120.5451497">
				<ele>-3.600000</ele>
				<time>2019-06-08T07:11:30Z</time>
				<speed>0.144032</speed>
			</trkpt>
			<trkpt lat="24.2268677" lon="120.5451497">
				<ele>-3.300000</ele>
				<time>2019-06-08T07:11:31Z</time>
				<speed>0.104938</speed>
			</trkpt>
			<trkpt lat="24.2268677" lon="120.5451497">
				<ele>-3.000000</ele>
				<time>2019-06-08T07:11:32Z</time>
				<speed>0.105452</speed>
			</trkpt>
			<trkpt lat="24.2268677" lon="120.5451497">
				<ele>-3.000000</ele>
				<time>2019-06-08T07:11:33Z</time>
				<speed>0.034979</speed>
			</trkpt>
			<trkpt lat="24.2268717" lon="120.5451497">
				<ele>-2.900000</ele>
				<time>2019-06-08T07:11:34Z</time>
				<speed>0.110596</speed>
			</trkpt>
			<trkpt lat="24.2268717" lon="120.5451497">
				<ele>-2.700000</ele>
				<time>2019-06-08T07:11:35Z</time>
				<speed>0.022634</speed>
			</trkpt>
			<trkpt lat="24.2268717" lon="120.5451497">
				<ele>-2.900000</ele>
				<time>2019-06-08T07:11:36Z</time>
				<speed>0.023662</speed>
			</trkpt>
			<trkpt lat="24.2268717" lon="120.5451497">
				<ele>-2.800000</ele>
				<time>2019-06-08T07:11:37Z</time>
				<speed>0.028806</speed>
			</trkpt>
			<trkpt lat="24.2268717" lon="120.5451335">
				<ele>-2.600000</ele>
				<time>2019-06-08T07:11:38Z</time>
				<speed>0.041666</speed>
			</trkpt>
			<trkpt lat="24.2268717" lon="120.5451335">
				<ele>-2.500000</ele>
				<time>2019-06-08T07:11:39Z</time>
				<speed>0.105966</speed>
			</trkpt>
			<trkpt lat="24.2268717" lon="120.5451335">
				<ele>-2.500000</ele>
				<time>2019-06-08T07:11:40Z</time>
				<speed>0.074588</speed>
			</trkpt>
			<trkpt lat="24.2268717" lon="120.5451335">
				<ele>-2.500000</ele>
				<time>2019-06-08T07:11:41Z</time>
				<speed>0.057613</speed>
			</trkpt>
			<trkpt lat="24.2268717" lon="120.5451335">
				<ele>-2.400000</ele>
				<time>2019-06-08T07:11:42Z</time>
				<speed>0.079218</speed>
			</trkpt>
			<trkpt lat="24.2268717" lon="120.5451335">
				<ele>-2.100000</ele>
				<time>2019-06-08T07:11:43Z</time>
				<speed>0.084362</speed>
			</trkpt>
			<trkpt lat="24.2268717" lon="120.5451335">
				<ele>-2.000000</ele>
				<time>2019-06-08T07:11:44Z</time>
				<speed>0.051440</speed>
			</trkpt>
			<trkpt lat="24.2268677" lon="120.5451172">
				<ele>-2.000000</ele>
				<time>2019-06-08T07:11:45Z</time>
				<speed>0.293722</speed>
			</trkpt>
			<trkpt lat="24.2268677" lon="120.5451172">
				<ele>-1.800000</ele>
				<time>2019-06-08T07:11:46Z</time>
				<speed>0.217591</speed>
			</trkpt>
			<trkpt lat="24.2268677" lon="120.5451172">
				<ele>-1.600000</ele>
				<time>2019-06-08T07:11:47Z</time>
				<speed>0.118826</speed>
			</trkpt>
			<trkpt lat="24.2268677" lon="120.5451172">
				<ele>-1.600000</ele>
				<time>2019-06-08T07:11:48Z</time>
				<speed>0.207303</speed>
			</trkpt>
			<trkpt lat="24.2268677" lon="120.5451009">
				<ele>-1.600000</ele>
				<time>2019-06-08T07:11:49Z</time>
				<speed>0.077674</speed>
			</trkpt>
			<trkpt lat="24.2268677" lon="120.5451009">
				<ele>-1.500000</ele>
				<time>2019-06-08T07:11:50Z</time>
				<speed>0.060699</speed>
			</trkpt>
			<trkpt lat="24.2268677" lon="120.5451009">
				<ele>-1.400000</ele>
				<time>2019-06-08T07:11:51Z</time>
				<speed>0.024177</speed>
			</trkpt>
			<trkpt lat="24.2268677" lon="120.5451009">
				<ele>-1.400000</ele>
				<time>2019-06-08T07:11:52Z</time>
				<speed>0.029321</speed>
			</trkpt>
			<trkpt lat="24.2268677" lon="120.5451009">
				<ele>-1.200000</ele>
				<time>2019-06-08T07:11:53Z</time>
				<speed>0.073045</speed>
			</trkpt>
			<trkpt lat="24.2268595" lon="120.5451009">
				<ele>-0.500000</ele>
				<time>2019-06-08T07:11:54Z</time>
				<speed>0.067901</speed>
			</trkpt>
			<trkpt lat="24.2268555" lon="120.5450846">
				<ele>0.300000</ele>
				<time>2019-06-08T07:11:55Z</time>
				<speed>0.030864</speed>
			</trkpt>
			<trkpt lat="24.2268514" lon="120.5450846">
				<ele>1.200000</ele>
				<time>2019-06-08T07:11:56Z</time>
				<speed>0.121398</speed>
			</trkpt>
			<trkpt lat="24.2268473" lon="120.5450846">
				<ele>1.800000</ele>
				<time>2019-06-08T07:11:57Z</time>
				<speed>0.146604</speed>
			</trkpt>
			<trkpt lat="24.2268433" lon="120.5450684">
				<ele>2.400000</ele>
				<time>2019-06-08T07:11:58Z</time>
				<speed>0.082818</speed>
			</trkpt>
			<trkpt lat="24.2268433" lon="120.5450684">
				<ele>2.700000</ele>
				<time>2019-06-08T07:11:59Z</time>
				<speed>0.020576</speed>
			</trkpt>
			<trkpt lat="24.2268392" lon="120.5450684">
				<ele>2.800000</ele>
				<time>2019-06-08T07:12:00Z</time>
				<speed>0.201645</speed>
			</trkpt>
			<trkpt lat="24.2268392" lon="120.5450684">
				<ele>2.600000</ele>
				<time>2019-06-08T07:12:01Z</time>
				<speed>0.387343</speed>
			</trkpt>
			<trkpt lat="24.2268392" lon="120.5450684">
				<ele>2.700000</ele>
				<time>2019-06-08T07:12:02Z</time>
				<speed>0.333331</speed>
			</trkpt>
			<trkpt lat="24.2268514" lon="120.5450684">
				<ele>2.800000</ele>
				<time>2019-06-08T07:12:03Z</time>
				<speed>0.811209</speed>
			</trkpt>
			<trkpt lat="24.2268677" lon="120.5450846">
				<ele>2.900000</ele>
				<time>2019-06-08T07:12:04Z</time>
				<speed>1.753590</speed>
			</trkpt>
			<trkpt lat="24.2269002" lon="120.5451172">
				<ele>2.900000</ele>
				<time>2019-06-08T07:12:05Z</time>
				<speed>3.007183</speed>
			</trkpt>
			<trkpt lat="24.2269450" lon="120.5451335">
				<ele>3.100000</ele>
				<time>2019-06-08T07:12:06Z</time>
				<speed>4.293182</speed>
			</trkpt>
			<trkpt lat="24.2269979" lon="120.5451497">
				<ele>4.700000</ele>
				<time>2019-06-08T07:12:07Z</time>
				<speed>5.464985</speed>
			</trkpt>
			<trkpt lat="24.2270630" lon="120.5451660">
				<ele>6.200000</ele>
				<time>2019-06-08T07:12:08Z</time>
				<speed>6.415597</speed>
			</trkpt>
			<trkpt lat="24.2271362" lon="120.5451823">
				<ele>7.500000</ele>
				<time>2019-06-08T07:12:09Z</time>
				<speed>7.739148</speed>
			</trkpt>
			<trkpt lat="24.2272135" lon="120.5452148">
				<ele>8.400000</ele>
				<time>2019-06-08T07:12:10Z</time>
				<speed>8.529266</speed>
			</trkpt>
			<trkpt lat="24.2272949" lon="120.5452474">
				<ele>9.000000</ele>
				<time>2019-06-08T07:12:11Z</time>
				<speed>9.190270</speed>
			</trkpt>
			<trkpt lat="24.2273844" lon="120.5452637">
				<ele>9.100000</ele>
				<time>2019-06-08T07:12:12Z</time>
				<speed>9.829669</speed>
			</trkpt>
			<trkpt lat="24.2274740" lon="120.5452962">
				<ele>10.300000</ele>
				<time>2019-06-08T07:12:13Z</time>
				<speed>10.337383</speed>
			</trkpt>
			<trkpt lat="24.2275675" lon="120.5453288">
				<ele>11.100000</ele>
				<time>2019-06-08T07:12:14Z</time>
				<speed>10.872358</speed>
			</trkpt>
			<trkpt lat="24.2276693" lon="120.5453776">
				<ele>11.600000</ele>
				<time>2019-06-08T07:12:15Z</time>
				<speed>11.434598</speed>
			</trkpt>
			<trkpt lat="24.2277751" lon="120.5454102">
				<ele>11.600000</ele>
				<time>2019-06-08T07:12:16Z</time>
				<speed>11.963915</speed>
			</trkpt>
			<trkpt lat="24.2278849" lon="120.5454427">
				<ele>11.500000</ele>
				<time>2019-06-08T07:12:17Z</time>
				<speed>12.419159</speed>
			</trkpt>
			<trkpt lat="24.2279989" lon="120.5454753">
				<ele>11.500000</ele>
				<time>2019-06-08T07:12:18Z</time>
				<speed>12.773581</speed>
			</trkpt>
			<trkpt lat="24.2281169" lon="120.5455078">
				<ele>11.500000</ele>
				<time>2019-06-08T07:12:19Z</time>
				<speed>13.271005</speed>
			</trkpt>
			<trkpt lat="24.2282389" lon="120.5455566">
				<ele>11.400000</ele>
				<time>2019-06-08T07:12:20Z</time>
				<speed>13.630057</speed>
			</trkpt>
			<trkpt lat="24.2283610" lon="120.5455892">
				<ele>10.800000</ele>
				<time>2019-06-08T07:12:21Z</time>
				<speed>13.904746</speed>
			</trkpt>
			<trkpt lat="24.2284871" lon="120.5456217">
				<ele>10.100000</ele>
				<time>2019-06-08T07:12:22Z</time>
				<speed>14.254539</speed>
			</trkpt>
			<trkpt lat="24.2286174" lon="120.5456706">
				<ele>10.000000</ele>
				<time>2019-06-08T07:12:23Z</time>
				<speed>14.654742</speed>
			</trkpt>
			<trkpt lat="24.2287476" lon="120.5457031">
				<ele>9.900000</ele>
				<time>2019-06-08T07:12:24Z</time>
				<speed>14.925316</speed>
			</trkpt>
			<trkpt lat="24.2288818" lon="120.5457520">
				<ele>9.200000</ele>
				<time>2019-06-08T07:12:25Z</time>
				<speed>15.139306</speed>
			</trkpt>
			<trkpt lat="24.2290161" lon="120.5457845">
				<ele>8.700000</ele>
				<time>2019-06-08T07:12:26Z</time>
				<speed>15.293627</speed>
			</trkpt>
			<trkpt lat="24.2291545" lon="120.5458171">
				<ele>8.200000</ele>
				<time>2019-06-08T07:12:27Z</time>
				<speed>15.457205</speed>
			</trkpt>
			<trkpt lat="24.2292928" lon="120.5458659">
				<ele>8.300000</ele>
				<time>2019-06-08T07:12:28Z</time>
				<speed>15.644447</speed>
			</trkpt>
			<trkpt lat="24.2294312" lon="120.5458984">
				<ele>8.200000</ele>
				<time>2019-06-08T07:12:29Z</time>
				<speed>15.833232</speed>
			</trkpt>
			<trkpt lat="24.2295695" lon="120.5459473">
				<ele>8.300000</ele>
				<time>2019-06-08T07:12:30Z</time>
				<speed>16.072428</speed>
			</trkpt>
			<trkpt lat="24.2297160" lon="120.5459961">
				<ele>7.900000</ele>
				<time>2019-06-08T07:12:31Z</time>
				<speed>16.261728</speed>
			</trkpt>
			<trkpt lat="24.2298584" lon="120.5460286">
				<ele>7.800000</ele>
				<time>2019-06-08T07:12:32Z</time>
				<speed>16.431480</speed>
			</trkpt>
			<trkpt lat="24.2300049" lon="120.5460775">
				<ele>7.700000</ele>
				<time>2019-06-08T07:12:33Z</time>
				<speed>16.558021</speed>
			</trkpt>
			<trkpt lat="24.2301514" lon="120.5461263">
				<ele>7.600000</ele>
				<time>2019-06-08T07:12:34Z</time>
				<speed>16.653700</speed>
			</trkpt>
			<trkpt lat="24.2303019" lon="120.5461751">
				<ele>7.500000</ele>
				<time>2019-06-08T07:12:35Z</time>
				<speed>16.891868</speed>
			</trkpt>
			<trkpt lat="24.2304525" lon="120.5462240">
				<ele>7.200000</ele>
				<time>2019-06-08T07:12:36Z</time>
				<speed>17.058018</speed>
			</trkpt>
			<trkpt lat="24.2304525" lon="120.5462240">
				<ele>7.200000</ele>
				<time>2019-06-08T07:12:36Z</time>
				<speed>17.058018</speed>
			</trkpt>
		</trkseg>
	</trk>
</gpx>