<?xml version='1.0' encoding='utf-8'?>
<gpx xmlns="http://www.topografix.com/GPX/1/1" xmlns:xsi="http://www.w3.org/2001/XMLSchema-instance" creator="Astro Gemini" version="1.0" xsi:schemaLocation="http://www.topografix.com/GPX/1/0 http://www.topografix.com/GPX/1/0/gpx.xsd">
	<trk>
		<name>FRON0640</name>
		<trkseg>
			<trkpt lat="24.1420288" lon="120.5487142">
				<ele>35.100000</ele>
				<time>2019-06-08T06:57:36Z</time>
				<speed>0.041152</speed>
			</trkpt>
			<trkpt lat="24.1420369" lon="120.5486979">
				<ele>35.200000</ele>
				<time>2019-06-08T06:57:37Z</time>
				<speed>0.200102</speed>
			</trkpt>
			<trkpt lat="24.1420369" lon="120.5486979">
				<ele>34.800000</ele>
				<time>2019-06-08T06:57:37Z</time>
				<speed>0.200102</speed>
			</trkpt>
			<trkpt lat="24.1420410" lon="120.5486979">
				<ele>34.700000</ele>
				<time>2019-06-08T06:57:39Z</time>
				<speed>0.071502</speed>
			</trkpt>
			<trkpt lat="24.1420410" lon="120.5486979">
				<ele>34.800000</ele>
				<time>2019-06-08T06:57:40Z</time>
				<speed>0.095678</speed>
			</trkpt>
			<trkpt lat="24.1420532" lon="120.5486979">
				<ele>35.300000</ele>
				<time>2019-06-08T06:57:41Z</time>
				<speed>0.150205</speed>
			</trkpt>
			<trkpt lat="24.1420573" lon="120.5486979">
				<ele>35.700000</ele>
				<time>2019-06-08T06:57:42Z</time>
				<speed>0.283434</speed>
			</trkpt>
			<trkpt lat="24.1420573" lon="120.5486979">
				<ele>35.600000</ele>
				<time>2019-06-08T06:57:43Z</time>
				<speed>0.017490</speed>
			</trkpt>
			<trkpt lat="24.1420492" lon="120.5486979">
				<ele>35.800000</ele>
				<time>2019-06-08T06:57:44Z</time>
				<speed>0.228908</speed>
			</trkpt>
			<trkpt lat="24.1420532" lon="120.5486979">
				<ele>35.800000</ele>
				<time>2019-06-08T06:57:45Z</time>
				<speed>0.036008</speed>
			</trkpt>
			<trkpt lat="24.1420492" lon="120.5486979">
				<ele>35.300000</ele>
				<time>2019-06-08T06:57:46Z</time>
				<speed>0.272118</speed>
			</trkpt>
			<trkpt lat="24.1420451" lon="120.5486979">
				<ele>35.200000</ele>
				<time>2019-06-08T06:57:47Z</time>
				<speed>0.310183</speed>
			</trkpt>
			<trkpt lat="24.1420492" lon="120.5486979">
				<ele>34.800000</ele>
				<time>2019-06-08T06:57:48Z</time>
				<speed>0.025720</speed>
			</trkpt>
			<trkpt lat="24.1420532" lon="120.5486979">
				<ele>34.800000</ele>
				<time>2019-06-08T06:57:49Z</time>
				<speed>0.079218</speed>
			</trkpt>
			<trkpt lat="24.1420858" lon="120.5486979">
				<ele>34.600000</ele>
				<time>2019-06-08T06:57:50Z</time>
				<speed>1.057092</speed>
			</trkpt>
			<trkpt lat="24.1421468" lon="120.5486816">
				<ele>34.900000</ele>
				<time>2019-06-08T06:57:51Z</time>
				<speed>2.802451</speed>
			</trkpt>
			<trkpt lat="24.1422526" lon="120.5486491">
				<ele>35.000000</ele>
				<time>2019-06-08T06:57:52Z</time>
				<speed>5.386282</speed>
			</trkpt>
			<trkpt lat="24.1423503" lon="120.5486165">
				<ele>35.200000</ele>
				<time>2019-06-08T06:57:53Z</time>
				<speed>7.323513</speed>
			</trkpt>
			<trkpt lat="24.1424276" lon="120.5486003">
				<ele>34.800000</ele>
				<time>2019-06-08T06:57:54Z</time>
				<speed>8.319391</speed>
			</trkpt>
			<trkpt lat="24.1425090" lon="120.5485840">
				<ele>34.200000</ele>
				<time>2019-06-08T06:57:55Z</time>
				<speed>9.091505</speed>
			</trkpt>
			<trkpt lat="24.1425985" lon="120.5485677">
				<ele>33.400000</ele>
				<time>2019-06-08T06:57:56Z</time>
				<speed>9.911459</speed>
			</trkpt>
			<trkpt lat="24.1426880" lon="120.5485352">
				<ele>32.600000</ele>
				<time>2019-06-08T06:57:57Z</time>
				<speed>10.485530</speed>
			</trkpt>
			<trkpt lat="24.1427856" lon="120.5485189">
				<ele>32.000000</ele>
				<time>2019-06-08T06:57:58Z</time>
				<speed>11.102809</speed>
			</trkpt>
			<trkpt lat="24.1428874" lon="120.5485189">
				<ele>31.400000</ele>
				<time>2019-06-08T06:57:59Z</time>
				<speed>11.603835</speed>
			</trkpt>
			<trkpt lat="24.1429932" lon="120.5485026">
				<ele>31.000000</ele>
				<time>2019-06-08T06:58:00Z</time>
				<speed>12.008154</speed>
			</trkpt>
			<trkpt lat="24.1431030" lon="120.5485026">
				<ele>30.800000</ele>
				<time>2019-06-08T06:58:01Z</time>
				<speed>12.242205</speed>
			</trkpt>
			<trkpt lat="24.1432210" lon="120.5485026">
				<ele>30.400000</ele>
				<time>2019-06-08T06:58:02Z</time>
				<speed>12.653211</speed>
			</trkpt>
			<trkpt lat="24.1433431" lon="120.5485026">
				<ele>30.100000</ele>
				<time>2019-06-08T06:58:03Z</time>
				<speed>12.973683</speed>
			</trkpt>
			<trkpt lat="24.1434652" lon="120.5485026">
				<ele>29.700000</ele>
				<time>2019-06-08T06:58:04Z</time>
				<speed>13.198990</speed>
			</trkpt>
			<trkpt lat="24.1435913" lon="120.5485026">
				<ele>29.500000</ele>
				<time>2019-06-08T06:58:05Z</time>
				<speed>13.505572</speed>
			</trkpt>
			<trkpt lat="24.1437215" lon="120.5485026">
				<ele>29.300000</ele>
				<time>2019-06-08T06:58:06Z</time>
				<speed>13.756085</speed>
			</trkpt>
			<trkpt lat="24.1438477" lon="120.5485189">
				<ele>28.800000</ele>
				<time>2019-06-08T06:58:07Z</time>
				<speed>14.154231</speed>
			</trkpt>
			<trkpt lat="24.1439819" lon="120.5485189">
				<ele>28.400000</ele>
				<time>2019-06-08T06:58:08Z</time>
				<speed>14.452068</speed>
			</trkpt>
			<trkpt lat="24.1441162" lon="120.5485189">
				<ele>28.000000</ele>
				<time>2019-06-08T06:58:09Z</time>
				<speed>14.626964</speed>
			</trkpt>
			<trkpt lat="24.1442464" lon="120.5485026">
				<ele>28.000000</ele>
				<time>2019-06-08T06:58:10Z</time>
				<speed>14.618219</speed>
			</trkpt>
			<trkpt lat="24.1443848" lon="120.5485026">
				<ele>27.900000</ele>
				<time>2019-06-08T06:58:11Z</time>
				<speed>14.710297</speed>
			</trkpt>
			<trkpt lat="24.1445231" lon="120.5485189">
				<ele>27.900000</ele>
				<time>2019-06-08T06:58:12Z</time>
				<speed>14.882106</speed>
			</trkpt>
			<trkpt lat="24.1446574" lon="120.5485026">
				<ele>27.700000</ele>
				<time>2019-06-08T06:58:13Z</time>
				<speed>14.992702</speed>
			</trkpt>
			<trkpt lat="24.1447998" lon="120.5485189">
				<ele>27.400000</ele>
				<time>2019-06-08T06:58:14Z</time>
				<speed>15.155253</speed>
			</trkpt>
			<trkpt lat="24.1449422" lon="120.5485352">
				<ele>27.200000</ele>
				<time>2019-06-08T06:58:15Z</time>
				<speed>15.200520</speed>
			</trkpt>
			<trkpt lat="24.1450846" lon="120.5485514">
				<ele>26.900000</ele>
				<time>2019-06-08T06:58:16Z</time>
				<speed>15.425313</speed>
			</trkpt>
			<trkpt lat="24.1452271" lon="120.5485514">
				<ele>26.800000</ele>
				<time>2019-06-08T06:58:17Z</time>
				<speed>15.424798</speed>
			</trkpt>
			<trkpt lat="24.1453695" lon="120.5485677">
				<ele>26.600000</ele>
				<time>2019-06-08T06:58:18Z</time>
				<speed>15.486527</speed>
			</trkpt>
			<trkpt lat="24.1455078" lon="120.5485677">
				<ele>26.900000</ele>
				<time>2019-06-08T06:58:19Z</time>
				<speed>15.480354</speed>
			</trkpt>
			<trkpt lat="24.1456462" lon="120.5485677">
				<ele>27.300000</ele>
				<time>2019-06-08T06:58:20Z</time>
				<speed>15.402165</speed>
			</trkpt>
			<trkpt lat="24.1457886" lon="120.5485840">
				<ele>27.100000</ele>
				<time>2019-06-08T06:58:21Z</time>
				<speed>15.318832</speed>
			</trkpt>
			<trkpt lat="24.1459310" lon="120.5486003">
				<ele>26.700000</ele>
				<time>2019-06-08T06:58:22Z</time>
				<speed>15.315232</speed>
			</trkpt>
			<trkpt lat="24.1460693" lon="120.5486165">
				<ele>26.500000</ele>
				<time>2019-06-08T06:58:23Z</time>
				<speed>15.337350</speed>
			</trkpt>
			<trkpt lat="24.1462077" lon="120.5486328">
				<ele>26.000000</ele>
				<time>2019-06-08T06:58:24Z</time>
				<speed>15.312659</speed>
			</trkpt>
			<trkpt lat="24.1462077" lon="120.5486328">
				<ele>26.600000</ele>
				<time>2019-06-08T06:58:43Z</time>
				<speed>15.069348</speed>
			</trkpt>
			<trkpt lat="24.1462077" lon="120.5486328">
				<ele>25.500000</ele>
				<time>2019-06-08T06:58:44Z</time>
				<speed>15.071405</speed>
			</trkpt>
			<trkpt lat="24.1462077" lon="120.5486328">
				<ele>25.700000</ele>
				<time>2019-06-08T06:58:45Z</time>
				<speed>14.932517</speed>
			</trkpt>
			<trkpt lat="24.1462077" lon="120.5486328">
				<ele>26.000000</ele>
				<time>2019-06-08T06:58:46Z</time>
				<speed>14.939205</speed>
			</trkpt>
			<trkpt lat="24.1462077" lon="120.5486328">
				<ele>27.300000</ele>
				<time>2019-06-08T06:58:47Z</time>
				<speed>15.003505</speed>
			</trkpt>
			<trkpt lat="24.1462077" lon="120.5496257">
				<ele>26.900000</ele>
				<time>2019-06-08T06:58:48Z</time>
				<speed>14.854329</speed>
			</trkpt>
			<trkpt lat="24.1462077" lon="120.5496257">
				<ele>26.300000</ele>
				<time>2019-06-08T06:58:49Z</time>
				<speed>14.923772</speed>
			</trkpt>
			<trkpt lat="24.1462077" lon="120.5496094">
				<ele>26.600000</ele>
				<time>2019-06-08T06:58:50Z</time>
				<speed>15.032311</speed>
			</trkpt>
			<trkpt lat="24.1462077" lon="120.5495768">
				<ele>26.200000</ele>
				<time>2019-06-08T06:58:51Z</time>
				<speed>15.061632</speed>
			</trkpt>
			<trkpt lat="24.1462077" lon="120.5495605">
				<ele>25.800000</ele>
				<time>2019-06-08T06:58:52Z</time>
				<speed>14.940234</speed>
			</trkpt>
			<trkpt lat="24.1462077" lon="120.5493815">
				<ele>20.900000</ele>
				<time>2019-06-08T06:58:53Z</time>
				<speed>15.023052</speed>
			</trkpt>
			<trkpt lat="24.1462077" lon="120.5492839">
				<ele>19.100000</ele>
				<time>2019-06-08T06:58:54Z</time>
				<speed>15.364099</speed>
			</trkpt>
			<trkpt lat="24.1462077" lon="120.5492187">
				<ele>19.500000</ele>
				<time>2019-06-08T06:58:55Z</time>
				<speed>15.764816</speed>
			</trkpt>
			<trkpt lat="24.1462077" lon="120.5491699">
				<ele>19.400000</ele>
				<time>2019-06-08T06:58:56Z</time>
				<speed>15.561629</speed>
			</trkpt>
			<trkpt lat="24.1462077" lon="120.5491211">
				<ele>19.800000</ele>
				<time>2019-06-08T06:58:57Z</time>
				<speed>16.018931</speed>
			</trkpt>
			<trkpt lat="24.1462077" lon="120.5490723">
				<ele>20.000000</ele>
				<time>2019-06-08T06:58:58Z</time>
				<speed>15.977264</speed>
			</trkpt>
			<trkpt lat="24.1462077" lon="120.5490234">
				<ele>20.500000</ele>
				<time>2019-06-08T06:58:59Z</time>
				<speed>15.984980</speed>
			</trkpt>
			<trkpt lat="24.1462077" lon="120.5489909">
				<ele>21.100000</ele>
				<time>2019-06-08T06:59:00Z</time>
				<speed>15.704632</speed>
			</trkpt>
			<trkpt lat="24.1462077" lon="120.5489421">
				<ele>21.900000</ele>
				<time>2019-06-08T06:59:01Z</time>
				<speed>14.974184</speed>
			</trkpt>
			<trkpt lat="24.1462077" lon="120.5489258">
				<ele>22.300000</ele>
				<time>2019-06-08T06:59:02Z</time>
				<speed>14.401657</speed>
			</trkpt>
			<trkpt lat="24.1462077" lon="120.5489258">
				<ele>22.300000</ele>
				<time>2019-06-08T06:59:03Z</time>
				<speed>14.095589</speed>
			</trkpt>
			<trkpt lat="24.1462077" lon="120.5488770">
				<ele>22.200000</ele>
				<time>2019-06-08T06:59:04Z</time>
				<speed>13.766887</speed>
			</trkpt>
			<trkpt lat="24.1462077" lon="120.5488607">
				<ele>21.800000</ele>
				<time>2019-06-08T06:59:05Z</time>
				<speed>13.077077</speed>
			</trkpt>
			<trkpt lat="24.1462077" lon="120.5488281">
				<ele>21.300000</ele>
				<time>2019-06-08T06:59:06Z</time>
				<speed>13.148579</speed>
			</trkpt>
			<trkpt lat="24.1462077" lon="120.5488118">
				<ele>20.700000</ele>
				<time>2019-06-08T06:59:07Z</time>
				<speed>13.149607</speed>
			</trkpt>
			<trkpt lat="24.1462077" lon="120.5487793">
				<ele>21.000000</ele>
				<time>2019-06-08T06:59:08Z</time>
				<speed>13.018950</speed>
			</trkpt>
			<trkpt lat="24.1462077" lon="120.5487305">
				<ele>21.400000</ele>
				<time>2019-06-08T06:59:09Z</time>
				<speed>13.006090</speed>
			</trkpt>
			<trkpt lat="24.1462077" lon="120.5486816">
				<ele>22.700000</ele>
				<time>2019-06-08T06:59:10Z</time>
				<speed>13.010205</speed>
			</trkpt>
			<trkpt lat="24.1462077" lon="120.5486328">
				<ele>22.800000</ele>
				<time>2019-06-08T06:59:11Z</time>
				<speed>13.194360</speed>
			</trkpt>
			<trkpt lat="24.1462077" lon="120.5486003">
				<ele>22.700000</ele>
				<time>2019-06-08T06:59:12Z</time>
				<speed>13.151150</speed>
			</trkpt>
			<trkpt lat="24.1462077" lon="120.5485514">
				<ele>23.600000</ele>
				<time>2019-06-08T06:59:13Z</time>
				<speed>12.960822</speed>
			</trkpt>
			<trkpt lat="24.1462077" lon="120.5485189">
				<ele>24.200000</ele>
				<time>2019-06-08T06:59:14Z</time>
				<speed>13.281808</speed>
			</trkpt>
			<trkpt lat="24.1462077" lon="120.5484863">
				<ele>24.300000</ele>
				<time>2019-06-08T06:59:15Z</time>
				<speed>13.341479</speed>
			</trkpt>
			<trkpt lat="24.1462077" lon="120.5484538">
				<ele>24.700000</ele>
				<time>2019-06-08T06:59:16Z</time>
				<speed>13.216994</speed>
			</trkpt>
			<trkpt lat="24.1462077" lon="120.5484212">
				<ele>25.100000</ele>
				<time>2019-06-08T06:59:17Z</time>
				<speed>13.124916</speed>
			</trkpt>
			<trkpt lat="24.1462077" lon="120.5483887">
				<ele>25.900000</ele>
				<time>2019-06-08T06:59:18Z</time>
				<speed>13.067303</speed>
			</trkpt>
			<trkpt lat="24.1462077" lon="120.5483561">
				<ele>26.400000</ele>
				<time>2019-06-08T06:59:19Z</time>
				<speed>12.479858</speed>
			</trkpt>
			<trkpt lat="24.1462077" lon="120.5483236">
				<ele>26.200000</ele>
				<time>2019-06-08T06:59:20Z</time>
				<speed>11.780274</speed>
			</trkpt>
			<trkpt lat="24.1462077" lon="120.5482910">
				<ele>26.600000</ele>
				<time>2019-06-08T06:59:21Z</time>
				<speed>10.884190</speed>
			</trkpt>
			<trkpt lat="24.1462077" lon="120.5482585">
				<ele>26.400000</ele>
				<time>2019-06-08T06:59:22Z</time>
				<speed>9.958269</speed>
			</trkpt>
			<trkpt lat="24.1462077" lon="120.5482585">
				<ele>27.300000</ele>
				<time>2019-06-08T06:59:23Z</time>
				<speed>8.933585</speed>
			</trkpt>
			<trkpt lat="24.1462077" lon="120.5482422">
				<ele>28.000000</ele>
				<time>2019-06-08T06:59:24Z</time>
				<speed>7.670219</speed>
			</trkpt>
			<trkpt lat="24.1462077" lon="120.5482259">
				<ele>27.600000</ele>
				<time>2019-06-08T06:59:25Z</time>
				<speed>5.687721</speed>
			</trkpt>
			<trkpt lat="24.1462077" lon="120.5482259">
				<ele>28.400000</ele>
				<time>2019-06-08T06:59:26Z</time>
				<speed>3.472714</speed>
			</trkpt>
			<trkpt lat="24.1462077" lon="120.5482259">
				<ele>28.600000</ele>
				<time>2019-06-08T06:59:27Z</time>
				<speed>1.496904</speed>
			</trkpt>
			<trkpt lat="24.1462077" lon="120.5482259">
				<ele>29.000000</ele>
				<time>2019-06-08T06:59:28Z</time>
				<speed>1.064808</speed>
			</trkpt>
			<trkpt lat="24.1462077" lon="120.5482259">
				<ele>30.100000</ele>
				<time>2019-06-08T06:59:29Z</time>
				<speed>0.860591</speed>
			</trkpt>
			<trkpt lat="24.1462077" lon="120.5482259">
				<ele>31.500000</ele>
				<time>2019-06-08T06:59:30Z</time>
				<speed>0.668720</speed>
			</trkpt>
			<trkpt lat="24.1462077" lon="120.5482259">
				<ele>31.600000</ele>
				<time>2019-06-08T06:59:31Z</time>
				<speed>0.590531</speed>
			</trkpt>
			<trkpt lat="24.1462077" lon="120.5482096">
				<ele>33.300000</ele>
				<time>2019-06-08T06:59:32Z</time>
				<speed>0.418722</speed>
			</trkpt>
			<trkpt lat="24.1462077" lon="120.5481934">
				<ele>35.900000</ele>
				<time>2019-06-08T06:59:33Z</time>
				<speed>0.774172</speed>
			</trkpt>
			<trkpt lat="24.1462077" lon="120.5481934">
				<ele>38.600000</ele>
				<time>2019-06-08T06:59:34Z</time>
				<speed>0.681580</speed>
			</trkpt>
			<trkpt lat="24.1462077" lon="120.5481934">
				<ele>41.900000</ele>
				<time>2019-06-08T06:59:35Z</time>
				<speed>0.694440</speed>
			</trkpt>
			<trkpt lat="24.1462077" lon="120.5481934">
				<ele>42.900000</ele>
				<time>2019-06-08T06:59:36Z</time>
				<speed>0.690325</speed>
			</trkpt>
			<trkpt lat="24.1462077" lon="120.5481934">
				<ele>42.900000</ele>
				<time>2019-06-08T06:59:37Z</time>
				<speed>0.709872</speed>
			</trkpt>
			<trkpt lat="24.1462077" lon="120.5481934">
				<ele>43.900000</ele>
				<time>2019-06-08T06:59:38Z</time>
				<speed>0.514914</speed>
			</trkpt>
			<trkpt lat="24.1462077" lon="120.5481934">
				<ele>44.600000</ele>
				<time>2019-06-08T06:59:39Z</time>
				<speed>0.559153</speed>
			</trkpt>
			<trkpt lat="24.1462077" lon="120.5481934">
				<ele>44.400000</ele>
				<time>2019-06-08T06:59:40Z</time>
				<speed>0.405347</speed>
			</trkpt>
			<trkpt lat="24.1462077" lon="120.5481771">
				<ele>44.600000</ele>
				<time>2019-06-08T06:59:41Z</time>
				<speed>0.564297</speed>
			</trkpt>
			<trkpt lat="24.1462077" lon="120.5481771">
				<ele>45.900000</ele>
				<time>2019-06-08T06:59:42Z</time>
				<speed>0.316356</speed>
			</trkpt>
			<trkpt lat="24.1462077" lon="120.5481934">
				<ele>45.500000</ele>
				<time>2019-06-08T06:59:43Z</time>
				<speed>0.118826</speed>
			</trkpt>
			<trkpt lat="24.1462077" lon="120.5481934">
				<ele>46.000000</ele>
				<time>2019-06-08T06:59:44Z</time>
				<speed>0.315842</speed>
			</trkpt>
			<trkpt lat="24.1462077" lon="120.5481934">
				<ele>46.700000</ele>
				<time>2019-06-08T06:59:45Z</time>
				<speed>0.489194</speed>
			</trkpt>
			<trkpt lat="24.1462077" lon="120.5481771">
				<ele>45.500000</ele>
				<time>2019-06-08T06:59:46Z</time>
				<speed>0.510285</speed>
			</trkpt>
			<trkpt lat="24.1462077" lon="120.5481771">
				<ele>45.800000</ele>
				<time>2019-06-08T06:59:47Z</time>
				<speed>0.459874</speed>
			</trkpt>
			<trkpt lat="24.1462077" lon="120.5481771">
				<ele>45.800000</ele>
				<time>2019-06-08T06:59:48Z</time>
				<speed>0.631169</speed>
			</trkpt>
			<trkpt lat="24.1462077" lon="120.5481771">
				<ele>47.200000</ele>
				<time>2019-06-08T06:59:49Z</time>
				<speed>0.618823</speed>
			</trkpt>
			<trkpt lat="24.1462077" lon="120.5481771">
				<ele>47.900000</ele>
				<time>2019-06-08T06:59:50Z</time>
				<speed>0.455244</speed>
			</trkpt>
			<trkpt lat="24.1462077" lon="120.5481771">
				<ele>47.300000</ele>
				<time>2019-06-08T06:59:51Z</time>
				<speed>0.353393</speed>
			</trkpt>
			<trkpt lat="24.1462077" lon="120.5481771">
				<ele>47.700000</ele>
				<time>2019-06-08T06:59:52Z</time>
				<speed>0.237138</speed>
			</trkpt>
			<trkpt lat="24.1462077" lon="120.5481771">
				<ele>47.400000</ele>
				<time>2019-06-08T06:59:53Z</time>
				<speed>0.263887</speed>
			</trkpt>
			<trkpt lat="24.1462077" lon="120.5481771">
				<ele>47.400000</ele>
				<time>2019-06-08T06:59:54Z</time>
				<speed>0.196501</speed>
			</trkpt>
			<trkpt lat="24.1462077" lon="120.5481771">
				<ele>47.000000</ele>
				<time>2019-06-08T06:59:55Z</time>
				<speed>0.165122</speed>
			</trkpt>
			<trkpt lat="24.1462077" lon="120.5481771">
				<ele>46.700000</ele>
				<time>2019-06-08T06:59:56Z</time>
				<speed>0.170266</speed>
			</trkpt>
			<trkpt lat="24.1462077" lon="120.5481771">
				<ele>47.200000</ele>
				<time>2019-06-08T06:59:57Z</time>
				<speed>0.339504</speed>
			</trkpt>
			<trkpt lat="24.1462077" lon="120.5481771">
				<ele>47.300000</ele>
				<time>2019-06-08T06:59:58Z</time>
				<speed>0.318414</speed>
			</trkpt>
			<trkpt lat="24.1462077" lon="120.5481771">
				<ele>47.500000</ele>
				<time>2019-06-08T06:59:59Z</time>
				<speed>0.212447</speed>
			</trkpt>
			<trkpt lat="24.1462077" lon="120.5481771">
				<ele>47.900000</ele>
				<time>2019-06-08T07:00:00Z</time>
				<speed>0.243311</speed>
			</trkpt>
			<trkpt lat="24.1462077" lon="120.5481771">
				<ele>47.700000</ele>
				<time>2019-06-08T07:00:01Z</time>
				<speed>0.031378</speed>
			</trkpt>
			<trkpt lat="24.1462077" lon="120.5481771">
				<ele>47.800000</ele>
				<time>2019-06-08T07:00:02Z</time>
				<speed>0.174382</speed>
			</trkpt>
			<trkpt lat="24.1462077" lon="120.5481771">
				<ele>48.500000</ele>
				<time>2019-06-08T07:00:03Z</time>
				<speed>0.480450</speed>
			</trkpt>
			<trkpt lat="24.1462077" lon="120.5481771">
				<ele>48.600000</ele>
				<time>2019-06-08T07:00:04Z</time>
				<speed>1.273140</speed>
			</trkpt>
			<trkpt lat="24.1462077" lon="120.5481608">
				<ele>50.200000</ele>
				<time>2019-06-08T07:00:05Z</time>
				<speed>2.702143</speed>
			</trkpt>
			<trkpt lat="24.1462077" lon="120.5481283">
				<ele>52.300000</ele>
				<time>2019-06-08T07:00:06Z</time>
				<speed>5.030318</speed>
			</trkpt>
			<trkpt lat="24.1462077" lon="120.5481120">
				<ele>52.800000</ele>
				<time>2019-06-08T07:00:07Z</time>
				<speed>5.739675</speed>
			</trkpt>
			<trkpt lat="24.1462077" lon="120.5480794">
				<ele>53.800000</ele>
				<time>2019-06-08T07:00:08Z</time>
				<speed>6.803969</speed>
			</trkpt>
			<trkpt lat="24.1462077" lon="120.5480306">
				<ele>54.500000</ele>
				<time>2019-06-08T07:00:10Z</time>
				<speed>8.162499</speed>
			</trkpt>
			<trkpt lat="24.1462077" lon="120.5480143">
				<ele>48.700000</ele>
				<time>2019-06-08T07:00:11Z</time>
				<speed>8.274124</speed>
			</trkpt>
			<trkpt lat="24.1462077" lon="120.5479818">
				<ele>46.900000</ele>
				<time>2019-06-08T07:00:12Z</time>
				<speed>8.414555</speed>
			</trkpt>
			<trkpt lat="24.1462077" lon="120.5479655">
				<ele>45.300000</ele>
				<time>2019-06-08T07:00:13Z</time>
				<speed>8.832762</speed>
			</trkpt>
			<trkpt lat="24.1462077" lon="120.5479167">
				<ele>41.500000</ele>
				<time>2019-06-08T07:00:14Z</time>
				<speed>9.855904</speed>
			</trkpt>
			<trkpt lat="24.1462077" lon="120.5478841">
				<ele>40.500000</ele>
				<time>2019-06-08T07:00:15Z</time>
				<speed>10.475756</speed>
			</trkpt>
			<trkpt lat="24.1462077" lon="120.5478678">
				<ele>39.900000</ele>
				<time>2019-06-08T07:00:16Z</time>
				<speed>10.712380</speed>
			</trkpt>
			<trkpt lat="24.1462077" lon="120.5478027">
				<ele>39.500000</ele>
				<time>2019-06-08T07:00:18Z</time>
				<speed>11.488609</speed>
			</trkpt>
			<trkpt lat="24.1462077" lon="120.5477865">
				<ele>39.400000</ele>
				<time>2019-06-08T07:00:19Z</time>
				<speed>11.478321</speed>
			</trkpt>
			<trkpt lat="24.1462077" lon="120.5477376">
				<ele>39.400000</ele>
				<time>2019-06-08T07:00:21Z</time>
				<speed>11.416080</speed>
			</trkpt>
			<trkpt lat="24.1462077" lon="120.5477051">
				<ele>39.600000</ele>
				<time>2019-06-08T07:00:22Z</time>
				<speed>11.482951</speed>
			</trkpt>
			<trkpt lat="24.1462077" lon="120.5476563">
				<ele>39.700000</ele>
				<time>2019-06-08T07:00:23Z</time>
				<speed>11.991693</speed>
			</trkpt>
			<trkpt lat="24.1462077" lon="120.5476074">
				<ele>39.700000</ele>
				<time>2019-06-08T07:00:24Z</time>
				<speed>12.190765</speed>
			</trkpt>
			<trkpt lat="24.1462077" lon="120.5475586">
				<ele>38.500000</ele>
				<time>2019-06-08T07:00:25Z</time>
				<speed>13.612053</speed>
			</trkpt>
			<trkpt lat="24.1462077" lon="120.5475098">
				<ele>38.000000</ele>
				<time>2019-06-08T07:00:26Z</time>
				<speed>14.906798</speed>
			</trkpt>
			<trkpt lat="24.1462077" lon="120.5474609">
				<ele>37.500000</ele>
				<time>2019-06-08T07:00:27Z</time>
				<speed>15.464921</speed>
			</trkpt>
			<trkpt lat="24.1462077" lon="120.5474121">
				<ele>36.500000</ele>
				<time>2019-06-08T07:00:28Z</time>
				<speed>15.935598</speed>
			</trkpt>
			<trkpt lat="24.1462077" lon="120.5473633">
				<ele>35.300000</ele>
				<time>2019-06-08T07:00:29Z</time>
				<speed>16.295163</speed>
			</trkpt>
			<trkpt lat="24.1462077" lon="120.5472982">
				<ele>34.900000</ele>
				<time>2019-06-08T07:00:30Z</time>
				<speed>16.549791</speed>
			</trkpt>
			<trkpt lat="24.1462077" lon="120.5472493">
				<ele>35.100000</ele>
				<time>2019-06-08T07:00:31Z</time>
				<speed>16.714399</speed>
			</trkpt>
			<trkpt lat="24.1462077" lon="120.5471842">
				<ele>35.300000</ele>
				<time>2019-06-08T07:00:32Z</time>
				<speed>16.705655</speed>
			</trkpt>
			<trkpt lat="24.1462077" lon="120.5471191">
				<ele>35.300000</ele>
				<time>2019-06-08T07:00:33Z</time>
				<speed>16.686107</speed>
			</trkpt>
			<trkpt lat="24.1462077" lon="120.5470703">
				<ele>35.600000</ele>
				<time>2019-06-08T07:00:34Z</time>
				<speed>16.535902</speed>
			</trkpt>
			<trkpt lat="24.1462077" lon="120.5470052">
				<ele>35.500000</ele>
				<time>2019-06-08T07:00:35Z</time>
				<speed>16.451541</speed>
			</trkpt>
			<trkpt lat="24.1462077" lon="120.5469401">
				<ele>35.200000</ele>
				<time>2019-06-08T07:00:36Z</time>
				<speed>16.404216</speed>
			</trkpt>
			<trkpt lat="24.1462077" lon="120.5469401">
				<ele>35.200000</ele>
				<time>2019-06-08T07:00:36Z</time>
				<speed>16.404216</speed>
			</trkpt>
		</trkseg>
	</trk>
</gpx>