<?xml version='1.0' encoding='utf-8'?>
<gpx xmlns="http://www.topografix.com/GPX/1/1" xmlns:xsi="http://www.w3.org/2001/XMLSchema-instance" creator="Astro Gemini" version="1.0" xsi:schemaLocation="http://www.topografix.com/GPX/1/0 http://www.topografix.com/GPX/1/0/gpx.xsd">
	<trk>
		<name>FRON0653</name>
		<trkseg>
			<trkpt lat="24.3364827" lon="120.6165527">
				<ele>56.800000</ele>
				<time>2019-06-08T07:36:36Z</time>
				<speed>15.547226</speed>
			</trkpt>
			<trkpt lat="24.3366089" lon="120.6166178">
				<ele>56.800000</ele>
				<time>2019-06-08T07:36:37Z</time>
				<speed>15.581176</speed>
			</trkpt>
			<trkpt lat="24.3366089" lon="120.6166178">
				<ele>57.500000</ele>
				<time>2019-06-08T07:36:37Z</time>
				<speed>15.581176</speed>
			</trkpt>
			<trkpt lat="24.3368449" lon="120.6167643">
				<ele>58.100000</ele>
				<time>2019-06-08T07:36:39Z</time>
				<speed>14.658857</speed>
			</trkpt>
			<trkpt lat="24.3369507" lon="120.6168457">
				<ele>57.900000</ele>
				<time>2019-06-08T07:36:40Z</time>
				<speed>14.363077</speed>
			</trkpt>
			<trkpt lat="24.3370565" lon="120.6169271">
				<ele>60.000000</ele>
				<time>2019-06-08T07:36:41Z</time>
				<speed>13.639831</speed>
			</trkpt>
			<trkpt lat="24.3371582" lon="120.6169922">
				<ele>59.000000</ele>
				<time>2019-06-08T07:36:42Z</time>
				<speed>13.211335</speed>
			</trkpt>
			<trkpt lat="24.3372599" lon="120.6170410">
				<ele>57.600000</ele>
				<time>2019-06-08T07:36:43Z</time>
				<speed>12.836852</speed>
			</trkpt>
			<trkpt lat="24.3373617" lon="120.6171061">
				<ele>59.900000</ele>
				<time>2019-06-08T07:36:44Z</time>
				<speed>12.742716</speed>
			</trkpt>
			<trkpt lat="24.3374634" lon="120.6171549">
				<ele>62.100000</ele>
				<time>2019-06-08T07:36:45Z</time>
				<speed>12.325024</speed>
			</trkpt>
			<trkpt lat="24.3375651" lon="120.6172038">
				<ele>63.600000</ele>
				<time>2019-06-08T07:36:46Z</time>
				<speed>12.082228</speed>
			</trkpt>
			<trkpt lat="24.3376628" lon="120.6172526">
				<ele>65.600000</ele>
				<time>2019-06-08T07:36:47Z</time>
				<speed>11.738608</speed>
			</trkpt>
			<trkpt lat="24.3377523" lon="120.6173014">
				<ele>67.000000</ele>
				<time>2019-06-08T07:36:48Z</time>
				<speed>11.120813</speed>
			</trkpt>
			<trkpt lat="24.3378337" lon="120.6173665">
				<ele>69.300000</ele>
				<time>2019-06-08T07:36:49Z</time>
				<speed>10.425859</speed>
			</trkpt>
			<trkpt lat="24.3379069" lon="120.6174154">
				<ele>69.500000</ele>
				<time>2019-06-08T07:36:50Z</time>
				<speed>9.830184</speed>
			</trkpt>
			<trkpt lat="24.3379801" lon="120.6174642">
				<ele>70.100000</ele>
				<time>2019-06-08T07:36:51Z</time>
				<speed>8.949016</speed>
			</trkpt>
			<trkpt lat="24.3380412" lon="120.6174967">
				<ele>68.400000</ele>
				<time>2019-06-08T07:36:52Z</time>
				<speed>8.424329</speed>
			</trkpt>
			<trkpt lat="24.3381063" lon="120.6175293">
				<ele>69.800000</ele>
				<time>2019-06-08T07:36:53Z</time>
				<speed>7.713943</speed>
			</trkpt>
			<trkpt lat="24.3381714" lon="120.6175456">
				<ele>71.100000</ele>
				<time>2019-06-08T07:36:54Z</time>
				<speed>7.029276</speed>
			</trkpt>
			<trkpt lat="24.3382243" lon="120.6175781">
				<ele>72.700000</ele>
				<time>2019-06-08T07:36:55Z</time>
				<speed>6.457778</speed>
			</trkpt>
			<trkpt lat="24.3382690" lon="120.6175944">
				<ele>73.400000</ele>
				<time>2019-06-08T07:36:56Z</time>
				<speed>5.571981</speed>
			</trkpt>
			<trkpt lat="24.3383097" lon="120.6176432">
				<ele>74.400000</ele>
				<time>2019-06-08T07:36:57Z</time>
				<speed>6.754072</speed>
			</trkpt>
			<trkpt lat="24.3383464" lon="120.6176758">
				<ele>74.900000</ele>
				<time>2019-06-08T07:36:58Z</time>
				<speed>5.550891</speed>
			</trkpt>
			<trkpt lat="24.3384237" lon="120.6177246">
				<ele>76.600000</ele>
				<time>2019-06-08T07:37:00Z</time>
				<speed>4.944413</speed>
			</trkpt>
			<trkpt lat="24.3384562" lon="120.6177572">
				<ele>73.400000</ele>
				<time>2019-06-08T07:37:01Z</time>
				<speed>4.735052</speed>
			</trkpt>
			<trkpt lat="24.3384847" lon="120.6177734">
				<ele>73.800000</ele>
				<time>2019-06-08T07:37:02Z</time>
				<speed>4.128574</speed>
			</trkpt>
			<trkpt lat="24.3385213" lon="120.6177734">
				<ele>73.600000</ele>
				<time>2019-06-08T07:37:03Z</time>
				<speed>3.831251</speed>
			</trkpt>
			<trkpt lat="24.3385457" lon="120.6177897">
				<ele>74.000000</ele>
				<time>2019-06-08T07:37:04Z</time>
				<speed>3.281358</speed>
			</trkpt>
			<trkpt lat="24.3385701" lon="120.6177897">
				<ele>75.000000</ele>
				<time>2019-06-08T07:37:05Z</time>
				<speed>3.088972</speed>
			</trkpt>
			<trkpt lat="24.3385742" lon="120.6178060">
				<ele>75.800000</ele>
				<time>2019-06-08T07:37:06Z</time>
				<speed>1.955234</speed>
			</trkpt>
			<trkpt lat="24.3385742" lon="120.6178060">
				<ele>76.000000</ele>
				<time>2019-06-08T07:37:07Z</time>
				<speed>0.869336</speed>
			</trkpt>
			<trkpt lat="24.3385742" lon="120.6178060">
				<ele>75.900000</ele>
				<time>2019-06-08T07:37:08Z</time>
				<speed>0.710386</speed>
			</trkpt>
			<trkpt lat="24.3385701" lon="120.6178060">
				<ele>76.200000</ele>
				<time>2019-06-08T07:37:09Z</time>
				<speed>0.395059</speed>
			</trkpt>
			<trkpt lat="24.3385701" lon="120.6178060">
				<ele>76.400000</ele>
				<time>2019-06-08T07:37:10Z</time>
				<speed>0.355450</speed>
			</trkpt>
			<trkpt lat="24.3385661" lon="120.6178060">
				<ele>76.900000</ele>
				<time>2019-06-08T07:37:11Z</time>
				<speed>0.286521</speed>
			</trkpt>
			<trkpt lat="24.3385620" lon="120.6178060">
				<ele>77.100000</ele>
				<time>2019-06-08T07:37:12Z</time>
				<speed>0.126028</speed>
			</trkpt>
			<trkpt lat="24.3385579" lon="120.6178060">
				<ele>77.300000</ele>
				<time>2019-06-08T07:37:13Z</time>
				<speed>0.041666</speed>
			</trkpt>
			<trkpt lat="24.3385539" lon="120.6178223">
				<ele>77.600000</ele>
				<time>2019-06-08T07:37:14Z</time>
				<speed>0.143518</speed>
			</trkpt>
			<trkpt lat="24.3385539" lon="120.6178223">
				<ele>77.600000</ele>
				<time>2019-06-08T07:37:15Z</time>
				<speed>0.034465</speed>
			</trkpt>
			<trkpt lat="24.3385539" lon="120.6178223">
				<ele>78.200000</ele>
				<time>2019-06-08T07:37:16Z</time>
				<speed>0.164608</speed>
			</trkpt>
			<trkpt lat="24.3385498" lon="120.6178223">
				<ele>78.400000</ele>
				<time>2019-06-08T07:37:17Z</time>
				<speed>0.050926</speed>
			</trkpt>
			<trkpt lat="24.3385457" lon="120.6178223">
				<ele>78.300000</ele>
				<time>2019-06-08T07:37:18Z</time>
				<speed>0.113168</speed>
			</trkpt>
			<trkpt lat="24.3385376" lon="120.6178223">
				<ele>78.200000</ele>
				<time>2019-06-08T07:37:19Z</time>
				<speed>0.185184</speed>
			</trkpt>
			<trkpt lat="24.3385376" lon="120.6178223">
				<ele>78.000000</ele>
				<time>2019-06-08T07:37:20Z</time>
				<speed>0.171295</speed>
			</trkpt>
			<trkpt lat="24.3385254" lon="120.6178385">
				<ele>78.000000</ele>
				<time>2019-06-08T07:37:21Z</time>
				<speed>0.395059</speed>
			</trkpt>
			<trkpt lat="24.3385173" lon="120.6178548">
				<ele>78.900000</ele>
				<time>2019-06-08T07:37:22Z</time>
				<speed>0.481478</speed>
			</trkpt>
			<trkpt lat="24.3385132" lon="120.6178548">
				<ele>79.500000</ele>
				<time>2019-06-08T07:37:23Z</time>
				<speed>0.365738</speed>
			</trkpt>
			<trkpt lat="24.3385091" lon="120.6178548">
				<ele>79.800000</ele>
				<time>2019-06-08T07:37:24Z</time>
				<speed>0.341562</speed>
			</trkpt>
			<trkpt lat="24.3385010" lon="120.6178548">
				<ele>79.700000</ele>
				<time>2019-06-08T07:37:25Z</time>
				<speed>0.377570</speed>
			</trkpt>
			<trkpt lat="24.3384969" lon="120.6178711">
				<ele>79.400000</ele>
				<time>2019-06-08T07:37:26Z</time>
				<speed>0.312755</speed>
			</trkpt>
			<trkpt lat="24.3384969" lon="120.6178711">
				<ele>79.300000</ele>
				<time>2019-06-08T07:37:27Z</time>
				<speed>0.315327</speed>
			</trkpt>
			<trkpt lat="24.3384928" lon="120.6178711">
				<ele>79.300000</ele>
				<time>2019-06-08T07:37:28Z</time>
				<speed>0.256686</speed>
			</trkpt>
			<trkpt lat="24.3384928" lon="120.6178711">
				<ele>79.700000</ele>
				<time>2019-06-08T07:37:29Z</time>
				<speed>0.092078</speed>
			</trkpt>
			<trkpt lat="24.3384928" lon="120.6178711">
				<ele>79.700000</ele>
				<time>2019-06-08T07:37:30Z</time>
				<speed>0.100822</speed>
			</trkpt>
			<trkpt lat="24.3384888" lon="120.6178711">
				<ele>79.900000</ele>
				<time>2019-06-08T07:37:31Z</time>
				<speed>0.163579</speed>
			</trkpt>
			<trkpt lat="24.3384888" lon="120.6178874">
				<ele>80.000000</ele>
				<time>2019-06-08T07:37:32Z</time>
				<speed>0.624996</speed>
			</trkpt>
			<trkpt lat="24.3385050" lon="120.6179036">
				<ele>79.600000</ele>
				<time>2019-06-08T07:37:33Z</time>
				<speed>1.838980</speed>
			</trkpt>
			<trkpt lat="24.3385417" lon="120.6179199">
				<ele>80.200000</ele>
				<time>2019-06-08T07:37:34Z</time>
				<speed>3.298333</speed>
			</trkpt>
			<trkpt lat="24.3385824" lon="120.6179362">
				<ele>80.500000</ele>
				<time>2019-06-08T07:37:35Z</time>
				<speed>4.542667</speed>
			</trkpt>
			<trkpt lat="24.3386312" lon="120.6179525">
				<ele>80.400000</ele>
				<time>2019-06-08T07:37:36Z</time>
				<speed>5.400171</speed>
			</trkpt>
			<trkpt lat="24.3386800" lon="120.6179850">
				<ele>80.200000</ele>
				<time>2019-06-08T07:37:37Z</time>
				<speed>5.805519</speed>
			</trkpt>
			<trkpt lat="24.3387329" lon="120.6180176">
				<ele>80.500000</ele>
				<time>2019-06-08T07:37:38Z</time>
				<speed>6.496872</speed>
			</trkpt>
			<trkpt lat="24.3388062" lon="120.6180664">
				<ele>81.300000</ele>
				<time>2019-06-08T07:37:39Z</time>
				<speed>7.684622</speed>
			</trkpt>
			<trkpt lat="24.3388753" lon="120.6180990">
				<ele>80.800000</ele>
				<time>2019-06-08T07:37:40Z</time>
				<speed>8.257149</speed>
			</trkpt>
			<trkpt lat="24.3389526" lon="120.6181315">
				<ele>82.000000</ele>
				<time>2019-06-08T07:37:41Z</time>
				<speed>9.004572</speed>
			</trkpt>
			<trkpt lat="24.3390381" lon="120.6181803">
				<ele>82.100000</ele>
				<time>2019-06-08T07:37:42Z</time>
				<speed>9.680494</speed>
			</trkpt>
			<trkpt lat="24.3391195" lon="120.6182292">
				<ele>83.000000</ele>
				<time>2019-06-08T07:37:43Z</time>
				<speed>10.172260</speed>
			</trkpt>
			<trkpt lat="24.3392131" lon="120.6182617">
				<ele>83.700000</ele>
				<time>2019-06-08T07:37:44Z</time>
				<speed>10.701578</speed>
			</trkpt>
			<trkpt lat="24.3393107" lon="120.6183105">
				<ele>83.800000</ele>
				<time>2019-06-08T07:37:45Z</time>
				<speed>11.064744</speed>
			</trkpt>
			<trkpt lat="24.3394002" lon="120.6183594">
				<ele>83.800000</ele>
				<time>2019-06-08T07:37:46Z</time>
				<speed>11.292623</speed>
			</trkpt>
			<trkpt lat="24.3394938" lon="120.6184245">
				<ele>84.700000</ele>
				<time>2019-06-08T07:37:47Z</time>
				<speed>11.690254</speed>
			</trkpt>
			<trkpt lat="24.3395955" lon="120.6184733">
				<ele>84.500000</ele>
				<time>2019-06-08T07:37:48Z</time>
				<speed>12.012268</speed>
			</trkpt>
			<trkpt lat="24.3396932" lon="120.6185221">
				<ele>85.000000</ele>
				<time>2019-06-08T07:37:49Z</time>
				<speed>11.855377</speed>
			</trkpt>
			<trkpt lat="24.3397949" lon="120.6185710">
				<ele>85.200000</ele>
				<time>2019-06-08T07:37:50Z</time>
				<speed>11.903731</speed>
			</trkpt>
			<trkpt lat="24.3397949" lon="120.6186198">
				<ele>85.900000</ele>
				<time>2019-06-08T07:37:51Z</time>
				<speed>12.030787</speed>
			</trkpt>
			<trkpt lat="24.3399821" lon="120.6186686">
				<ele>86.600000</ele>
				<time>2019-06-08T07:37:52Z</time>
				<speed>11.446429</speed>
			</trkpt>
			<trkpt lat="24.3400675" lon="120.6187174">
				<ele>86.600000</ele>
				<time>2019-06-08T07:37:53Z</time>
				<speed>11.137789</speed>
			</trkpt>
			<trkpt lat="24.3401489" lon="120.6187663">
				<ele>87.100000</ele>
				<time>2019-06-08T07:37:54Z</time>
				<speed>10.812688</speed>
			</trkpt>
			<trkpt lat="24.3402751" lon="120.6188639">
				<ele>87.800000</ele>
				<time>2019-06-08T07:37:56Z</time>
				<speed>9.109509</speed>
			</trkpt>
			<trkpt lat="24.3403117" lon="120.6188802">
				<ele>88.400000</ele>
				<time>2019-06-08T07:37:57Z</time>
				<speed>7.389870</speed>
			</trkpt>
			<trkpt lat="24.3403687" lon="120.6189128">
				<ele>89.800000</ele>
				<time>2019-06-08T07:37:58Z</time>
				<speed>6.843063</speed>
			</trkpt>
			<trkpt lat="24.3404134" lon="120.6189453">
				<ele>90.800000</ele>
				<time>2019-06-08T07:37:59Z</time>
				<speed>6.084838</speed>
			</trkpt>
			<trkpt lat="24.3404541" lon="120.6189779">
				<ele>92.000000</ele>
				<time>2019-06-08T07:38:00Z</time>
				<speed>5.677947</speed>
			</trkpt>
			<trkpt lat="24.3404826" lon="120.6190104">
				<ele>92.900000</ele>
				<time>2019-06-08T07:38:01Z</time>
				<speed>5.302950</speed>
			</trkpt>
			<trkpt lat="24.3404948" lon="120.6190592">
				<ele>94.000000</ele>
				<time>2019-06-08T07:38:02Z</time>
				<speed>4.499457</speed>
			</trkpt>
			<trkpt lat="24.3405151" lon="120.6190755">
				<ele>94.500000</ele>
				<time>2019-06-08T07:38:03Z</time>
				<speed>3.850284</speed>
			</trkpt>
			<trkpt lat="24.3405151" lon="120.6190755">
				<ele>94.800000</ele>
				<time>2019-06-08T07:38:03Z</time>
				<speed>3.850284</speed>
			</trkpt>
			<trkpt lat="24.3405599" lon="120.6191243">
				<ele>94.800000</ele>
				<time>2019-06-08T07:38:05Z</time>
				<speed>3.552961</speed>
			</trkpt>
			<trkpt lat="24.3406087" lon="120.6191406">
				<ele>94.600000</ele>
				<time>2019-06-08T07:38:06Z</time>
				<speed>4.103369</speed>
			</trkpt>
			<trkpt lat="24.3406738" lon="120.6191569">
				<ele>94.700000</ele>
				<time>2019-06-08T07:38:07Z</time>
				<speed>5.490191</speed>
			</trkpt>
			<trkpt lat="24.3407349" lon="120.6191895">
				<ele>94.900000</ele>
				<time>2019-06-08T07:38:08Z</time>
				<speed>6.681542</speed>
			</trkpt>
			<trkpt lat="24.3408000" lon="120.6192057">
				<ele>94.900000</ele>
				<time>2019-06-08T07:38:09Z</time>
				<speed>7.366208</speed>
			</trkpt>
			<trkpt lat="24.3408569" lon="120.6192708">
				<ele>94.900000</ele>
				<time>2019-06-08T07:38:10Z</time>
				<speed>8.227828</speed>
			</trkpt>
			<trkpt lat="24.3409302" lon="120.6193197">
				<ele>94.400000</ele>
				<time>2019-06-08T07:38:11Z</time>
				<speed>8.951074</speed>
			</trkpt>
			<trkpt lat="24.3410116" lon="120.6193522">
				<ele>94.700000</ele>
				<time>2019-06-08T07:38:12Z</time>
				<speed>9.591502</speed>
			</trkpt>
			<trkpt lat="24.3410929" lon="120.6193848">
				<ele>95.000000</ele>
				<time>2019-06-08T07:38:13Z</time>
				<speed>10.211868</speed>
			</trkpt>
			<trkpt lat="24.3411702" lon="120.6194499">
				<ele>96.300000</ele>
				<time>2019-06-08T07:38:14Z</time>
				<speed>10.612072</speed>
			</trkpt>
			<trkpt lat="24.3412435" lon="120.6195150">
				<ele>95.500000</ele>
				<time>2019-06-08T07:38:15Z</time>
				<speed>10.609500</speed>
			</trkpt>
			<trkpt lat="24.3413249" lon="120.6195801">
				<ele>94.800000</ele>
				<time>2019-06-08T07:38:16Z</time>
				<speed>10.759705</speed>
			</trkpt>
			<trkpt lat="24.3413940" lon="120.6196452">
				<ele>94.100000</ele>
				<time>2019-06-08T07:38:17Z</time>
				<speed>10.491188</speed>
			</trkpt>
			<trkpt lat="24.3414795" lon="120.6197103">
				<ele>93.100000</ele>
				<time>2019-06-08T07:38:18Z</time>
				<speed>11.266389</speed>
			</trkpt>
			<trkpt lat="24.3415568" lon="120.6197917">
				<ele>93.000000</ele>
				<time>2019-06-08T07:38:19Z</time>
				<speed>11.600235</speed>
			</trkpt>
			<trkpt lat="24.3416423" lon="120.6198568">
				<ele>92.800000</ele>
				<time>2019-06-08T07:38:20Z</time>
				<speed>11.909389</speed>
			</trkpt>
			<trkpt lat="24.3417318" lon="120.6199382">
				<ele>92.300000</ele>
				<time>2019-06-08T07:38:21Z</time>
				<speed>12.494776</speed>
			</trkpt>
			<trkpt lat="24.3418213" lon="120.6200195">
				<ele>91.600000</ele>
				<time>2019-06-08T07:38:22Z</time>
				<speed>12.676873</speed>
			</trkpt>
			<trkpt lat="24.3419230" lon="120.6200846">
				<ele>91.500000</ele>
				<time>2019-06-08T07:38:23Z</time>
				<speed>12.894465</speed>
			</trkpt>
			<trkpt lat="24.3420288" lon="120.6201335">
				<ele>91.100000</ele>
				<time>2019-06-08T07:38:24Z</time>
				<speed>12.608458</speed>
			</trkpt>
			<trkpt lat="24.3421265" lon="120.6201823">
				<ele>92.600000</ele>
				<time>2019-06-08T07:38:25Z</time>
				<speed>12.715454</speed>
			</trkpt>
			<trkpt lat="24.3422323" lon="120.6202311">
				<ele>93.400000</ele>
				<time>2019-06-08T07:38:26Z</time>
				<speed>12.790556</speed>
			</trkpt>
			<trkpt lat="24.3423381" lon="120.6203125">
				<ele>94.600000</ele>
				<time>2019-06-08T07:38:27Z</time>
				<speed>12.919670</speed>
			</trkpt>
			<trkpt lat="24.3423381" lon="120.6212077">
				<ele>95.100000</ele>
				<time>2019-06-08T07:38:39Z</time>
				<speed>12.405270</speed>
			</trkpt>
			<trkpt lat="24.3423381" lon="120.6212565">
				<ele>95.300000</ele>
				<time>2019-06-08T07:38:40Z</time>
				<speed>11.530276</speed>
			</trkpt>
			<trkpt lat="24.3423381" lon="120.6212891">
				<ele>94.700000</ele>
				<time>2019-06-08T07:38:41Z</time>
				<speed>10.852297</speed>
			</trkpt>
			<trkpt lat="24.3423381" lon="120.6213379">
				<ele>94.300000</ele>
				<time>2019-06-08T07:38:42Z</time>
				<speed>9.901171</speed>
			</trkpt>
			<trkpt lat="24.3423381" lon="120.6213867">
				<ele>93.800000</ele>
				<time>2019-06-08T07:38:43Z</time>
				<speed>9.172266</speed>
			</trkpt>
			<trkpt lat="24.3423381" lon="120.6214355">
				<ele>93.200000</ele>
				<time>2019-06-08T07:38:44Z</time>
				<speed>8.434616</speed>
			</trkpt>
			<trkpt lat="24.3423381" lon="120.6214844">
				<ele>92.400000</ele>
				<time>2019-06-08T07:38:45Z</time>
				<speed>7.809621</speed>
			</trkpt>
			<trkpt lat="24.3423381" lon="120.6215332">
				<ele>90.900000</ele>
				<time>2019-06-08T07:38:46Z</time>
				<speed>7.302937</speed>
			</trkpt>
			<trkpt lat="24.3423381" lon="120.6215820">
				<ele>89.500000</ele>
				<time>2019-06-08T07:38:47Z</time>
				<speed>6.510761</speed>
			</trkpt>
			<trkpt lat="24.3423381" lon="120.6216146">
				<ele>88.100000</ele>
				<time>2019-06-08T07:38:48Z</time>
				<speed>5.923316</speed>
			</trkpt>
			<trkpt lat="24.3423381" lon="120.6216471">
				<ele>87.300000</ele>
				<time>2019-06-08T07:38:49Z</time>
				<speed>5.109535</speed>
			</trkpt>
			<trkpt lat="24.3423381" lon="120.6216797">
				<ele>86.500000</ele>
				<time>2019-06-08T07:38:50Z</time>
				<speed>4.095138</speed>
			</trkpt>
			<trkpt lat="24.3423381" lon="120.6217285">
				<ele>85.700000</ele>
				<time>2019-06-08T07:38:52Z</time>
				<speed>3.205741</speed>
			</trkpt>
			<trkpt lat="24.3423381" lon="120.6217448">
				<ele>84.900000</ele>
				<time>2019-06-08T07:38:53Z</time>
				<speed>2.883726</speed>
			</trkpt>
			<trkpt lat="24.3423381" lon="120.6217773">
				<ele>84.300000</ele>
				<time>2019-06-08T07:38:54Z</time>
				<speed>2.842574</speed>
			</trkpt>
			<trkpt lat="24.3423381" lon="120.6217936">
				<ele>84.200000</ele>
				<time>2019-06-08T07:38:55Z</time>
				<speed>2.760270</speed>
			</trkpt>
			<trkpt lat="24.3423381" lon="120.6217936">
				<ele>84.000000</ele>
				<time>2019-06-08T07:38:56Z</time>
				<speed>2.199060</speed>
			</trkpt>
			<trkpt lat="24.3423381" lon="120.6218099">
				<ele>83.000000</ele>
				<time>2019-06-08T07:38:57Z</time>
				<speed>2.188772</speed>
			</trkpt>
			<trkpt lat="24.3423381" lon="120.6218262">
				<ele>83.000000</ele>
				<time>2019-06-08T07:38:58Z</time>
				<speed>1.835379</speed>
			</trkpt>
			<trkpt lat="24.3423381" lon="120.6218262">
				<ele>82.900000</ele>
				<time>2019-06-08T07:38:59Z</time>
				<speed>1.520052</speed>
			</trkpt>
			<trkpt lat="24.3423381" lon="120.6218424">
				<ele>82.000000</ele>
				<time>2019-06-08T07:39:00Z</time>
				<speed>1.561718</speed>
			</trkpt>
			<trkpt lat="24.3423381" lon="120.6218587">
				<ele>82.000000</ele>
				<time>2019-06-08T07:39:01Z</time>
				<speed>1.637850</speed>
			</trkpt>
			<trkpt lat="24.3423381" lon="120.6218262">
				<ele>82.000000</ele>
				<time>2019-06-08T07:39:02Z</time>
				<speed>0.949582</speed>
			</trkpt>
			<trkpt lat="24.3423381" lon="120.6218424">
				<ele>82.500000</ele>
				<time>2019-06-08T07:39:03Z</time>
				<speed>1.079211</speed>
			</trkpt>
			<trkpt lat="24.3423381" lon="120.6218424">
				<ele>82.600000</ele>
				<time>2019-06-08T07:39:04Z</time>
				<speed>1.336926</speed>
			</trkpt>
			<trkpt lat="24.3423381" lon="120.6217773">
				<ele>82.500000</ele>
				<time>2019-06-08T07:39:05Z</time>
				<speed>1.619846</speed>
			</trkpt>
			<trkpt lat="24.3423381" lon="120.6217611">
				<ele>83.200000</ele>
				<time>2019-06-08T07:39:06Z</time>
				<speed>2.278792</speed>
			</trkpt>
			<trkpt lat="24.3423381" lon="120.6217936">
				<ele>83.100000</ele>
				<time>2019-06-08T07:39:07Z</time>
				<speed>3.069425</speed>
			</trkpt>
			<trkpt lat="24.3423381" lon="120.6218587">
				<ele>83.300000</ele>
				<time>2019-06-08T07:39:08Z</time>
				<speed>4.185673</speed>
			</trkpt>
			<trkpt lat="24.3423381" lon="120.6218750">
				<ele>83.900000</ele>
				<time>2019-06-08T07:39:09Z</time>
				<speed>4.731451</speed>
			</trkpt>
			<trkpt lat="24.3423381" lon="120.6218587">
				<ele>84.000000</ele>
				<time>2019-06-08T07:39:10Z</time>
				<speed>3.910469</speed>
			</trkpt>
			<trkpt lat="24.3423381" lon="120.6218587">
				<ele>83.800000</ele>
				<time>2019-06-08T07:39:11Z</time>
				<speed>3.891436</speed>
			</trkpt>
			<trkpt lat="24.3423381" lon="120.6218913">
				<ele>84.300000</ele>
				<time>2019-06-08T07:39:12Z</time>
				<speed>4.728879</speed>
			</trkpt>
			<trkpt lat="24.3423381" lon="120.6219076">
				<ele>84.500000</ele>
				<time>2019-06-08T07:39:13Z</time>
				<speed>5.227847</speed>
			</trkpt>
			<trkpt lat="24.3423381" lon="120.6219401">
				<ele>84.500000</ele>
				<time>2019-06-08T07:39:17Z</time>
				<speed>3.415102</speed>
			</trkpt>
			<trkpt lat="24.3423381" lon="120.6219401">
				<ele>84.400000</ele>
				<time>2019-06-08T07:39:18Z</time>
				<speed>2.329203</speed>
			</trkpt>
			<trkpt lat="24.3423381" lon="120.6219889">
				<ele>84.800000</ele>
				<time>2019-06-08T07:39:19Z</time>
				<speed>4.169212</speed>
			</trkpt>
			<trkpt lat="24.3423381" lon="120.6220052">
				<ele>87.100000</ele>
				<time>2019-06-08T07:39:20Z</time>
				<speed>3.688248</speed>
			</trkpt>
			<trkpt lat="24.3423381" lon="120.6220052">
				<ele>88.600000</ele>
				<time>2019-06-08T07:39:21Z</time>
				<speed>3.564792</speed>
			</trkpt>
			<trkpt lat="24.3423381" lon="120.6220052">
				<ele>88.600000</ele>
				<time>2019-06-08T07:39:22Z</time>
				<speed>4.031867</speed>
			</trkpt>
			<trkpt lat="24.3423381" lon="120.6220215">
				<ele>89.100000</ele>
				<time>2019-06-08T07:39:23Z</time>
				<speed>5.921773</speed>
			</trkpt>
			<trkpt lat="24.3423381" lon="120.6220540">
				<ele>89.300000</ele>
				<time>2019-06-08T07:39:24Z</time>
				<speed>5.937205</speed>
			</trkpt>
			<trkpt lat="24.3423381" lon="120.6221029">
				<ele>90.600000</ele>
				<time>2019-06-08T07:39:25Z</time>
				<speed>7.538018</speed>
			</trkpt>
			<trkpt lat="24.3423381" lon="120.6221354">
				<ele>92.400000</ele>
				<time>2019-06-08T07:39:26Z</time>
				<speed>6.966005</speed>
			</trkpt>
			<trkpt lat="24.3423381" lon="120.6221680">
				<ele>93.700000</ele>
				<time>2019-06-08T07:39:27Z</time>
				<speed>6.836376</speed>
			</trkpt>
			<trkpt lat="24.3423381" lon="120.6222005">
				<ele>95.300000</ele>
				<time>2019-06-08T07:39:28Z</time>
				<speed>6.448004</speed>
			</trkpt>
			<trkpt lat="24.3423381" lon="120.6222168">
				<ele>96.400000</ele>
				<time>2019-06-08T07:39:29Z</time>
				<speed>6.068891</speed>
			</trkpt>
			<trkpt lat="24.3423381" lon="120.6222493">
				<ele>97.600000</ele>
				<time>2019-06-08T07:39:30Z</time>
				<speed>5.253053</speed>
			</trkpt>
			<trkpt lat="24.3423381" lon="120.6222493">
				<ele>98.500000</ele>
				<time>2019-06-08T07:39:31Z</time>
				<speed>4.380630</speed>
			</trkpt>
			<trkpt lat="24.3423381" lon="120.6222656">
				<ele>99.500000</ele>
				<time>2019-06-08T07:39:32Z</time>
				<speed>4.013349</speed>
			</trkpt>
			<trkpt lat="24.3423381" lon="120.6222982">
				<ele>100.500000</ele>
				<time>2019-06-08T07:39:33Z</time>
				<speed>3.909440</speed>
			</trkpt>
			<trkpt lat="24.3423381" lon="120.6223307">
				<ele>101.000000</ele>
				<time>2019-06-08T07:39:34Z</time>
				<speed>3.263354</speed>
			</trkpt>
			<trkpt lat="24.3423381" lon="120.6223470">
				<ele>101.600000</ele>
				<time>2019-06-08T07:39:35Z</time>
				<speed>3.156358</speed>
			</trkpt>
			<trkpt lat="24.3423381" lon="120.6223470">
				<ele>101.400000</ele>
				<time>2019-06-08T07:39:36Z</time>
				<speed>2.524675</speed>
			</trkpt>
			<trkpt lat="24.3423381" lon="120.6223470">
				<ele>101.200000</ele>
				<time>2019-06-08T07:39:36Z</time>
				<speed>2.524675</speed>
			</trkpt>
		</trkseg>
	</trk>
</gpx>