<?xml version='1.0' encoding='utf-8'?>
<gpx xmlns="http://www.topografix.com/GPX/1/1" xmlns:xsi="http://www.w3.org/2001/XMLSchema-instance" creator="Astro Gemini" version="1.0" xsi:schemaLocation="http://www.topografix.com/GPX/1/0 http://www.topografix.com/GPX/1/0/gpx.xsd">
	<trk>
		<name>FRON0646</name>
		<trkseg>
			<trkpt lat="24.2438761" lon="120.5518392">
				<ele>3.400000</ele>
				<time>2019-06-08T07:15:36Z</time>
				<speed>0.193414</speed>
			</trkpt>
			<trkpt lat="24.2438802" lon="120.5518392">
				<ele>2.900000</ele>
				<time>2019-06-08T07:15:37Z</time>
				<speed>0.043210</speed>
			</trkpt>
			<trkpt lat="24.2438802" lon="120.5518392">
				<ele>2.700000</ele>
				<time>2019-06-08T07:15:37Z</time>
				<speed>0.043210</speed>
			</trkpt>
			<trkpt lat="24.2438599" lon="120.5518880">
				<ele>2.700000</ele>
				<time>2019-06-08T07:15:39Z</time>
				<speed>0.275204</speed>
			</trkpt>
			<trkpt lat="24.2438517" lon="120.5519043">
				<ele>2.700000</ele>
				<time>2019-06-08T07:15:40Z</time>
				<speed>0.177982</speed>
			</trkpt>
			<trkpt lat="24.2438477" lon="120.5519043">
				<ele>2.700000</ele>
				<time>2019-06-08T07:15:41Z</time>
				<speed>0.135287</speed>
			</trkpt>
			<trkpt lat="24.2438395" lon="120.5519206">
				<ele>2.700000</ele>
				<time>2019-06-08T07:15:42Z</time>
				<speed>0.329216</speed>
			</trkpt>
			<trkpt lat="24.2438354" lon="120.5519368">
				<ele>2.800000</ele>
				<time>2019-06-08T07:15:43Z</time>
				<speed>0.350306</speed>
			</trkpt>
			<trkpt lat="24.2438232" lon="120.5519531">
				<ele>2.600000</ele>
				<time>2019-06-08T07:15:44Z</time>
				<speed>0.320471</speed>
			</trkpt>
			<trkpt lat="24.2438192" lon="120.5519694">
				<ele>2.800000</ele>
				<time>2019-06-08T07:15:45Z</time>
				<speed>0.221706</speed>
			</trkpt>
			<trkpt lat="24.2438151" lon="120.5519694">
				<ele>3.100000</ele>
				<time>2019-06-08T07:15:46Z</time>
				<speed>0.418722</speed>
			</trkpt>
			<trkpt lat="24.2438070" lon="120.5519857">
				<ele>3.400000</ele>
				<time>2019-06-08T07:15:47Z</time>
				<speed>0.671806</speed>
			</trkpt>
			<trkpt lat="24.2437988" lon="120.5520020">
				<ele>3.800000</ele>
				<time>2019-06-08T07:15:48Z</time>
				<speed>0.576642</speed>
			</trkpt>
			<trkpt lat="24.2437948" lon="120.5520182">
				<ele>4.200000</ele>
				<time>2019-06-08T07:15:49Z</time>
				<speed>0.690839</speed>
			</trkpt>
			<trkpt lat="24.2437907" lon="120.5520182">
				<ele>5.000000</ele>
				<time>2019-06-08T07:15:50Z</time>
				<speed>0.279319</speed>
			</trkpt>
			<trkpt lat="24.2437866" lon="120.5520182">
				<ele>5.400000</ele>
				<time>2019-06-08T07:15:51Z</time>
				<speed>0.284978</speed>
			</trkpt>
			<trkpt lat="24.2437826" lon="120.5520345">
				<ele>5.700000</ele>
				<time>2019-06-08T07:15:52Z</time>
				<speed>0.228908</speed>
			</trkpt>
			<trkpt lat="24.2437826" lon="120.5520345">
				<ele>6.100000</ele>
				<time>2019-06-08T07:15:53Z</time>
				<speed>0.054526</speed>
			</trkpt>
			<trkpt lat="24.2437785" lon="120.5520345">
				<ele>6.400000</ele>
				<time>2019-06-08T07:15:54Z</time>
				<speed>0.158950</speed>
			</trkpt>
			<trkpt lat="24.2437785" lon="120.5520345">
				<ele>6.600000</ele>
				<time>2019-06-08T07:15:55Z</time>
				<speed>0.085905</speed>
			</trkpt>
			<trkpt lat="24.2437744" lon="120.5520345">
				<ele>6.900000</ele>
				<time>2019-06-08T07:15:56Z</time>
				<speed>0.127057</speed>
			</trkpt>
			<trkpt lat="24.2437744" lon="120.5520345">
				<ele>7.100000</ele>
				<time>2019-06-08T07:15:57Z</time>
				<speed>0.120370</speed>
			</trkpt>
			<trkpt lat="24.2437581" lon="120.5520508">
				<ele>8.700000</ele>
				<time>2019-06-08T07:15:58Z</time>
				<speed>0.126542</speed>
			</trkpt>
			<trkpt lat="24.2437459" lon="120.5520671">
				<ele>10.500000</ele>
				<time>2019-06-08T07:15:59Z</time>
				<speed>0.170266</speed>
			</trkpt>
			<trkpt lat="24.2437337" lon="120.5520671">
				<ele>12.000000</ele>
				<time>2019-06-08T07:16:00Z</time>
				<speed>0.128600</speed>
			</trkpt>
			<trkpt lat="24.2437256" lon="120.5520833">
				<ele>13.000000</ele>
				<time>2019-06-08T07:16:01Z</time>
				<speed>0.248455</speed>
			</trkpt>
			<trkpt lat="24.2437174" lon="120.5520833">
				<ele>14.300000</ele>
				<time>2019-06-08T07:16:02Z</time>
				<speed>0.229422</speed>
			</trkpt>
			<trkpt lat="24.2437134" lon="120.5520833">
				<ele>15.300000</ele>
				<time>2019-06-08T07:16:03Z</time>
				<speed>0.110082</speed>
			</trkpt>
			<trkpt lat="24.2437093" lon="120.5520833">
				<ele>16.300000</ele>
				<time>2019-06-08T07:16:04Z</time>
				<speed>0.115226</speed>
			</trkpt>
			<trkpt lat="24.2437093" lon="120.5520833">
				<ele>17.300000</ele>
				<time>2019-06-08T07:16:05Z</time>
				<speed>0.173867</speed>
			</trkpt>
			<trkpt lat="24.2437134" lon="120.5520833">
				<ele>17.500000</ele>
				<time>2019-06-08T07:16:06Z</time>
				<speed>0.166666</speed>
			</trkpt>
			<trkpt lat="24.2437093" lon="120.5520833">
				<ele>18.500000</ele>
				<time>2019-06-08T07:16:07Z</time>
				<speed>0.200616</speed>
			</trkpt>
			<trkpt lat="24.2437052" lon="120.5520833">
				<ele>19.700000</ele>
				<time>2019-06-08T07:16:08Z</time>
				<speed>0.029835</speed>
			</trkpt>
			<trkpt lat="24.2436971" lon="120.5520996">
				<ele>20.800000</ele>
				<time>2019-06-08T07:16:09Z</time>
				<speed>0.333846</speed>
			</trkpt>
			<trkpt lat="24.2436930" lon="120.5520996">
				<ele>22.100000</ele>
				<time>2019-06-08T07:16:10Z</time>
				<speed>0.425923</speed>
			</trkpt>
			<trkpt lat="24.2436890" lon="120.5521159">
				<ele>23.400000</ele>
				<time>2019-06-08T07:16:11Z</time>
				<speed>0.542178</speed>
			</trkpt>
			<trkpt lat="24.2436930" lon="120.5520996">
				<ele>24.100000</ele>
				<time>2019-06-08T07:16:12Z</time>
				<speed>0.290122</speed>
			</trkpt>
			<trkpt lat="24.2436930" lon="120.5520996">
				<ele>24.600000</ele>
				<time>2019-06-08T07:16:13Z</time>
				<speed>0.365224</speed>
			</trkpt>
			<trkpt lat="24.2436890" lon="120.5521159">
				<ele>25.700000</ele>
				<time>2019-06-08T07:16:14Z</time>
				<speed>0.418207</speed>
			</trkpt>
			<trkpt lat="24.2436890" lon="120.5521159">
				<ele>26.300000</ele>
				<time>2019-06-08T07:16:15Z</time>
				<speed>0.230451</speed>
			</trkpt>
			<trkpt lat="24.2436930" lon="120.5520996">
				<ele>27.100000</ele>
				<time>2019-06-08T07:16:16Z</time>
				<speed>0.039609</speed>
			</trkpt>
			<trkpt lat="24.2436930" lon="120.5520996">
				<ele>28.300000</ele>
				<time>2019-06-08T07:16:17Z</time>
				<speed>0.061214</speed>
			</trkpt>
			<trkpt lat="24.2436930" lon="120.5520996">
				<ele>29.200000</ele>
				<time>2019-06-08T07:16:18Z</time>
				<speed>0.136830</speed>
			</trkpt>
			<trkpt lat="24.2436930" lon="120.5520996">
				<ele>29.600000</ele>
				<time>2019-06-08T07:16:19Z</time>
				<speed>0.205246</speed>
			</trkpt>
			<trkpt lat="24.2436930" lon="120.5520833">
				<ele>30.500000</ele>
				<time>2019-06-08T07:16:20Z</time>
				<speed>0.162036</speed>
			</trkpt>
			<trkpt lat="24.2436971" lon="120.5520833">
				<ele>30.600000</ele>
				<time>2019-06-08T07:16:21Z</time>
				<speed>0.106481</speed>
			</trkpt>
			<trkpt lat="24.2437012" lon="120.5520833">
				<ele>30.800000</ele>
				<time>2019-06-08T07:16:22Z</time>
				<speed>0.181069</speed>
			</trkpt>
			<trkpt lat="24.2437052" lon="120.5520833">
				<ele>30.500000</ele>
				<time>2019-06-08T07:16:23Z</time>
				<speed>0.038066</speed>
			</trkpt>
			<trkpt lat="24.2437093" lon="120.5520671">
				<ele>30.700000</ele>
				<time>2019-06-08T07:16:24Z</time>
				<speed>0.036522</speed>
			</trkpt>
			<trkpt lat="24.2437093" lon="120.5520671">
				<ele>30.600000</ele>
				<time>2019-06-08T07:16:25Z</time>
				<speed>0.092078</speed>
			</trkpt>
			<trkpt lat="24.2437134" lon="120.5520671">
				<ele>30.600000</ele>
				<time>2019-06-08T07:16:26Z</time>
				<speed>0.208846</speed>
			</trkpt>
			<trkpt lat="24.2437134" lon="120.5520833">
				<ele>30.500000</ele>
				<time>2019-06-08T07:16:27Z</time>
				<speed>0.502054</speed>
			</trkpt>
			<trkpt lat="24.2437134" lon="120.5520833">
				<ele>30.500000</ele>
				<time>2019-06-08T07:16:28Z</time>
				<speed>0.479421</speed>
			</trkpt>
			<trkpt lat="24.2437134" lon="120.5520671">
				<ele>30.500000</ele>
				<time>2019-06-08T07:16:29Z</time>
				<speed>0.241768</speed>
			</trkpt>
			<trkpt lat="24.2437174" lon="120.5520671">
				<ele>30.300000</ele>
				<time>2019-06-08T07:16:30Z</time>
				<speed>0.411520</speed>
			</trkpt>
			<trkpt lat="24.2437174" lon="120.5520671">
				<ele>30.400000</ele>
				<time>2019-06-08T07:16:31Z</time>
				<speed>0.172324</speed>
			</trkpt>
			<trkpt lat="24.2437174" lon="120.5520508">
				<ele>30.600000</ele>
				<time>2019-06-08T07:16:32Z</time>
				<speed>0.127057</speed>
			</trkpt>
			<trkpt lat="24.2437174" lon="120.5520508">
				<ele>31.000000</ele>
				<time>2019-06-08T07:16:33Z</time>
				<speed>0.302982</speed>
			</trkpt>
			<trkpt lat="24.2437174" lon="120.5520345">
				<ele>31.400000</ele>
				<time>2019-06-08T07:16:34Z</time>
				<speed>0.270574</speed>
			</trkpt>
			<trkpt lat="24.2437134" lon="120.5520508">
				<ele>31.400000</ele>
				<time>2019-06-08T07:16:35Z</time>
				<speed>0.554009</speed>
			</trkpt>
			<trkpt lat="24.2437174" lon="120.5520508">
				<ele>31.400000</ele>
				<time>2019-06-08T07:16:36Z</time>
				<speed>0.208332</speed>
			</trkpt>
			<trkpt lat="24.2437174" lon="120.5520345">
				<ele>31.500000</ele>
				<time>2019-06-08T07:16:37Z</time>
				<speed>0.165637</speed>
			</trkpt>
			<trkpt lat="24.2437174" lon="120.5520345">
				<ele>31.500000</ele>
				<time>2019-06-08T07:16:38Z</time>
				<speed>0.212962</speed>
			</trkpt>
			<trkpt lat="24.2437215" lon="120.5520345">
				<ele>31.500000</ele>
				<time>2019-06-08T07:16:39Z</time>
				<speed>0.246912</speed>
			</trkpt>
			<trkpt lat="24.2437215" lon="120.5520345">
				<ele>31.400000</ele>
				<time>2019-06-08T07:16:40Z</time>
				<speed>0.118826</speed>
			</trkpt>
			<trkpt lat="24.2437215" lon="120.5520345">
				<ele>31.200000</ele>
				<time>2019-06-08T07:16:41Z</time>
				<speed>0.232509</speed>
			</trkpt>
			<trkpt lat="24.2437256" lon="120.5520345">
				<ele>30.800000</ele>
				<time>2019-06-08T07:16:42Z</time>
				<speed>0.173353</speed>
			</trkpt>
			<trkpt lat="24.2437337" lon="120.5520182">
				<ele>30.700000</ele>
				<time>2019-06-08T07:16:43Z</time>
				<speed>0.349792</speed>
			</trkpt>
			<trkpt lat="24.2437419" lon="120.5520182">
				<ele>30.000000</ele>
				<time>2019-06-08T07:16:44Z</time>
				<speed>0.870879</speed>
			</trkpt>
			<trkpt lat="24.2437581" lon="120.5520182">
				<ele>30.000000</ele>
				<time>2019-06-08T07:16:45Z</time>
				<speed>1.690318</speed>
			</trkpt>
			<trkpt lat="24.2437907" lon="120.5520345">
				<ele>29.900000</ele>
				<time>2019-06-08T07:16:46Z</time>
				<speed>2.995866</speed>
			</trkpt>
			<trkpt lat="24.2438517" lon="120.5520508">
				<ele>30.000000</ele>
				<time>2019-06-08T07:16:47Z</time>
				<speed>5.462414</speed>
			</trkpt>
			<trkpt lat="24.2439209" lon="120.5520671">
				<ele>29.900000</ele>
				<time>2019-06-08T07:16:48Z</time>
				<speed>6.570946</speed>
			</trkpt>
			<trkpt lat="24.2439901" lon="120.5520833">
				<ele>29.800000</ele>
				<time>2019-06-08T07:16:49Z</time>
				<speed>7.344603</speed>
			</trkpt>
			<trkpt lat="24.2440633" lon="120.5520996">
				<ele>30.200000</ele>
				<time>2019-06-08T07:16:50Z</time>
				<speed>8.085339</speed>
			</trkpt>
			<trkpt lat="24.2441447" lon="120.5521159">
				<ele>30.200000</ele>
				<time>2019-06-08T07:16:51Z</time>
				<speed>8.751487</speed>
			</trkpt>
			<trkpt lat="24.2442261" lon="120.5521484">
				<ele>30.600000</ele>
				<time>2019-06-08T07:16:52Z</time>
				<speed>9.307039</speed>
			</trkpt>
			<trkpt lat="24.2443115" lon="120.5521810">
				<ele>30.700000</ele>
				<time>2019-06-08T07:16:53Z</time>
				<speed>9.731419</speed>
			</trkpt>
			<trkpt lat="24.2444051" lon="120.5522135">
				<ele>30.700000</ele>
				<time>2019-06-08T07:16:54Z</time>
				<speed>10.257136</speed>
			</trkpt>
			<trkpt lat="24.2444906" lon="120.5522624">
				<ele>30.900000</ele>
				<time>2019-06-08T07:16:55Z</time>
				<speed>10.623903</speed>
			</trkpt>
			<trkpt lat="24.2445964" lon="120.5522786">
				<ele>30.800000</ele>
				<time>2019-06-08T07:16:56Z</time>
				<speed>11.173283</speed>
			</trkpt>
			<trkpt lat="24.2447062" lon="120.5523275">
				<ele>30.900000</ele>
				<time>2019-06-08T07:16:57Z</time>
				<speed>11.610008</speed>
			</trkpt>
			<trkpt lat="24.2448120" lon="120.5523600">
				<ele>31.200000</ele>
				<time>2019-06-08T07:16:58Z</time>
				<speed>11.933565</speed>
			</trkpt>
			<trkpt lat="24.2449341" lon="120.5524089">
				<ele>30.400000</ele>
				<time>2019-06-08T07:16:59Z</time>
				<speed>12.617717</speed>
			</trkpt>
			<trkpt lat="24.2450521" lon="120.5524414">
				<ele>30.300000</ele>
				<time>2019-06-08T07:17:00Z</time>
				<speed>12.832737</speed>
			</trkpt>
			<trkpt lat="24.2451660" lon="120.5524902">
				<ele>30.300000</ele>
				<time>2019-06-08T07:17:01Z</time>
				<speed>13.137261</speed>
			</trkpt>
			<trkpt lat="24.2452922" lon="120.5525391">
				<ele>29.900000</ele>
				<time>2019-06-08T07:17:02Z</time>
				<speed>13.547239</speed>
			</trkpt>
			<trkpt lat="24.2454102" lon="120.5525879">
				<ele>29.800000</ele>
				<time>2019-06-08T07:17:03Z</time>
				<speed>13.827072</speed>
			</trkpt>
			<trkpt lat="24.2455322" lon="120.5526367">
				<ele>29.900000</ele>
				<time>2019-06-08T07:17:04Z</time>
				<speed>14.053408</speed>
			</trkpt>
			<trkpt lat="24.2456665" lon="120.5527018">
				<ele>29.500000</ele>
				<time>2019-06-08T07:17:05Z</time>
				<speed>14.307521</speed>
			</trkpt>
			<trkpt lat="24.2457967" lon="120.5527507">
				<ele>29.500000</ele>
				<time>2019-06-08T07:17:06Z</time>
				<speed>14.548261</speed>
			</trkpt>
			<trkpt lat="24.2459269" lon="120.5527832">
				<ele>29.200000</ele>
				<time>2019-06-08T07:17:07Z</time>
				<speed>14.736532</speed>
			</trkpt>
			<trkpt lat="24.2460612" lon="120.5528483">
				<ele>28.300000</ele>
				<time>2019-06-08T07:17:08Z</time>
				<speed>15.002476</speed>
			</trkpt>
			<trkpt lat="24.2461995" lon="120.5529134">
				<ele>26.900000</ele>
				<time>2019-06-08T07:17:09Z</time>
				<speed>15.081694</speed>
			</trkpt>
			<trkpt lat="24.2463257" lon="120.5529785">
				<ele>26.500000</ele>
				<time>2019-06-08T07:17:10Z</time>
				<speed>15.218009</speed>
			</trkpt>
			<trkpt lat="24.2464559" lon="120.5530436">
				<ele>26.100000</ele>
				<time>2019-06-08T07:17:11Z</time>
				<speed>15.347639</speed>
			</trkpt>
			<trkpt lat="24.2465861" lon="120.5531087">
				<ele>25.900000</ele>
				<time>2019-06-08T07:17:12Z</time>
				<speed>15.389305</speed>
			</trkpt>
			<trkpt lat="24.2467163" lon="120.5531738">
				<ele>25.300000</ele>
				<time>2019-06-08T07:17:13Z</time>
				<speed>15.385190</speed>
			</trkpt>
			<trkpt lat="24.2468384" lon="120.5532552">
				<ele>25.200000</ele>
				<time>2019-06-08T07:17:14Z</time>
				<speed>15.156282</speed>
			</trkpt>
			<trkpt lat="24.2469604" lon="120.5533203">
				<ele>24.800000</ele>
				<time>2019-06-08T07:17:15Z</time>
				<speed>15.097640</speed>
			</trkpt>
			<trkpt lat="24.2470825" lon="120.5534017">
				<ele>24.500000</ele>
				<time>2019-06-08T07:17:16Z</time>
				<speed>14.992702</speed>
			</trkpt>
			<trkpt lat="24.2471965" lon="120.5534831">
				<ele>24.200000</ele>
				<time>2019-06-08T07:17:17Z</time>
				<speed>14.525113</speed>
			</trkpt>
			<trkpt lat="24.2473063" lon="120.5535645">
				<ele>24.100000</ele>
				<time>2019-06-08T07:17:18Z</time>
				<speed>13.911948</speed>
			</trkpt>
			<trkpt lat="24.2474121" lon="120.5536296">
				<ele>23.900000</ele>
				<time>2019-06-08T07:17:19Z</time>
				<speed>13.269977</speed>
			</trkpt>
			<trkpt lat="24.2475098" lon="120.5536947">
				<ele>23.500000</ele>
				<time>2019-06-08T07:17:20Z</time>
				<speed>12.607944</speed>
			</trkpt>
			<trkpt lat="24.2475993" lon="120.5537598">
				<ele>23.300000</ele>
				<time>2019-06-08T07:17:21Z</time>
				<speed>12.050335</speed>
			</trkpt>
			<trkpt lat="24.2476888" lon="120.5538249">
				<ele>22.900000</ele>
				<time>2019-06-08T07:17:22Z</time>
				<speed>11.426367</speed>
			</trkpt>
			<trkpt lat="24.2477743" lon="120.5538737">
				<ele>23.000000</ele>
				<time>2019-06-08T07:17:23Z</time>
				<speed>10.643965</speed>
			</trkpt>
			<trkpt lat="24.2478516" lon="120.5539062">
				<ele>23.500000</ele>
				<time>2019-06-08T07:17:24Z</time>
				<speed>9.516400</speed>
			</trkpt>
			<trkpt lat="24.2479126" lon="120.5539551">
				<ele>24.100000</ele>
				<time>2019-06-08T07:17:25Z</time>
				<speed>8.038529</speed>
			</trkpt>
			<trkpt lat="24.2479614" lon="120.5539876">
				<ele>23.800000</ele>
				<time>2019-06-08T07:17:26Z</time>
				<speed>6.580205</speed>
			</trkpt>
			<trkpt lat="24.2480062" lon="120.5540039">
				<ele>23.800000</ele>
				<time>2019-06-08T07:17:27Z</time>
				<speed>5.367764</speed>
			</trkpt>
			<trkpt lat="24.2480428" lon="120.5540365">
				<ele>23.500000</ele>
				<time>2019-06-08T07:17:28Z</time>
				<speed>4.774661</speed>
			</trkpt>
			<trkpt lat="24.2480672" lon="120.5540365">
				<ele>23.400000</ele>
				<time>2019-06-08T07:17:29Z</time>
				<speed>3.368291</speed>
			</trkpt>
			<trkpt lat="24.2480876" lon="120.5540527">
				<ele>23.700000</ele>
				<time>2019-06-08T07:17:30Z</time>
				<speed>2.115213</speed>
			</trkpt>
			<trkpt lat="24.2480957" lon="120.5540527">
				<ele>23.500000</ele>
				<time>2019-06-08T07:17:31Z</time>
				<speed>1.170260</speed>
			</trkpt>
			<trkpt lat="24.2481079" lon="120.5540527">
				<ele>23.500000</ele>
				<time>2019-06-08T07:17:32Z</time>
				<speed>1.291144</speed>
			</trkpt>
			<trkpt lat="24.2481283" lon="120.5540690">
				<ele>23.500000</ele>
				<time>2019-06-08T07:17:33Z</time>
				<speed>2.412536</speed>
			</trkpt>
			<trkpt lat="24.2481689" lon="120.5540853">
				<ele>23.900000</ele>
				<time>2019-06-08T07:17:34Z</time>
				<speed>3.962423</speed>
			</trkpt>
			<trkpt lat="24.2482137" lon="120.5541178">
				<ele>23.700000</ele>
				<time>2019-06-08T07:17:35Z</time>
				<speed>5.370336</speed>
			</trkpt>
			<trkpt lat="24.2482625" lon="120.5541667">
				<ele>23.000000</ele>
				<time>2019-06-08T07:17:36Z</time>
				<speed>6.262305</speed>
			</trkpt>
			<trkpt lat="24.2483195" lon="120.5542155">
				<ele>22.500000</ele>
				<time>2019-06-08T07:17:37Z</time>
				<speed>7.032362</speed>
			</trkpt>
			<trkpt lat="24.2483683" lon="120.5542643">
				<ele>22.100000</ele>
				<time>2019-06-08T07:17:38Z</time>
				<speed>7.459315</speed>
			</trkpt>
			<trkpt lat="24.2484334" lon="120.5543132">
				<ele>21.900000</ele>
				<time>2019-06-08T07:17:39Z</time>
				<speed>8.160442</speed>
			</trkpt>
			<trkpt lat="24.2484985" lon="120.5543783">
				<ele>21.700000</ele>
				<time>2019-06-08T07:17:40Z</time>
				<speed>8.692332</speed>
			</trkpt>
			<trkpt lat="24.2485718" lon="120.5544271">
				<ele>21.200000</ele>
				<time>2019-06-08T07:17:41Z</time>
				<speed>9.370824</speed>
			</trkpt>
			<trkpt lat="24.2486450" lon="120.5544922">
				<ele>21.000000</ele>
				<time>2019-06-08T07:17:42Z</time>
				<speed>10.000965</speed>
			</trkpt>
			<trkpt lat="24.2487264" lon="120.5545573">
				<ele>21.200000</ele>
				<time>2019-06-08T07:17:43Z</time>
				<speed>10.687174</speed>
			</trkpt>
			<trkpt lat="24.2488159" lon="120.5546224">
				<ele>21.500000</ele>
				<time>2019-06-08T07:17:44Z</time>
				<speed>11.448487</speed>
			</trkpt>
			<trkpt lat="24.2489054" lon="120.5546875">
				<ele>21.600000</ele>
				<time>2019-06-08T07:17:45Z</time>
				<speed>11.962372</speed>
			</trkpt>
			<trkpt lat="24.2489950" lon="120.5547526">
				<ele>21.600000</ele>
				<time>2019-06-08T07:17:46Z</time>
				<speed>12.533356</speed>
			</trkpt>
			<trkpt lat="24.2490926" lon="120.5548340">
				<ele>21.500000</ele>
				<time>2019-06-08T07:17:47Z</time>
				<speed>13.119257</speed>
			</trkpt>
			<trkpt lat="24.2491943" lon="120.5549154">
				<ele>21.300000</ele>
				<time>2019-06-08T07:17:48Z</time>
				<speed>13.548782</speed>
			</trkpt>
			<trkpt lat="24.2492961" lon="120.5549967">
				<ele>21.500000</ele>
				<time>2019-06-08T07:17:49Z</time>
				<speed>13.905776</speed>
			</trkpt>
			<trkpt lat="24.2494019" lon="120.5550781">
				<ele>21.400000</ele>
				<time>2019-06-08T07:17:50Z</time>
				<speed>14.217502</speed>
			</trkpt>
			<trkpt lat="24.2495117" lon="120.5551595">
				<ele>21.500000</ele>
				<time>2019-06-08T07:17:51Z</time>
				<speed>14.434064</speed>
			</trkpt>
			<trkpt lat="24.2496257" lon="120.5552409">
				<ele>21.400000</ele>
				<time>2019-06-08T07:17:52Z</time>
				<speed>14.632108</speed>
			</trkpt>
			<trkpt lat="24.2497437" lon="120.5553060">
				<ele>21.200000</ele>
				<time>2019-06-08T07:17:53Z</time>
				<speed>14.958238</speed>
			</trkpt>
			<trkpt lat="24.2498617" lon="120.5553874">
				<ele>20.900000</ele>
				<time>2019-06-08T07:17:54Z</time>
				<speed>15.250416</speed>
			</trkpt>
			<trkpt lat="24.2499837" lon="120.5554688">
				<ele>20.800000</ele>
				<time>2019-06-08T07:17:55Z</time>
				<speed>15.426342</speed>
			</trkpt>
			<trkpt lat="24.2501058" lon="120.5555339">
				<ele>20.400000</ele>
				<time>2019-06-08T07:17:56Z</time>
				<speed>15.499901</speed>
			</trkpt>
			<trkpt lat="24.2503662" lon="120.5556803">
				<ele>19.800000</ele>
				<time>2019-06-08T07:17:58Z</time>
				<speed>15.835290</speed>
			</trkpt>
			<trkpt lat="24.2504964" lon="120.5557454">
				<ele>19.600000</ele>
				<time>2019-06-08T07:17:59Z</time>
				<speed>15.990639</speed>
			</trkpt>
			<trkpt lat="24.2506307" lon="120.5558105">
				<ele>19.200000</ele>
				<time>2019-06-08T07:18:00Z</time>
				<speed>16.125926</speed>
			</trkpt>
			<trkpt lat="24.2507690" lon="120.5558757">
				<ele>19.000000</ele>
				<time>2019-06-08T07:18:01Z</time>
				<speed>16.331171</speed>
			</trkpt>
			<trkpt lat="24.2509074" lon="120.5559245">
				<ele>19.100000</ele>
				<time>2019-06-08T07:18:02Z</time>
				<speed>16.412961</speed>
			</trkpt>
			<trkpt lat="24.2510417" lon="120.5559896">
				<ele>18.800000</ele>
				<time>2019-06-08T07:18:03Z</time>
				<speed>16.372838</speed>
			</trkpt>
			<trkpt lat="24.2511759" lon="120.5560547">
				<ele>18.100000</ele>
				<time>2019-06-08T07:18:04Z</time>
				<speed>16.411417</speed>
			</trkpt>
			<trkpt lat="24.2513102" lon="120.5561198">
				<ele>17.900000</ele>
				<time>2019-06-08T07:18:05Z</time>
				<speed>16.462342</speed>
			</trkpt>
			<trkpt lat="24.2514486" lon="120.5561849">
				<ele>17.600000</ele>
				<time>2019-06-08T07:18:06Z</time>
				<speed>16.543104</speed>
			</trkpt>
			<trkpt lat="24.2515869" lon="120.5562500">
				<ele>17.300000</ele>
				<time>2019-06-08T07:18:07Z</time>
				<speed>16.600202</speed>
			</trkpt>
			<trkpt lat="24.2517253" lon="120.5563151">
				<ele>17.200000</ele>
				<time>2019-06-08T07:18:08Z</time>
				<speed>16.708226</speed>
			</trkpt>
			<trkpt lat="24.2518677" lon="120.5563802">
				<ele>16.600000</ele>
				<time>2019-06-08T07:18:09Z</time>
				<speed>16.738062</speed>
			</trkpt>
			<trkpt lat="24.2520060" lon="120.5564453">
				<ele>16.700000</ele>
				<time>2019-06-08T07:18:10Z</time>
				<speed>16.916559</speed>
			</trkpt>
			<trkpt lat="24.2521484" lon="120.5565104">
				<ele>16.400000</ele>
				<time>2019-06-08T07:18:11Z</time>
				<speed>16.981887</speed>
			</trkpt>
			<trkpt lat="24.2522909" lon="120.5565755">
				<ele>16.200000</ele>
				<time>2019-06-08T07:18:12Z</time>
				<speed>16.997319</speed>
			</trkpt>
			<trkpt lat="24.2524333" lon="120.5566406">
				<ele>15.800000</ele>
				<time>2019-06-08T07:18:13Z</time>
				<speed>16.970057</speed>
			</trkpt>
			<trkpt lat="24.2525757" lon="120.5567057">
				<ele>15.500000</ele>
				<time>2019-06-08T07:18:14Z</time>
				<speed>16.958224</speed>
			</trkpt>
			<trkpt lat="24.2527181" lon="120.5567708">
				<ele>15.800000</ele>
				<time>2019-06-08T07:18:15Z</time>
				<speed>17.060076</speed>
			</trkpt>
			<trkpt lat="24.2528605" lon="120.5568359">
				<ele>15.800000</ele>
				<time>2019-06-08T07:18:16Z</time>
				<speed>17.200507</speed>
			</trkpt>
			<trkpt lat="24.2530029" lon="120.5569010">
				<ele>15.300000</ele>
				<time>2019-06-08T07:18:17Z</time>
				<speed>17.284869</speed>
			</trkpt>
			<trkpt lat="24.2531494" lon="120.5569661">
				<ele>14.900000</ele>
				<time>2019-06-08T07:18:18Z</time>
				<speed>17.342996</speed>
			</trkpt>
			<trkpt lat="24.2532959" lon="120.5570312">
				<ele>14.600000</ele>
				<time>2019-06-08T07:18:19Z</time>
				<speed>17.402667</speed>
			</trkpt>
			<trkpt lat="24.2534424" lon="120.5570964">
				<ele>14.600000</ele>
				<time>2019-06-08T07:18:20Z</time>
				<speed>17.525094</speed>
			</trkpt>
			<trkpt lat="24.2535929" lon="120.5571615">
				<ele>14.400000</ele>
				<time>2019-06-08T07:18:21Z</time>
				<speed>17.548241</speed>
			</trkpt>
			<trkpt lat="24.2537394" lon="120.5572266">
				<ele>14.400000</ele>
				<time>2019-06-08T07:18:22Z</time>
				<speed>17.643920</speed>
			</trkpt>
			<trkpt lat="24.2538900" lon="120.5572917">
				<ele>14.500000</ele>
				<time>2019-06-08T07:18:23Z</time>
				<speed>17.835791</speed>
			</trkpt>
			<trkpt lat="24.2540365" lon="120.5573568">
				<ele>14.400000</ele>
				<time>2019-06-08T07:18:24Z</time>
				<speed>17.794124</speed>
			</trkpt>
			<trkpt lat="24.2541870" lon="120.5574219">
				<ele>14.700000</ele>
				<time>2019-06-08T07:18:25Z</time>
				<speed>17.787953</speed>
			</trkpt>
			<trkpt lat="24.2543335" lon="120.5574870">
				<ele>14.800000</ele>
				<time>2019-06-08T07:18:26Z</time>
				<speed>17.708220</speed>
			</trkpt>
			<trkpt lat="24.2544800" lon="120.5575521">
				<ele>15.100000</ele>
				<time>2019-06-08T07:18:27Z</time>
				<speed>17.568817</speed>
			</trkpt>
			<trkpt lat="24.2546265" lon="120.5576172">
				<ele>15.200000</ele>
				<time>2019-06-08T07:18:28Z</time>
				<speed>17.569845</speed>
			</trkpt>
			<trkpt lat="24.2547729" lon="120.5576823">
				<ele>15.300000</ele>
				<time>2019-06-08T07:18:29Z</time>
				<speed>17.548241</speed>
			</trkpt>
			<trkpt lat="24.2549194" lon="120.5577474">
				<ele>15.300000</ele>
				<time>2019-06-08T07:18:30Z</time>
				<speed>17.442790</speed>
			</trkpt>
			<trkpt lat="24.2550618" lon="120.5578125">
				<ele>15.200000</ele>
				<time>2019-06-08T07:18:31Z</time>
				<speed>17.417584</speed>
			</trkpt>
			<trkpt lat="24.2552083" lon="120.5578776">
				<ele>15.300000</ele>
				<time>2019-06-08T07:18:32Z</time>
				<speed>17.415526</speed>
			</trkpt>
			<trkpt lat="24.2553548" lon="120.5579427">
				<ele>15.400000</ele>
				<time>2019-06-08T07:18:33Z</time>
				<speed>17.423758</speed>
			</trkpt>
			<trkpt lat="24.2554972" lon="120.5580078">
				<ele>15.600000</ele>
				<time>2019-06-08T07:18:34Z</time>
				<speed>17.428387</speed>
			</trkpt>
			<trkpt lat="24.2556437" lon="120.5580729">
				<ele>15.500000</ele>
				<time>2019-06-08T07:18:35Z</time>
				<speed>17.379518</speed>
			</trkpt>
			<trkpt lat="24.2557902" lon="120.5581217">
				<ele>15.100000</ele>
				<time>2019-06-08T07:18:36Z</time>
				<speed>17.291041</speed>
			</trkpt>
			<trkpt lat="24.2557902" lon="120.5581217">
				<ele>15.100000</ele>
				<time>2019-06-08T07:18:36Z</time>
				<speed>17.291041</speed>
			</trkpt>
		</trkseg>
	</trk>
</gpx>