<?xml version='1.0' encoding='utf-8'?>
<gpx xmlns="http://www.topografix.com/GPX/1/1" xmlns:xsi="http://www.w3.org/2001/XMLSchema-instance" creator="Astro Gemini" version="1.0" xsi:schemaLocation="http://www.topografix.com/GPX/1/0 http://www.topografix.com/GPX/1/0/gpx.xsd">
	<trk>
		<name>FRON0642</name>
		<trkseg>
			<trkpt lat="24.1775106" lon="120.5434896">
				<ele>18.700000</ele>
				<time>2019-06-08T07:03:36Z</time>
				<speed>16.687651</speed>
			</trkpt>
			<trkpt lat="24.1776530" lon="120.5434896">
				<ele>19.200000</ele>
				<time>2019-06-08T07:03:37Z</time>
				<speed>16.631581</speed>
			</trkpt>
			<trkpt lat="24.1776530" lon="120.5434896">
				<ele>20.100000</ele>
				<time>2019-06-08T07:03:37Z</time>
				<speed>16.631581</speed>
			</trkpt>
			<trkpt lat="24.1779419" lon="120.5435221">
				<ele>20.800000</ele>
				<time>2019-06-08T07:03:39Z</time>
				<speed>16.216974</speed>
			</trkpt>
			<trkpt lat="24.1780884" lon="120.5435384">
				<ele>21.400000</ele>
				<time>2019-06-08T07:03:40Z</time>
				<speed>16.127984</speed>
			</trkpt>
			<trkpt lat="24.1782308" lon="120.5435547">
				<ele>21.500000</ele>
				<time>2019-06-08T07:03:41Z</time>
				<speed>15.977264</speed>
			</trkpt>
			<trkpt lat="24.1783773" lon="120.5435710">
				<ele>20.100000</ele>
				<time>2019-06-08T07:03:42Z</time>
				<speed>15.933026</speed>
			</trkpt>
			<trkpt lat="24.1785238" lon="120.5436035">
				<ele>18.800000</ele>
				<time>2019-06-08T07:03:43Z</time>
				<speed>15.903705</speed>
			</trkpt>
			<trkpt lat="24.1786662" lon="120.5436198">
				<ele>17.700000</ele>
				<time>2019-06-08T07:03:44Z</time>
				<speed>15.665023</speed>
			</trkpt>
			<trkpt lat="24.1788086" lon="120.5436361">
				<ele>16.700000</ele>
				<time>2019-06-08T07:03:45Z</time>
				<speed>15.720579</speed>
			</trkpt>
			<trkpt lat="24.1789510" lon="120.5436523">
				<ele>16.000000</ele>
				<time>2019-06-08T07:03:46Z</time>
				<speed>15.839405</speed>
			</trkpt>
			<trkpt lat="24.1790934" lon="120.5436686">
				<ele>14.100000</ele>
				<time>2019-06-08T07:03:47Z</time>
				<speed>15.873869</speed>
			</trkpt>
			<trkpt lat="24.1792277" lon="120.5436686">
				<ele>12.700000</ele>
				<time>2019-06-08T07:03:48Z</time>
				<speed>15.831174</speed>
			</trkpt>
			<trkpt lat="24.1793701" lon="120.5436849">
				<ele>11.800000</ele>
				<time>2019-06-08T07:03:49Z</time>
				<speed>15.925309</speed>
			</trkpt>
			<trkpt lat="24.1795166" lon="120.5437012">
				<ele>10.700000</ele>
				<time>2019-06-08T07:03:50Z</time>
				<speed>15.993210</speed>
			</trkpt>
			<trkpt lat="24.1796590" lon="120.5437012">
				<ele>10.000000</ele>
				<time>2019-06-08T07:03:51Z</time>
				<speed>15.907820</speed>
			</trkpt>
			<trkpt lat="24.1798014" lon="120.5437174">
				<ele>9.300000</ele>
				<time>2019-06-08T07:03:52Z</time>
				<speed>15.851750</speed>
			</trkpt>
			<trkpt lat="24.1799438" lon="120.5437337">
				<ele>8.600000</ele>
				<time>2019-06-08T07:03:53Z</time>
				<speed>15.864610</speed>
			</trkpt>
			<trkpt lat="24.1800903" lon="120.5437500">
				<ele>7.600000</ele>
				<time>2019-06-08T07:03:54Z</time>
				<speed>15.878499</speed>
			</trkpt>
			<trkpt lat="24.1802327" lon="120.5437663">
				<ele>6.600000</ele>
				<time>2019-06-08T07:03:55Z</time>
				<speed>15.883129</speed>
			</trkpt>
			<trkpt lat="24.1803752" lon="120.5437826">
				<ele>5.700000</ele>
				<time>2019-06-08T07:03:56Z</time>
				<speed>15.964918</speed>
			</trkpt>
			<trkpt lat="24.1805257" lon="120.5437988">
				<ele>5.100000</ele>
				<time>2019-06-08T07:03:57Z</time>
				<speed>16.131584</speed>
			</trkpt>
			<trkpt lat="24.1806722" lon="120.5438151">
				<ele>4.400000</ele>
				<time>2019-06-08T07:03:58Z</time>
				<speed>16.296706</speed>
			</trkpt>
			<trkpt lat="24.1808228" lon="120.5438314">
				<ele>3.900000</ele>
				<time>2019-06-08T07:03:59Z</time>
				<speed>16.445883</speed>
			</trkpt>
			<trkpt lat="24.1809692" lon="120.5438477">
				<ele>3.400000</ele>
				<time>2019-06-08T07:04:00Z</time>
				<speed>16.306480</speed>
			</trkpt>
			<trkpt lat="24.1811239" lon="120.5438802">
				<ele>3.300000</ele>
				<time>2019-06-08T07:04:01Z</time>
				<speed>16.345060</speed>
			</trkpt>
			<trkpt lat="24.1812744" lon="120.5438965">
				<ele>3.200000</ele>
				<time>2019-06-08T07:04:02Z</time>
				<speed>16.612547</speed>
			</trkpt>
			<trkpt lat="24.1814250" lon="120.5439290">
				<ele>3.300000</ele>
				<time>2019-06-08T07:04:03Z</time>
				<speed>16.817280</speed>
			</trkpt>
			<trkpt lat="24.1815755" lon="120.5439453">
				<ele>3.400000</ele>
				<time>2019-06-08T07:04:04Z</time>
				<speed>16.912442</speed>
			</trkpt>
			<trkpt lat="24.1817261" lon="120.5439616">
				<ele>3.600000</ele>
				<time>2019-06-08T07:04:05Z</time>
				<speed>16.951023</speed>
			</trkpt>
			<trkpt lat="24.1818807" lon="120.5439941">
				<ele>4.200000</ele>
				<time>2019-06-08T07:04:06Z</time>
				<speed>17.057504</speed>
			</trkpt>
			<trkpt lat="24.1820272" lon="120.5440104">
				<ele>4.200000</ele>
				<time>2019-06-08T07:04:07Z</time>
				<speed>17.030240</speed>
			</trkpt>
			<trkpt lat="24.1821777" lon="120.5440267">
				<ele>4.000000</ele>
				<time>2019-06-08T07:04:08Z</time>
				<speed>17.030240</speed>
			</trkpt>
			<trkpt lat="24.1823283" lon="120.5440430">
				<ele>3.600000</ele>
				<time>2019-06-08T07:04:09Z</time>
				<speed>16.971599</speed>
			</trkpt>
			<trkpt lat="24.1824788" lon="120.5440592">
				<ele>3.300000</ele>
				<time>2019-06-08T07:04:10Z</time>
				<speed>16.898555</speed>
			</trkpt>
			<trkpt lat="24.1826294" lon="120.5440755">
				<ele>2.800000</ele>
				<time>2019-06-08T07:04:11Z</time>
				<speed>16.880035</speed>
			</trkpt>
			<trkpt lat="24.1827799" lon="120.5440918">
				<ele>2.400000</ele>
				<time>2019-06-08T07:04:12Z</time>
				<speed>16.772526</speed>
			</trkpt>
			<trkpt lat="24.1829305" lon="120.5441081">
				<ele>2.100000</ele>
				<time>2019-06-08T07:04:13Z</time>
				<speed>16.688165</speed>
			</trkpt>
			<trkpt lat="24.1830811" lon="120.5441406">
				<ele>3.700000</ele>
				<time>2019-06-08T07:04:14Z</time>
				<speed>16.847628</speed>
			</trkpt>
			<trkpt lat="24.1832275" lon="120.5441569">
				<ele>4.600000</ele>
				<time>2019-06-08T07:04:15Z</time>
				<speed>16.903698</speed>
			</trkpt>
			<trkpt lat="24.1833822" lon="120.5441895">
				<ele>6.100000</ele>
				<time>2019-06-08T07:04:16Z</time>
				<speed>17.013266</speed>
			</trkpt>
			<trkpt lat="24.1835368" lon="120.5442220">
				<ele>7.700000</ele>
				<time>2019-06-08T07:04:17Z</time>
				<speed>17.232914</speed>
			</trkpt>
			<trkpt lat="24.1836914" lon="120.5442546">
				<ele>9.500000</ele>
				<time>2019-06-08T07:04:18Z</time>
				<speed>17.458735</speed>
			</trkpt>
			<trkpt lat="24.1838460" lon="120.5442708">
				<ele>10.400000</ele>
				<time>2019-06-08T07:04:19Z</time>
				<speed>17.428901</speed>
			</trkpt>
			<trkpt lat="24.1839966" lon="120.5442871">
				<ele>11.600000</ele>
				<time>2019-06-08T07:04:20Z</time>
				<speed>17.350712</speed>
			</trkpt>
			<trkpt lat="24.1841471" lon="120.5443197">
				<ele>12.600000</ele>
				<time>2019-06-08T07:04:21Z</time>
				<speed>17.349169</speed>
			</trkpt>
			<trkpt lat="24.1843018" lon="120.5443359">
				<ele>13.600000</ele>
				<time>2019-06-08T07:04:22Z</time>
				<speed>17.289498</speed>
			</trkpt>
			<trkpt lat="24.1844564" lon="120.5443685">
				<ele>14.600000</ele>
				<time>2019-06-08T07:04:23Z</time>
				<speed>17.284869</speed>
			</trkpt>
			<trkpt lat="24.1846110" lon="120.5443848">
				<ele>15.700000</ele>
				<time>2019-06-08T07:04:24Z</time>
				<speed>17.317276</speed>
			</trkpt>
			<trkpt lat="24.1847656" lon="120.5444173">
				<ele>16.700000</ele>
				<time>2019-06-08T07:04:25Z</time>
				<speed>17.338881</speed>
			</trkpt>
			<trkpt lat="24.1849202" lon="120.5444336">
				<ele>17.600000</ele>
				<time>2019-06-08T07:04:26Z</time>
				<speed>17.331165</speed>
			</trkpt>
			<trkpt lat="24.1850749" lon="120.5444661">
				<ele>18.400000</ele>
				<time>2019-06-08T07:04:27Z</time>
				<speed>17.193820</speed>
			</trkpt>
			<trkpt lat="24.1852214" lon="120.5444824">
				<ele>19.300000</ele>
				<time>2019-06-08T07:04:28Z</time>
				<speed>17.135179</speed>
			</trkpt>
			<trkpt lat="24.1853760" lon="120.5444987">
				<ele>20.200000</ele>
				<time>2019-06-08T07:04:29Z</time>
				<speed>17.200507</speed>
			</trkpt>
			<trkpt lat="24.1855265" lon="120.5445150">
				<ele>21.300000</ele>
				<time>2019-06-08T07:04:30Z</time>
				<speed>17.167072</speed>
			</trkpt>
			<trkpt lat="24.1856812" lon="120.5445313">
				<ele>22.100000</ele>
				<time>2019-06-08T07:04:31Z</time>
				<speed>17.140836</speed>
			</trkpt>
			<trkpt lat="24.1858317" lon="120.5445475">
				<ele>22.800000</ele>
				<time>2019-06-08T07:04:32Z</time>
				<speed>17.159870</speed>
			</trkpt>
			<trkpt lat="24.1859863" lon="120.5445638">
				<ele>23.300000</ele>
				<time>2019-06-08T07:04:33Z</time>
				<speed>17.107401</speed>
			</trkpt>
			<trkpt lat="24.1861369" lon="120.5445964">
				<ele>23.900000</ele>
				<time>2019-06-08T07:04:34Z</time>
				<speed>17.092484</speed>
			</trkpt>
			<trkpt lat="24.1862915" lon="120.5446126">
				<ele>24.400000</ele>
				<time>2019-06-08T07:04:35Z</time>
				<speed>17.057504</speed>
			</trkpt>
			<trkpt lat="24.1864421" lon="120.5446289">
				<ele>24.900000</ele>
				<time>2019-06-08T07:04:36Z</time>
				<speed>17.061105</speed>
			</trkpt>
			<trkpt lat="24.1865967" lon="120.5446452">
				<ele>25.400000</ele>
				<time>2019-06-08T07:04:37Z</time>
				<speed>17.081681</speed>
			</trkpt>
			<trkpt lat="24.1867472" lon="120.5446615">
				<ele>25.900000</ele>
				<time>2019-06-08T07:04:38Z</time>
				<speed>16.910386</speed>
			</trkpt>
			<trkpt lat="24.1868978" lon="120.5446777">
				<ele>26.300000</ele>
				<time>2019-06-08T07:04:39Z</time>
				<speed>16.841457</speed>
			</trkpt>
			<trkpt lat="24.1870483" lon="120.5446777">
				<ele>26.700000</ele>
				<time>2019-06-08T07:04:40Z</time>
				<speed>16.802362</speed>
			</trkpt>
			<trkpt lat="24.1872030" lon="120.5446777">
				<ele>27.000000</ele>
				<time>2019-06-08T07:04:41Z</time>
				<speed>16.829110</speed>
			</trkpt>
			<trkpt lat="24.1873576" lon="120.5446777">
				<ele>27.300000</ele>
				<time>2019-06-08T07:04:42Z</time>
				<speed>16.960797</speed>
			</trkpt>
			<trkpt lat="24.1875122" lon="120.5446615">
				<ele>27.300000</ele>
				<time>2019-06-08T07:04:43Z</time>
				<speed>16.875406</speed>
			</trkpt>
			<trkpt lat="24.1876628" lon="120.5446615">
				<ele>27.400000</ele>
				<time>2019-06-08T07:04:44Z</time>
				<speed>16.941249</speed>
			</trkpt>
			<trkpt lat="24.1878133" lon="120.5446452">
				<ele>27.500000</ele>
				<time>2019-06-08T07:04:45Z</time>
				<speed>16.960283</speed>
			</trkpt>
			<trkpt lat="24.1879679" lon="120.5446126">
				<ele>27.500000</ele>
				<time>2019-06-08T07:04:46Z</time>
				<speed>16.938164</speed>
			</trkpt>
			<trkpt lat="24.1881185" lon="120.5445964">
				<ele>27.200000</ele>
				<time>2019-06-08T07:04:47Z</time>
				<speed>16.882094</speed>
			</trkpt>
			<trkpt lat="24.1882690" lon="120.5445801">
				<ele>27.500000</ele>
				<time>2019-06-08T07:04:48Z</time>
				<speed>16.867176</speed>
			</trkpt>
			<trkpt lat="24.1884196" lon="120.5445475">
				<ele>27.300000</ele>
				<time>2019-06-08T07:04:49Z</time>
				<speed>16.648557</speed>
			</trkpt>
			<trkpt lat="24.1885661" lon="120.5445150">
				<ele>27.000000</ele>
				<time>2019-06-08T07:04:50Z</time>
				<speed>16.494235</speed>
			</trkpt>
			<trkpt lat="24.1885661" lon="120.5444661">
				<ele>26.400000</ele>
				<time>2019-06-08T07:04:51Z</time>
				<speed>16.787959</speed>
			</trkpt>
			<trkpt lat="24.1888631" lon="120.5444173">
				<ele>25.900000</ele>
				<time>2019-06-08T07:04:52Z</time>
				<speed>16.762238</speed>
			</trkpt>
			<trkpt lat="24.1890055" lon="120.5443685">
				<ele>25.500000</ele>
				<time>2019-06-08T07:04:53Z</time>
				<speed>16.663474</speed>
			</trkpt>
			<trkpt lat="24.1891479" lon="120.5443197">
				<ele>24.500000</ele>
				<time>2019-06-08T07:04:54Z</time>
				<speed>16.572938</speed>
			</trkpt>
			<trkpt lat="24.1892863" lon="120.5442708">
				<ele>23.700000</ele>
				<time>2019-06-08T07:04:55Z</time>
				<speed>16.378496</speed>
			</trkpt>
			<trkpt lat="24.1894246" lon="120.5442220">
				<ele>22.900000</ele>
				<time>2019-06-08T07:04:56Z</time>
				<speed>16.276645</speed>
			</trkpt>
			<trkpt lat="24.1895589" lon="120.5441569">
				<ele>22.300000</ele>
				<time>2019-06-08T07:04:57Z</time>
				<speed>16.072943</speed>
			</trkpt>
			<trkpt lat="24.1896891" lon="120.5440918">
				<ele>21.800000</ele>
				<time>2019-06-08T07:04:58Z</time>
				<speed>15.951544</speed>
			</trkpt>
			<trkpt lat="24.1898153" lon="120.5440104">
				<ele>20.700000</ele>
				<time>2019-06-08T07:04:59Z</time>
				<speed>15.724694</speed>
			</trkpt>
			<trkpt lat="24.1899373" lon="120.5439290">
				<ele>20.100000</ele>
				<time>2019-06-08T07:05:00Z</time>
				<speed>15.480868</speed>
			</trkpt>
			<trkpt lat="24.1900553" lon="120.5438477">
				<ele>19.400000</ele>
				<time>2019-06-08T07:05:01Z</time>
				<speed>15.359469</speed>
			</trkpt>
			<trkpt lat="24.1901774" lon="120.5437663">
				<ele>18.500000</ele>
				<time>2019-06-08T07:05:02Z</time>
				<speed>15.124389</speed>
			</trkpt>
			<trkpt lat="24.1902954" lon="120.5437012">
				<ele>17.500000</ele>
				<time>2019-06-08T07:05:03Z</time>
				<speed>15.037455</speed>
			</trkpt>
			<trkpt lat="24.1904093" lon="120.5436198">
				<ele>16.300000</ele>
				<time>2019-06-08T07:05:04Z</time>
				<speed>14.968526</speed>
			</trkpt>
			<trkpt lat="24.1905273" lon="120.5435384">
				<ele>15.200000</ele>
				<time>2019-06-08T07:05:05Z</time>
				<speed>14.978813</speed>
			</trkpt>
			<trkpt lat="24.1906372" lon="120.5434408">
				<ele>14.300000</ele>
				<time>2019-06-08T07:05:06Z</time>
				<speed>14.927373</speed>
			</trkpt>
			<trkpt lat="24.1907471" lon="120.5433594">
				<ele>13.600000</ele>
				<time>2019-06-08T07:05:07Z</time>
				<speed>14.804432</speed>
			</trkpt>
			<trkpt lat="24.1908529" lon="120.5432780">
				<ele>13.200000</ele>
				<time>2019-06-08T07:05:08Z</time>
				<speed>14.796202</speed>
			</trkpt>
			<trkpt lat="24.1909627" lon="120.5431803">
				<ele>12.600000</ele>
				<time>2019-06-08T07:05:09Z</time>
				<speed>14.802889</speed>
			</trkpt>
			<trkpt lat="24.1910685" lon="120.5430990">
				<ele>12.200000</ele>
				<time>2019-06-08T07:05:10Z</time>
				<speed>14.959781</speed>
			</trkpt>
			<trkpt lat="24.1911702" lon="120.5429850">
				<ele>12.000000</ele>
				<time>2019-06-08T07:05:11Z</time>
				<speed>15.095583</speed>
			</trkpt>
			<trkpt lat="24.1912720" lon="120.5428874">
				<ele>11.700000</ele>
				<time>2019-06-08T07:05:12Z</time>
				<speed>15.234470</speed>
			</trkpt>
			<trkpt lat="24.1913737" lon="120.5427897">
				<ele>11.600000</ele>
				<time>2019-06-08T07:05:13Z</time>
				<speed>15.495271</speed>
			</trkpt>
			<trkpt lat="24.1914754" lon="120.5426758">
				<ele>11.400000</ele>
				<time>2019-06-08T07:05:14Z</time>
				<speed>15.661937</speed>
			</trkpt>
			<trkpt lat="24.1915731" lon="120.5425618">
				<ele>11.100000</ele>
				<time>2019-06-08T07:05:15Z</time>
				<speed>15.849179</speed>
			</trkpt>
			<trkpt lat="24.1916707" lon="120.5424479">
				<ele>11.100000</ele>
				<time>2019-06-08T07:05:16Z</time>
				<speed>15.951544</speed>
			</trkpt>
			<trkpt lat="24.1917684" lon="120.5423340">
				<ele>11.000000</ele>
				<time>2019-06-08T07:05:17Z</time>
				<speed>16.084259</speed>
			</trkpt>
			<trkpt lat="24.1918660" lon="120.5423340">
				<ele>10.900000</ele>
				<time>2019-06-08T07:05:18Z</time>
				<speed>1045.534829</speed>
			</trkpt>
			<trkpt lat="24.1919596" lon="120.5420898">
				<ele>10.800000</ele>
				<time>2019-06-08T07:05:19Z</time>
				<speed>16.205657</speed>
			</trkpt>
			<trkpt lat="24.1920492" lon="120.5419596">
				<ele>10.700000</ele>
				<time>2019-06-08T07:05:20Z</time>
				<speed>16.389813</speed>
			</trkpt>
			<trkpt lat="24.1921346" lon="120.5418294">
				<ele>10.800000</ele>
				<time>2019-06-08T07:05:21Z</time>
				<speed>16.428393</speed>
			</trkpt>
			<trkpt lat="24.1922201" lon="120.5416992">
				<ele>10.600000</ele>
				<time>2019-06-08T07:05:22Z</time>
				<speed>16.458743</speed>
			</trkpt>
			<trkpt lat="24.1922974" lon="120.5415527">
				<ele>10.600000</ele>
				<time>2019-06-08T07:05:23Z</time>
				<speed>16.752980</speed>
			</trkpt>
			<trkpt lat="24.1923747" lon="120.5414062">
				<ele>10.500000</ele>
				<time>2019-06-08T07:05:24Z</time>
				<speed>16.901126</speed>
			</trkpt>
			<trkpt lat="24.1924479" lon="120.5412760">
				<ele>10.100000</ele>
				<time>2019-06-08T07:05:25Z</time>
				<speed>16.875406</speed>
			</trkpt>
			<trkpt lat="24.1925171" lon="120.5411133">
				<ele>10.100000</ele>
				<time>2019-06-08T07:05:26Z</time>
				<speed>16.918102</speed>
			</trkpt>
			<trkpt lat="24.1925822" lon="120.5409668">
				<ele>10.200000</ele>
				<time>2019-06-08T07:05:27Z</time>
				<speed>17.030756</speed>
			</trkpt>
			<trkpt lat="24.1926473" lon="120.5408203">
				<ele>9.900000</ele>
				<time>2019-06-08T07:05:28Z</time>
				<speed>17.056476</speed>
			</trkpt>
			<trkpt lat="24.1927083" lon="120.5406576">
				<ele>10.100000</ele>
				<time>2019-06-08T07:05:29Z</time>
				<speed>17.124891</speed>
			</trkpt>
			<trkpt lat="24.1927572" lon="120.5405111">
				<ele>10.400000</ele>
				<time>2019-06-08T07:05:30Z</time>
				<speed>17.028698</speed>
			</trkpt>
			<trkpt lat="24.1928060" lon="120.5403483">
				<ele>10.500000</ele>
				<time>2019-06-08T07:05:31Z</time>
				<speed>16.967484</speed>
			</trkpt>
			<trkpt lat="24.1928548" lon="120.5401855">
				<ele>10.800000</ele>
				<time>2019-06-08T07:05:32Z</time>
				<speed>16.861517</speed>
			</trkpt>
			<trkpt lat="24.1928955" lon="120.5400391">
				<ele>11.300000</ele>
				<time>2019-06-08T07:05:33Z</time>
				<speed>16.711313</speed>
			</trkpt>
			<trkpt lat="24.1929321" lon="120.5398763">
				<ele>11.300000</ele>
				<time>2019-06-08T07:05:34Z</time>
				<speed>16.809564</speed>
			</trkpt>
			<trkpt lat="24.1929687" lon="120.5397135">
				<ele>11.500000</ele>
				<time>2019-06-08T07:05:35Z</time>
				<speed>16.585799</speed>
			</trkpt>
			<trkpt lat="24.1930013" lon="120.5395671">
				<ele>10.700000</ele>
				<time>2019-06-08T07:05:36Z</time>
				<speed>16.011214</speed>
			</trkpt>
			<trkpt lat="24.1930339" lon="120.5394206">
				<ele>10.300000</ele>
				<time>2019-06-08T07:05:37Z</time>
				<speed>15.212865</speed>
			</trkpt>
			<trkpt lat="24.1930664" lon="120.5392741">
				<ele>10.100000</ele>
				<time>2019-06-08T07:05:38Z</time>
				<speed>14.560606</speed>
			</trkpt>
			<trkpt lat="24.1930949" lon="120.5391439">
				<ele>9.800000</ele>
				<time>2019-06-08T07:05:39Z</time>
				<speed>13.893430</speed>
			</trkpt>
			<trkpt lat="24.1931234" lon="120.5390137">
				<ele>9.500000</ele>
				<time>2019-06-08T07:05:40Z</time>
				<speed>13.542609</speed>
			</trkpt>
			<trkpt lat="24.1931519" lon="120.5388835">
				<ele>8.800000</ele>
				<time>2019-06-08T07:05:41Z</time>
				<speed>13.595078</speed>
			</trkpt>
			<trkpt lat="24.1931803" lon="120.5387533">
				<ele>8.700000</ele>
				<time>2019-06-08T07:05:42Z</time>
				<speed>13.814212</speed>
			</trkpt>
			<trkpt lat="24.1932048" lon="120.5386230">
				<ele>8.900000</ele>
				<time>2019-06-08T07:05:43Z</time>
				<speed>14.099704</speed>
			</trkpt>
			<trkpt lat="24.1932332" lon="120.5384766">
				<ele>9.000000</ele>
				<time>2019-06-08T07:05:44Z</time>
				<speed>14.390340</speed>
			</trkpt>
			<trkpt lat="24.1932617" lon="120.5383301">
				<ele>8.800000</ele>
				<time>2019-06-08T07:05:45Z</time>
				<speed>14.571409</speed>
			</trkpt>
			<trkpt lat="24.1932861" lon="120.5381999">
				<ele>9.000000</ele>
				<time>2019-06-08T07:05:46Z</time>
				<speed>14.798259</speed>
			</trkpt>
			<trkpt lat="24.1933187" lon="120.5380534">
				<ele>8.900000</ele>
				<time>2019-06-08T07:05:47Z</time>
				<speed>14.872333</speed>
			</trkpt>
			<trkpt lat="24.1933472" lon="120.5379069">
				<ele>9.000000</ele>
				<time>2019-06-08T07:05:48Z</time>
				<speed>14.910913</speed>
			</trkpt>
			<trkpt lat="24.1933797" lon="120.5377604">
				<ele>8.800000</ele>
				<time>2019-06-08T07:05:49Z</time>
				<speed>15.025109</speed>
			</trkpt>
			<trkpt lat="24.1934123" lon="120.5376139">
				<ele>8.900000</ele>
				<time>2019-06-08T07:05:50Z</time>
				<speed>15.250932</speed>
			</trkpt>
			<trkpt lat="24.1934448" lon="120.5374674">
				<ele>8.800000</ele>
				<time>2019-06-08T07:05:51Z</time>
				<speed>15.241157</speed>
			</trkpt>
			<trkpt lat="24.1934814" lon="120.5373210">
				<ele>9.000000</ele>
				<time>2019-06-08T07:05:52Z</time>
				<speed>15.258647</speed>
			</trkpt>
			<trkpt lat="24.1935262" lon="120.5371908">
				<ele>9.000000</ele>
				<time>2019-06-08T07:05:53Z</time>
				<speed>15.027682</speed>
			</trkpt>
			<trkpt lat="24.1935913" lon="120.5370605">
				<ele>9.100000</ele>
				<time>2019-06-08T07:05:54Z</time>
				<speed>15.037455</speed>
			</trkpt>
			<trkpt lat="24.1936727" lon="120.5369466">
				<ele>9.300000</ele>
				<time>2019-06-08T07:05:55Z</time>
				<speed>15.142393</speed>
			</trkpt>
			<trkpt lat="24.1937622" lon="120.5368327">
				<ele>9.500000</ele>
				<time>2019-06-08T07:05:56Z</time>
				<speed>15.010192</speed>
			</trkpt>
			<trkpt lat="24.1938680" lon="120.5367513">
				<ele>9.300000</ele>
				<time>2019-06-08T07:05:57Z</time>
				<speed>14.711326</speed>
			</trkpt>
			<trkpt lat="24.1939901" lon="120.5366699">
				<ele>9.300000</ele>
				<time>2019-06-08T07:05:58Z</time>
				<speed>14.678404</speed>
			</trkpt>
			<trkpt lat="24.1941121" lon="120.5366048">
				<ele>8.800000</ele>
				<time>2019-06-08T07:05:59Z</time>
				<speed>14.772539</speed>
			</trkpt>
			<trkpt lat="24.1942342" lon="120.5365397">
				<ele>8.600000</ele>
				<time>2019-06-08T07:06:00Z</time>
				<speed>14.966983</speed>
			</trkpt>
			<trkpt lat="24.1943644" lon="120.5364909">
				<ele>8.600000</ele>
				<time>2019-06-08T07:06:01Z</time>
				<speed>15.258647</speed>
			</trkpt>
			<trkpt lat="24.1944987" lon="120.5364583">
				<ele>8.500000</ele>
				<time>2019-06-08T07:06:02Z</time>
				<speed>15.312659</speed>
			</trkpt>
			<trkpt lat="24.1946330" lon="120.5364258">
				<ele>8.500000</ele>
				<time>2019-06-08T07:06:03Z</time>
				<speed>15.219039</speed>
			</trkpt>
			<trkpt lat="24.1947673" lon="120.5364258">
				<ele>7.600000</ele>
				<time>2019-06-08T07:06:04Z</time>
				<speed>15.046714</speed>
			</trkpt>
			<trkpt lat="24.1948975" lon="120.5364258">
				<ele>6.400000</ele>
				<time>2019-06-08T07:06:05Z</time>
				<speed>14.944863</speed>
			</trkpt>
			<trkpt lat="24.1950317" lon="120.5364421">
				<ele>5.300000</ele>
				<time>2019-06-08T07:06:06Z</time>
				<speed>14.919657</speed>
			</trkpt>
			<trkpt lat="24.1951782" lon="120.5364746">
				<ele>3.900000</ele>
				<time>2019-06-08T07:06:07Z</time>
				<speed>15.096611</speed>
			</trkpt>
			<trkpt lat="24.1953328" lon="120.5365072">
				<ele>2.100000</ele>
				<time>2019-06-08T07:06:08Z</time>
				<speed>15.530765</speed>
			</trkpt>
			<trkpt lat="24.1954712" lon="120.5365397">
				<ele>1.500000</ele>
				<time>2019-06-08T07:06:09Z</time>
				<speed>15.608439</speed>
			</trkpt>
			<trkpt lat="24.1956177" lon="120.5365723">
				<ele>0.700000</ele>
				<time>2019-06-08T07:06:10Z</time>
				<speed>15.852780</speed>
			</trkpt>
			<trkpt lat="24.1957642" lon="120.5366048">
				<ele>-0.600000</ele>
				<time>2019-06-08T07:06:11Z</time>
				<speed>16.106379</speed>
			</trkpt>
			<trkpt lat="24.1959066" lon="120.5366374">
				<ele>-1.700000</ele>
				<time>2019-06-08T07:06:12Z</time>
				<speed>16.227777</speed>
			</trkpt>
			<trkpt lat="24.1960490" lon="120.5366862">
				<ele>-1.300000</ele>
				<time>2019-06-08T07:06:13Z</time>
				<speed>16.304937</speed>
			</trkpt>
			<trkpt lat="24.1961955" lon="120.5367188">
				<ele>-1.300000</ele>
				<time>2019-06-08T07:06:14Z</time>
				<speed>16.257098</speed>
			</trkpt>
			<trkpt lat="24.1963379" lon="120.5367676">
				<ele>-1.600000</ele>
				<time>2019-06-08T07:06:15Z</time>
				<speed>16.226234</speed>
			</trkpt>
			<trkpt lat="24.1964844" lon="120.5368001">
				<ele>-2.500000</ele>
				<time>2019-06-08T07:06:16Z</time>
				<speed>16.321398</speed>
			</trkpt>
			<trkpt lat="24.1966309" lon="120.5368327">
				<ele>-3.800000</ele>
				<time>2019-06-08T07:06:17Z</time>
				<speed>16.326028</speed>
			</trkpt>
			<trkpt lat="24.1967773" lon="120.5368652">
				<ele>-4.500000</ele>
				<time>2019-06-08T07:06:18Z</time>
				<speed>16.471088</speed>
			</trkpt>
			<trkpt lat="24.1969198" lon="120.5368978">
				<ele>-5.100000</ele>
				<time>2019-06-08T07:06:19Z</time>
				<speed>16.416561</speed>
			</trkpt>
			<trkpt lat="24.1970662" lon="120.5369303">
				<ele>-5.400000</ele>
				<time>2019-06-08T07:06:20Z</time>
				<speed>16.445883</speed>
			</trkpt>
			<trkpt lat="24.1972127" lon="120.5369629">
				<ele>-5.500000</ele>
				<time>2019-06-08T07:06:21Z</time>
				<speed>16.465429</speed>
			</trkpt>
			<trkpt lat="24.1973592" lon="120.5370117">
				<ele>-5.500000</ele>
				<time>2019-06-08T07:06:22Z</time>
				<speed>16.621807</speed>
			</trkpt>
			<trkpt lat="24.1975057" lon="120.5370443">
				<ele>-5.700000</ele>
				<time>2019-06-08T07:06:23Z</time>
				<speed>16.726230</speed>
			</trkpt>
			<trkpt lat="24.1976563" lon="120.5370768">
				<ele>-5.900000</ele>
				<time>2019-06-08T07:06:24Z</time>
				<speed>16.760181</speed>
			</trkpt>
			<trkpt lat="24.1978027" lon="120.5371257">
				<ele>-6.200000</ele>
				<time>2019-06-08T07:06:25Z</time>
				<speed>16.855344</speed>
			</trkpt>
			<trkpt lat="24.1979533" lon="120.5371582">
				<ele>-6.400000</ele>
				<time>2019-06-08T07:06:26Z</time>
				<speed>16.796189</speed>
			</trkpt>
			<trkpt lat="24.1980998" lon="120.5371908">
				<ele>-6.600000</ele>
				<time>2019-06-08T07:06:27Z</time>
				<speed>16.772526</speed>
			</trkpt>
			<trkpt lat="24.1982503" lon="120.5372396">
				<ele>-6.800000</ele>
				<time>2019-06-08T07:06:28Z</time>
				<speed>16.958224</speed>
			</trkpt>
			<trkpt lat="24.1984009" lon="120.5372721">
				<ele>-6.900000</ele>
				<time>2019-06-08T07:06:29Z</time>
				<speed>17.061105</speed>
			</trkpt>
			<trkpt lat="24.1985514" lon="120.5373047">
				<ele>-7.100000</ele>
				<time>2019-06-08T07:06:30Z</time>
				<speed>16.930962</speed>
			</trkpt>
			<trkpt lat="24.1987020" lon="120.5373372">
				<ele>-7.400000</ele>
				<time>2019-06-08T07:06:31Z</time>
				<speed>16.998347</speed>
			</trkpt>
			<trkpt lat="24.1988525" lon="120.5373861">
				<ele>-7.600000</ele>
				<time>2019-06-08T07:06:32Z</time>
				<speed>17.105858</speed>
			</trkpt>
			<trkpt lat="24.1990072" lon="120.5374186">
				<ele>-7.900000</ele>
				<time>2019-06-08T07:06:33Z</time>
				<speed>17.305960</speed>
			</trkpt>
			<trkpt lat="24.1991577" lon="120.5374674">
				<ele>-8.000000</ele>
				<time>2019-06-08T07:06:34Z</time>
				<speed>17.374889</speed>
			</trkpt>
			<trkpt lat="24.1993123" lon="120.5375000">
				<ele>-7.900000</ele>
				<time>2019-06-08T07:06:35Z</time>
				<speed>17.373861</speed>
			</trkpt>
			<trkpt lat="24.1994670" lon="120.5375326">
				<ele>-8.200000</ele>
				<time>2019-06-08T07:06:36Z</time>
				<speed>17.412439</speed>
			</trkpt>
			<trkpt lat="24.1994670" lon="120.5375326">
				<ele>-8.200000</ele>
				<time>2019-06-08T07:06:36Z</time>
				<speed>17.412439</speed>
			</trkpt>
		</trkseg>
	</trk>
</gpx>