<?xml version='1.0' encoding='utf-8'?>
<gpx xmlns="http://www.topografix.com/GPX/1/1" xmlns:xsi="http://www.w3.org/2001/XMLSchema-instance" creator="Astro Gemini" version="1.0" xsi:schemaLocation="http://www.topografix.com/GPX/1/0 http://www.topografix.com/GPX/1/0/gpx.xsd">
	<trk>
		<name>FRON0678</name>
		<trkseg>
			<trkpt lat="24.1806519" lon="120.6670247">
				<ele>148.400000</ele>
				<time>2019-06-08T09:53:39Z</time>
				<speed>10.999930</speed>
			</trkpt>
			<trkpt lat="24.1806519" lon="120.6670247">
				<ele>148.200000</ele>
				<time>2019-06-08T09:53:39Z</time>
				<speed>10.999930</speed>
			</trkpt>
			<trkpt lat="24.1805623" lon="120.6670247">
				<ele>148.200000</ele>
				<time>2047-01-00T09:53:40Z</time>
				<speed>4.115200</speed>
			</trkpt>
			<trkpt lat="24.1804728" lon="120.6671224">
				<ele>148.200000</ele>
				<time>2019-06-08T09:53:41Z</time>
				<speed>10.260737</speed>
			</trkpt>
			<trkpt lat="24.1803996" lon="120.6671549">
				<ele>148.300000</ele>
				<time>2019-06-08T09:53:42Z</time>
				<speed>9.309097</speed>
			</trkpt>
			<trkpt lat="24.1803182" lon="120.6671712">
				<ele>147.700000</ele>
				<time>2019-06-08T09:53:43Z</time>
				<speed>9.011773</speed>
			</trkpt>
			<trkpt lat="24.1802450" lon="120.6672201">
				<ele>148.000000</ele>
				<time>2019-06-08T09:53:44Z</time>
				<speed>8.483485</speed>
			</trkpt>
			<trkpt lat="24.1801839" lon="120.6672526">
				<ele>148.500000</ele>
				<time>2019-06-08T09:53:45Z</time>
				<speed>7.807563</speed>
			</trkpt>
			<trkpt lat="24.1801310" lon="120.6672689">
				<ele>148.900000</ele>
				<time>2019-06-08T09:53:46Z</time>
				<speed>6.492757</speed>
			</trkpt>
			<trkpt lat="24.1800822" lon="120.6673014">
				<ele>149.000000</ele>
				<time>2019-06-08T09:53:47Z</time>
				<speed>5.959839</speed>
			</trkpt>
			<trkpt lat="24.1800374" lon="120.6673503">
				<ele>149.000000</ele>
				<time>2019-06-08T09:53:48Z</time>
				<speed>6.008706</speed>
			</trkpt>
			<trkpt lat="24.1799845" lon="120.6673828">
				<ele>150.300000</ele>
				<time>2019-06-08T09:53:49Z</time>
				<speed>6.180516</speed>
			</trkpt>
			<trkpt lat="24.1799276" lon="120.6674154">
				<ele>149.700000</ele>
				<time>2019-06-08T09:53:50Z</time>
				<speed>6.502016</speed>
			</trkpt>
			<trkpt lat="24.1798625" lon="120.6674642">
				<ele>149.300000</ele>
				<time>2019-06-08T09:53:51Z</time>
				<speed>6.714978</speed>
			</trkpt>
			<trkpt lat="24.1798096" lon="120.6674967">
				<ele>148.900000</ele>
				<time>2019-06-08T09:53:52Z</time>
				<speed>6.497901</speed>
			</trkpt>
			<trkpt lat="24.1797404" lon="120.6675456">
				<ele>149.600000</ele>
				<time>2019-06-08T09:53:53Z</time>
				<speed>7.502009</speed>
			</trkpt>
			<trkpt lat="24.1796590" lon="120.6675944">
				<ele>149.700000</ele>
				<time>2019-06-08T09:53:54Z</time>
				<speed>8.626488</speed>
			</trkpt>
			<trkpt lat="24.1795817" lon="120.6676270">
				<ele>149.300000</ele>
				<time>2019-06-08T09:53:55Z</time>
				<speed>8.709306</speed>
			</trkpt>
			<trkpt lat="24.1795085" lon="120.6676595">
				<ele>150.000000</ele>
				<time>2019-06-08T09:53:56Z</time>
				<speed>8.695932</speed>
			</trkpt>
			<trkpt lat="24.1794271" lon="120.6677083">
				<ele>150.300000</ele>
				<time>2019-06-08T09:53:57Z</time>
				<speed>9.062185</speed>
			</trkpt>
			<trkpt lat="24.1793498" lon="120.6677572">
				<ele>151.000000</ele>
				<time>2019-06-08T09:53:58Z</time>
				<speed>9.315784</speed>
			</trkpt>
			<trkpt lat="24.1792643" lon="120.6678060">
				<ele>151.800000</ele>
				<time>2019-06-08T09:53:59Z</time>
				<speed>9.761768</speed>
			</trkpt>
			<trkpt lat="24.1791789" lon="120.6678874">
				<ele>151.400000</ele>
				<time>2019-06-08T09:54:00Z</time>
				<speed>10.480900</speed>
			</trkpt>
			<trkpt lat="24.1790975" lon="120.6679688">
				<ele>150.600000</ele>
				<time>2019-06-08T09:54:01Z</time>
				<speed>10.742730</speed>
			</trkpt>
			<trkpt lat="24.1790202" lon="120.6680339">
				<ele>150.400000</ele>
				<time>2019-06-08T09:54:02Z</time>
				<speed>10.882646</speed>
			</trkpt>
			<trkpt lat="24.1789388" lon="120.6681152">
				<ele>149.800000</ele>
				<time>2019-06-08T09:54:03Z</time>
				<speed>11.077604</speed>
			</trkpt>
			<trkpt lat="24.1788615" lon="120.6681803">
				<ele>150.200000</ele>
				<time>2019-06-08T09:54:04Z</time>
				<speed>10.980383</speed>
			</trkpt>
			<trkpt lat="24.1787720" lon="120.6682617">
				<ele>149.900000</ele>
				<time>2019-06-08T09:54:05Z</time>
				<speed>11.166595</speed>
			</trkpt>
			<trkpt lat="24.1786906" lon="120.6683268">
				<ele>149.600000</ele>
				<time>2019-06-08T09:54:06Z</time>
				<speed>11.340977</speed>
			</trkpt>
			<trkpt lat="24.1786051" lon="120.6683919">
				<ele>149.200000</ele>
				<time>2019-06-08T09:54:07Z</time>
				<speed>11.457746</speed>
			</trkpt>
			<trkpt lat="24.1785156" lon="120.6684733">
				<ele>148.500000</ele>
				<time>2019-06-08T09:54:08Z</time>
				<speed>11.430483</speed>
			</trkpt>
			<trkpt lat="24.1784261" lon="120.6685384">
				<ele>147.700000</ele>
				<time>2019-06-08T09:54:09Z</time>
				<speed>11.133673</speed>
			</trkpt>
			<trkpt lat="24.1783407" lon="120.6686035">
				<ele>147.200000</ele>
				<time>2019-06-08T09:54:10Z</time>
				<speed>10.780795</speed>
			</trkpt>
			<trkpt lat="24.1782552" lon="120.6686523">
				<ele>146.600000</ele>
				<time>2019-06-08T09:54:11Z</time>
				<speed>10.274626</speed>
			</trkpt>
			<trkpt lat="24.1781657" lon="120.6687012">
				<ele>146.300000</ele>
				<time>2019-06-08T09:54:12Z</time>
				<speed>10.338926</speed>
			</trkpt>
			<trkpt lat="24.1780721" lon="120.6687500">
				<ele>147.800000</ele>
				<time>2019-06-08T09:54:13Z</time>
				<speed>10.496846</speed>
			</trkpt>
			<trkpt lat="24.1779826" lon="120.6687988">
				<ele>149.500000</ele>
				<time>2019-06-08T09:54:14Z</time>
				<speed>10.483987</speed>
			</trkpt>
			<trkpt lat="24.1778971" lon="120.6688314">
				<ele>151.300000</ele>
				<time>2019-06-08T09:54:15Z</time>
				<speed>10.229872</speed>
			</trkpt>
			<trkpt lat="24.1777873" lon="120.6688802">
				<ele>153.400000</ele>
				<time>2019-06-08T09:54:16Z</time>
				<speed>11.014847</speed>
			</trkpt>
			<trkpt lat="24.1776855" lon="120.6689290">
				<ele>154.900000</ele>
				<time>2019-06-08T09:54:17Z</time>
				<speed>11.421223</speed>
			</trkpt>
			<trkpt lat="24.1775838" lon="120.6689941">
				<ele>155.300000</ele>
				<time>2019-06-08T09:54:18Z</time>
				<speed>11.878010</speed>
			</trkpt>
			<trkpt lat="24.1774821" lon="120.6690592">
				<ele>156.600000</ele>
				<time>2019-06-08T09:54:19Z</time>
				<speed>12.165046</speed>
			</trkpt>
			<trkpt lat="24.1774333" lon="120.6691569">
				<ele>158.000000</ele>
				<time>2019-06-08T09:54:20Z</time>
				<speed>12.032845</speed>
			</trkpt>
			<trkpt lat="24.1773437" lon="120.6692383">
				<ele>159.200000</ele>
				<time>2019-06-08T09:54:21Z</time>
				<speed>12.290559</speed>
			</trkpt>
			<trkpt lat="24.1772664" lon="120.6693359">
				<ele>158.600000</ele>
				<time>2019-06-08T09:54:22Z</time>
				<speed>12.498377</speed>
			</trkpt>
			<trkpt lat="24.1771810" lon="120.6694010">
				<ele>159.500000</ele>
				<time>2019-06-08T09:54:23Z</time>
				<speed>12.509180</speed>
			</trkpt>
			<trkpt lat="24.1771118" lon="120.6694987">
				<ele>159.500000</ele>
				<time>2019-06-08T09:54:24Z</time>
				<speed>12.517924</speed>
			</trkpt>
			<trkpt lat="24.1770467" lon="120.6695964">
				<ele>159.700000</ele>
				<time>2019-06-08T09:54:25Z</time>
				<speed>12.370805</speed>
			</trkpt>
			<trkpt lat="24.1769816" lon="120.6696777">
				<ele>159.000000</ele>
				<time>2019-06-08T09:54:26Z</time>
				<speed>11.958257</speed>
			</trkpt>
			<trkpt lat="24.1769287" lon="120.6697591">
				<ele>158.800000</ele>
				<time>2019-06-08T09:54:27Z</time>
				<speed>11.567828</speed>
			</trkpt>
			<trkpt lat="24.1768595" lon="120.6698242">
				<ele>158.400000</ele>
				<time>2019-06-08T09:54:28Z</time>
				<speed>11.450030</speed>
			</trkpt>
			<trkpt lat="24.1767904" lon="120.6699056">
				<ele>157.800000</ele>
				<time>2019-06-08T09:54:29Z</time>
				<speed>11.261759</speed>
			</trkpt>
			<trkpt lat="24.1767212" lon="120.6699707">
				<ele>157.200000</ele>
				<time>2019-06-08T09:54:30Z</time>
				<speed>11.008160</speed>
			</trkpt>
			<trkpt lat="24.1766479" lon="120.6700358">
				<ele>156.500000</ele>
				<time>2019-06-08T09:54:31Z</time>
				<speed>11.201060</speed>
			</trkpt>
			<trkpt lat="24.1765666" lon="120.6701172">
				<ele>156.000000</ele>
				<time>2019-06-08T09:54:32Z</time>
				<speed>11.476779</speed>
			</trkpt>
			<trkpt lat="24.1764893" lon="120.6701823">
				<ele>155.300000</ele>
				<time>2019-06-08T09:54:33Z</time>
				<speed>11.232953</speed>
			</trkpt>
			<trkpt lat="24.1764160" lon="120.6702474">
				<ele>154.700000</ele>
				<time>2019-06-08T09:54:34Z</time>
				<speed>11.022563</speed>
			</trkpt>
			<trkpt lat="24.1763509" lon="120.6703125">
				<ele>153.900000</ele>
				<time>2019-06-08T09:54:35Z</time>
				<speed>10.356415</speed>
			</trkpt>
			<trkpt lat="24.1762939" lon="120.6703613">
				<ele>153.300000</ele>
				<time>2019-06-08T09:54:36Z</time>
				<speed>9.325043</speed>
			</trkpt>
			<trkpt lat="24.1762329" lon="120.6704102">
				<ele>152.600000</ele>
				<time>2019-06-08T09:54:37Z</time>
				<speed>8.752516</speed>
			</trkpt>
			<trkpt lat="24.1761759" lon="120.6704590">
				<ele>152.100000</ele>
				<time>2019-06-08T09:54:38Z</time>
				<speed>8.050360</speed>
			</trkpt>
			<trkpt lat="24.1761230" lon="120.6705078">
				<ele>151.800000</ele>
				<time>2019-06-08T09:54:39Z</time>
				<speed>7.855402</speed>
			</trkpt>
			<trkpt lat="24.1760661" lon="120.6705404">
				<ele>151.500000</ele>
				<time>2019-06-08T09:54:40Z</time>
				<speed>7.784930</speed>
			</trkpt>
			<trkpt lat="24.1760091" lon="120.6705892">
				<ele>150.900000</ele>
				<time>2019-06-08T09:54:41Z</time>
				<speed>7.516927</speed>
			</trkpt>
			<trkpt lat="24.1759562" lon="120.6706380">
				<ele>151.000000</ele>
				<time>2019-06-08T09:54:42Z</time>
				<speed>7.509726</speed>
			</trkpt>
			<trkpt lat="24.1758911" lon="120.6706706">
				<ele>150.800000</ele>
				<time>2019-06-08T09:54:43Z</time>
				<speed>7.794189</speed>
			</trkpt>
			<trkpt lat="24.1758464" lon="120.6707194">
				<ele>150.800000</ele>
				<time>2019-06-08T09:54:44Z</time>
				<speed>7.777214</speed>
			</trkpt>
			<trkpt lat="24.1757894" lon="120.6707682">
				<ele>150.600000</ele>
				<time>2019-06-08T09:54:45Z</time>
				<speed>7.670733</speed>
			</trkpt>
			<trkpt lat="24.1757284" lon="120.6708171">
				<ele>150.700000</ele>
				<time>2019-06-08T09:54:46Z</time>
				<speed>7.917645</speed>
			</trkpt>
			<trkpt lat="24.1756714" lon="120.6708496">
				<ele>150.200000</ele>
				<time>2019-06-08T09:54:47Z</time>
				<speed>7.612091</speed>
			</trkpt>
			<trkpt lat="24.1756185" lon="120.6708984">
				<ele>150.000000</ele>
				<time>2019-06-08T09:54:48Z</time>
				<speed>7.121354</speed>
			</trkpt>
			<trkpt lat="24.1755615" lon="120.6709310">
				<ele>150.600000</ele>
				<time>2019-06-08T09:54:49Z</time>
				<speed>6.883186</speed>
			</trkpt>
			<trkpt lat="24.1755086" lon="120.6709635">
				<ele>150.800000</ele>
				<time>2019-06-08T09:54:50Z</time>
				<speed>6.778249</speed>
			</trkpt>
			<trkpt lat="24.1754557" lon="120.6709961">
				<ele>151.000000</ele>
				<time>2019-06-08T09:54:51Z</time>
				<speed>6.734525</speed>
			</trkpt>
			<trkpt lat="24.1753906" lon="120.6710286">
				<ele>151.100000</ele>
				<time>2019-06-08T09:54:52Z</time>
				<speed>7.062198</speed>
			</trkpt>
			<trkpt lat="24.1753255" lon="120.6710612">
				<ele>151.300000</ele>
				<time>2019-06-08T09:54:53Z</time>
				<speed>7.297278</speed>
			</trkpt>
			<trkpt lat="24.1752482" lon="120.6710937">
				<ele>151.200000</ele>
				<time>2019-06-08T09:54:54Z</time>
				<speed>7.696967</speed>
			</trkpt>
			<trkpt lat="24.1751628" lon="120.6711100">
				<ele>151.800000</ele>
				<time>2019-06-08T09:54:55Z</time>
				<speed>8.371860</speed>
			</trkpt>
			<trkpt lat="24.1750814" lon="120.6711426">
				<ele>152.000000</ele>
				<time>2019-06-08T09:54:56Z</time>
				<speed>8.467024</speed>
			</trkpt>
			<trkpt lat="24.1750000" lon="120.6711751">
				<ele>152.600000</ele>
				<time>2019-06-08T09:54:57Z</time>
				<speed>8.708278</speed>
			</trkpt>
			<trkpt lat="24.1749105" lon="120.6711914">
				<ele>152.800000</ele>
				<time>2019-06-08T09:54:58Z</time>
				<speed>9.078132</speed>
			</trkpt>
			<trkpt lat="24.1748291" lon="120.6712240">
				<ele>153.800000</ele>
				<time>2019-06-08T09:54:59Z</time>
				<speed>9.046753</speed>
			</trkpt>
			<trkpt lat="24.1747314" lon="120.6712728">
				<ele>154.400000</ele>
				<time>2019-06-08T09:55:00Z</time>
				<speed>9.963928</speed>
			</trkpt>
			<trkpt lat="24.1746257" lon="120.6713053">
				<ele>154.900000</ele>
				<time>2019-06-08T09:55:01Z</time>
				<speed>10.388822</speed>
			</trkpt>
			<trkpt lat="24.1745321" lon="120.6713379">
				<ele>155.800000</ele>
				<time>2019-06-08T09:55:02Z</time>
				<speed>10.379563</speed>
			</trkpt>
			<trkpt lat="24.1744141" lon="120.6713704">
				<ele>155.800000</ele>
				<time>2019-06-08T09:55:03Z</time>
				<speed>11.147562</speed>
			</trkpt>
			<trkpt lat="24.1743164" lon="120.6714030">
				<ele>155.500000</ele>
				<time>2019-06-08T09:55:04Z</time>
				<speed>10.898079</speed>
			</trkpt>
			<trkpt lat="24.1742350" lon="120.6714193">
				<ele>156.200000</ele>
				<time>2019-06-08T09:55:05Z</time>
				<speed>10.578636</speed>
			</trkpt>
			<trkpt lat="24.1741374" lon="120.6714681">
				<ele>157.200000</ele>
				<time>2019-06-08T09:55:06Z</time>
				<speed>10.784910</speed>
			</trkpt>
			<trkpt lat="24.1740519" lon="120.6715007">
				<ele>157.500000</ele>
				<time>2019-06-08T09:55:07Z</time>
				<speed>10.526167</speed>
			</trkpt>
			<trkpt lat="24.1739705" lon="120.6715332">
				<ele>158.200000</ele>
				<time>2019-06-08T09:55:08Z</time>
				<speed>10.075553</speed>
			</trkpt>
			<trkpt lat="24.1738973" lon="120.6715658">
				<ele>158.600000</ele>
				<time>2019-06-08T09:55:09Z</time>
				<speed>9.486565</speed>
			</trkpt>
			<trkpt lat="24.1738200" lon="120.6715820">
				<ele>158.600000</ele>
				<time>2019-06-08T09:55:10Z</time>
				<speed>9.224735</speed>
			</trkpt>
			<trkpt lat="24.1737427" lon="120.6716146">
				<ele>160.100000</ele>
				<time>2019-06-08T09:55:11Z</time>
				<speed>8.945931</speed>
			</trkpt>
			<trkpt lat="24.1736694" lon="120.6716634">
				<ele>160.700000</ele>
				<time>2019-06-08T09:55:12Z</time>
				<speed>9.079160</speed>
			</trkpt>
			<trkpt lat="24.1735921" lon="120.6716960">
				<ele>161.400000</ele>
				<time>2019-06-08T09:55:13Z</time>
				<speed>9.367224</speed>
			</trkpt>
			<trkpt lat="24.1735189" lon="120.6717448">
				<ele>161.800000</ele>
				<time>2019-06-08T09:55:14Z</time>
				<speed>9.311154</speed>
			</trkpt>
			<trkpt lat="24.1734416" lon="120.6717773">
				<ele>162.300000</ele>
				<time>2019-06-08T09:55:15Z</time>
				<speed>9.321957</speed>
			</trkpt>
			<trkpt lat="24.1733602" lon="120.6718262">
				<ele>162.700000</ele>
				<time>2019-06-08T09:55:16Z</time>
				<speed>9.552922</speed>
			</trkpt>
			<trkpt lat="24.1732585" lon="120.6718424">
				<ele>162.900000</ele>
				<time>2019-06-08T09:55:17Z</time>
				<speed>9.848702</speed>
			</trkpt>
			<trkpt lat="24.1731445" lon="120.6718913">
				<ele>163.000000</ele>
				<time>2019-06-08T09:55:18Z</time>
				<speed>10.763820</speed>
			</trkpt>
			<trkpt lat="24.1730225" lon="120.6719238">
				<ele>163.300000</ele>
				<time>2019-06-08T09:55:19Z</time>
				<speed>11.429454</speed>
			</trkpt>
			<trkpt lat="24.1728882" lon="120.6719401">
				<ele>163.500000</ele>
				<time>2019-06-08T09:55:20Z</time>
				<speed>12.003009</speed>
			</trkpt>
			<trkpt lat="24.1727458" lon="120.6719401">
				<ele>163.300000</ele>
				<time>2019-06-08T09:55:21Z</time>
				<speed>12.337884</speed>
			</trkpt>
			<trkpt lat="24.1726156" lon="120.6719564">
				<ele>163.000000</ele>
				<time>2019-06-08T09:55:22Z</time>
				<speed>12.485002</speed>
			</trkpt>
			<trkpt lat="24.1724854" lon="120.6719727">
				<ele>162.800000</ele>
				<time>2019-06-08T09:55:23Z</time>
				<speed>12.844054</speed>
			</trkpt>
			<trkpt lat="24.1723714" lon="120.6720052">
				<ele>162.800000</ele>
				<time>2019-06-08T09:55:24Z</time>
				<speed>12.686647</speed>
			</trkpt>
			<trkpt lat="24.1722697" lon="120.6720540">
				<ele>162.900000</ele>
				<time>2019-06-08T09:55:25Z</time>
				<speed>12.545187</speed>
			</trkpt>
			<trkpt lat="24.1721842" lon="120.6721191">
				<ele>164.300000</ele>
				<time>2019-06-08T09:55:26Z</time>
				<speed>12.397554</speed>
			</trkpt>
			<trkpt lat="24.1720581" lon="120.6721680">
				<ele>164.400000</ele>
				<time>2019-06-08T09:55:27Z</time>
				<speed>12.897551</speed>
			</trkpt>
			<trkpt lat="24.1719320" lon="120.6721842">
				<ele>164.400000</ele>
				<time>2019-06-08T09:55:28Z</time>
				<speed>13.008147</speed>
			</trkpt>
			<trkpt lat="24.1717977" lon="120.6722168">
				<ele>164.200000</ele>
				<time>2019-06-08T09:55:29Z</time>
				<speed>13.327076</speed>
			</trkpt>
			<trkpt lat="24.1716512" lon="120.6722331">
				<ele>164.100000</ele>
				<time>2019-06-08T09:55:30Z</time>
				<speed>13.734995</speed>
			</trkpt>
			<trkpt lat="24.1715210" lon="120.6722493">
				<ele>164.300000</ele>
				<time>2019-06-08T09:55:31Z</time>
				<speed>13.785405</speed>
			</trkpt>
			<trkpt lat="24.1713908" lon="120.6722819">
				<ele>164.300000</ele>
				<time>2019-06-08T09:55:32Z</time>
				<speed>13.809583</speed>
			</trkpt>
			<trkpt lat="24.1712484" lon="120.6723145">
				<ele>164.000000</ele>
				<time>2019-06-08T09:55:33Z</time>
				<speed>13.946413</speed>
			</trkpt>
			<trkpt lat="24.1711141" lon="120.6723470">
				<ele>164.100000</ele>
				<time>2019-06-08T09:55:34Z</time>
				<speed>14.050321</speed>
			</trkpt>
			<trkpt lat="24.1710002" lon="120.6723633">
				<ele>164.200000</ele>
				<time>2019-06-08T09:55:35Z</time>
				<speed>13.182014</speed>
			</trkpt>
			<trkpt lat="24.1708944" lon="120.6723958">
				<ele>164.500000</ele>
				<time>2019-06-08T09:55:36Z</time>
				<speed>12.214428</speed>
			</trkpt>
			<trkpt lat="24.1707845" lon="120.6724284">
				<ele>165.400000</ele>
				<time>2019-06-08T09:55:37Z</time>
				<speed>11.888813</speed>
			</trkpt>
			<trkpt lat="24.1706706" lon="120.6724609">
				<ele>166.200000</ele>
				<time>2019-06-08T09:55:38Z</time>
				<speed>11.418651</speed>
			</trkpt>
			<trkpt lat="24.1705607" lon="120.6724935">
				<ele>167.000000</ele>
				<time>2019-06-08T09:55:39Z</time>
				<speed>11.434084</speed>
			</trkpt>
			<trkpt lat="24.1704590" lon="120.6725260">
				<ele>168.300000</ele>
				<time>2019-06-08T09:55:40Z</time>
				<speed>11.176368</speed>
			</trkpt>
			<trkpt lat="24.1703491" lon="120.6725423">
				<ele>169.000000</ele>
				<time>2019-06-08T09:55:41Z</time>
				<speed>11.153735</speed>
			</trkpt>
			<trkpt lat="24.1702393" lon="120.6725749">
				<ele>169.000000</ele>
				<time>2019-06-08T09:55:42Z</time>
				<speed>11.091493</speed>
			</trkpt>
			<trkpt lat="24.1701335" lon="120.6725911">
				<ele>169.300000</ele>
				<time>2019-06-08T09:55:43Z</time>
				<speed>11.039539</speed>
			</trkpt>
			<trkpt lat="24.1700317" lon="120.6726074">
				<ele>169.500000</ele>
				<time>2019-06-08T09:55:44Z</time>
				<speed>10.858469</speed>
			</trkpt>
			<trkpt lat="24.1699219" lon="120.6726237">
				<ele>169.700000</ele>
				<time>2019-06-08T09:55:45Z</time>
				<speed>11.154764</speed>
			</trkpt>
			<trkpt lat="24.1698201" lon="120.6726563">
				<ele>169.800000</ele>
				<time>2019-06-08T09:55:46Z</time>
				<speed>11.099209</speed>
			</trkpt>
			<trkpt lat="24.1697103" lon="120.6726725">
				<ele>169.600000</ele>
				<time>2019-06-08T09:55:47Z</time>
				<speed>11.327088</speed>
			</trkpt>
			<trkpt lat="24.1696045" lon="120.6726888">
				<ele>169.700000</ele>
				<time>2019-06-08T09:55:48Z</time>
				<speed>11.213405</speed>
			</trkpt>
			<trkpt lat="24.1695190" lon="120.6727214">
				<ele>169.800000</ele>
				<time>2019-06-08T09:55:49Z</time>
				<speed>10.311148</speed>
			</trkpt>
			<trkpt lat="24.1694539" lon="120.6727376">
				<ele>169.300000</ele>
				<time>2019-06-08T09:55:50Z</time>
				<speed>8.671241</speed>
			</trkpt>
			<trkpt lat="24.1693766" lon="120.6727539">
				<ele>169.200000</ele>
				<time>2019-06-08T09:55:51Z</time>
				<speed>8.312704</speed>
			</trkpt>
			<trkpt lat="24.1693441" lon="120.6727702">
				<ele>169.000000</ele>
				<time>2019-06-08T09:55:52Z</time>
				<speed>5.142457</speed>
			</trkpt>
			<trkpt lat="24.1693441" lon="120.6727702">
				<ele>167.900000</ele>
				<time>2019-06-08T09:55:53Z</time>
				<speed>2.247414</speed>
			</trkpt>
			<trkpt lat="24.1693359" lon="120.6727865">
				<ele>167.500000</ele>
				<time>2019-06-08T09:55:54Z</time>
				<speed>1.192894</speed>
			</trkpt>
			<trkpt lat="24.1693197" lon="120.6727702">
				<ele>167.400000</ele>
				<time>2019-06-08T09:55:55Z</time>
				<speed>0.975817</speed>
			</trkpt>
			<trkpt lat="24.1693075" lon="120.6727865">
				<ele>167.100000</ele>
				<time>2019-06-08T09:55:56Z</time>
				<speed>0.901743</speed>
			</trkpt>
			<trkpt lat="24.1692912" lon="120.6727702">
				<ele>166.900000</ele>
				<time>2019-06-08T09:55:57Z</time>
				<speed>0.716045</speed>
			</trkpt>
			<trkpt lat="24.1692790" lon="120.6727702">
				<ele>166.500000</ele>
				<time>2019-06-08T09:55:58Z</time>
				<speed>0.360594</speed>
			</trkpt>
			<trkpt lat="24.1692586" lon="120.6727702">
				<ele>165.700000</ele>
				<time>2019-06-08T09:55:59Z</time>
				<speed>0.257200</speed>
			</trkpt>
			<trkpt lat="24.1692342" lon="120.6727539">
				<ele>164.800000</ele>
				<time>2019-06-08T09:56:00Z</time>
				<speed>0.133744</speed>
			</trkpt>
			<trkpt lat="24.1692139" lon="120.6727376">
				<ele>164.000000</ele>
				<time>2019-06-08T09:56:01Z</time>
				<speed>0.067386</speed>
			</trkpt>
			<trkpt lat="24.1691895" lon="120.6727376">
				<ele>163.100000</ele>
				<time>2019-06-08T09:56:02Z</time>
				<speed>0.114711</speed>
			</trkpt>
			<trkpt lat="24.1691732" lon="120.6727214">
				<ele>162.400000</ele>
				<time>2019-06-08T09:56:03Z</time>
				<speed>0.110596</speed>
			</trkpt>
			<trkpt lat="24.1691528" lon="120.6727214">
				<ele>161.800000</ele>
				<time>2019-06-08T09:56:04Z</time>
				<speed>0.181069</speed>
			</trkpt>
			<trkpt lat="24.1691447" lon="120.6727051">
				<ele>161.500000</ele>
				<time>2019-06-08T09:56:05Z</time>
				<speed>0.150719</speed>
			</trkpt>
			<trkpt lat="24.1691203" lon="120.6727051">
				<ele>162.300000</ele>
				<time>2019-06-08T09:56:06Z</time>
				<speed>0.127571</speed>
			</trkpt>
			<trkpt lat="24.1690999" lon="120.6727214">
				<ele>163.200000</ele>
				<time>2019-06-08T09:56:07Z</time>
				<speed>0.317899</speed>
			</trkpt>
			<trkpt lat="24.1690837" lon="120.6727214">
				<ele>164.400000</ele>
				<time>2019-06-08T09:56:08Z</time>
				<speed>0.420265</speed>
			</trkpt>
			<trkpt lat="24.1690592" lon="120.6727376">
				<ele>165.300000</ele>
				<time>2019-06-08T09:56:09Z</time>
				<speed>0.736621</speed>
			</trkpt>
			<trkpt lat="24.1690389" lon="120.6727376">
				<ele>166.000000</ele>
				<time>2019-06-08T09:56:10Z</time>
				<speed>0.623453</speed>
			</trkpt>
			<trkpt lat="24.1690226" lon="120.6727376">
				<ele>166.400000</ele>
				<time>2019-06-08T09:56:11Z</time>
				<speed>0.377055</speed>
			</trkpt>
			<trkpt lat="24.1690023" lon="120.6727376">
				<ele>167.400000</ele>
				<time>2019-06-08T09:56:12Z</time>
				<speed>0.444442</speed>
			</trkpt>
			<trkpt lat="24.1689779" lon="120.6727376">
				<ele>168.000000</ele>
				<time>2019-06-08T09:56:13Z</time>
				<speed>0.557610</speed>
			</trkpt>
			<trkpt lat="24.1689616" lon="120.6727539">
				<ele>168.500000</ele>
				<time>2019-06-08T09:56:14Z</time>
				<speed>0.650202</speed>
			</trkpt>
			<trkpt lat="24.1689453" lon="120.6727539">
				<ele>169.300000</ele>
				<time>2019-06-08T09:56:15Z</time>
				<speed>0.509256</speed>
			</trkpt>
			<trkpt lat="24.1689331" lon="120.6727539">
				<ele>169.400000</ele>
				<time>2019-06-08T09:56:16Z</time>
				<speed>0.337446</speed>
			</trkpt>
			<trkpt lat="24.1689209" lon="120.6727539">
				<ele>169.400000</ele>
				<time>2019-06-08T09:56:17Z</time>
				<speed>0.164094</speed>
			</trkpt>
			<trkpt lat="24.1689128" lon="120.6727539">
				<ele>169.100000</ele>
				<time>2019-06-08T09:56:18Z</time>
				<speed>0.136830</speed>
			</trkpt>
			<trkpt lat="24.1689046" lon="120.6727539">
				<ele>169.100000</ele>
				<time>2019-06-08T09:56:19Z</time>
				<speed>0.030864</speed>
			</trkpt>
			<trkpt lat="24.1688924" lon="120.6727539">
				<ele>168.900000</ele>
				<time>2019-06-08T09:56:20Z</time>
				<speed>0.056584</speed>
			</trkpt>
			<trkpt lat="24.1688761" lon="120.6727539">
				<ele>169.200000</ele>
				<time>2019-06-08T09:56:21Z</time>
				<speed>0.218106</speed>
			</trkpt>
			<trkpt lat="24.1688639" lon="120.6727376">
				<ele>169.300000</ele>
				<time>2019-06-08T09:56:22Z</time>
				<speed>0.125514</speed>
			</trkpt>
			<trkpt lat="24.1688558" lon="120.6727376">
				<ele>169.200000</ele>
				<time>2019-06-08T09:56:23Z</time>
				<speed>0.073045</speed>
			</trkpt>
			<trkpt lat="24.1688395" lon="120.6727539">
				<ele>169.100000</ele>
				<time>2019-06-08T09:56:24Z</time>
				<speed>0.119341</speed>
			</trkpt>
			<trkpt lat="24.1688273" lon="120.6727539">
				<ele>168.700000</ele>
				<time>2019-06-08T09:56:25Z</time>
				<speed>0.127057</speed>
			</trkpt>
			<trkpt lat="24.1688151" lon="120.6727376">
				<ele>168.700000</ele>
				<time>2019-06-08T09:56:26Z</time>
				<speed>0.112654</speed>
			</trkpt>
			<trkpt lat="24.1688110" lon="120.6727376">
				<ele>168.600000</ele>
				<time>2019-06-08T09:56:27Z</time>
				<speed>0.148147</speed>
			</trkpt>
			<trkpt lat="24.1687988" lon="120.6727539">
				<ele>168.300000</ele>
				<time>2019-06-08T09:56:28Z</time>
				<speed>0.058127</speed>
			</trkpt>
			<trkpt lat="24.1687826" lon="120.6727539">
				<ele>167.900000</ele>
				<time>2019-06-08T09:56:29Z</time>
				<speed>0.299381</speed>
			</trkpt>
			<trkpt lat="24.1687785" lon="120.6727539">
				<ele>167.700000</ele>
				<time>2019-06-08T09:56:30Z</time>
				<speed>0.061728</speed>
			</trkpt>
			<trkpt lat="24.1687703" lon="120.6727539">
				<ele>167.600000</ele>
				<time>2019-06-08T09:56:31Z</time>
				<speed>0.231480</speed>
			</trkpt>
			<trkpt lat="24.1687663" lon="120.6727539">
				<ele>167.300000</ele>
				<time>2019-06-08T09:56:32Z</time>
				<speed>0.045267</speed>
			</trkpt>
			<trkpt lat="24.1687622" lon="120.6727376">
				<ele>167.100000</ele>
				<time>2019-06-08T09:56:33Z</time>
				<speed>0.057613</speed>
			</trkpt>
			<trkpt lat="24.1687581" lon="120.6727376">
				<ele>167.200000</ele>
				<time>2019-06-08T09:56:34Z</time>
				<speed>0.038580</speed>
			</trkpt>
			<trkpt lat="24.1687581" lon="120.6727376">
				<ele>167.400000</ele>
				<time>2019-06-08T09:56:35Z</time>
				<speed>0.077674</speed>
			</trkpt>
			<trkpt lat="24.1687581" lon="120.6727376">
				<ele>167.600000</ele>
				<time>2019-06-08T09:56:36Z</time>
				<speed>0.127057</speed>
			</trkpt>
			<trkpt lat="24.1687541" lon="120.6727376">
				<ele>167.900000</ele>
				<time>2019-06-08T09:56:37Z</time>
				<speed>0.058127</speed>
			</trkpt>
			<trkpt lat="24.1687541" lon="120.6727376">
				<ele>168.000000</ele>
				<time>2019-06-08T09:56:38Z</time>
				<speed>0.063786</speed>
			</trkpt>
			<trkpt lat="24.1687541" lon="120.6727376">
				<ele>168.000000</ele>
				<time>2019-06-08T09:56:38Z</time>
				<speed>0.063786</speed>
			</trkpt>
		</trkseg>
	</trk>
</gpx>